14:08:06 hopplant> @&&PP_SCRIPT_PATH.maint_scripts\2016.1.0.0_maint_045412_jobserver_02add_company_security_module_dml.sql
14:08:06 hopplant> /*
14:08:06 hopplant> ||============================================================================
14:08:06 hopplant> || Application: PowerPlan
14:08:06 hopplant> || File Name: maint_045412_jobserver_02add_company_security_module_dml.sql
14:08:06 hopplant> ||============================================================================
14:08:06 hopplant> || Copyright (C) 2016 by PowerPlan, Inc. All Rights Reserved.
14:08:06 hopplant> ||============================================================================
14:08:06 hopplant> || Version	 Date	    Revised By		Reason for Change
14:08:06 hopplant> || --------	 ---------- ------------------	---------------------------------
14:08:06 hopplant> || 2016.1.0.0 05/27/2016 Jared Watkins	    Fill in the security modules on the rows with a company argument
14:08:06 hopplant> ||============================================================================
14:08:06 hopplant> */
14:08:06 hopplant> SET DEFINE OFF;
14:08:06 hopplant> 
14:08:06 hopplant> update pp_job_executable set company_security_module = 'cr' where job_type = 'PowerBuilder' and job_name = 'CR Batch Derivation Budget';

1 row updated.

14:08:06 hopplant> update pp_job_executable set company_security_module = 'cr' where job_type = 'PowerBuilder' and job_name = 'CR Delete Budget Allocations';

1 row updated.

14:08:06 hopplant> update pp_job_executable set company_security_module = 'cr' where job_type = 'PowerBuilder' and job_name = 'CR Manual Journal Reversals';

1 row updated.

14:08:06 hopplant> update pp_job_executable set company_security_module = 'pp' where job_type = 'PowerBuilder' and job_name = 'PP to CR';

1 row updated.

14:08:06 hopplant> update pp_job_executable set company_security_module = 'pp' where job_type = 'SSP' and job_name = 'Create Funding Project';

1 row updated.

14:08:06 hopplant> update pp_job_executable set company_security_module = 'pp' where job_type = 'SSP' and job_name = 'Load Unit Est';

1 row updated.

14:08:06 hopplant> update pp_job_executable set company_security_module = 'pp' where job_type = 'SSP' and job_name = 'Create Job Task';

1 row updated.

14:08:06 hopplant> update pp_job_executable set company_security_module = 'pp' where job_type = 'SSP' and job_name = 'Create Work Order';

1 row updated.

14:08:06 hopplant> update pp_job_executable set company_security_module = 'pp' where job_type = 'SSP' and job_name = 'Load Monthly Estimates';

1 row updated.

14:08:06 hopplant> update pp_job_executable set company_security_module = 'pp' where job_type = 'SSP' and job_name = 'Accrual Calculation';

1 row updated.

14:08:06 hopplant> update pp_job_executable set company_security_module = 'pp' where job_type = 'SSP' and job_name = 'WO Retirements';

1 row updated.

14:08:06 hopplant> update pp_job_executable set company_security_module = 'pp' where job_type = 'SSP' and job_name = 'Failed Unitization';

1 row updated.

14:08:06 hopplant> update pp_job_executable set company_security_module = 'pp' where job_type = 'SSP' and job_name = 'AFUDC Calculation Only - No Overheads';

1 row updated.

14:08:06 hopplant> update pp_job_executable set company_security_module = 'pp' where job_type = 'SSP' and job_name = 'Overhead Calculation Before AFUDC';

1 row updated.

14:08:06 hopplant> update pp_job_executable set company_security_module = 'pp' where job_type = 'SSP' and job_name = 'Overhead Calculation After AFUDC';

1 row updated.

14:08:06 hopplant> update pp_job_executable set company_security_module = 'pp' where job_type = 'SSP' and job_name = 'AFUDC Approval Only - No Overheads';

1 row updated.

14:08:06 hopplant> update pp_job_executable set company_security_module = 'pp' where job_type = 'SSP' and job_name = 'Overhead Approval Before AFUDC';

1 row updated.

14:08:06 hopplant> update pp_job_executable set company_security_module = 'pp' where job_type = 'SSP' and job_name = 'Overhead Approval After AFUDC';

1 row updated.

14:08:06 hopplant> update pp_job_executable set company_security_module = 'pp' where job_type = 'SSP' and job_name = 'AFUDC & Overheads Approval';

1 row updated.

14:08:06 hopplant> update pp_job_executable set company_security_module = 'pp' where job_type = 'SSP' and job_name = 'AFUDC & Overheads Calculation';

1 row updated.

14:08:06 hopplant> update pp_job_executable set company_security_module = 'pp' where job_type = 'SSP' and job_name = 'ARO Approval';

1 row updated.

14:08:06 hopplant> update pp_job_executable set company_security_module = 'pp' where job_type = 'SSP' and job_name = 'ARO Calculation';

1 row updated.

14:08:07 hopplant> update pp_job_executable set company_security_module = 'pp' where job_type = 'SSP' and job_name = 'Accrual Approval';

1 row updated.

14:08:07 hopplant> update pp_job_executable set company_security_module = 'pp' where job_type = 'SSP' and job_name = 'Auto Non-Unitization';

1 row updated.

14:08:07 hopplant> update pp_job_executable set company_security_module = 'pp' where job_type = 'SSP' and job_name = 'Auto Unitization';

1 row updated.

14:08:07 hopplant> update pp_job_executable set company_security_module = 'pp' where job_type = 'SSP' and job_name = 'CPR Balance PowerPlan';

1 row updated.

14:08:07 hopplant> update pp_job_executable set company_security_module = 'pp' where job_type = 'SSP' and job_name = 'Close CPR';

1 row updated.

14:08:07 hopplant> update pp_job_executable set company_security_module = 'pp' where job_type = 'SSP' and job_name = 'WO Close Charge Collection';

1 row updated.

14:08:07 hopplant> update pp_job_executable set company_security_module = 'pp' where job_type = 'SSP' and job_name = 'CPR Close PowerPlan';

1 row updated.

14:08:07 hopplant> update pp_job_executable set company_security_module = 'pp' where job_type = 'SSP' and job_name = 'WO Close Month';

1 row updated.

14:08:07 hopplant> update pp_job_executable set company_security_module = 'pp' where job_type = 'SSP' and job_name = 'Depreciation Approval';

1 row updated.

14:08:07 hopplant> update pp_job_executable set company_security_module = 'pp' where job_type = 'SSP' and job_name = 'Depreciation Calculation';

1 row updated.

14:08:07 hopplant> update pp_job_executable set company_security_module = 'pp' where job_type = 'SSP' and job_name = 'Depreciation Calculation: Lease';

1 row updated.

14:08:07 hopplant> update pp_job_executable set company_security_module = 'pp' where job_type = 'SSP' and job_name = 'CPR GLReconciliation';

1 row updated.

14:08:07 hopplant> update pp_job_executable set company_security_module = 'pp' where job_type = 'SSP' and job_name = 'WO GL Reconciliation';

1 row updated.

14:08:07 hopplant> update pp_job_executable set company_security_module = 'pp' where job_type = 'SSP' and job_name = 'WO New Month';

1 row updated.

14:08:07 hopplant> update pp_job_executable set company_security_module = 'pp' where job_type = 'SSP' and job_name = 'CPR New Month';

1 row updated.

14:08:07 hopplant> update pp_job_executable set company_security_module = 'pp' where job_type = 'SSP' and job_name = 'Re-Open CPR';

1 row updated.

14:08:07 hopplant> update pp_job_executable set company_security_module = 'pp' where job_type = 'SSP' and job_name = 'CPR Release Journal Entries';

1 row updated.

14:08:07 hopplant> update pp_job_executable set company_security_module = 'pp' where job_type = 'SSP' and job_name = 'WO Release Journal Entries';

1 row updated.

14:08:07 hopplant> update pp_job_executable set company_security_module = 'pp' where job_type = 'SSP' and job_name = 'Preview Journal Entries';

1 row updated.

14:08:07 hopplant> update pp_job_executable set company_security_module = 'pp' where job_type = 'SSP' and job_name = 'Approve Lease Depr';

1 row updated.

14:08:07 hopplant> update pp_job_executable set company_security_module = 'pp' where job_type = 'SSP' and job_name = 'Lease Approve Accruals';

1 row updated.

14:08:07 hopplant> update pp_job_executable set company_security_module = 'pp' where job_type = 'SSP' and job_name = 'Lease Approve Payments';

1 row updated.

14:08:07 hopplant> update pp_job_executable set company_security_module = 'pp' where job_type = 'SSP' and job_name = 'Lease Auto Retirements';

1 row updated.

14:08:07 hopplant> update pp_job_executable set company_security_module = 'pp' where job_type = 'SSP' and job_name = 'Lease Calc Accruals';

1 row updated.

14:08:07 hopplant> update pp_job_executable set company_security_module = 'pp' where job_type = 'SSP' and job_name = 'Lease Calc Payments';

1 row updated.

14:08:07 hopplant> update pp_job_executable set company_security_module = 'pp' where job_type = 'SSP' and job_name = 'Lease Open Next';

1 row updated.

14:08:07 hopplant> update pp_job_executable set company_security_module = 'pp' where job_type = 'SSP' and job_name = 'Lock Lease';

1 row updated.

14:08:07 hopplant> 
14:08:07 hopplant> SET DEFINE ON;
14:08:07 hopplant> 
14:08:07 hopplant> --****************************************************
14:08:07 hopplant> --Log the run of the script to local PP_SCHEMA_LOG
14:08:07 hopplant> --****************************************************
14:08:07 hopplant> INSERT INTO PP_SCHEMA_CHANGE_LOG
14:08:07   2  	      (ID, SKIPPED, MAJOR_VERSION, MINOR_VERSION, POINT_VERSION, PATCH_VERSION, MAINT_NUM, SCRIPT_PATH,
14:08:07   3  	      SCRIPT_NAME, SCRIPT_REVISION, DATE_APPLIED, OS_USER, TERMINAL, SERVICE_NAME)
14:08:07   4  VALUES
14:08:07   5  	      (3202, 0, 2016, 1, 0, 0, 045412, 'C:\PlasticWks\powerplant\sql\maint_scripts', '2016.1.0.0_maint_045412_jobserver_02add_company_security_module_dml.sql', 1,
14:08:07   6  	      SYSTIMESTAMP, SYS_CONTEXT('USERENV', 'OS_USER'), SYS_CONTEXT('USERENV', 'TERMINAL'),
14:08:07   7  	      SYS_CONTEXT('USERENV', 'SERVICE_NAME'));

1 row created.

14:08:07 hopplant> COMMIT;

Commit complete.

14:08:07 hopplant> SPOOL OFF
