14:12:37 hopplant> @&&PP_SCRIPT_PATH.maint_scripts\2016.1.0.0_maint_046770_pwrtax_plant_recon_form_status_col_resize_ddl.sql
14:12:37 hopplant> /*
14:12:37 hopplant> ||============================================================================
14:12:37 hopplant> || Application: PowerPlan
14:12:37 hopplant> || File Name:   maint_046770_pwrtax_plant_recon_form_status_col_resize_ddl.sql
14:12:37 hopplant> || Copyright (C) 2016 by PowerPlan, Inc. All Rights Reserved.
14:12:37 hopplant> ||============================================================================
14:12:37 hopplant> || Version	 Date	    Revised By	   Reason for Change
14:12:37 hopplant> || --------	 ---------- -------------- --------------------------------------
14:12:37 hopplant> || 2016.1.0.0 11/14/2016 Anand R	   Increase size of message from 254 to 2000
14:12:37 hopplant> ||
14:12:37 hopplant> ||============================================================================
14:12:37 hopplant> */
14:12:37 hopplant> 
14:12:37 hopplant> ALTER TABLE TAX_PLANT_RECON_FORM_STATUS
14:12:37   2  MODIFY (MESSAGE VARCHAR2(2000) );

Table altered.

14:12:37 hopplant> 
14:12:37 hopplant> 
14:12:37 hopplant> --****************************************************
14:12:37 hopplant> --Log the run of the script to local PP_SCHEMA_LOG
14:12:37 hopplant> --****************************************************
14:12:37 hopplant> INSERT INTO PP_SCHEMA_CHANGE_LOG
14:12:37   2  	      (ID, SKIPPED, MAJOR_VERSION, MINOR_VERSION, POINT_VERSION, PATCH_VERSION, MAINT_NUM, SCRIPT_PATH,
14:12:37   3  	      SCRIPT_NAME, SCRIPT_REVISION, DATE_APPLIED, OS_USER, TERMINAL, SERVICE_NAME)
14:12:37   4  VALUES
14:12:37   5  	      (3337, 0, 2016, 1, 0, 0, 046770, 'C:\PlasticWks\powerplant\sql\maint_scripts', '2016.1.0.0_maint_046770_pwrtax_plant_recon_form_status_col_resize_ddl.sql', 1,
14:12:37   6  	      SYSTIMESTAMP, SYS_CONTEXT('USERENV', 'OS_USER'), SYS_CONTEXT('USERENV', 'TERMINAL'),
14:12:37   7  	      SYS_CONTEXT('USERENV', 'SERVICE_NAME'));

1 row created.

14:12:37 hopplant> COMMIT;

Commit complete.

14:12:37 hopplant> SPOOL OFF
