Version 2018.2.1.0	Patch: None	DATE_SORT_TABLE_T	74	"CREATE OR REPLACE TYPE ""PWRPLANT"".""DATE_SORT_TABLE_T"" is table of date;
/
"
Version 2018.2.1.0	Patch: None	LSR_BUCKET_AMOUNT	184	"CREATE OR REPLACE TYPE ""PWRPLANT"".""LSR_BUCKET_AMOUNT"" AUTHID current_user as object (bucket_name varchar2(254),
                                                    amount number);
 
/
"
Version 2018.2.1.0	Patch: None	LSR_BUCKET_AMOUNT_TAB	91	"CREATE OR REPLACE TYPE ""PWRPLANT"".""LSR_BUCKET_AMOUNT_TAB"" AS TABLE OF lsr_bucket_amount;
/
"
Version 2018.2.1.0	Patch: None	LSR_BUCKET_RESULT	3346	"CREATE OR REPLACE TYPE ""PWRPLANT"".""LSR_BUCKET_RESULT"" AUTHID current_user as object (month date,
                                                    executory_accrued_1 number,
                                                    executory_accrued_2 number,
                                                    executory_accrued_3 number,
                                                    executory_accrued_4 number,
                                                    executory_accrued_5 number,
                                                    executory_accrued_6 number,
                                                    executory_accrued_7 number,
                                                    executory_accrued_8 number,
                                                    executory_accrued_9 number,
                                                    executory_accrued_10 number,
                                                    executory_received_1 number,
                                                    executory_received_2 number,
                                                    executory_received_3 number,
                                                    executory_received_4 number,
                                                    executory_received_5 number,
                                                    executory_received_6 number,
                                                    executory_received_7 number,
                                                    executory_received_8 number,
                                                    executory_received_9 number,
                                                    executory_received_10 number,
                                                    contingent_accrued_1 number,
                                                    contingent_accrued_2 number,
                                                    contingent_accrued_3 number,
                                                    contingent_accrued_4 number,
                                                    contingent_accrued_5 number,
                                                    contingent_accrued_6 number,
                                                    contingent_accrued_7 number,
                                                    contingent_accrued_8 number,
                                                    contingent_accrued_9 number,
                                                    contingent_accrued_10 number,
                                                    contingent_received_1 number,
                                                    contingent_received_2 number,
                                                    contingent_received_3 number,
                                                    contingent_received_4 number,
                                                    contingent_received_5 number,
                                                    contingent_received_6 number,
                                                    contingent_received_7 number,
                                                    contingent_received_8 number,
                                                    contingent_received_9 number,
                                                    contingent_received_10 number);
 
/
"
Version 2018.2.1.0	Patch: None	LSR_BUCKET_RESULT_TAB	91	"CREATE OR REPLACE TYPE ""PWRPLANT"".""LSR_BUCKET_RESULT_TAB"" AS TABLE OF lsr_bucket_result;
/
"
Version 2018.2.1.0	Patch: None	LSR_ILR_DF_SCHEDULE_RESULT	8485	"CREATE OR REPLACE TYPE ""PWRPLANT"".""LSR_ILR_DF_SCHEDULE_RESULT"" FORCE AUTHID current_user AS OBJECT(MONTH DATE,
                                                            principal_received NUMBER,
                                                            interest_income_received   NUMBER,
                                                            interest_income_accrued    NUMBER,
                                                            principal_accrued            NUMBER,
                                                            begin_receivable       NUMBER,
                                                            end_receivable           NUMBER,
                                                            begin_lt_receivable          NUMBER,
                                                            end_lt_receivable            NUMBER,
                                                            initial_direct_cost          NUMBER,
                                                            executory_accrual1           NUMBER,
                                                            executory_accrual2           NUMBER,
                                                            executory_accrual3           NUMBER,
                                                            executory_accrual4           NUMBER,
                                                            executory_accrual5           NUMBER,
                                                            executory_accrual6           NUMBER,
                                                            executory_accrual7           NUMBER,
                                                            executory_accrual8           NUMBER,
                                                            executory_accrual9           NUMBER,
                                                            executory_accrual10          NUMBER,
                                                            executory_paid1              NUMBER,
                                                            executory_paid2              NUMBER,
                                                            executory_paid3              NUMBER,
                                                            executory_paid4              NUMBER,
                                                            executory_paid5              NUMBER,
                                                            executory_paid6              NUMBER,
                                                            executory_paid7              NUMBER,
                                                            executory_paid8              NUMBER,
                                                            executory_paid9              NUMBER,
                                                            executory_paid10             NUMBER,
                                                            contingent_accrual1          NUMBER,
                                                            contingent_accrual2          NUMBER,
                                                            contingent_accrual3          NUMBER,
                                                            contingent_accrual4          NUMBER,
                                                            contingent_accrual5          NUMBER,
                                                            contingent_accrual6          NUMBER,
                                                            contingent_accrual7          NUMBER,
                                                            contingent_accrual8          NUMBER,
                                                            contingent_accrual9          NUMBER,
                                                            contingent_accrual10         NUMBER,
                                                            contingent_paid1             NUMBER,
                                                            contingent_paid2             NUMBER,
                                                            contingent_paid3             NUMBER,
                                                            contingent_paid4             NUMBER,
                                                            contingent_paid5             NUMBER,
                                                            contingent_paid6             NUMBER,
                                                            contingent_paid7             NUMBER,
                                                            contingent_paid8             NUMBER,
                                                            contingent_paid9             NUMBER,
                                                            contingent_paid10            NUMBER,
                                                            begin_unguaranteed_residual NUMBER,
                                                            int_on_unguaranteed_residual NUMBER,
                                                            end_unguaranteed_residual NUMBER,
                                                            begin_net_investment NUMBER,
                                                            int_on_net_investment NUMBER,
                                                            end_net_investment NUMBER,
                                                            begin_deferred_profit number,
                                                            recognized_profit number,
                                                            end_deferred_profit number,
                                                            receivable_remeasurement number,
                                                            lt_receivable_remeasurement number,
                                                            unguaran_residual_remeasure number,
                                                            rate_implicit FLOAT,
                                                            discount_rate FLOAT,
                                                            rate_implicit_ni FLOAT,
                                                            discount_rate_ni FLOAT,
                                                            begin_lease_receivable number,
                                                            original_net_investment number,
                                                            npv_lease_payments NUMBER,
                                                            npv_guaranteed_residual NUMBER,
                                                            npv_unguaranteed_residual NUMBER,
                                                            selling_profit_loss NUMBER,
                                                            cost_of_goods_sold NUMBER,
                                                            begin_lt_deferred_profit NUMBER,
                                                            end_lt_deferred_profit NUMBER,
                                                            lt_deferred_profit_remeasure NUMBER,
                                                            partial_month_percent NUMBER(22,8),
                                                            schedule_rates t_lsr_ilr_schedule_all_rates,
                                                            beginning_remaining_payments NUMBER,
                                                            ending_remaining_payments NUMBER,
                                                            net_investment_remeasurement NUMBER,
                                                            beg_deferred_rent            NUMBER,
                                                            deferred_rent                NUMBER,
                                                            end_deferred_rent            NUMBER,
                                                            beg_accrued_rent             NUMBER,
                                                            accrued_rent                 NUMBER,
                                                            end_accrued_rent             NUMBER,
															deferred_profit_remeasurement NUMBER,
															accrued_deferred_rent		 NUMBER,
															unamortized_idc				 NUMBER,
                                                            set_of_books_id NUMBER);
/
"
Version 2018.2.1.0	Patch: None	LSR_ILR_DF_SCHEDULE_RESULT_TAB	109	"CREATE OR REPLACE TYPE ""PWRPLANT"".""LSR_ILR_DF_SCHEDULE_RESULT_TAB"" as table of lsr_ilr_df_schedule_result;
/
"
Version 2018.2.1.0	Patch: None	LSR_ILR_OP_SCH_PAY_INFO	1211	"CREATE OR REPLACE TYPE ""PWRPLANT"".""LSR_ILR_OP_SCH_PAY_INFO"" FORCE AUTHID current_user AS OBJECT  (payment_month_frequency NUMBER,
                                                                                payment_term_start_date date,
                                                                                MONTH DATE,
                                                                                number_of_terms NUMBER,
                                                                                payment_amount NUMBER,
                                                                                group_fixed_payment_amount NUMBER,
                                                                                contingent_buckets lsr_bucket_amount_tab,
                                                                                executory_buckets lsr_bucket_amount_tab,
                                                                                is_prepay NUMBER(1,0),
                                                                                partial_month_percent NUMBER(22,8),
                                                                                iter NUMBER)
/
"
Version 2018.2.1.0	Patch: None	LSR_ILR_OP_SCH_PAY_INFO_TAB	103	"CREATE OR REPLACE TYPE ""PWRPLANT"".""LSR_ILR_OP_SCH_PAY_INFO_TAB"" as table of lsr_ilr_op_sch_pay_info;
/
"
Version 2018.2.1.0	Patch: None	LSR_ILR_OP_SCH_PAY_TERM	1345	"CREATE OR REPLACE TYPE ""PWRPLANT"".""LSR_ILR_OP_SCH_PAY_TERM"" FORCE AUTHID current_user AS OBJECT( payment_month_frequency NUMBER,
                                                                              payment_term_start_date date,
                                                                              number_of_terms NUMBER,
                                                                              payment_amount NUMBER,
                                                                              executory_buckets lsr_bucket_amount_tab,
                                                                              contingent_buckets lsr_bucket_amount_tab,
                                                                              is_prepay number(1,0),
                                                                              remeasurement_date date,
                                                                              payment_term_id NUMBER(22,0),
                                                                              payment_term_type_id NUMBER(22,0),
                                                                              first_partial_month_percent NUMBER(22,8),
                                                                              last_partial_month_percent NUMBER(22,8))
/
"
Version 2018.2.1.0	Patch: None	LSR_ILR_OP_SCH_PAY_TERM_TAB	103	"CREATE OR REPLACE TYPE ""PWRPLANT"".""LSR_ILR_OP_SCH_PAY_TERM_TAB"" as table of lsr_ilr_op_sch_pay_term;
/
"
Version 2018.2.1.0	Patch: None	LSR_ILR_OP_SCH_RESULT	8020	"CREATE OR REPLACE TYPE ""PWRPLANT"".""LSR_ILR_OP_SCH_RESULT"" FORCE AUTHID current_user AS OBJECT( MONTH                        DATE,
                                                                            interest_income_received     NUMBER,
                                                                            interest_income_accrued      NUMBER,
                                                                            interest_rental_recvd_spread NUMBER,
                                                                            begin_deferred_rev           NUMBER,
                                                                            deferred_rev                 NUMBER,
                                                                            end_deferred_rev             NUMBER,
                                                                            begin_receivable             NUMBER,
                                                                            end_receivable               NUMBER,
                                                                            begin_lt_receivable          NUMBER,
                                                                            end_lt_receivable            NUMBER,
                                                                            initial_direct_cost          NUMBER,
                                                                            executory_accrual1           NUMBER,
                                                                            executory_accrual2           NUMBER,
                                                                            executory_accrual3           NUMBER,
                                                                            executory_accrual4           NUMBER,
                                                                            executory_accrual5           NUMBER,
                                                                            executory_accrual6           NUMBER,
                                                                            executory_accrual7           NUMBER,
                                                                            executory_accrual8           NUMBER,
                                                                            executory_accrual9           NUMBER,
                                                                            executory_accrual10          NUMBER,
                                                                            executory_paid1              NUMBER,
                                                                            executory_paid2              NUMBER,
                                                                            executory_paid3              NUMBER,
                                                                            executory_paid4              NUMBER,
                                                                            executory_paid5              NUMBER,
                                                                            executory_paid6              NUMBER,
                                                                            executory_paid7              NUMBER,
                                                                            executory_paid8              NUMBER,
                                                                            executory_paid9              NUMBER,
                                                                            executory_paid10             NUMBER,
                                                                            contingent_accrual1          NUMBER,
                                                                            contingent_accrual2          NUMBER,
                                                                            contingent_accrual3          NUMBER,
                                                                            contingent_accrual4          NUMBER,
                                                                            contingent_accrual5          NUMBER,
                                                                            contingent_accrual6          NUMBER,
                                                                            contingent_accrual7          NUMBER,
                                                                            contingent_accrual8          NUMBER,
                                                                            contingent_accrual9          NUMBER,
                                                                            contingent_accrual10         NUMBER,
                                                                            contingent_paid1             NUMBER,
                                                                            contingent_paid2             NUMBER,
                                                                            contingent_paid3             NUMBER,
                                                                            contingent_paid4             NUMBER,
                                                                            contingent_paid5             NUMBER,
                                                                            contingent_paid6             NUMBER,
                                                                            contingent_paid7             NUMBER,
                                                                            contingent_paid8             NUMBER,
                                                                            contingent_paid9             NUMBER,
                                                                            contingent_paid10            NUMBER,
                                                                            begin_deferred_rent          NUMBER,
                                                                            deferred_rent                NUMBER,
                                                                            end_deferred_rent            NUMBER,
                                                                            begin_accrued_rent           NUMBER,
                                                                            accrued_rent                 NUMBER,
                                                                            end_accrued_rent             NUMBER,
                                                                            receivable_remeasurement     NUMBER,
                                                                            lt_receivable_remeasurement  NUMBER,
                                                                            partial_month_percent        NUMBER(22,8),
																			beginning_remaining_payments NUMBER,
																			ending_remaining_payments NUMBER,
																			deferred_profit_remeasurement NUMBER,
																			principal_received 			NUMBER,
																			principal_accrued            NUMBER,
																			begin_unguaranteed_residual NUMBER,
																			int_on_unguaranteed_residual NUMBER,
																			end_unguaranteed_residual NUMBER,
																			unguaran_residual_remeasure number,
																			begin_net_investment NUMBER,
																			int_on_net_investment NUMBER,
																			end_net_investment NUMBER,
																			net_investment_remeasurement NUMBER,
																			begin_deferred_profit number,
																			recognized_profit number,
																			end_deferred_profit number,
																			begin_lt_deferred_profit NUMBER,
																			end_lt_deferred_profit NUMBER,
																			lt_deferred_profit_remeasure number,
                                                                            set_of_books_id              NUMBER);
/
"
Version 2018.2.1.0	Patch: None	LSR_ILR_OP_SCH_RESULT_TAB	99	"CREATE OR REPLACE TYPE ""PWRPLANT"".""LSR_ILR_OP_SCH_RESULT_TAB"" as table of LSR_ILR_OP_SCH_RESULT;
/
"
Version 2018.2.1.0	Patch: None	LSR_ILR_SALES_SCH_INFO	731	"CREATE OR REPLACE TYPE ""PWRPLANT"".""LSR_ILR_SALES_SCH_INFO"" FORCE AUTHID CURRENT_USER AS OBJECT
(
	carrying_cost NUMBER,
	carrying_cost_company_curr NUMBER,
	fair_market_value NUMBER,
	fair_market_value_company_curr NUMBER,
	guaranteed_residual NUMBER,
	estimated_residual NUMBER,
	days_in_year NUMBER,
	purchase_option_amount NUMBER,
	termination_amount NUMBER,
	remeasurement_date DATE,
	investment_amount NUMBER,
	original_profit_loss NUMBER,
	new_beg_receivable NUMBER,
	prior_end_unguaran_residual NUMBER,
	remeasure_month_fixed_payment NUMBER,
	include_idc_sw NUMBER,
	use_orig_rate NUMBER,
	accrued_deferred_rent NUMBER,
	unamortized_idc NUMBER,
	npv LSR_NPV_VALUES,
	selling_profit_loss NUMBER,
	set_of_books_id NUMBER
);
/
"
Version 2018.2.1.0	Patch: None	LSR_ILR_SALES_SCH_INFO_TAB	101	"CREATE OR REPLACE TYPE ""PWRPLANT"".""LSR_ILR_SALES_SCH_INFO_TAB"" as table of lsr_ilr_sales_sch_info;
/
"
Version 2018.2.1.0	Patch: None	LSR_ILR_SALES_SCH_RESULT	7767	"CREATE OR REPLACE TYPE ""PWRPLANT"".""LSR_ILR_SALES_SCH_RESULT"" FORCE AUTHID current_user AS OBJECT(MONTH DATE,
                                                          principal_received NUMBER,
                                                          interest_income_received     NUMBER,
                                                          interest_income_accrued      NUMBER,
                                                          principal_accrued            NUMBER,
                                                          begin_receivable         NUMBER,
                                                          end_receivable         NUMBER,
                                                          begin_lt_receivable          NUMBER,
                                                          end_lt_receivable            NUMBER,
                                                          initial_direct_cost          NUMBER,
                                                          executory_accrual1           NUMBER,
                                                          executory_accrual2           NUMBER,
                                                          executory_accrual3           NUMBER,
                                                          executory_accrual4           NUMBER,
                                                          executory_accrual5           NUMBER,
                                                          executory_accrual6           NUMBER,
                                                          executory_accrual7           NUMBER,
                                                          executory_accrual8           NUMBER,
                                                          executory_accrual9           NUMBER,
                                                          executory_accrual10          NUMBER,
                                                          executory_paid1              NUMBER,
                                                          executory_paid2              NUMBER,
                                                          executory_paid3              NUMBER,
                                                          executory_paid4              NUMBER,
                                                          executory_paid5              NUMBER,
                                                          executory_paid6              NUMBER,
                                                          executory_paid7              NUMBER,
                                                          executory_paid8              NUMBER,
                                                          executory_paid9              NUMBER,
                                                          executory_paid10             NUMBER,
                                                          contingent_accrual1          NUMBER,
                                                          contingent_accrual2          NUMBER,
                                                          contingent_accrual3          NUMBER,
                                                          contingent_accrual4          NUMBER,
                                                          contingent_accrual5          NUMBER,
                                                          contingent_accrual6          NUMBER,
                                                          contingent_accrual7          NUMBER,
                                                          contingent_accrual8          NUMBER,
                                                          contingent_accrual9          NUMBER,
                                                          contingent_accrual10         NUMBER,
                                                          contingent_paid1             NUMBER,
                                                          contingent_paid2             NUMBER,
                                                          contingent_paid3             NUMBER,
                                                          contingent_paid4             NUMBER,
                                                          contingent_paid5             NUMBER,
                                                          contingent_paid6             NUMBER,
                                                          contingent_paid7             NUMBER,
                                                          contingent_paid8             NUMBER,
                                                          contingent_paid9             NUMBER,
                                                          contingent_paid10            NUMBER,
                                                          begin_unguaranteed_residual NUMBER,
                                                          int_on_unguaranteed_residual NUMBER,
                                                          end_unguaranteed_residual NUMBER,
                                                          begin_net_investment NUMBER,
                                                          int_on_net_investment NUMBER,
                                                          end_net_investment NUMBER,
                                                          receivable_remeasurement number,
                                                          lt_receivable_remeasurement  NUMBER,
                                                          partial_month_percent NUMBER(22,8),
                                                          unguaran_residual_remeasure number,
                                                          rate_implicit FLOAT,
                                                          discount_rate FLOAT,
                                                          rate_implicit_ni FLOAT,
                                                          discount_rate_ni FLOAT,
                                                          begin_lease_receivable number,
                                                          original_net_investment number,
                                                          npv_lease_payments NUMBER,
                                                          npv_guaranteed_residual NUMBER,
                                                          npv_unguaranteed_residual NUMBER,
                                                          selling_profit_loss NUMBER,
                                                          cost_of_goods_sold NUMBER,
                                                          schedule_rates t_lsr_ilr_schedule_all_rates,
														  beginning_remaining_payments NUMBER,
														  ending_remaining_payments NUMBER,
														  net_investment_remeasurement NUMBER,
														  beg_deferred_rent            NUMBER,
														  deferred_rent                NUMBER,
														  end_deferred_rent            NUMBER,
														  beg_accrued_rent             NUMBER,
														  accrued_rent                 NUMBER,
														  end_accrued_rent             NUMBER,
														  accrued_deferred_rent 	   NUMBER,
														  unamortized_idc 			   NUMBER,
														  deferred_profit_remeasurement NUMBER,
														  begin_deferred_profit number,
														  recognized_profit number,
														  end_deferred_profit number,
														  begin_lt_deferred_profit NUMBER,
														  end_lt_deferred_profit NUMBER,
														  lt_deferred_profit_remeasure number,
														  set_of_books_id				NUMBER
                                                                                                                  );
/
"
Version 2018.2.1.0	Patch: None	LSR_ILR_SALES_SCH_RESULT_TAB	105	"CREATE OR REPLACE TYPE ""PWRPLANT"".""LSR_ILR_SALES_SCH_RESULT_TAB"" AS TABLE OF lsr_ilr_sales_sch_result;
/
"
Version 2018.2.1.0	Patch: None	LSR_INIT_DIRECT_COST_INFO	420	"CREATE OR REPLACE TYPE ""PWRPLANT"".""LSR_INIT_DIRECT_COST_INFO"" AUTHID current_user AS OBJECT (idc_group_id NUMBER,
                                                            date_incurred DATE,
                                                            amount NUMBER,
                                                            description varchar2(254),
                              				   set_of_books_id NUMBER);
/
"
Version 2018.2.1.0	Patch: None	LSR_INIT_DIRECT_COST_INFO_TAB	107	"CREATE OR REPLACE TYPE ""PWRPLANT"".""LSR_INIT_DIRECT_COST_INFO_TAB"" AS TABLE OF lsr_init_direct_cost_info;
/
"
Version 2018.2.1.0	Patch: None	LSR_NPV_VALUES	165	"CREATE OR REPLACE TYPE ""PWRPLANT"".""LSR_NPV_VALUES"" AUTHID CURRENT_USER AS OBJECT
(
	payments NUMBER,
	guaranteed_residual NUMBER,
	unguaranteed_residual NUMBER
);
/
"
Version 2018.2.1.0	Patch: None	LSR_SCHEDULE_PAYMENT_DEF	843	"CREATE OR REPLACE TYPE ""PWRPLANT"".""LSR_SCHEDULE_PAYMENT_DEF"" FORCE AUTHID current_user AS OBJECT (payment_month_frequency NUMBER,
                                                            is_prepay number(1,0),
                                                            payment_group NUMBER, --Group months based on date payment takes place
                                                            MONTH DATE,
                                                            number_of_terms NUMBER,
                                                            iter NUMBER,
                                                            group_fixed_payment NUMBER,
                                                            payment_amount NUMBER,
                                                            partial_month_percent NUMBER(22,8));
/
"
Version 2018.2.1.0	Patch: None	LSR_SCHEDULE_PAYMENT_DEF_TAB	105	"CREATE OR REPLACE TYPE ""PWRPLANT"".""LSR_SCHEDULE_PAYMENT_DEF_TAB"" as table of lsr_schedule_payment_def;
/
"
Version 2018.2.1.0	Patch: None	NUMBER_SORT_TABLE_T	78	"CREATE OR REPLACE TYPE ""PWRPLANT"".""NUMBER_SORT_TABLE_T"" is table of number;
/
"
Version 2018.2.1.0	Patch: None	PEND_TRANS_IDS_T	81	"CREATE OR REPLACE TYPE ""PWRPLANT"".""PEND_TRANS_IDS_T"" as table of number(22,0);
/
"
Version 2018.2.1.0	Patch: None	SYS_PLSQL_247391_149_1	81	"CREATE OR REPLACE TYPE ""PWRPLANT"".""PEND_TRANS_IDS_T"" as table of number(22,0);
/
"
Version 2018.2.1.0	Patch: None	SYS_PLSQL_247391_29_1	81	"CREATE OR REPLACE TYPE ""PWRPLANT"".""PEND_TRANS_IDS_T"" as table of number(22,0);
/
"
Version 2018.2.1.0	Patch: None	SYS_PLSQL_247391_DUMMY_1	81	"CREATE OR REPLACE TYPE ""PWRPLANT"".""PEND_TRANS_IDS_T"" as table of number(22,0);
/
"
Version 2018.2.1.0	Patch: None	SYS_PLSQL_79661_422_1	81	"CREATE OR REPLACE TYPE ""PWRPLANT"".""PEND_TRANS_IDS_T"" as table of number(22,0);
/
"
Version 2018.2.1.0	Patch: None	SYS_PLSQL_79661_569_1	81	"CREATE OR REPLACE TYPE ""PWRPLANT"".""PEND_TRANS_IDS_T"" as table of number(22,0);
/
"
Version 2018.2.1.0	Patch: None	SYS_PLSQL_79661_DUMMY_1	81	"CREATE OR REPLACE TYPE ""PWRPLANT"".""PEND_TRANS_IDS_T"" as table of number(22,0);
/
"
Version 2018.2.1.0	Patch: None	TABLE_LIST_ID_TYPE	84	"CREATE OR REPLACE TYPE ""PWRPLANT"".""TABLE_LIST_ID_TYPE"" is table of number(22, 0);
/
"
Version 2018.2.1.0	Patch: None	TIMESTAMP_SORT_TABLE_T	84	"CREATE OR REPLACE TYPE ""PWRPLANT"".""TIMESTAMP_SORT_TABLE_T"" is table of timestamp;
/
"
Version 2018.2.1.0	Patch: None	T_BIND_VARS	78	"CREATE OR REPLACE TYPE ""PWRPLANT"".""T_BIND_VARS"" is table of varchar2(2000);
/
"
Version 2018.2.1.0	Patch: None	T_LSR_ILR_ID_REVISION	137	"CREATE OR REPLACE TYPE ""PWRPLANT"".""T_LSR_ILR_ID_REVISION"" AUTHID current_user as object(ilr_id number(22,2), revision number(22,2));
 
/
"
Version 2018.2.1.0	Patch: None	T_LSR_ILR_ID_REVISION_TAB	99	"CREATE OR REPLACE TYPE ""PWRPLANT"".""T_LSR_ILR_ID_REVISION_TAB"" AS TABLE OF t_lsr_ilr_id_revision;
/
"
Version 2018.2.1.0	Patch: None	T_LSR_ILR_SALES_DF_PRELIMS	350	"CREATE OR REPLACE TYPE ""PWRPLANT"".""T_LSR_ILR_SALES_DF_PRELIMS"" FORCE AUTHID current_user AS OBJECT ( payment_info lsr_ilr_op_sch_pay_info_tab,
													rates t_lsr_ilr_schedule_all_rates,
													initial_direct_costs lsr_init_direct_cost_info_tab,
													sales_type_info lsr_ilr_sales_sch_info,
													set_of_books_id NUMBER);
/
"
Version 2018.2.1.0	Patch: None	T_LSR_ILR_SCHEDULE_ALL_RATES	366	"CREATE OR REPLACE TYPE ""PWRPLANT"".""T_LSR_ILR_SCHEDULE_ALL_RATES"" AUTHID current_user as object ( calculated_rates t_lsr_rates_implicit_in_lease,
                                                                override_rates t_lsr_rates_implicit_in_lease,
                                                                rates_used t_lsr_rates_implicit_in_lease);
 
/
"
Version 2018.2.1.0	Patch: None	T_LSR_RATES_IMPLICIT_IN_LEASE	211	"CREATE OR REPLACE TYPE ""PWRPLANT"".""T_LSR_RATES_IMPLICIT_IN_LEASE"" AUTHID current_user as object (rate_implicit float,
                                                                rate_implicit_ni float);
 
/
"
Version 2018.2.1.0	Patch: None	T_NUMBER_22_2_TAB	82	"CREATE OR REPLACE TYPE ""PWRPLANT"".""T_NUMBER_22_2_TAB"" as table of number(22,2);
/
"
Version 2018.2.1.0	Patch: None	T_NUMBER_22_8_TAB	82	"CREATE OR REPLACE TYPE ""PWRPLANT"".""T_NUMBER_22_8_TAB"" as table of number(22,8);
/
"
Version 2018.2.1.0	Patch: None	T_NUM_ARRAY	70	"CREATE OR REPLACE TYPE ""PWRPLANT"".""T_NUM_ARRAY"" as table of number;
/
"
Version 2018.2.1.0	Patch: None	T_PRODUCT	2820	"CREATE OR REPLACE TYPE ""PWRPLANT"".""T_PRODUCT"" AUTHID current_user as object
/*
||============================================================================
|| application: powerplant
|| object name: t_product
|| description:
||============================================================================
|| copyright (c) 2009 by powerplan consultants, inc. all rights reserved.
||============================================================================
|| version  date       revised by     reason for change
|| -------  ---------- -------------- ----------------------------------------
|| v10.2.0  09/25/2008 lee quinn      point release
||============================================================================
*/
(
   product number,
   static function odciaggregateinitialize(l_product in out t_product) return number,
   member function odciaggregateiterate(self in out t_product, value in number) return number,
   member function odciaggregateterminate(self        in t_product,
                                          returnvalue out number,
                                          flags       in number) return number,
   member function odciaggregatemerge(self in out t_product, value in t_product) return number
);
 
/
CREATE OR REPLACE TYPE BODY ""PWRPLANT"".""T_PRODUCT"" is
/*
||============================================================================
|| Application: PowerPlant
|| Type Body: T_PRODUCT
|| Description:
||============================================================================
|| Copyright (C) 2009 by PowerPlan Consultants, Inc. All Rights Reserved.
||============================================================================
|| Version  Date       Revised By     Reason for Change
|| -------  ---------- -------------- ----------------------------------------
|| V10.2.0  09/25/2008 Lee Quinn      Point Release
||============================================================================
*/

   static function ODCIAGGREGATEINITIALIZE(L_PRODUCT in out T_PRODUCT) return number is
   begin
      L_PRODUCT := T_PRODUCT(1);
      return ODCICONST.SUCCESS;
   end;

   member function ODCIAGGREGATEITERATE(self in out T_PRODUCT, value in number) return number is
   begin
      self.PRODUCT := self.PRODUCT * value;
      return ODCICONST.SUCCESS;
   end;

   member function ODCIAGGREGATETERMINATE(self        in T_PRODUCT,
                                          RETURNVALUE out number,
                                          FLAGS       in number) return number is
   begin
      RETURNVALUE := self.PRODUCT;
      return ODCICONST.SUCCESS;
   end;

   member function ODCIAGGREGATEMERGE(self in out T_PRODUCT, value in T_PRODUCT) return number is
   begin
      self.PRODUCT := self.PRODUCT * value.PRODUCT;
      return ODCICONST.SUCCESS;
   end;
end;
/
"
Version 2018.2.1.0	Patch: None	T_STRING_AGG	1806	"CREATE OR REPLACE TYPE ""PWRPLANT"".""T_STRING_AGG"" AUTHID current_user as object
(
  g_string  varchar2(32767),
  static function odciaggregateinitialize(sctx  in out  t_string_agg)
    return number,
  member function odciaggregateiterate(self   in out  t_string_agg,
                                      value  in      varchar2 )
  return number,
  member function odciaggregateterminate(self         in   t_string_agg,
                                         returnvalue  out  varchar2,
                                         flags        in   number)
    return number,
  member function odciaggregatemerge(self  in out  t_string_agg,
                                     ctx2  in      t_string_agg)
    return number
);
 
/
CREATE OR REPLACE TYPE BODY ""PWRPLANT"".""T_STRING_AGG"" IS
  STATIC FUNCTION ODCIAggregateInitialize(sctx  IN OUT  t_string_agg)
    RETURN NUMBER IS
  BEGIN
    sctx := t_string_agg(NULL);
    RETURN ODCIConst.Success;
  END;

  MEMBER FUNCTION ODCIAggregateIterate(self   IN OUT  t_string_agg,
                                       value  IN      VARCHAR2 )
    RETURN NUMBER IS
  BEGIN
    SELF.g_string := self.g_string || ',' || value;
    RETURN ODCIConst.Success;
  END;

  MEMBER FUNCTION ODCIAggregateTerminate(self         IN   t_string_agg,
                                         returnValue  OUT  VARCHAR2,
                                         flags        IN   NUMBER)
    RETURN NUMBER IS
  BEGIN
    returnValue := RTRIM(LTRIM(SELF.g_string, ','), ',');
    RETURN ODCIConst.Success;
  END;

  MEMBER FUNCTION ODCIAggregateMerge(self  IN OUT  t_string_agg,
                                     ctx2  IN      t_string_agg)
    RETURN NUMBER IS
  BEGIN
    SELF.g_string := SELF.g_string || ',' || ctx2.g_string;
    RETURN ODCIConst.Success;
  END;
END;
/
"
Version 2018.2.1.0	Patch: None	T_TABLE_VARS	76	"CREATE OR REPLACE TYPE ""PWRPLANT"".""T_TABLE_VARS"" is table of T_BIND_VARS;
/
"
Version 2018.2.1.0	Patch: None	T_VARCHAR2_ARRAY	83	"CREATE OR REPLACE TYPE ""PWRPLANT"".""T_VARCHAR2_ARRAY"" is table of varchar2(4000);
/
"
Version 2018.2.1.0	Patch: None	VARCHAR2_SORT_TABLE_T	88	"CREATE OR REPLACE TYPE ""PWRPLANT"".""VARCHAR2_SORT_TABLE_T"" is table of varchar(32767);
/
"
