07:13:31 hopplant> @&&PP_SCRIPT_PATH.maint_scripts\2018.1.0.1_maint_052955_lessee_01_gl_query_updates_dml.sql
07:13:31 hopplant> /*
07:13:31 hopplant> ||============================================================================
07:13:31 hopplant> || Application: PowerPlan
07:13:31 hopplant> || File Name:  maint_052955_lessee_01_gl_query_updates_dml.sql
07:13:31 hopplant> ||============================================================================
07:13:31 hopplant> || Copyright (C) 2019 by PowerPlan, Inc. All Rights Reserved.
07:13:31 hopplant> ||============================================================================
07:13:31 hopplant> || Version	 Date	     Revised By       Reason for Change
07:13:31 hopplant> || ---------- ----------  ---------------- --------------------------------------
07:13:31 hopplant> || 2018.1.0.1 01/11/2019  C Yura	       Add query display settings for new fields
07:13:31 hopplant> ||============================================================================
07:13:31 hopplant> */
07:13:31 hopplant> 
07:13:31 hopplant> update pp_any_query_criteria_fields
07:13:31   2  set display_field = 'ilr_number',
07:13:31   3  display_table = 'ls_ilr',
07:13:31   4  data_field = 'ilr_number',
07:13:31   5  sort_col = 'ilr_number'
07:13:31   6  where id in (
07:13:31   7  select id From pp_any_query_criteria
07:13:31   8  where lower(trim(description)) =
07:13:31   9  'lease gl account obligation balances by asset (company currency)')
07:13:31  10  and lower(detail_field) = 'ilr_number';

1 row updated.

07:13:31 hopplant> 
07:13:31 hopplant> update pp_any_query_criteria_fields
07:13:31   2  set display_field = 'ilr_number',
07:13:31   3  display_table = 'ls_ilr',
07:13:31   4  data_field = 'ilr_number',
07:13:31   5  sort_col = 'ilr_number'
07:13:31   6  where id in (
07:13:31   7  select id From pp_any_query_criteria
07:13:31   8  where lower(trim(description)) =
07:13:31   9  'lease gl account liability balances by asset (company currency)')
07:13:31  10  and lower(detail_field) = 'ilr_number';

1 row updated.

07:13:32 hopplant> 
07:13:32 hopplant> update pp_any_query_criteria_fields
07:13:32   2  set display_field = 'leased_asset_number',
07:13:32   3  display_table = 'ls_asset',
07:13:32   4  data_field = 'leased_asset_number',
07:13:32   5  sort_col = 'leased_asset_number'
07:13:32   6  where id in (
07:13:32   7  select id From pp_any_query_criteria
07:13:32   8  where lower(trim(description)) =
07:13:32   9  'lease gl account liability balances by asset (company currency)')
07:13:32  10  and lower(detail_field) = 'leased_asset_number';

1 row updated.

07:13:32 hopplant> 
07:13:32 hopplant> update pp_any_query_criteria_fields
07:13:32   2  set display_field = 'leased_asset_number',
07:13:32   3  display_table = 'ls_asset',
07:13:32   4  data_field = 'leased_asset_number',
07:13:32   5  sort_col = 'leased_asset_number'
07:13:32   6  where id in (
07:13:32   7  select id From pp_any_query_criteria
07:13:32   8  where lower(trim(description)) =
07:13:32   9  'lease gl account obligation balances by asset (company currency)')
07:13:32  10  and lower(detail_field) = 'leased_asset_number';

1 row updated.

07:13:32 hopplant> 
07:13:32 hopplant> --****************************************************
07:13:32 hopplant> --Log the run of the script to local PP_SCHEMA_LOG
07:13:32 hopplant> --****************************************************
07:13:32 hopplant> INSERT INTO PP_SCHEMA_CHANGE_LOG
07:13:32   2  	  (ID, SKIPPED, MAJOR_VERSION, MINOR_VERSION, POINT_VERSION, PATCH_VERSION, MAINT_NUM, SCRIPT_PATH,
07:13:32   3  	  SCRIPT_NAME, SCRIPT_REVISION, DATE_APPLIED, OS_USER, TERMINAL, SERVICE_NAME)
07:13:32   4  VALUES
07:13:32   5  	  (13882, 0, 2018, 1, 0, 1, 52955, 'C:\PlasticWks\powerplant\sql\maint_scripts', '2018.1.0.1_maint_052955_lessee_01_gl_query_updates_dml.sql', 1,
07:13:32   6  	  SYSTIMESTAMP, SYS_CONTEXT('USERENV', 'OS_USER'), SYS_CONTEXT('USERENV', 'TERMINAL'),
07:13:32   7  	  SYS_CONTEXT('USERENV', 'SERVICE_NAME'));

1 row created.

07:13:32 hopplant> COMMIT;

Commit complete.

07:13:32 hopplant> 
07:13:32 hopplant> 
07:13:32 hopplant> SPOOL OFF
