07:06:19 hopplant> @&&PP_SCRIPT_PATH.packages_released\2018.1.0.0_PKG_TAX_INT_RET.sql
07:06:19 hopplant> 
07:06:19 hopplant> create or replace package PKG_TAX_INT_RET as
07:06:19   2  	 /*
07:06:19   3  	 ||============================================================================
07:06:19   4  	 || Application: PowerPlant
07:06:19   5  	 || Object Name: PKG_TAX_INT_RET
07:06:19   6  	 || Description: Moved/Enhanced PowerTax Retirements Interface logic to PLSQL
07:06:19   7  	 ||============================================================================
07:06:19   8  	 || Copyright (C) 2014 by PowerPlan, Inc. All Rights Reserved.
07:06:19   9  	 ||============================================================================
07:06:19  10  	 || Version  Date	Revised By     Reason for Change
07:06:19  11  	 || -------- ---------- -------------- ----------------------------------------
07:06:19  12  	 || 10.4.2.0 10/14/2013 Andrew Scott   Original Version
07:06:19  13  	 || 10.4.2.0 10/24/2013 Andrew Scott   QA changes: removed tax class join,
07:06:19  14  	 ||					 trunc-ed year on tax_book_transactions_grp,
07:06:19  15  	 ||					 audit trail grp.
07:06:19  16  	 || 10.4.2.0 10/29/2013 Andrew Scott   fixed to make FIFO pick from earliest
07:06:19  17  	 || 10.4.2.0 10/30/2013 Andrew Scott   removed tolerance from logic
07:06:19  18  	 || 10.4.2.0 11/20/2013 Andrew Scott   non-FIFO rets issue where sum book > trid book
07:06:19  19  	 ||				       causes allocation ratios to blow up the retirement amount
07:06:19  20  	 || 10.4.2.0 11/25/2013 Andrew Scott   changed decode fix from 11/20 to use sign of tbt.trans_amount
07:06:19  21  	 ||				       instead of trying to compare sum book to trid book.  also changed
07:06:19  22  	 ||				       order by to process negatives first, then by abs of book balance
07:06:19  23  	 || 10.4.2.0 01/14/2014 Andrew Scott   maint-35441  MLP changes merging tax_control,
07:06:19  24  	 ||				       tax_depreciation, tax_depr_adjust all into
07:06:19  25  	 ||				       tax_depreciation.
07:06:19  26  	 || 10.4.2.0 02/05/2014 Andrew Scott   maint-36078  creation of MLP Gui Retirements
07:06:19  27  	 ||				       Interface.  Existing Retirements interface needs
07:06:19  28  	 ||				       to also work.  Specific changes:
07:06:19  29  	 ||				       1. Added space in process name.
07:06:19  30  	 ||
07:06:19  31  	 || PACKAGE RELEASED FOR 10.4.2.0
07:06:19  32  	 ||
07:06:19  33  	 || PP Version	Version    Date 	  Revised By	 Reason for Change
07:06:19  34  	 || ----------	---------  -------------  -------------  -------------------------
07:06:19  35  	 || 10.4.2.1	2.01	   05/15/2014	  Andrew Scott	 maint-37925 : 1. filtering functionality from retire rules
07:06:19  36  	 ||							 was not brought over to pl/sql.  fixed using f_filter_records
07:06:19  37  	 ||							 2. adding the package version similar to run fast packages.
07:06:19  38  	 ||							 This allows us to maintain version history for the package and
07:06:19  39  	 ||							 can more easily patch in the future.  3. retire rules look back
07:06:19  40  	 ||							 was using -1 * look forward, not the look back field.	fixed this.
07:06:19  41  	 ||							 4. tbt group map table altered to have pkey including effective
07:06:19  42  	 ||							 vintage.
07:06:19  43  	 || 10.4.3.0	2.02	   05/29/2014	  Andrew Scott	 Alter adds, rets, xfer intfcs to use
07:06:19  44  	 ||							 asset id if configured for company.
07:06:19  45  	 || 10.4.3.0	2.03	   06/12/2014	  Andrew Scott	 QA items related to asset id changes
07:06:19  46  	 ||							 1. add asset id to audit trails
07:06:19  47  	 ||							 2. speed up batching
07:06:19  48  	 || 10.4.3.0	2.04	   08/13/2014	  Andrew Scott	 maint-38887.  turn off auditing.
07:06:19  49  	 || 2015.2.0	2.05	   09/25/2015	  R Burns	 maint-44843.  join tax depreciation into FFORMAT string.
07:06:19  50  	 ||
07:06:19  51  	 || Version	Date	   Revised By	  Reason for Change
07:06:19  52  	 || --------	---------- -------------- ----------------------------------------
07:06:19  53  	 || 2015.2.0.0	11/30/2015 Andrew Scott   maint-45240.	Update version to be 2015.2.0.0
07:06:19  54  	 ||============================================================================
07:06:19  55  	 */
07:06:19  56  	 G_PKG_VERSION varchar(35) := '2018.1.0.0';
07:06:19  57  	 -- function to get the version of this package.
07:06:19  58  	 function F_GET_VERSION return varchar2;
07:06:19  59  
07:06:19  60  	 type CO_IDS is table of number(22, 0) index by binary_integer;
07:06:19  61  
07:06:19  62  	 G_TAX_RECORD_IDS table_list_id_type;
07:06:19  63  	 G_TRANS_GRP_IDS table_list_id_type;
07:06:19  64  
07:06:19  65  	 -- procedure to backfill tax_book_translate with the new tbt_group_id
07:06:19  66  	 procedure P_BACKFILL_TBT_GROUP;
07:06:19  67  
07:06:19  68  	 -- function to refresh the rows in tax_interface_cos
07:06:19  69  	 function F_REFRESH_INTERFACE_COS(A_CO_IDS	     in CO_IDS,
07:06:19  70  					  A_INTERFACE_OBJECT varchar2) return varchar2;
07:06:19  71  
07:06:19  72  	 -- function the return the process id for retirements interface
07:06:19  73  	 function F_GETPROCESS return number;
07:06:19  74  
07:06:19  75  	 -- function to clear out previously processed retirements
07:06:19  76  	 function F_REMOVE_PRIOR_TRANS(A_VERSION_ID	  number,
07:06:19  77  				       A_TAX_YEAR	  number,
07:06:19  78  				       A_INTERFACE_OBJECT varchar2) return varchar2;
07:06:19  79  
07:06:19  80  	 -- tax retire rules table holds a set of string values that the
07:06:19  81  	 -- older datawindow logic used to filter a subset of tax records
07:06:19  82  	 -- and link them to another filtered set of transactions.  This
07:06:19  83  	 -- cannot exactly be mimiced in the new PL/SQL logic.	The closest,
07:06:19  84  	 -- hopefully fastest way to mimic this will be to use this function,
07:06:19  85  	 -- called from the iteration function, to build out global table
07:06:19  86  	 -- variables of the tax records that can be used and another variable
07:06:19  87  	 -- of the transactions that can be used.  The batch functions will be
07:06:19  88  	 -- modified to join into these table variables.
07:06:19  89  	 function F_FILTER_RECORDS(
07:06:19  90  			      A_TAX_YEAR	 number,
07:06:19  91  			      A_VERSION_ID	 number,
07:06:19  92  			      A_ITERATION	 number,
07:06:19  93  			      A_INTERFACE_OBJECT varchar2) return varchar2;
07:06:19  94  
07:06:19  95  	 -- function to process a batch of data (each iteration could run many batches)
07:06:19  96  	 function F_RUN_BATCH(A_TAX_YEAR	 number,
07:06:19  97  			      A_START_MO	 number,
07:06:19  98  			      A_END_MO		 number,
07:06:19  99  			      A_VERSION_ID	 number,
07:06:19 100  			      A_ITERATION	 number,
07:06:19 101  			      A_BATCH		 number,
07:06:19 102  			      A_INTERFACE_OBJECT varchar2) return varchar2;
07:06:19 103  
07:06:19 104  	 -- function to process the retirements
07:06:19 105  	 function F_RUN_ITERATION(A_TAX_YEAR	     number,
07:06:19 106  				  A_START_MO	     number,
07:06:19 107  				  A_END_MO	     number,
07:06:19 108  				  A_VERSION_ID	     number,
07:06:19 109  				  A_INTERFACE_OBJECT varchar2) return varchar2;
07:06:19 110  
07:06:19 111  	 -- function to start the log, clear out the retirements, process the retirements, end the log
07:06:19 112  	 function F_POWERTAX_RETS(A_TAX_YEAR	     number,
07:06:19 113  				  A_START_MO	     number,
07:06:19 114  				  A_END_MO	     number,
07:06:19 115  				  A_VERSION_ID	     number,
07:06:19 116  				  A_INTERFACE_OBJECT varchar2) return varchar2;
07:06:19 117  
07:06:19 118  end PKG_TAX_INT_RET;
07:06:19 119  /

Package created.

07:06:19 hopplant> 
07:06:19 hopplant> create or replace package body PKG_TAX_INT_RET as
07:06:19   2  
07:06:19   3  	 --****************************************************************************************************
07:06:19   4  	 --		  VARIABLES
07:06:19   5  	 --****************************************************************************************************
07:06:19   6  	 L_PROCESS_ID number;
07:06:19   7  
07:06:19   8  	 --****************************************************************************************************
07:06:19   9  	 --		  Start Body
07:06:19  10  	 --****************************************************************************************************
07:06:19  11  
07:06:19  12  	 -- function to get the version of this package.
07:06:19  13  	 function F_GET_VERSION return varchar2 is
07:06:19  14  	 begin
07:06:19  15  	    return '2015.2.0.0';
07:06:19  16  	 end F_GET_VERSION;
07:06:19  17  
07:06:19  18  	 --****************************************************************************************************
07:06:19  19  	 --		  PROCEDURES
07:06:19  20  	 --****************************************************************************************************
07:06:19  21  
07:06:19  22  	 --procedure grabs the retirements interface process id for the online logs
07:06:19  23  	 procedure P_SETPROCESS is
07:06:19  24  	 begin
07:06:19  25  	    select PROCESS_ID
07:06:19  26  	      into L_PROCESS_ID
07:06:19  27  	      from PP_PROCESSES
07:06:19  28  	     where UPPER(DESCRIPTION) = 'POWERTAX - RETIREMENTS';
07:06:19  29  	 exception
07:06:19  30  	    when others then
07:06:19  31  	       /* this catches all SQL errors, including no_data_found */
07:06:19  32  	       L_PROCESS_ID := -1;
07:06:19  33  	 end P_SETPROCESS;
07:06:19  34  
07:06:19  35  	 --procedure to backfill the tbt_group_id on tax_book_translate.
07:06:19  36  	 procedure P_BACKFILL_TBT_GROUP is
07:06:19  37  
07:06:19  38  	    type TBT_GRP_BACKFILL_STG_REC_TYPE is record(
07:06:19  39  	       TBT_GROUP_ID	  TAX_BOOK_TRANSLATE_GROUP.TBT_GROUP_ID%type,
07:06:19  40  	       COMPANY_ID	  TAX_BOOK_TRANSLATE.COMPANY_ID%type,
07:06:19  41  	       BUS_SEGMENT_ID	  TAX_BOOK_TRANSLATE.BUS_SEGMENT_ID%type,
07:06:19  42  	       UTILITY_ACCOUNT_ID TAX_BOOK_TRANSLATE.UTILITY_ACCOUNT_ID%type,
07:06:19  43  	       SUB_ACCOUNT_ID	  TAX_BOOK_TRANSLATE.SUB_ACCOUNT_ID%type,
07:06:19  44  	       TAX_LOCATION_ID	  TAX_BOOK_TRANSLATE.TAX_LOCATION_ID%type,
07:06:19  45  	       CLASS_CODE_ID	  TAX_BOOK_TRANSLATE.CLASS_CODE_ID%type,
07:06:19  46  	       CLASS_CODE_VALUE   TAX_BOOK_TRANSLATE.CLASS_CODE_VALUE%type,
07:06:19  47  	       GL_ACCOUNT_ID	  TAX_BOOK_TRANSLATE.GL_ACCOUNT_ID%type,
07:06:19  48  	       TAX_DISTINCTION_ID TAX_BOOK_TRANSLATE.TAX_DISTINCTION_ID%type);
07:06:19  49  
07:06:19  50  	    type TBT_GRP_BACKFILL_STG_TBL_TYPE is table of TBT_GRP_BACKFILL_STG_REC_TYPE;
07:06:19  51  
07:06:19  52  	    TBT_GRP_BACKFILL_STG_TBL TBT_GRP_BACKFILL_STG_TBL_TYPE;
07:06:19  53  
07:06:19  54  	 begin
07:06:19  55  
07:06:19  56  	    select TBT_GROUP_ID,
07:06:19  57  		   COMPANY_ID,
07:06:19  58  		   BUS_SEGMENT_ID,
07:06:19  59  		   UTILITY_ACCOUNT_ID,
07:06:19  60  		   SUB_ACCOUNT_ID,
07:06:19  61  		   TAX_LOCATION_ID,
07:06:19  62  		   CLASS_CODE_ID,
07:06:19  63  		   CLASS_CODE_VALUE,
07:06:19  64  		   GL_ACCOUNT_ID,
07:06:19  65  		   TAX_DISTINCTION_ID bulk collect
07:06:19  66  	      into TBT_GRP_BACKFILL_STG_TBL
07:06:19  67  	      from (select distinct TAX_BOOK_TRANSLATE_GROUP.TBT_GROUP_ID, TBT.*
07:06:19  68  		      from TAX_BOOK_TRANSLATE_GROUP,
07:06:19  69  			   (select INSIDE.COMPANY_ID,
07:06:19  70  				   INSIDE.BUS_SEGMENT_ID,
07:06:19  71  				   INSIDE.UTILITY_ACCOUNT_ID,
07:06:19  72  				   INSIDE.SUB_ACCOUNT_ID,
07:06:19  73  				   INSIDE.TAX_LOCATION_ID,
07:06:19  74  				   INSIDE.CLASS_CODE_ID,
07:06:19  75  				   INSIDE.CLASS_CODE_VALUE,
07:06:19  76  				   INSIDE.GL_ACCOUNT_ID,
07:06:19  77  				   INSIDE.TAX_DISTINCTION_ID,
07:06:19  78  				   LISTAGG(TAX_CLASS_ID, ':') WITHIN group(order by TAX_CLASS_ID) TAX_CLASS_ID_AGG,
07:06:19  79  				   LISTAGG(START_EFF_BOOK_VINTAGE, ':') WITHIN group(order by TAX_CLASS_ID) START_EFF_BOOK_VINTAGE_AGG,
07:06:19  80  				   LISTAGG(END_EFF_BOOK_VINTAGE, ':') WITHIN group(order by TAX_CLASS_ID) END_EFF_BOOK_VINTAGE_AGG,
07:06:19  81  				   LISTAGG(ACTIVE, ':') WITHIN group(order by TAX_CLASS_ID) ACTIVE_AGG
07:06:19  82  			      from (select TBT.*,
07:06:19  83  					   TBT_TAX_CLASS.TAX_CLASS_ID,
07:06:19  84  					   TBT_TAX_CLASS.START_EFF_BOOK_VINTAGE,
07:06:19  85  					   TBT_TAX_CLASS.END_EFF_BOOK_VINTAGE,
07:06:19  86  					   TBT_TAX_CLASS.ACTIVE
07:06:19  87  				      from (select ROWNUM TBT_GROUP_ID, INSIDE.*
07:06:19  88  					      from (select distinct COMPANY_ID,
07:06:19  89  								    BUS_SEGMENT_ID,
07:06:19  90  								    UTILITY_ACCOUNT_ID,
07:06:19  91  								    SUB_ACCOUNT_ID,
07:06:19  92  								    TAX_LOCATION_ID,
07:06:19  93  								    CLASS_CODE_ID,
07:06:19  94  								    CLASS_CODE_VALUE,
07:06:19  95  								    GL_ACCOUNT_ID,
07:06:19  96  								    TAX_DISTINCTION_ID
07:06:19  97  						      from TAX_BOOK_TRANSLATE) INSIDE) TBT,
07:06:19  98  					   (select distinct COMPANY_ID,
07:06:19  99  							    BUS_SEGMENT_ID,
07:06:19 100  							    UTILITY_ACCOUNT_ID,
07:06:19 101  							    SUB_ACCOUNT_ID,
07:06:19 102  							    TAX_LOCATION_ID,
07:06:19 103  							    CLASS_CODE_ID,
07:06:19 104  							    CLASS_CODE_VALUE,
07:06:19 105  							    GL_ACCOUNT_ID,
07:06:19 106  							    TAX_DISTINCTION_ID,
07:06:19 107  							    TAX_CLASS_ID,
07:06:19 108  							    START_EFF_BOOK_VINTAGE,
07:06:19 109  							    END_EFF_BOOK_VINTAGE,
07:06:19 110  							    ACTIVE
07:06:19 111  					      from TAX_BOOK_TRANSLATE) TBT_TAX_CLASS
07:06:19 112  				     where TBT.COMPANY_ID = TBT_TAX_CLASS.COMPANY_ID
07:06:19 113  				       and TBT.BUS_SEGMENT_ID = TBT_TAX_CLASS.BUS_SEGMENT_ID
07:06:19 114  				       and TBT.UTILITY_ACCOUNT_ID = TBT_TAX_CLASS.UTILITY_ACCOUNT_ID
07:06:19 115  				       and TBT.SUB_ACCOUNT_ID = TBT_TAX_CLASS.SUB_ACCOUNT_ID
07:06:19 116  				       and TBT.TAX_LOCATION_ID = TBT_TAX_CLASS.TAX_LOCATION_ID
07:06:19 117  				       and TBT.CLASS_CODE_ID = TBT_TAX_CLASS.CLASS_CODE_ID
07:06:19 118  				       and TBT.CLASS_CODE_VALUE = TBT_TAX_CLASS.CLASS_CODE_VALUE
07:06:19 119  				       and TBT.GL_ACCOUNT_ID = TBT_TAX_CLASS.GL_ACCOUNT_ID
07:06:19 120  				       and TBT.TAX_DISTINCTION_ID = TBT_TAX_CLASS.TAX_DISTINCTION_ID) INSIDE
07:06:19 121  			     group by INSIDE.COMPANY_ID,
07:06:19 122  				      INSIDE.BUS_SEGMENT_ID,
07:06:19 123  				      INSIDE.UTILITY_ACCOUNT_ID,
07:06:19 124  				      INSIDE.SUB_ACCOUNT_ID,
07:06:19 125  				      INSIDE.TAX_LOCATION_ID,
07:06:19 126  				      INSIDE.CLASS_CODE_ID,
07:06:19 127  				      INSIDE.CLASS_CODE_VALUE,
07:06:19 128  				      INSIDE.GL_ACCOUNT_ID,
07:06:19 129  				      INSIDE.TAX_DISTINCTION_ID) TBT
07:06:19 130  		     where TAX_BOOK_TRANSLATE_GROUP.TAX_CLASS_ID_AGG = TBT.TAX_CLASS_ID_AGG
07:06:19 131  		       and TAX_BOOK_TRANSLATE_GROUP.START_EFF_BOOK_VINTAGE_AGG =
07:06:19 132  			   TBT.START_EFF_BOOK_VINTAGE_AGG
07:06:19 133  		       and TAX_BOOK_TRANSLATE_GROUP.END_EFF_BOOK_VINTAGE_AGG =
07:06:19 134  			   TBT.END_EFF_BOOK_VINTAGE_AGG
07:06:19 135  		       and TAX_BOOK_TRANSLATE_GROUP.ACTIVE_AGG = TBT.ACTIVE_AGG);
07:06:19 136  
07:06:19 137  	    forall I in TBT_GRP_BACKFILL_STG_TBL.FIRST .. TBT_GRP_BACKFILL_STG_TBL.LAST
07:06:19 138  	    -----only update if the tbt_group_ids have changed
07:06:19 139  	       update TAX_BOOK_TRANSLATE
07:06:19 140  		  set TBT_GROUP_ID = TBT_GRP_BACKFILL_STG_TBL(I).TBT_GROUP_ID
07:06:19 141  		where COMPANY_ID = TBT_GRP_BACKFILL_STG_TBL(I).COMPANY_ID
07:06:19 142  		  and BUS_SEGMENT_ID = TBT_GRP_BACKFILL_STG_TBL(I).BUS_SEGMENT_ID
07:06:19 143  		  and UTILITY_ACCOUNT_ID = TBT_GRP_BACKFILL_STG_TBL(I).UTILITY_ACCOUNT_ID
07:06:19 144  		  and SUB_ACCOUNT_ID = TBT_GRP_BACKFILL_STG_TBL(I).SUB_ACCOUNT_ID
07:06:19 145  		  and TAX_LOCATION_ID = TBT_GRP_BACKFILL_STG_TBL(I).TAX_LOCATION_ID
07:06:19 146  		  and CLASS_CODE_ID = TBT_GRP_BACKFILL_STG_TBL(I).CLASS_CODE_ID
07:06:19 147  		  and CLASS_CODE_VALUE = TBT_GRP_BACKFILL_STG_TBL(I).CLASS_CODE_VALUE
07:06:19 148  		  and GL_ACCOUNT_ID = TBT_GRP_BACKFILL_STG_TBL(I).GL_ACCOUNT_ID
07:06:19 149  		  and TAX_DISTINCTION_ID = TBT_GRP_BACKFILL_STG_TBL(I).TAX_DISTINCTION_ID
07:06:19 150  		  and NVL(TBT_GROUP_ID,0) <> NVL(TBT_GRP_BACKFILL_STG_TBL(I).TBT_GROUP_ID, 0);
07:06:19 151  
07:06:19 152  	 end P_BACKFILL_TBT_GROUP;
07:06:19 153  
07:06:19 154  	 --****************************************************************************************************
07:06:19 155  	 --		   FUNCTIONS
07:06:19 156  	 --****************************************************************************************************
07:06:19 157  
07:06:19 158  
07:06:19 159  	 -- function to refresh the rows in tax_interface_cos
07:06:19 160  	 function F_REFRESH_INTERFACE_COS(A_CO_IDS	     in CO_IDS,
07:06:19 161  					  A_INTERFACE_OBJECT varchar2) return varchar2 is
07:06:19 162  	    L_MSG    varchar2(2000);
07:06:19 163  	    NUM_ROWS number;
07:06:19 164  	 begin
07:06:19 165  
07:06:19 166  	    L_MSG := 'Clearing out tax_interface_cos for interface ' || LOWER(A_INTERFACE_OBJECT) ||
07:06:19 167  		     '...';
07:06:19 168  	    delete from TAX_INTERFACE_COS
07:06:19 169  	     where UPPER(trim(INTERFACE_OBJECT)) = UPPER(trim(A_INTERFACE_OBJECT))
07:06:19 170  	     and USER_ID = USER ;
07:06:19 171  	    NUM_ROWS := sql%rowcount;
07:06:19 172  	    L_MSG    := NUM_ROWS || ' rows deleted.';
07:06:19 173  
07:06:19 174  	    NUM_ROWS := A_CO_IDS.COUNT;
07:06:19 175  
07:06:19 176  	    L_MSG := 'Inserting into tax_interface_cos for interface ' || LOWER(A_INTERFACE_OBJECT) ||
07:06:19 177  		     '...';
07:06:19 178  
07:06:19 179  	    for I in 1 .. NUM_ROWS
07:06:19 180  	    loop
07:06:19 181  	       L_MSG := 'Insert on row:' || I || ', company:' || A_CO_IDS(I) || ', interface object:' ||
07:06:19 182  			A_INTERFACE_OBJECT;
07:06:19 183  	       insert into TAX_INTERFACE_COS
07:06:19 184  		  (COMPANY_ID, INTERFACE_OBJECT, USER_ID)
07:06:19 185  	       values
07:06:19 186  		  (A_CO_IDS(I), A_INTERFACE_OBJECT, USER);
07:06:19 187  	    end loop;
07:06:19 188  
07:06:19 189  	    return 'OK';
07:06:19 190  	 exception
07:06:19 191  	    when others then
07:06:19 192  	       return 'ERROR on ' || L_MSG;
07:06:19 193  	 end F_REFRESH_INTERFACE_COS;
07:06:19 194  
07:06:19 195  	 -- function to return the process id for retirements interface
07:06:19 196  	 function F_GETPROCESS return number is
07:06:19 197  	 begin
07:06:19 198  	    return L_PROCESS_ID;
07:06:19 199  	 end F_GETPROCESS;
07:06:19 200  
07:06:19 201  	 -- function to clear out previously processed retirements
07:06:19 202  	 function F_REMOVE_PRIOR_TRANS(A_VERSION_ID	  number,
07:06:19 203  				       A_TAX_YEAR	  number,
07:06:19 204  				       A_INTERFACE_OBJECT varchar2) return varchar2 is
07:06:19 205  	    L_MSG    varchar2(2000);
07:06:19 206  	    NUM_ROWS number;
07:06:19 207  	 begin
07:06:19 208  
07:06:19 209  	    L_MSG := 'Deleting from basis_amounts...';
07:06:19 210  	    PKG_PP_LOG.P_WRITE_MESSAGE(L_MSG);
07:06:19 211  	    delete from BASIS_AMOUNTS BA
07:06:19 212  	     where TAX_YEAR = A_TAX_YEAR
07:06:19 213  	       and TAX_ACTIVITY_CODE_ID in (2, 4)
07:06:19 214  	       and exists (select 1
07:06:19 215  		      from TAX_RECORD_CONTROL TRC, TAX_INTERFACE_COS TIC
07:06:19 216  		     where TRC.VERSION_ID = A_VERSION_ID
07:06:19 217  		       and TRC.COMPANY_ID = TIC.COMPANY_ID
07:06:19 218  		       and TIC.INTERFACE_OBJECT = A_INTERFACE_OBJECT
07:06:19 219  		       and TIC.USER_ID = USER
07:06:19 220  		       and TRC.TAX_RECORD_ID = BA.TAX_RECORD_ID);
07:06:19 221  	    NUM_ROWS := sql%rowcount;
07:06:19 222  	    L_MSG    := NUM_ROWS || ' rows deleted.';
07:06:19 223  	    PKG_PP_LOG.P_WRITE_MESSAGE(L_MSG);
07:06:19 224  
07:06:19 225  	    L_MSG := 'Deleting from tax_ret_audit_trail_grp...';
07:06:19 226  	    PKG_PP_LOG.P_WRITE_MESSAGE(L_MSG);
07:06:19 227  	    delete from TAX_RET_AUDIT_TRAIL_GRP
07:06:19 228  	     where TAX_YEAR = A_TAX_YEAR
07:06:19 229  	       and TAX_ACTIVITY_CODE_ID in (2, 4)
07:06:19 230  	       and COMPANY_ID in
07:06:19 231  		   (select COMPANY_ID from TAX_INTERFACE_COS where INTERFACE_OBJECT = A_INTERFACE_OBJECT AND USER_ID = USER );
07:06:19 232  	    NUM_ROWS := sql%rowcount;
07:06:19 233  	    L_MSG    := NUM_ROWS || ' rows deleted.';
07:06:19 234  	    PKG_PP_LOG.P_WRITE_MESSAGE(L_MSG);
07:06:19 235  
07:06:19 236  	    L_MSG := 'Updating tax_book_transactions_grp (setting ret status to -99 where applicable)';
07:06:19 237  	    PKG_PP_LOG.P_WRITE_MESSAGE(L_MSG);
07:06:19 238  	    update TAX_BOOK_TRANSACTIONS_GRP
07:06:19 239  	       set RETIREMENT_STATUS = -99, FOUND_IND = 0, AMOUNT_UNPROCESSED = AMOUNT
07:06:19 240  	     where TAX_YEAR = A_TAX_YEAR
07:06:19 241  	       and exists (select 1
07:06:19 242  		      from TAX_INTERFACE_COS TIC
07:06:19 243  		     where TAX_BOOK_TRANSACTIONS_GRP.COMPANY_ID = TIC.COMPANY_ID
07:06:19 244  		       and TIC.INTERFACE_OBJECT = A_INTERFACE_OBJECT
07:06:19 245  		       and TIC.USER_ID = USER);
07:06:19 246  	    NUM_ROWS := sql%rowcount;
07:06:19 247  	    L_MSG    := NUM_ROWS || ' rows updated.';
07:06:19 248  	    PKG_PP_LOG.P_WRITE_MESSAGE(L_MSG);
07:06:19 249  
07:06:19 250  	    L_MSG := 'Updating tax_book_transactions_grp (setting ret status to 0 where applicable)';
07:06:19 251  	    PKG_PP_LOG.P_WRITE_MESSAGE(L_MSG);
07:06:19 252  	    update TAX_BOOK_TRANSACTIONS_GRP
07:06:19 253  	       set RETIREMENT_STATUS = 0
07:06:19 254  	     where AMOUNT = 0
07:06:19 255  	       and TAX_YEAR = A_TAX_YEAR
07:06:19 256  	       and exists (select 1
07:06:19 257  		      from TAX_INTERFACE_COS TIC
07:06:19 258  		     where TAX_BOOK_TRANSACTIONS_GRP.COMPANY_ID = TIC.COMPANY_ID
07:06:19 259  		       and TIC.INTERFACE_OBJECT = A_INTERFACE_OBJECT
07:06:19 260  		       and TIC.USER_ID = USER);
07:06:19 261  	    NUM_ROWS := sql%rowcount;
07:06:19 262  	    L_MSG    := NUM_ROWS || ' rows updated.';
07:06:19 263  	    PKG_PP_LOG.P_WRITE_MESSAGE(L_MSG);
07:06:19 264  
07:06:19 265  	    return 'OK';
07:06:19 266  
07:06:19 267  	 exception
07:06:19 268  	    when others then
07:06:19 269  	       L_MSG := SUBSTR(L_MSG || ': ' || sqlerrm, 1, 2000);
07:06:19 270  	       PKG_PP_LOG.P_WRITE_MESSAGE(L_MSG);
07:06:19 271  	       return L_MSG;
07:06:19 272  	 end F_REMOVE_PRIOR_TRANS;
07:06:19 273  
07:06:19 274  	 -- tax retire rules table holds a set of string values that the
07:06:19 275  	 -- older datawindow logic used to filter a subset of tax records
07:06:19 276  	 -- and link them to another filtered set of transactions.  This
07:06:19 277  	 -- cannot exactly be mimiced in the new PL/SQL logic.	The closest,
07:06:19 278  	 -- hopefully fastest way to mimic this will be to use this function,
07:06:19 279  	 -- called from the iteration function, to build out global table
07:06:19 280  	 -- variables of the tax records that can be used and another variable
07:06:19 281  	 -- of the transactions that can be used.  The batch functions will be
07:06:19 282  	 -- modified to join into these table variables.
07:06:19 283  	 function F_FILTER_RECORDS(
07:06:19 284  			      A_TAX_YEAR	 number,
07:06:19 285  			      A_VERSION_ID	 number,
07:06:19 286  			      A_ITERATION	 number,
07:06:19 287  			      A_INTERFACE_OBJECT varchar2) return varchar2 is
07:06:19 288  	    L_MSG	varchar2(2000);
07:06:19 289  	    SQLS	varchar2(2000);
07:06:19 290  
07:06:19 291  	    L_TAX_RECORD_IDS table_list_id_type;
07:06:19 292  	    L_TRANS_GRP_IDS table_list_id_type;
07:06:19 293  
07:06:19 294  	    type TRR_REC_TYPE is record(
07:06:19 295  	       COMPANY_ID	TAX_RETIRE_RULES.COMPANY_ID%type,
07:06:19 296  	       FFORMAT_STRING	TAX_RETIRE_RULES.FFORMAT_STRING%type,
07:06:19 297  	       GFORMAT_STRING	TAX_RETIRE_RULES.GFORMAT_STRING%type);
07:06:19 298  	    type TRR_TBL_TYPE is table of TRR_REC_TYPE;
07:06:19 299  	    TRR_TBL TRR_TBL_TYPE;
07:06:19 300  
07:06:19 301  	 begin
07:06:19 302  
07:06:19 303  	    ----initialize/reset the global table variables
07:06:19 304  	    G_TAX_RECORD_IDS	 := table_list_id_type(-1);
07:06:19 305  	    G_TAX_RECORD_IDS.delete;
07:06:19 306  	    G_TRANS_GRP_IDS	 := table_list_id_type(-1);
07:06:19 307  	    G_TRANS_GRP_IDS.delete;
07:06:19 308  
07:06:19 309  	    ----initialize/reset the local table variables used in the loops
07:06:19 310  	    L_TAX_RECORD_IDS	 := table_list_id_type(-1);
07:06:19 311  	    L_TAX_RECORD_IDS.delete;
07:06:19 312  	    L_TRANS_GRP_IDS	 := table_list_id_type(-1);
07:06:19 313  	    L_TRANS_GRP_IDS.delete;
07:06:19 314  
07:06:19 315  	    L_MSG := 'Gathering retire rule filters...';
07:06:19 316  	    PKG_PP_LOG.P_WRITE_MESSAGE(L_MSG);
07:06:19 317  
07:06:19 318  	    begin
07:06:19 319  	       select TRR.COMPANY_ID,
07:06:19 320  		      nvl(trim(TRR.FFORMAT_STRING),'1=1') FFORMAT_STRING,
07:06:19 321  		      nvl(trim(TRR.GFORMAT_STRING),'1=1') GFORMAT_STRING bulk collect
07:06:19 322  		 into TRR_TBL
07:06:19 323  		 from TAX_RETIRE_RULES TRR, TAX_INTERFACE_COS TIC
07:06:19 324  		where TRR.COMPANY_ID = TIC.COMPANY_ID
07:06:19 325  		  and TIC.INTERFACE_OBJECT = A_INTERFACE_OBJECT
07:06:19 326  		  and TIC.USER_ID = USER
07:06:19 327  		  and TRR.ITERATION = A_ITERATION
07:06:19 328  		group by TRR.COMPANY_ID,
07:06:19 329  		      TRR.FFORMAT_STRING,
07:06:19 330  		      TRR.GFORMAT_STRING;
07:06:19 331  	    ----this function is entered from 1 to max(iteration).  put an exception catch here
07:06:19 332  	    ----in case the companies selected have fewer iterations than the max.
07:06:19 333  	    exception
07:06:19 334  	       when NO_DATA_FOUND then
07:06:19 335  		  L_MSG := 'No data found.  Continuing without error...';
07:06:19 336  		  PKG_PP_LOG.P_WRITE_MESSAGE(L_MSG);
07:06:19 337  		  return 'OK';
07:06:19 338  	       when others then
07:06:19 339  		  L_MSG := SUBSTR(L_MSG || ': ' || sqlerrm, 1, 2000);
07:06:19 340  		  PKG_PP_LOG.P_WRITE_MESSAGE(L_MSG);
07:06:19 341  		  return L_MSG;
07:06:19 342  	    end;
07:06:19 343  
07:06:19 344  	    L_MSG := 'Gathering tax records to filter...';
07:06:19 345  	    PKG_PP_LOG.P_WRITE_MESSAGE(L_MSG);
07:06:19 346  
07:06:19 347  	    ----loop through the selected retire rules and build out the tax records available to use.
07:06:19 348  	    FOR indx IN 1 .. TRR_TBL.count
07:06:19 349  	    LOOP
07:06:19 350  	       begin
07:06:19 351  		  ----populate the tax record ids for this filter and company into the
07:06:19 352  		  ----local id table
07:06:19 353  		  SQLS :=
07:06:19 354  		     'SELECT DISTINCT TAX_RECORD_CONTROL.TAX_RECORD_ID '||
07:06:19 355  		     'FROM TAX_RECORD_CONTROL, VINTAGE, TAX_DEPRECIATION '||
07:06:19 356  		     'WHERE TAX_RECORD_CONTROL.VINTAGE_ID = VINTAGE.VINTAGE_ID '||
07:06:19 357  		     'AND TAX_RECORD_CONTROL.VERSION_ID = '||A_VERSION_ID||' '||
07:06:19 358  		     'AND TAX_RECORD_CONTROL.COMPANY_ID = '||TRR_TBL(indx).COMPANY_ID||' '||
07:06:19 359  		     'AND TAX_RECORD_CONTROL.TAX_RECORD_ID = TAX_DEPRECIATION.TAX_RECORD_ID ' ||
07:06:19 360  		     'AND TAX_DEPRECIATION.TAX_YEAR = ' || A_TAX_YEAR || ' '||
07:06:19 361  		     'AND TAX_DEPRECIATION.TAX_BOOK_ID = 10 ' ||
07:06:19 362  		     'AND '||TRR_TBL(indx).FFORMAT_STRING;
07:06:19 363  
07:06:19 364  		  EXECUTE IMMEDIATE SQLS
07:06:19 365  		  BULK COLLECT INTO L_TAX_RECORD_IDS;
07:06:19 366  
07:06:19 367  	       ----in case no records come back, put an exception catch here and continue
07:06:19 368  	       exception
07:06:19 369  		  when NO_DATA_FOUND then
07:06:19 370  		     L_MSG := 'No tax records found.  Continuing to next iteration...';
07:06:19 371  		     PKG_PP_LOG.P_WRITE_MESSAGE(L_MSG);
07:06:19 372  		     continue;
07:06:19 373  		  when others then
07:06:19 374  		     L_MSG := 'Error encountered on filtering tax records in retire rules loop '||
07:06:19 375  			indx||', iteration '||A_ITERATION||', company id '||TRR_TBL(indx).COMPANY_ID||','||
07:06:19 376  			' attempted SQLS :"'||SQLS||'".';
07:06:19 377  		     L_MSG := SUBSTR(L_MSG || ': ' || sqlerrm, 1, 2000);
07:06:19 378  		     PKG_PP_LOG.P_WRITE_MESSAGE(L_MSG);
07:06:19 379  		     return L_MSG;
07:06:19 380  	       end;
07:06:19 381  
07:06:19 382  	       L_MSG	:= L_TAX_RECORD_IDS.count || ' tax record ids gathered on retire rules loop '||
07:06:19 383  		  indx||', iteration '||A_ITERATION||', company id '||TRR_TBL(indx).COMPANY_ID||'.';
07:06:19 384  	       PKG_PP_LOG.P_WRITE_MESSAGE(L_MSG);
07:06:19 385  
07:06:19 386  	       ----append the gathered local tax record ids to the global tax record ids
07:06:19 387  	       G_TAX_RECORD_IDS := G_TAX_RECORD_IDS
07:06:19 388  				    MULTISET UNION
07:06:19 389  				   L_TAX_RECORD_IDS;
07:06:19 390  
07:06:19 391  	       L_MSG	:= G_TAX_RECORD_IDS.count || ' : running total of tax records gathered on retire rules loop '||
07:06:19 392  		  indx||', iteration '||A_ITERATION||', company id '||TRR_TBL(indx).COMPANY_ID||'.';
07:06:19 393  	       PKG_PP_LOG.P_WRITE_MESSAGE(L_MSG);
07:06:19 394  
07:06:19 395  	    END LOOP;
07:06:19 396  
07:06:19 397  
07:06:19 398  	    L_MSG := 'Gathering transactions to filter...';
07:06:19 399  	    PKG_PP_LOG.P_WRITE_MESSAGE(L_MSG);
07:06:19 400  
07:06:19 401  	    ----loop through the selected retire rules and build out the transactions available to use.
07:06:19 402  	    FOR indx IN 1 .. TRR_TBL.count
07:06:19 403  	    LOOP
07:06:19 404  	       begin
07:06:19 405  		  ----populate the transaction grp ids for this filter and company into the
07:06:19 406  		  ----local id table
07:06:19 407  		  SQLS :=
07:06:19 408  		     'SELECT TAX_BOOK_TRANSACTIONS_GRP.TRANS_GRP_ID '||
07:06:19 409  		     'FROM TAX_BOOK_TRANSACTIONS_GRP '||
07:06:19 410  		     'WHERE TAX_BOOK_TRANSACTIONS_GRP.TAX_YEAR = '||A_TAX_YEAR||' '||
07:06:19 411  		     'AND TAX_BOOK_TRANSACTIONS_GRP.COMPANY_ID = '||TRR_TBL(indx).COMPANY_ID||' '||
07:06:19 412  		     'AND '||TRR_TBL(indx).GFORMAT_STRING;
07:06:19 413  
07:06:19 414  		  EXECUTE IMMEDIATE SQLS
07:06:19 415  		  BULK COLLECT INTO L_TRANS_GRP_IDS;
07:06:19 416  
07:06:19 417  	       ----in case no records come back, put an exception catch here and continue
07:06:19 418  	       exception
07:06:19 419  		  when NO_DATA_FOUND then
07:06:19 420  		     L_MSG := 'No transaction groupings found.	Continuing to next iteration...';
07:06:19 421  		     PKG_PP_LOG.P_WRITE_MESSAGE(L_MSG);
07:06:19 422  		     continue;
07:06:19 423  		  when others then
07:06:19 424  		     L_MSG := 'Error encountered on filtering transactions in retire rules loop '||
07:06:19 425  			indx||', iteration '||A_ITERATION||', company id '||TRR_TBL(indx).COMPANY_ID||','||
07:06:19 426  			' attempted SQLS :"'||SQLS||'".';
07:06:19 427  		     L_MSG := SUBSTR(L_MSG || ': ' || sqlerrm, 1, 2000);
07:06:19 428  		     PKG_PP_LOG.P_WRITE_MESSAGE(L_MSG);
07:06:19 429  		     return L_MSG;
07:06:19 430  	       end;
07:06:19 431  
07:06:19 432  	       L_MSG	:= L_TRANS_GRP_IDS.count || ' trans group ids gathered on retire rules loop '||
07:06:19 433  		  indx||', iteration '||A_ITERATION||', company id '||TRR_TBL(indx).COMPANY_ID||'.';
07:06:19 434  	       PKG_PP_LOG.P_WRITE_MESSAGE(L_MSG);
07:06:19 435  
07:06:19 436  	       ----append the gathered local trans grp ids to the global trans grps ids
07:06:19 437  	       G_TRANS_GRP_IDS := G_TRANS_GRP_IDS
07:06:19 438  				    MULTISET UNION
07:06:19 439  				   L_TRANS_GRP_IDS;
07:06:19 440  
07:06:19 441  	       L_MSG	:= G_TRANS_GRP_IDS.count || ' : running total of tax records gathered on retire rules loop '||
07:06:19 442  		  indx||', iteration '||A_ITERATION||', company id '||TRR_TBL(indx).COMPANY_ID||'.';
07:06:19 443  	       PKG_PP_LOG.P_WRITE_MESSAGE(L_MSG);
07:06:19 444  
07:06:19 445  	    END LOOP;
07:06:19 446  
07:06:19 447  	    return 'OK';
07:06:19 448  
07:06:19 449  	 exception
07:06:19 450  	    when others then
07:06:19 451  	       L_MSG := SUBSTR(L_MSG || ': ' || sqlerrm, 1, 2000);
07:06:19 452  	       PKG_PP_LOG.P_WRITE_MESSAGE(L_MSG);
07:06:19 453  	       return L_MSG;
07:06:19 454  
07:06:19 455  	 end;
07:06:19 456  
07:06:19 457  	 -- function to process a batch of data (each iteration could run many batches)
07:06:19 458  	 function F_RUN_BATCH(A_TAX_YEAR	 number,
07:06:19 459  			      A_START_MO	 number,
07:06:19 460  			      A_END_MO		 number,
07:06:19 461  			      A_VERSION_ID	 number,
07:06:19 462  			      A_ITERATION	 number,
07:06:19 463  			      A_BATCH		 number,
07:06:19 464  			      A_INTERFACE_OBJECT varchar2) return varchar2 is
07:06:19 465  	    L_MSG	 varchar2(2000);
07:06:19 466  	    NUM_ROWS	 number;
07:06:19 467  	    ANALYZE_CODE number(22, 0);
07:06:19 468  	    type BA_REC_TYPE is record(
07:06:19 469  	       TAX_RECORD_ID	    BASIS_AMOUNTS.TAX_RECORD_ID%type,
07:06:19 470  	       TAX_YEAR 	    BASIS_AMOUNTS.TAX_YEAR%type,
07:06:19 471  	       TAX_ACTIVITY_CODE_ID BASIS_AMOUNTS.TAX_ACTIVITY_CODE_ID%type,
07:06:19 472  	       AMOUNT		    BASIS_AMOUNTS.AMOUNT%type);
07:06:19 473  	    type BA_TBL_TYPE is table of BA_REC_TYPE;
07:06:19 474  	    BA_TBL BA_TBL_TYPE;
07:06:19 475  
07:06:19 476  	 begin
07:06:19 477  
07:06:19 478  	    L_MSG := 'Regathering stats for tax_book_transactions_grp...';
07:06:19 479  	    PKG_PP_LOG.P_WRITE_MESSAGE(L_MSG);
07:06:19 480  	    ANALYZE_CODE := ANALYZE_TABLE('tax_book_transactions_grp');
07:06:19 481  
07:06:19 482  	    L_MSG := 'Regathering stats for basis_amounts...';
07:06:19 483  	    PKG_PP_LOG.P_WRITE_MESSAGE(L_MSG);
07:06:19 484  	    ANALYZE_CODE := ANALYZE_TABLE('basis_amounts');
07:06:19 485  
07:06:19 486  	    L_MSG := 'Inserting into tax_ret_audit_trail_grp...';
07:06:19 487  	    PKG_PP_LOG.P_WRITE_MESSAGE(L_MSG);
07:06:19 488  	    insert into TAX_RET_AUDIT_TRAIL_GRP
07:06:19 489  	       (COMPANY_ID, TAX_ACTIVITY_CODE_ID, IN_SERVICE_YEAR, TAX_YEAR, START_MONTH, END_MONTH,
07:06:19 490  		TRANS_GRP_ID, START_EFF_BOOK_VINTAGE, END_EFF_BOOK_VINTAGE, BOOK_BALANCE,
07:06:19 491  		HOLD_SUM_BOOK_BALANCE, FINAL_AMOUNT, TRANS_AMOUNT, VINTAGE_YEAR, TAX_RECORD_ID,
07:06:19 492  		RETIREMENT_STATUS, TRID_VINTAGE_YEAR, BATCH, ITERATION, TBT_GROUP_ID, ASSET_ID)
07:06:19 493  	       select COMPANY_ID,
07:06:19 494  		      TAX_ACTIVITY_CODE_ID,
07:06:19 495  		      IN_SERVICE_YEAR,
07:06:19 496  		      TAX_YEAR,
07:06:19 497  		      START_MONTH,
07:06:19 498  		      END_MONTH,
07:06:19 499  		      TRANS_GRP_ID,
07:06:19 500  		      START_EFF_BOOK_VINTAGE,
07:06:19 501  		      END_EFF_BOOK_VINTAGE,
07:06:19 502  		      BOOK_BALANCE,
07:06:19 503  		      BALANCE,
07:06:19 504  		      NEW_RETIREMENT,
07:06:19 505  		      TRANS_AMOUNT,
07:06:19 506  		      BOOK_VINTAGE_YEAR,
07:06:19 507  		      TAX_RECORD_ID,
07:06:19 508  		      RETIREMENT_STATUS,
07:06:19 509  		      VINTAGE_YEAR,
07:06:19 510  		      BATCH,
07:06:19 511  		      ITERATION,
07:06:19 512  		      TBT_GROUP_ID,
07:06:19 513  		      ASSET_ID
07:06:19 514  		 from (select COMPANY_ID,
07:06:19 515  			      TAX_ACTIVITY_CODE_ID,
07:06:19 516  			      IN_SERVICE_YEAR,
07:06:19 517  			      TAX_YEAR,
07:06:19 518  			      START_MONTH,
07:06:19 519  			      END_MONTH,
07:06:19 520  			      TRANS_GRP_ID,
07:06:19 521  			      START_EFF_BOOK_VINTAGE,
07:06:19 522  			      END_EFF_BOOK_VINTAGE,
07:06:19 523  			      BOOK_BALANCE,
07:06:19 524  			      BALANCE,
07:06:19 525  			      DECODE(SIGN(TRANS_AMOUNT),
07:06:19 526  				     -1,
07:06:19 527  				     NEW_RETIREMENT,
07:06:19 528  				     DECODE(SIGN(BALANCE - NEW_RETIREMENT),
07:06:19 529  					    -1,
07:06:19 530  					    BALANCE,
07:06:19 531  					    NEW_RETIREMENT)) NEW_RETIREMENT,
07:06:19 532  			      TRANS_AMOUNT,
07:06:19 533  			      BOOK_VINTAGE_YEAR,
07:06:19 534  			      TAX_RECORD_ID,
07:06:19 535  			      DECODE(SIGN(TRANS_AMOUNT),
07:06:19 536  				     -1,
07:06:19 537  				     ITERATION,
07:06:19 538  				     DECODE(SIGN(BALANCE - NEW_RETIREMENT),
07:06:19 539  					    -1,
07:06:19 540  					    -98,
07:06:19 541  					    ITERATION))  RETIREMENT_STATUS,
07:06:19 542  			      VINTAGE_YEAR,
07:06:19 543  			      (A_BATCH) BATCH,
07:06:19 544  			      ITERATION,
07:06:19 545  			      TBT_GROUP_ID,
07:06:19 546  			      ASSET_ID,
07:06:19 547  			      ALLOC_SUBTOTAL,
07:06:19 548  			      FIFO,
07:06:19 549  			      max(TRID_RANK) OVER(partition by TRANS_GRP_ID) TRANS_RANK
07:06:19 550  			 from (select distinct TBT.COMPANY_ID COMPANY_ID,
07:06:19 551  					       TBT.TAX_ACTIVITY_CODE_ID TAX_ACTIVITY_CODE_ID,
07:06:19 552  					       TBT.IN_SERVICE_YEAR IN_SERVICE_YEAR,
07:06:19 553  					       TBT.TAX_YEAR,
07:06:19 554  					       (A_START_MO) START_MONTH,
07:06:19 555  					       (A_END_MO) END_MONTH,
07:06:19 556  					       TBT.TRANS_GRP_ID TRANS_GRP_ID,
07:06:19 557  					       TBX.START_EFF_BOOK_VINTAGE,
07:06:19 558  					       TBX.END_EFF_BOOK_VINTAGE,
07:06:19 559  					       TD.BOOK_BALANCE,
07:06:19 560  					       (NVL(TD.BOOK_BALANCE, 0) + NVL(BA.AMOUNT, 0) + NVL(TDT.BOOK_BALANCE, 0)) BALANCE,
07:06:19 561  					       DECODE(( sum( NVL(TD.BOOK_BALANCE, 0) + NVL(BA.AMOUNT, 0) + NVL(TDT.BOOK_BALANCE, 0) )
07:06:19 562  							  OVER(partition by TRANS_GRP_ID) ) ,
07:06:19 563  							0,
07:06:19 564  							0,
07:06:19 565  							DECODE(TRR.FIFO,
07:06:19 566  							     0,
07:06:19 567  							     decode(
07:06:19 568  								sign(TBT.AMOUNT),
07:06:19 569  								-1,
07:06:19 570  								DECODE(DENSE_RANK()
07:06:19 571  								       OVER(partition by TBT.TRANS_GRP_ID
07:06:19 572  									  order by
07:06:19 573  									   decode(SIGN(TD.BOOK_BALANCE),-1,1,2) ASC,
07:06:19 574  									   abs(TD.BOOK_BALANCE) desc,
07:06:19 575  									   TRC.TAX_RECORD_ID),
07:06:19 576  								       1,
07:06:19 577  								       1,
07:06:19 578  								       0) * TBT.AMOUNT_UNPROCESSED,
07:06:19 579  								( NVL(TD.BOOK_BALANCE, 0) + NVL(BA.AMOUNT, 0) + NVL(TDT.BOOK_BALANCE, 0) ) /
07:06:19 580  								      ( sum( NVL(TD.BOOK_BALANCE, 0) + NVL(BA.AMOUNT, 0) + NVL(TDT.BOOK_BALANCE, 0) )
07:06:19 581  									 OVER(partition by TRANS_GRP_ID) ) * TBT.AMOUNT_UNPROCESSED
07:06:19 582  							      ) ,
07:06:19 583  							      DECODE(DENSE_RANK()
07:06:19 584  								     OVER(partition by TBT.TRANS_GRP_ID
07:06:19 585  									  order by
07:06:19 586  									  V.YEAR,
07:06:19 587  									  ABS(TD.BOOK_BALANCE) desc,
07:06:19 588  									  TRC.TAX_RECORD_ID),
07:06:19 589  								     1,
07:06:19 590  								     1,
07:06:19 591  								     0) * TBT.AMOUNT_UNPROCESSED)) NEW_RETIREMENT,
07:06:19 592  					       TBT.AMOUNT TRANS_AMOUNT,
07:06:19 593  					       TO_NUMBER(TO_CHAR(TBT.IN_SERVICE_YEAR, 'YYYY')) BOOK_VINTAGE_YEAR,
07:06:19 594  					       TRC.TAX_RECORD_ID TAX_RECORD_ID,
07:06:19 595  					       A_ITERATION ITERATION,
07:06:19 596  					       TBT.TBT_GROUP_ID,
07:06:19 597  					       TBT.ASSET_ID,
07:06:19 598  					       V.YEAR VINTAGE_YEAR,
07:06:19 599  					       TBT.AMOUNT_UNPROCESSED,
07:06:19 600  					       sum(NVL(TD.BOOK_BALANCE, 0) + NVL(BA.AMOUNT, 0) +
07:06:19 601  						   NVL(TDT.BOOK_BALANCE, 0)) OVER(partition by TRANS_GRP_ID) ALLOC_SUBTOTAL,
07:06:19 602  					       TRR.FIFO,
07:06:19 603  					       RANK() OVER(partition by TRC.TAX_RECORD_ID order by DECODE(SIGN(TBT.AMOUNT),-1,1,2) ASC, TBT.AMOUNT desc) TRID_RANK
07:06:19 604  				 from TAX_BOOK_TRANSACTIONS_GRP TBT,
07:06:19 605  				      TAX_BOOK_TRANSLATE_GROUP_MAP TBX,
07:06:19 606  				      COMPANY C,
07:06:19 607  				      TAX_INTERFACE_COS TIC,
07:06:19 608  				      (select COMPANY_ID,
07:06:19 609  					      ITERATION,
07:06:19 610  					      VINTAGE_FORWARD,
07:06:19 611  					      VINTAGE_BACK,
07:06:19 612  					      FIFO,
07:06:19 613  					      MIN_VINTAGE
07:06:19 614  					 from TAX_RETIRE_RULES TRR
07:06:19 615  				       union
07:06:19 616  				       select distinct COMPANY_ID,
07:06:19 617  						       1 ITERATION,
07:06:19 618  						       0 VINTAGE_FORWARD,
07:06:19 619  						       0 VINTAGE_BACK,
07:06:19 620  						       0 FIFO,
07:06:19 621  						       1969 MIN_VINTAGE
07:06:19 622  					 from (select distinct COMPANY_ID
07:06:19 623  						 from TAX_BOOK_TRANSACTIONS
07:06:19 624  					       minus
07:06:19 625  					       select COMPANY_ID
07:06:19 626  						 from TAX_RETIRE_RULES)) TRR,
07:06:19 627  				      TAX_DEPRECIATION TD,
07:06:19 628  				      TAX_RECORD_CONTROL TRC,
07:06:19 629  				      VINTAGE V,
07:06:19 630  				      (select BA2.TAX_RECORD_ID,
07:06:19 631  					      BA2.TAX_YEAR,
07:06:19 632  					      sum(NVL(BA2.AMOUNT, 0) * NVL(TAC2.SIGN, 1)) AMOUNT
07:06:19 633  					 from BASIS_AMOUNTS	 BA2,
07:06:19 634  					      TAX_ACTIVITY_CODE  TAC2,
07:06:19 635  					      TAX_RECORD_CONTROL TRC2
07:06:19 636  					where BA2.TAX_ACTIVITY_CODE_ID = TAC2.TAX_ACTIVITY_CODE_ID(+)
07:06:19 637  					  and BA2.TAX_ACTIVITY_CODE_ID <> 12
07:06:19 638  					  and BA2.TAX_RECORD_ID = TRC2.TAX_RECORD_ID
07:06:19 639  					  and TRC2.VERSION_ID = A_VERSION_ID
07:06:19 640  					  and BA2.TAX_YEAR = A_TAX_YEAR
07:06:19 641  					group by BA2.TAX_RECORD_ID, BA2.TAX_YEAR) BA,
07:06:19 642  				      (select TDT2.TAX_RECORD_ID,
07:06:19 643  					      TDT2.TAX_YEAR,
07:06:19 644  					      TDT2.TAX_BOOK_ID,
07:06:19 645  					      sum(NVL(TDT2.BOOK_BALANCE, 0)) BOOK_BALANCE
07:06:19 646  					 from TAX_DEPRECIATION_TRANSFER TDT2, TAX_RECORD_CONTROL TRC2
07:06:19 647  					where TDT2.TAX_RECORD_ID = TRC2.TAX_RECORD_ID
07:06:19 648  					  and TRC2.VERSION_ID = A_VERSION_ID
07:06:19 649  					  and TDT2.TAX_YEAR = A_TAX_YEAR
07:06:19 650  					  and TDT2.TAX_BOOK_ID = 10
07:06:19 651  					group by TDT2.TAX_RECORD_ID, TDT2.TAX_YEAR, TDT2.TAX_BOOK_ID) TDT
07:06:19 652  				where TBT.TBT_GROUP_ID = TBX.TBT_GROUP_ID
07:06:19 653  				  and TBT.TAX_YEAR = A_TAX_YEAR
07:06:19 654  				  and TBT.COMPANY_ID = C.COMPANY_ID
07:06:19 655  				  and TBT.COMPANY_ID = TRR.COMPANY_ID
07:06:19 656  				  and TBT.COMPANY_ID = TIC.COMPANY_ID
07:06:19 657  				  and TIC.INTERFACE_OBJECT = A_INTERFACE_OBJECT
07:06:19 658  				  and TIC.USER_ID = USER
07:06:19 659  				  and TBT.AMOUNT <> 0
07:06:19 660  				  and TBT.TAX_ACTIVITY_CODE_ID in (2, 4)
07:06:19 661  				  and TBT.RETIREMENT_STATUS in (-99, -98)
07:06:19 662  				  and TRR.ITERATION = A_ITERATION
07:06:19 663  				  and TD.TAX_RECORD_ID = TRC.TAX_RECORD_ID
07:06:19 664  				  and TD.TAX_BOOK_ID = 10
07:06:19 665  				  and TRC.COMPANY_ID = C.COMPANY_ID
07:06:19 666  				  and TRC.VINTAGE_ID = V.VINTAGE_ID
07:06:19 667  				  and TD.TAX_RECORD_ID = BA.TAX_RECORD_ID(+)
07:06:19 668  				  and TD.TAX_YEAR = BA.TAX_YEAR(+)
07:06:19 669  				  and TD.TAX_RECORD_ID = TDT.TAX_RECORD_ID(+)
07:06:19 670  				  and TD.TAX_BOOK_ID = TDT.TAX_BOOK_ID(+)
07:06:19 671  				  and TD.TAX_YEAR = TDT.TAX_YEAR(+)
07:06:19 672  				  and TRC.COMPANY_ID = TBT.COMPANY_ID
07:06:19 673  				  and TRC.ASSET_ID = TBT.ASSET_ID
07:06:19 674  				  and TRC.VERSION_ID = A_VERSION_ID
07:06:19 675  				  and TBX.TAX_CLASS_ID = TRC.TAX_CLASS_ID
07:06:19 676  				  and TBT.TAX_YEAR = TD.TAX_YEAR
07:06:19 677  				  and TRC.TAX_RECORD_ID in ( select * from table(G_TAX_RECORD_IDS)) --filter records from retire rules and filter function
07:06:19 678  				  and TBT.TRANS_GRP_ID in ( select * from table(G_TRANS_GRP_IDS)) --filter transactions from retire rules and filter function
07:06:19 679  				  and TO_NUMBER(TO_CHAR(TBT.IN_SERVICE_YEAR,'YYYY')) >= TBX.START_EFF_BOOK_VINTAGE
07:06:19 680  				  and TO_NUMBER(TO_CHAR(TBT.IN_SERVICE_YEAR,'YYYY')) <= TBX.END_EFF_BOOK_VINTAGE
07:06:19 681  				  and V.YEAR <= DECODE(SIGN(TO_NUMBER(TO_CHAR(TBT.IN_SERVICE_YEAR, 'YYYY')) -
07:06:19 682  							    MIN_VINTAGE),
07:06:19 683  						       -1,
07:06:19 684  						       MIN_VINTAGE,
07:06:19 685  						       TO_NUMBER(TO_CHAR(TBT.IN_SERVICE_YEAR, 'YYYY'))) +
07:06:19 686  				      TRR.VINTAGE_FORWARD
07:06:19 687  				  and V.YEAR >= DECODE(SIGN(TO_NUMBER(TO_CHAR(TBT.IN_SERVICE_YEAR, 'YYYY')) -
07:06:19 688  							    MIN_VINTAGE),
07:06:19 689  						       -1,
07:06:19 690  						       MIN_VINTAGE,
07:06:19 691  						       TO_NUMBER(TO_CHAR(TBT.IN_SERVICE_YEAR, 'YYYY'))) -
07:06:19 692  				      TRR.VINTAGE_BACK
07:06:19 693  				  and 1 = DECODE(SIGN(TBT.AMOUNT),
07:06:19 694  						 -1,
07:06:19 695  						 1,
07:06:19 696  						 SIGN(NVL(TD.BOOK_BALANCE, 0) + NVL(BA.AMOUNT, 0) +
07:06:19 697  						      NVL(TDT.BOOK_BALANCE, 0)))
07:06:19 698  				  )
07:06:19 699  			where DECODE(SIGN(TRANS_AMOUNT),
07:06:19 700  				     -1,
07:06:19 701  				     NEW_RETIREMENT,
07:06:19 702  					DECODE(SIGN(BALANCE - NEW_RETIREMENT),
07:06:19 703  					    -1,
07:06:19 704  					    BALANCE,
07:06:19 705  					    NEW_RETIREMENT)) <> 0)
07:06:19 706  		where TRANS_RANK = 1;
07:06:19 707  	    NUM_ROWS := sql%rowcount;
07:06:19 708  	    L_MSG    := NUM_ROWS || ' rows inserted into tax_ret_audit_trail_grp.';
07:06:19 709  	    PKG_PP_LOG.P_WRITE_MESSAGE(L_MSG);
07:06:19 710  
07:06:19 711  	    if NUM_ROWS = 0 then
07:06:19 712  	       L_MSG := 'Exiting function on 0 rows inserts';
07:06:19 713  	       PKG_PP_LOG.P_WRITE_MESSAGE(L_MSG);
07:06:19 714  	       return 'ZERO ROWS';
07:06:19 715  	    end if;
07:06:19 716  
07:06:19 717  	    L_MSG := 'Updating tax_book_transactions_grp...';
07:06:19 718  	    PKG_PP_LOG.P_WRITE_MESSAGE(L_MSG);
07:06:19 719  	    update TAX_BOOK_TRANSACTIONS_GRP TBT
07:06:19 720  	       set RETIREMENT_STATUS = NVL((select max(RETIREMENT_STATUS)
07:06:19 721  					      from TAX_RET_AUDIT_TRAIL_GRP TRAT, TAX_INTERFACE_COS TIC
07:06:19 722  					     where TRAT.TRANS_GRP_ID = TBT.TRANS_GRP_ID
07:06:19 723  					       and TRAT.COMPANY_ID = TBT.COMPANY_ID
07:06:19 724  					       and TRAT.TAX_YEAR = TBT.TAX_YEAR
07:06:19 725  					       and TBT.TAX_YEAR = A_TAX_YEAR
07:06:19 726  					       and TBT.COMPANY_ID = TIC.COMPANY_ID
07:06:19 727  					       and TIC.INTERFACE_OBJECT = A_INTERFACE_OBJECT
07:06:19 728  					       and TIC.USER_ID = USER),
07:06:19 729  					    -99),
07:06:19 730  		   AMOUNT_UNPROCESSED = AMOUNT_UNPROCESSED -
07:06:19 731  					 NVL((select sum(FINAL_AMOUNT)
07:06:19 732  					       from TAX_RET_AUDIT_TRAIL_GRP TRAT, TAX_INTERFACE_COS TIC
07:06:19 733  					      where TRAT.TRANS_GRP_ID = TBT.TRANS_GRP_ID
07:06:19 734  						and TRAT.COMPANY_ID = TBT.COMPANY_ID
07:06:19 735  						and TRAT.TAX_YEAR = TBT.TAX_YEAR
07:06:19 736  						and TRAT.ITERATION = A_ITERATION
07:06:19 737  						and TRAT.BATCH = A_BATCH
07:06:19 738  						and TBT.TAX_YEAR = A_TAX_YEAR
07:06:19 739  						and TRAT.COMPANY_ID = TIC.COMPANY_ID
07:06:19 740  						and TIC.INTERFACE_OBJECT = A_INTERFACE_OBJECT
07:06:19 741  						and TIC.USER_ID = USER),
07:06:19 742  					     0)
07:06:19 743  	     where exists (select 1
07:06:19 744  		      from TAX_INTERFACE_COS TIC
07:06:19 745  		     where TBT.COMPANY_ID = TIC.COMPANY_ID
07:06:19 746  		       and TIC.INTERFACE_OBJECT = A_INTERFACE_OBJECT
07:06:19 747  		       and TIC.USER_ID = USER)
07:06:19 748  	       and TAX_YEAR = A_TAX_YEAR
07:06:19 749  	       and RETIREMENT_STATUS in (-99, -98)
07:06:19 750  	       and exists (select 1
07:06:19 751  		      from TAX_RET_AUDIT_TRAIL_GRP TRAT, TAX_INTERFACE_COS TIC
07:06:19 752  		     where TRAT.TRANS_GRP_ID = TBT.TRANS_GRP_ID
07:06:19 753  		       and TRAT.COMPANY_ID = TBT.COMPANY_ID
07:06:19 754  		       and TRAT.TAX_YEAR = TBT.TAX_YEAR
07:06:19 755  		       and TRAT.ITERATION = A_ITERATION
07:06:19 756  		       and TBT.TAX_YEAR = A_TAX_YEAR
07:06:19 757  		       and TRAT.COMPANY_ID = TIC.COMPANY_ID
07:06:19 758  		       and TIC.INTERFACE_OBJECT = A_INTERFACE_OBJECT
07:06:19 759  		       and TIC.USER_ID = USER);
07:06:19 760  	    NUM_ROWS := sql%rowcount;
07:06:19 761  	    L_MSG    := NUM_ROWS || ' rows updated on tax_book_transactions_grp.';
07:06:19 762  	    PKG_PP_LOG.P_WRITE_MESSAGE(L_MSG);
07:06:19 763  
07:06:19 764  	    L_MSG := 'Updating basis_amounts...';
07:06:19 765  	    PKG_PP_LOG.P_WRITE_MESSAGE(L_MSG);
07:06:19 766  	    select TRAT.TAX_RECORD_ID,
07:06:19 767  		   TRAT.TAX_YEAR,
07:06:19 768  		   TRAT.TAX_ACTIVITY_CODE_ID,
07:06:19 769  		   sum(TRAT.FINAL_AMOUNT) bulk collect
07:06:19 770  	      into BA_TBL
07:06:19 771  	      from TAX_RET_AUDIT_TRAIL_GRP TRAT, TAX_INTERFACE_COS TIC
07:06:19 772  	     where TRAT.COMPANY_ID = TIC.COMPANY_ID
07:06:19 773  	       and TIC.INTERFACE_OBJECT = A_INTERFACE_OBJECT
07:06:19 774  	       and TIC.USER_ID = USER
07:06:19 775  	       and TRAT.TAX_YEAR = A_TAX_YEAR
07:06:19 776  	       and TRAT.ITERATION = A_ITERATION
07:06:19 777  	       and TRAT.BATCH = A_BATCH
07:06:19 778  	     group by TRAT.TAX_RECORD_ID, TRAT.TAX_YEAR, TRAT.TAX_ACTIVITY_CODE_ID;
07:06:19 779  
07:06:19 780  	    forall I in BA_TBL.FIRST .. BA_TBL.LAST
07:06:19 781  	       update BASIS_AMOUNTS
07:06:19 782  		  set AMOUNT = AMOUNT + BA_TBL(I).AMOUNT
07:06:19 783  		where TAX_RECORD_ID = BA_TBL(I).TAX_RECORD_ID
07:06:19 784  		  and TAX_YEAR = BA_TBL(I).TAX_YEAR
07:06:19 785  		  and TAX_ACTIVITY_CODE_ID = BA_TBL(I).TAX_ACTIVITY_CODE_ID
07:06:19 786  		  and TAX_YEAR = A_TAX_YEAR;
07:06:19 787  	    NUM_ROWS := BA_TBL.COUNT;
07:06:19 788  	    L_MSG    := NUM_ROWS || ' rows updated on basis_amounts.';
07:06:19 789  	    PKG_PP_LOG.P_WRITE_MESSAGE(L_MSG);
07:06:19 790  
07:06:19 791  	    L_MSG := 'Inserting into basis_amounts...';
07:06:19 792  	    PKG_PP_LOG.P_WRITE_MESSAGE(L_MSG);
07:06:19 793  	    insert into BASIS_AMOUNTS BA
07:06:19 794  	       (TAX_RECORD_ID, TAX_ACTIVITY_CODE_ID, TAX_YEAR, TAX_INCLUDE_ID, AMOUNT)
07:06:19 795  	       select TRAT.TAX_RECORD_ID,
07:06:19 796  		      TRAT.TAX_ACTIVITY_CODE_ID,
07:06:19 797  		      A_TAX_YEAR,
07:06:19 798  		      1 TAX_INCLUDE_ID,
07:06:19 799  		      sum(TRAT.FINAL_AMOUNT) AMOUNT
07:06:19 800  		 from TAX_RET_AUDIT_TRAIL_GRP TRAT, TAX_INTERFACE_COS TIC
07:06:19 801  		where TRAT.TAX_YEAR = A_TAX_YEAR
07:06:19 802  		  and TRAT.COMPANY_ID = TIC.COMPANY_ID
07:06:19 803  		  and TIC.INTERFACE_OBJECT = A_INTERFACE_OBJECT
07:06:19 804  		  and TIC.USER_ID = USER
07:06:19 805  		  and TRAT.ITERATION = A_ITERATION
07:06:19 806  		  and TRAT.BATCH = A_BATCH
07:06:19 807  		  and not exists (select 1
07:06:19 808  			 from BASIS_AMOUNTS BA
07:06:19 809  			where BA.TAX_RECORD_ID = TRAT.TAX_RECORD_ID
07:06:19 810  			  and BA.TAX_YEAR = TRAT.TAX_YEAR
07:06:19 811  			  and BA.TAX_ACTIVITY_CODE_ID = TRAT.TAX_ACTIVITY_CODE_ID
07:06:19 812  			  and BA.TAX_YEAR = A_TAX_YEAR)
07:06:19 813  		group by TRAT.TAX_RECORD_ID, TRAT.TAX_ACTIVITY_CODE_ID, A_TAX_YEAR;
07:06:19 814  	    NUM_ROWS := sql%rowcount;
07:06:19 815  	    L_MSG    := NUM_ROWS || ' rows inserted into basis_amounts.';
07:06:19 816  	    PKG_PP_LOG.P_WRITE_MESSAGE(L_MSG);
07:06:19 817  
07:06:19 818  	    return 'OK';
07:06:19 819  
07:06:19 820  	 exception
07:06:19 821  	    when others then
07:06:19 822  	       L_MSG := SUBSTR(L_MSG || ': ' || sqlerrm, 1, 2000);
07:06:19 823  	       PKG_PP_LOG.P_WRITE_MESSAGE(L_MSG);
07:06:19 824  	       return L_MSG;
07:06:19 825  	 end F_RUN_BATCH;
07:06:19 826  
07:06:19 827  	 -- function to process the retirements
07:06:19 828  	 function F_RUN_ITERATION(A_TAX_YEAR	     number,
07:06:19 829  				  A_START_MO	     number,
07:06:19 830  				  A_END_MO	     number,
07:06:19 831  				  A_VERSION_ID	     number,
07:06:19 832  				  A_INTERFACE_OBJECT varchar2) return varchar2 is
07:06:19 833  	    L_MSG     varchar2(2000);
07:06:19 834  	    MAX_ITER  number;
07:06:19 835  	    BATCH_NO  number;
07:06:19 836  	    ZERO_ROWS boolean;
07:06:19 837  	 begin
07:06:19 838  
07:06:19 839  	    L_MSG := 'Retrieving max number of iterations to run.';
07:06:19 840  	    PKG_PP_LOG.P_WRITE_MESSAGE(L_MSG);
07:06:19 841  
07:06:19 842  	    select max(NVL(ITERATION, 0))
07:06:19 843  	      into MAX_ITER
07:06:19 844  	      from TAX_RETIRE_RULES TRR, TAX_INTERFACE_COS TIC
07:06:19 845  	     where TRR.COMPANY_ID = TIC.COMPANY_ID
07:06:19 846  	       and TIC.INTERFACE_OBJECT = A_INTERFACE_OBJECT
07:06:19 847  	       and TIC.USER_ID = USER;
07:06:19 848  
07:06:19 849  	    if MAX_ITER < 1 or MAX_ITER is null then
07:06:19 850  	       L_MSG := 'Error on selecting the max iteration from tax retire rules for applicable companies';
07:06:19 851  	       PKG_PP_LOG.P_WRITE_MESSAGE(L_MSG);
07:06:19 852  	       return L_MSG;
07:06:19 853  	    end if;
07:06:19 854  
07:06:19 855  	    for I in 1 .. MAX_ITER
07:06:19 856  	    loop
07:06:19 857  	       L_MSG := 'Entering iteration loop ' || I || ' of ' || MAX_ITER;
07:06:19 858  	       PKG_PP_LOG.P_WRITE_MESSAGE(L_MSG);
07:06:19 859  
07:06:19 860  	       L_MSG := ' ';
07:06:19 861  	       PKG_PP_LOG.P_WRITE_MESSAGE(L_MSG);
07:06:19 862  	       L_MSG := 'Entering filter function. Iteration ' || I || '.';
07:06:19 863  	       PKG_PP_LOG.P_WRITE_MESSAGE(L_MSG);
07:06:19 864  
07:06:19 865  	       L_MSG := F_FILTER_RECORDS(A_TAX_YEAR, A_VERSION_ID, I, A_INTERFACE_OBJECT);
07:06:19 866  	       if L_MSG <> 'OK' then
07:06:19 867  		  PKG_PP_LOG.P_END_LOG();
07:06:19 868  		  return L_MSG;
07:06:19 869  	       end if;
07:06:19 870  
07:06:19 871  	       BATCH_NO  := 1;
07:06:19 872  	       ZERO_ROWS := false;
07:06:19 873  
07:06:19 874  	       while ZERO_ROWS = false
07:06:19 875  	       loop
07:06:19 876  
07:06:19 877  		  if BATCH_NO > 100000 then
07:06:19 878  		     L_MSG := 'Infinite Loop Error Encountered! Exiting!';
07:06:19 879  		     PKG_PP_LOG.P_WRITE_MESSAGE(L_MSG);
07:06:19 880  		     return L_MSG;
07:06:19 881  		  end if;
07:06:19 882  
07:06:19 883  		  L_MSG := ' ';
07:06:19 884  		  PKG_PP_LOG.P_WRITE_MESSAGE(L_MSG);
07:06:19 885  		  L_MSG := 'Entering batch function. Iteration ' || I || ', Batch ' || BATCH_NO || '.';
07:06:19 886  		  PKG_PP_LOG.P_WRITE_MESSAGE(L_MSG);
07:06:19 887  		  L_MSG := F_RUN_BATCH(A_TAX_YEAR,
07:06:19 888  				       A_START_MO,
07:06:19 889  				       A_END_MO,
07:06:19 890  				       A_VERSION_ID,
07:06:19 891  				       I,
07:06:19 892  				       BATCH_NO,
07:06:19 893  				       A_INTERFACE_OBJECT);
07:06:19 894  		  if L_MSG = 'ZERO ROWS' then
07:06:19 895  		     ZERO_ROWS := true;
07:06:19 896  		  elsif L_MSG <> 'OK' then
07:06:19 897  		     PKG_PP_LOG.P_WRITE_MESSAGE(L_MSG);
07:06:19 898  		     return L_MSG;
07:06:19 899  		  end if;
07:06:19 900  
07:06:19 901  		  BATCH_NO := BATCH_NO + 1;
07:06:19 902  
07:06:19 903  	       end loop;
07:06:19 904  
07:06:19 905  	    end loop;
07:06:19 906  
07:06:19 907  	    return 'OK';
07:06:19 908  
07:06:19 909  	 exception
07:06:19 910  	    when others then
07:06:19 911  	       return L_MSG;
07:06:19 912  	       L_MSG := SUBSTR(L_MSG || ': ' || sqlerrm, 1, 2000);
07:06:19 913  	       PKG_PP_LOG.P_WRITE_MESSAGE(L_MSG);
07:06:19 914  	       return L_MSG;
07:06:19 915  	 end F_RUN_ITERATION;
07:06:19 916  
07:06:19 917  	 -- function to start the log, clear out the retirements, process the retirements, end the log
07:06:19 918  	 function F_POWERTAX_RETS(A_TAX_YEAR	     number,
07:06:19 919  				  A_START_MO	     number,
07:06:19 920  				  A_END_MO	     number,
07:06:19 921  				  A_VERSION_ID	     number,
07:06:19 922  				  A_INTERFACE_OBJECT varchar2) return varchar2 is
07:06:19 923  	    L_MSG	   varchar2(2000);
07:06:19 924  	    L_PKG_VERSION  varchar2(2000);
07:06:19 925  	    CO_PARSE_VAR   number;
07:06:19 926  	    I		   number;
07:06:19 927  	    CUR_CO_ID	   number;
07:06:19 928  	    CO_PARSE_COUNT number;
07:06:19 929  	    CO_IDS_STR	   varchar2(2000);
07:06:19 930  	    L_RTN_CODE	   number(22, 0);
07:06:19 931  
07:06:19 932  	    cursor CO_IDS is
07:06:19 933  	       select COMPANY_ID
07:06:19 934  		 from TAX_INTERFACE_COS
07:06:19 935  		where INTERFACE_OBJECT = A_INTERFACE_OBJECT
07:06:19 936  		and USER_ID = USER
07:06:19 937  		order by COMPANY_ID;
07:06:19 938  
07:06:19 939  	 begin
07:06:19 940  
07:06:19 941  	    if L_PROCESS_ID = -1 or L_PROCESS_ID is null then
07:06:19 942  	       P_SETPROCESS();
07:06:19 943  	    end if;
07:06:19 944  
07:06:19 945  	    PKG_PP_LOG.P_START_LOG(L_PROCESS_ID);
07:06:19 946  
07:06:19 947  	    PKG_PP_LOG.P_WRITE_MESSAGE('Process started (PLSQL DB processing) ');
07:06:19 948  
07:06:19 949  	    L_PKG_VERSION := F_GET_VERSION();
07:06:19 950  	    PKG_PP_LOG.P_WRITE_MESSAGE('Retirements Package version : '||L_PKG_VERSION);
07:06:19 951  	    PKG_PP_LOG.P_WRITE_MESSAGE('Processing with the following variable definitions:');
07:06:19 952  	    PKG_PP_LOG.P_WRITE_MESSAGE('Tax Year : ' || A_TAX_YEAR);
07:06:19 953  	    PKG_PP_LOG.P_WRITE_MESSAGE('Start Mo : ' || A_START_MO);
07:06:19 954  	    PKG_PP_LOG.P_WRITE_MESSAGE('End Mo : ' || A_END_MO);
07:06:19 955  	    PKG_PP_LOG.P_WRITE_MESSAGE('Interface Object : ' || A_INTERFACE_OBJECT);
07:06:19 956  
07:06:19 957  	    ---- turn off auditing.
07:06:19 958  	    L_RTN_CODE := AUDIT_TABLE_PKG.SETCONTEXT('audit', 'no');
07:06:19 959  	    PKG_PP_LOG.P_WRITE_MESSAGE('Turn off auditing return code : ' || L_RTN_CODE);
07:06:19 960  
07:06:19 961  	    -- routine to log the company ids being used.  Hard coding the logs to do 10
07:06:19 962  	    -- per line of the logs.
07:06:19 963  	    CO_PARSE_VAR   := 10;
07:06:19 964  	    CO_PARSE_COUNT := 1;
07:06:19 965  	    I		   := 1;
07:06:19 966  	    open CO_IDS;
07:06:19 967  	    loop
07:06:19 968  	       fetch CO_IDS
07:06:19 969  		  into CUR_CO_ID;
07:06:19 970  	       exit when CO_IDS %notfound;
07:06:19 971  
07:06:19 972  	       if CO_PARSE_COUNT <> 1 then
07:06:19 973  		  CO_IDS_STR := CO_IDS_STR || ',' || TO_CHAR(CUR_CO_ID);
07:06:19 974  	       else
07:06:19 975  		  CO_IDS_STR := TO_CHAR(CUR_CO_ID);
07:06:19 976  	       end if;
07:06:19 977  	       if I = 1 then
07:06:19 978  		  CO_IDS_STR := 'Company IDs : ' || CO_IDS_STR;
07:06:19 979  	       end if;
07:06:19 980  
07:06:19 981  	       if CO_PARSE_COUNT = CO_PARSE_VAR then
07:06:19 982  		  PKG_PP_LOG.P_WRITE_MESSAGE(CO_IDS_STR);
07:06:19 983  		  CO_PARSE_COUNT := 0;
07:06:19 984  	       end if;
07:06:19 985  	       CO_PARSE_COUNT := CO_PARSE_COUNT + 1;
07:06:19 986  	       I	      := I + 1;
07:06:19 987  	    end loop;
07:06:19 988  	    close CO_IDS;
07:06:20 989  	    if CO_PARSE_COUNT <> CO_PARSE_VAR + 1 then
07:06:20 990  	       ----after looping through and logging sets of company ids, there may be
07:06:20 991  	       ----an orphaned set of company ids that needs to be logged (the last chunck).
07:06:20 992  	       PKG_PP_LOG.P_WRITE_MESSAGE(CO_IDS_STR);
07:06:20 993  	    end if;
07:06:20 994  
07:06:20 995  	    PKG_PP_LOG.P_WRITE_MESSAGE('Version ID : ' || A_VERSION_ID);
07:06:20 996  	    PKG_PP_LOG.P_WRITE_MESSAGE('Entering resetting function...');
07:06:20 997  	    L_MSG := F_REMOVE_PRIOR_TRANS(A_VERSION_ID, A_TAX_YEAR, A_INTERFACE_OBJECT);
07:06:20 998  	    if L_MSG <> 'OK' then
07:06:20 999  	       PKG_PP_LOG.P_END_LOG();
07:06:20 1000  		return L_MSG;
07:06:20 1001  	     end if;
07:06:20 1002  	     PKG_PP_LOG.P_WRITE_MESSAGE('Function Result : ' || L_MSG);
07:06:20 1003  	     PKG_PP_LOG.P_WRITE_MESSAGE('Entering processing function...');
07:06:20 1004  	     L_MSG := F_RUN_ITERATION(A_TAX_YEAR, A_START_MO, A_END_MO, A_VERSION_ID, A_INTERFACE_OBJECT);
07:06:20 1005  	     if L_MSG <> 'OK' then
07:06:20 1006  		PKG_PP_LOG.P_END_LOG();
07:06:20 1007  		return L_MSG;
07:06:20 1008  	     end if;
07:06:20 1009  	     PKG_PP_LOG.P_WRITE_MESSAGE('Function Result : ' || L_MSG);
07:06:20 1010  
07:06:20 1011  	     ---- turn auditing back on.
07:06:20 1012  	     L_RTN_CODE := AUDIT_TABLE_PKG.SETCONTEXT('audit', 'yes');
07:06:20 1013  	     PKG_PP_LOG.P_WRITE_MESSAGE('Turn on auditing return code : ' || L_RTN_CODE);
07:06:20 1014  
07:06:20 1015  	     PKG_PP_LOG.P_WRITE_MESSAGE('Finished...');
07:06:20 1016  	     PKG_PP_LOG.P_END_LOG();
07:06:20 1017  
07:06:20 1018  
07:06:20 1019  
07:06:20 1020  	     return 'OK';
07:06:20 1021  
07:06:20 1022  	  exception
07:06:20 1023  	     when others then
07:06:20 1024  		L_MSG := SUBSTR(L_MSG || ': ' || sqlerrm, 1, 2000);
07:06:20 1025  		PKG_PP_LOG.P_WRITE_MESSAGE(L_MSG);
07:06:20 1026  		PKG_PP_LOG.P_END_LOG();
07:06:20 1027  		return L_MSG;
07:06:20 1028  	  end F_POWERTAX_RETS;
07:06:20 1029  
07:06:20 1030  end PKG_TAX_INT_RET;
07:06:20 1031  /

Package body created.

07:06:20 hopplant> 
07:06:20 hopplant> --**************************
07:06:20 hopplant> -- Log the run of the script
07:06:20 hopplant> --**************************
07:06:20 hopplant> insert into PP_SCHEMA_CHANGE_LOG
07:06:20   2  	 (ID, SKIPPED, MAJOR_VERSION, MINOR_VERSION, POINT_VERSION, PATCH_VERSION, MAINT_NUM, SCRIPT_PATH,
07:06:20   3  	  SCRIPT_NAME, SCRIPT_REVISION, DATE_APPLIED, OS_USER, TERMINAL, SERVICE_NAME)
07:06:20   4  values
07:06:20   5  	 (11677, 0, 2018, 1, 0, 0, 0, 'C:\PlasticWks\PowerPlant\sql\packages', '2018.1.0.0_PKG_TAX_INT_RET.sql', 1, SYSTIMESTAMP, SYS_CONTEXT('USERENV', 'OS_USER'), SYS_CONTEXT('USERENV', 'TERMINAL'), SYS_CONTEXT('USERENV', 'SERVICE_NAME'));

1 row created.

07:06:20 hopplant> commit;

Commit complete.

07:06:20 hopplant> SPOOL OFF
