07:19:36 hopplant> @&&PP_SCRIPT_PATH.maint_scripts\2018.2.1.0_maint_053259_lessor_02_rates_sb_dml.sql
07:19:36 hopplant> /*
07:19:36 hopplant> ||============================================================================
07:19:36 hopplant> || Application: PowerPlan
07:19:36 hopplant> || File Name: 2018.2.1.0_maint_053259_lessor_02_rates_sb_dml.sql
07:19:36 hopplant> ||============================================================================
07:19:36 hopplant> || Copyright (C) 2019 by PowerPlan, Inc. All Rights Reserved.
07:19:36 hopplant> ||============================================================================
07:19:36 hopplant> || Version	 Date	    Revised By	   Reason for Change
07:19:36 hopplant> || ---------- ---------- -------------- --------------------------------------
07:19:36 hopplant> || 2018.2.1.0 03/22/2019 B. Beck	   Populate the lsr_ilr_rates conversion table
07:19:36 hopplant> ||============================================================================
07:19:36 hopplant> */
07:19:36 hopplant> 
07:19:36 hopplant> insert into lsr_ilr_rates_conversion
07:19:36   2  (
07:19:36   3  	      ilr_id, revision, set_of_books_id, rate_type_id, rate, time_stamp, user_id
07:19:36   4  )
07:19:36   5  select rates.ilr_id, rates.revision, comp_books.set_of_books_id,
07:19:36   6  	      rates.rate_type_id, rates.rate, rates.time_stamp, rates.user_id
07:19:36   7  from lsr_ilr_rates rates
07:19:36   8  join lsr_ilr ilr on ilr.ilr_id = rates.ilr_id
07:19:36   9  join company_set_of_books comp_books on comp_books.company_id = ilr.company_id
07:19:36  10  order by 1, 2, 4, 3;

0 rows created.

07:19:36 hopplant> 
07:19:36 hopplant> --***********************************************
07:19:36 hopplant> --Log the run of the script PP_SCHEMA_CHANGE_LOG
07:19:36 hopplant> --***********************************************
07:19:36 hopplant> INSERT INTO PP_SCHEMA_CHANGE_LOG
07:19:36   2  	  (ID, SKIPPED, MAJOR_VERSION, MINOR_VERSION, POINT_VERSION, PATCH_VERSION, MAINT_NUM, SCRIPT_PATH, SCRIPT_NAME, SCRIPT_REVISION, DATE_APPLIED, OS_USER, TERMINAL, SERVICE_NAME)
07:19:36   3  VALUES
07:19:36   4  	  (16165, 0, 2018, 2, 1, 0, 53259 , 'C:\PlasticWks\powerplant\sql\maint_scripts','2018.2.1.0_maint_053259_lessor_02_rates_sb_dml.sql', 1, SYSTIMESTAMP, SYS_CONTEXT('USERENV', 'OS_USER'),
07:19:36   5  	      SYS_CONTEXT('USERENV', 'TERMINAL'), SYS_CONTEXT('USERENV', 'SERVICE_NAME'));

1 row created.

07:19:36 hopplant> COMMIT;

Commit complete.

07:19:36 hopplant> SPOOL OFF
