07:13:25 hopplant> @&&PP_SCRIPT_PATH.maint_scripts\2018.2.0.0_maint_050531_taxrpr_02_wo_status_pkg_dml.sql
07:13:25 hopplant> /*
07:13:25 hopplant> ||============================================================================
07:13:25 hopplant> || Application: PowerPlan
07:13:25 hopplant> || File Name: maint_050531_taxrpr_02_wo_status_pkg_dml.sql
07:13:25 hopplant> ||============================================================================
07:13:25 hopplant> || Copyright (C) 2017 by PowerPlan, Inc. All Rights Reserved.
07:13:25 hopplant> ||============================================================================
07:13:25 hopplant> || Version	 Date	    Revised By	   Reason for Change
07:13:25 hopplant> || ---------- ---------- -------------- --------------------------------------
07:13:25 hopplant> || 2018.2.0.0 08/01/2017 Eric Berger    Create the wo_status processing tables
07:13:25 hopplant> ||										   and pl/sql package.
07:13:25 hopplant> ||============================================================================
07:13:25 hopplant> */
07:13:25 hopplant> 
07:13:25 hopplant> --create the system option for bulk tax status evaluation
07:13:25 hopplant> INSERT INTO ppbase_system_options (SYSTEM_OPTION_ID, LONG_DESCRIPTION, SYSTEM_ONLY, PP_DEFAULT_VALUE, OPTION_VALUE, IS_BASE_OPTION, ALLOW_COMPANY_OVERRIDE)
07:13:25   2  SELECT 'Repairs - Bulk Evaluate Tax Status', 'Whether or not to bulk calculate work order tax status.', 0, 'No', null, 1, 0
07:13:25   3  FROM dual
07:13:25   4  WHERE NOT EXISTS (
07:13:25   5  	  SELECT 1
07:13:25   6  	  FROM ppbase_system_options
07:13:25   7  	  WHERE Upper(system_option_id) = 'REPAIRS - BULK EVALUATE TAX STATUS'
07:13:25   8  );

1 row created.

07:13:25 hopplant> 
07:13:25 hopplant> INSERT INTO ppbase_system_options_module (SYSTEM_OPTION_ID, MODULE)
07:13:25   2  SELECT 'Repairs - Bulk Evaluate Tax Status', 'REPAIRS'
07:13:25   3  FROM dual
07:13:25   4  WHERE NOT EXISTS (
07:13:25   5  	  SELECT 1
07:13:25   6  	  FROM ppbase_system_options_module
07:13:25   7  	  WHERE Upper(system_option_id) = 'REPAIRS - BULK EVALUATE TAX STATUS'
07:13:25   8  	  AND Upper(MODULE) = 'REPAIRS'
07:13:25   9  );

1 row created.

07:13:25 hopplant> 
07:13:25 hopplant> --turn on the system option
07:13:25 hopplant> UPDATE ppbase_system_options
07:13:25   2  SET option_value = 'Yes'
07:13:25   3  WHERE Upper(system_option_id) = 'REPAIRS - BULK EVALUATE TAX STATUS'
07:13:25   4  AND (Upper(option_value) <> 'YES' OR option_value IS NULL)
07:13:25   5  ;

1 row updated.

07:13:25 hopplant> 
07:13:25 hopplant> --****************************************************
07:13:25 hopplant> --Log the run of the script to local PP_SCHEMA_LOG
07:13:25 hopplant> --****************************************************
07:13:25 hopplant> INSERT INTO PP_SCHEMA_CHANGE_LOG
07:13:25   2  	      (ID, SKIPPED, MAJOR_VERSION, MINOR_VERSION, POINT_VERSION, PATCH_VERSION, MAINT_NUM, SCRIPT_PATH,
07:13:25   3  	      SCRIPT_NAME, SCRIPT_REVISION, DATE_APPLIED, OS_USER, TERMINAL, SERVICE_NAME)
07:13:25   4  VALUES
07:13:25   5  	      (13740, 0, 2018, 2, 0, 0, 50531, 'C:\PlasticWks\powerplant\sql\maint_scripts', '2018.2.0.0_maint_050531_taxrpr_02_wo_status_pkg_dml.sql', 1,
07:13:25   6  	      SYSTIMESTAMP, SYS_CONTEXT('USERENV', 'OS_USER'), SYS_CONTEXT('USERENV', 'TERMINAL'),
07:13:25   7  	      SYS_CONTEXT('USERENV', 'SERVICE_NAME'));

1 row created.

07:13:25 hopplant> COMMIT;

Commit complete.

07:13:25 hopplant> SPOOL OFF
