07:25:59 hopplant> @&&PP_SCRIPT_PATH.packages_released\2018.2.1.0_PKG_DEPR_INCREMENTAL.sql
07:25:59 hopplant> create or replace package PKG_DEPR_INCREMENTAL
07:25:59   2  /*
07:25:59   3  ||============================================================================
07:25:59   4  || Application: PowerPlant
07:25:59   5  || Object Name: PKG_DEPR_INCREMENTAL
07:25:59   6  || Description: Loads and handles the results for Incremental Depreciation
07:25:59   7  ||============================================================================
07:25:59   8  || Copyright (C) 2011 by PowerPlan Consultants, Inc. All Rights Reserved.
07:25:59   9  ||============================================================================
07:25:59  10  || Version Date	    Revised By	   Reason for Change
07:25:59  11  || ------- ---------- -------------- -----------------------------------------
07:25:59  12  || 1.0	 02/10/2014 Brandon Beck   Create
07:25:59  13  || 2.0	 03/27/2015 Anand R	   PP-43314 - Add NVL around rwip allocation
07:25:59  14  || 3.0	 06/05/2015 Andrew Scott   PP-43464 - reg incremental depr calc
07:25:59  15  || 4.0	 08/24/15   Anand R	   PP-44361 incremental depr calc for Reg layer
07:25:59  16  || 5.0	 09/01/2015 Sarah Byers        PP-44771 - Added argument to p_handleResults and changed to merge into fcst_cpr_depr_inc
07:25:59  17  ||============================================================================
07:25:59  18  */
07:25:59  19   as
07:25:59  20  	      /*
07:25:59  21  	      *       This procedure stages data from fcst_depr_ledger_inc into the staging table for depreciation calculation
07:25:59  22  	      *
07:25:59  23  	      */
07:25:59  24  	 G_PKG_VERSION varchar(35) := '2018.2.1.0';
07:25:59  25  	 procedure P_DEPRSTAGE
07:25:59  26  	 (
07:25:59  27  		      A_VERSION_ID FCST_DEPR_VERSION.FCST_DEPR_VERSION_ID%TYPE,
07:25:59  28  		      A_INC_PROCESS_IDS PKG_PP_COMMON.NUM_TABTYPE,
07:25:59  29  		      A_MONTHS PKG_PP_COMMON.DATE_TABTYPE
07:25:59  30  	      );
07:25:59  31  
07:25:59  32  	      /*
07:25:59  33  	      *       This procedure stages data from fcst_cpr_depr_inc into the staging table for depreciation calculation
07:25:59  34  	      *
07:25:59  35  	      */
07:25:59  36  	 procedure P_CPRDEPRSTAGE
07:25:59  37  	 (
07:25:59  38  		      A_VERSION_ID FCST_DEPR_VERSION.FCST_DEPR_VERSION_ID%TYPE,
07:25:59  39  		      A_INC_PROCESS_IDS PKG_PP_COMMON.NUM_TABTYPE,
07:25:59  40  		      A_MONTHS PKG_PP_COMMON.DATE_TABTYPE
07:25:59  41  	      );
07:25:59  42  
07:25:59  43  	      /*
07:25:59  44  	      *       Handles the results of the incremental depreciation calculation
07:25:59  45  	      */
07:25:59  46  	      procedure P_HANDLERESULTS
07:25:59  47  	      (
07:25:59  48  		      A_VERSION_ID FCST_DEPR_VERSION.FCST_DEPR_VERSION_ID%TYPE
07:25:59  49  	      );
07:25:59  50  
07:25:59  51  
07:25:59  52  end PKG_DEPR_INCREMENTAL;
07:25:59  53  /

Package created.

07:25:59 hopplant> create or replace package body PKG_DEPR_INCREMENTAL as
07:25:59   2  	 --**************************************************************
07:25:59   3  	 --	  TYPE DECLARATIONS
07:25:59   4  	 --**************************************************************
07:25:59   5  
07:25:59   6  	 --**************************************************************
07:25:59   7  	 --	  VARIABLES
07:25:59   8  	 --**************************************************************
07:25:59   9  	 G_RTN		 NUMBER;
07:25:59  10  
07:25:59  11  	 --**************************************************************
07:25:59  12  	 --	  PROCEDURES
07:25:59  13  	 --**************************************************************
07:25:59  14  
07:25:59  15  	 --**************************************************************************
07:25:59  16  	 --			       P_DEPRSTAGE
07:25:59  17  	 --**************************************************************************
07:25:59  18  	 --
07:25:59  19  	 --  Loads the global temp table for calculating depreciation forecast.
07:25:59  20  	 -- THE Load is based on fcst depr ledger for a version id
07:25:59  21  	 -- AND a single month
07:25:59  22  	 --
07:25:59  23  	      procedure P_DEPRSTAGE(
07:25:59  24  		      A_VERSION_ID FCST_DEPR_VERSION.FCST_DEPR_VERSION_ID%TYPE,
07:25:59  25  		      A_INC_PROCESS_IDS PKG_PP_COMMON.NUM_TABTYPE,
07:25:59  26  		      A_MONTHS PKG_PP_COMMON.DATE_TABTYPE
07:25:59  27  	      ) is
07:25:59  28  	      my_first_month date;
07:25:59  29  	      my_last_month date;
07:25:59  30  	 begin
07:25:59  31  		      PKG_PP_ERROR.SET_MODULE_NAME('PKG_DEPR_INCREMENTAL.P_DEPRSTAGE');
07:25:59  32  
07:25:59  33  		      my_first_month := a_months( a_months.FIRST );
07:25:59  34  		      my_last_month := a_months( a_months.LAST );
07:25:59  35  
07:25:59  36  		      FORALL indx in indices of A_INC_PROCESS_IDS
07:25:59  37  			      insert into DEPR_CALC_STG
07:25:59  38  			      (
07:25:59  39  				      DEPR_GROUP_ID, SET_OF_BOOKS_ID, GL_POST_MO_YR, CALC_MONTH, DEPR_CALC_STATUS,
07:25:59  40  				      DEPR_CALC_MESSAGE, TRF_IN_EST_ADDS, INCLUDE_RWIP_IN_NET, SMOOTH_CURVE,
07:25:59  41  				      DNSA_COR_BAL, DNSA_SALV_BAL, COR_YTD, SALV_YTD, COMPANY_ID, SUBLEDGER_TYPE_ID,
07:25:59  42  				      DESCRIPTION, DEPR_METHOD_ID, MID_PERIOD_CONV, MID_PERIOD_METHOD,
07:25:59  43  				      RATE, NET_GROSS, OVER_DEPR_CHECK, NET_SALVAGE_PCT, RATE_USED_CODE,
07:25:59  44  				      END_OF_LIFE, EXPECTED_AVERAGE_LIFE, RESERVE_RATIO_ID, DMR_COST_OF_REMOVAL_RATE,
07:25:59  45  				      COST_OF_REMOVAL_PCT, DMR_SALVAGE_RATE, INTEREST_RATE, AMORTIZABLE_LIFE, COR_TREATMENT,
07:25:59  46  				      SALVAGE_TREATMENT, NET_SALVAGE_AMORT_LIFE, ALLOCATION_PROCEDURE, DEPR_LEDGER_STATUS,
07:25:59  47  				      BEGIN_RESERVE, END_RESERVE, RESERVE_BAL_PROVISION, RESERVE_BAL_COR, SALVAGE_BALANCE,
07:25:59  48  				      RESERVE_BAL_ADJUST, RESERVE_BAL_RETIREMENTS, RESERVE_BAL_TRAN_IN, RESERVE_BAL_TRAN_OUT,
07:25:59  49  				      RESERVE_BAL_OTHER_CREDITS, RESERVE_BAL_GAIN_LOSS, RESERVE_ALLOC_FACTOR, BEGIN_BALANCE,
07:25:59  50  				      ADDITIONS, RETIREMENTS, TRANSFERS_IN, TRANSFERS_OUT, ADJUSTMENTS, DEPRECIATION_BASE,
07:25:59  51  				      END_BALANCE, DEPRECIATION_RATE, DEPRECIATION_EXPENSE, DEPR_EXP_ADJUST,
07:25:59  52  				      DEPR_EXP_ALLOC_ADJUST, COST_OF_REMOVAL, RESERVE_RETIREMENTS, SALVAGE_RETURNS,
07:25:59  53  				      SALVAGE_CASH, RESERVE_CREDITS, RESERVE_ADJUSTMENTS, RESERVE_TRAN_IN, RESERVE_TRAN_OUT,
07:25:59  54  				      GAIN_LOSS, VINTAGE_NET_SALVAGE_AMORT, VINTAGE_NET_SALVAGE_RESERVE,
07:25:59  55  				      CURRENT_NET_SALVAGE_AMORT, CURRENT_NET_SALVAGE_RESERVE, IMPAIRMENT_RESERVE_BEG,
07:25:59  56  				      IMPAIRMENT_RESERVE_ACT, IMPAIRMENT_RESERVE_END, EST_ANN_NET_ADDS, RWIP_ALLOCATION,
07:25:59  57  				      COR_BEG_RESERVE, COR_EXPENSE, COR_EXP_ADJUST, COR_EXP_ALLOC_ADJUST, COR_RES_TRAN_IN,
07:25:59  58  				      COR_RES_TRAN_OUT, COR_RES_ADJUST, COR_END_RESERVE, COST_OF_REMOVAL_RATE,
07:25:59  59  				      COST_OF_REMOVAL_BASE, RWIP_COST_OF_REMOVAL, RWIP_SALVAGE_CASH, RWIP_SALVAGE_RETURNS,
07:25:59  60  				      RWIP_RESERVE_CREDITS, SALVAGE_RATE, SALVAGE_BASE, SALVAGE_EXPENSE, SALVAGE_EXP_ADJUST,
07:25:59  61  				      SALVAGE_EXP_ALLOC_ADJUST, RESERVE_BAL_SALVAGE_EXP, RESERVE_BLENDING_ADJUSTMENT,
07:25:59  62  				      RESERVE_BLENDING_TRANSFER, COR_BLENDING_ADJUSTMENT, COR_BLENDING_TRANSFER,
07:25:59  63  				      IMPAIRMENT_ASSET_AMOUNT, IMPAIRMENT_EXPENSE_AMOUNT, RESERVE_BAL_IMPAIRMENT,
07:25:59  64  				      ORIG_DEPR_EXPENSE, ORIG_DEPR_EXP_ALLOC_ADJUST, ORIG_SALV_EXPENSE,
07:25:59  65  				      ORIG_SALV_EXP_ALLOC_ADJUST, ORIG_COR_EXP_ALLOC_ADJUST, ORIG_COR_EXPENSE,
07:25:59  66  				      ORIG_BEGIN_RESERVE, ORIG_COR_BEG_RESERVE, impairment_asset_activity_salv, impairment_asset_begin_balance,
07:25:59  67  				      FCST_DEPR_VERSION_ID, curve_trueup_adj, CURVE_TRUEUP_ADJ_SALV, CURVE_TRUEUP_ADJ_COR,
07:25:59  68  				      SPREAD_FACTOR_ID, INCREMENTAL_PROCESS_ID
07:25:59  69  			      )
07:25:59  70  			      select DL.FCST_DEPR_GROUP_ID, --	depr_group_id			NULL,
07:25:59  71  				      DL.SET_OF_BOOKS_ID, --  set_of_books_id		   NUMBER(22,0)   NULL,
07:25:59  72  				      DL.GL_POST_MO_YR, --  gl_post_mo_yr		 DATE		NULL,
07:25:59  73  				      DL.GL_POST_MO_YR,   --  calc_month		   DATE 	  NULL,
07:25:59  74  				      1, --  depr_calc_status		  NUMBER(2,0)	 NULL,
07:25:59  75  				      '', --  depr_calc_message 	   VARCHAR2(2000) NULL,
07:25:59  76  				      LOWER(NVL(PKG_PP_SYSTEM_CONTROL.F_PP_SYSTEM_CONTROL_COMPANY('Transfers In Est Adds',
07:25:59  77  															       DGV.COMPANY_ID),
07:25:59  78  						 'no')), --  trf_in_est_adds		  VARCHAR2(35)	 NULL,
07:25:59  79  				      LOWER(NVL(PKG_PP_SYSTEM_CONTROL.F_PP_SYSTEM_CONTROL_COMPANY('Include RWIP in Net Calculation',
07:25:59  80  															       DGV.COMPANY_ID),
07:25:59  81  						 'no')), --  include_rwip_in_net	  VARCHAR2(35)	 NULL,
07:25:59  82  				      LOWER(NVL(PKG_PP_SYSTEM_CONTROL.F_PP_SYSTEM_CONTROL_COMPANY('DEPR - Smooth Curve True-up',
07:25:59  83  															       DGV.COMPANY_ID),
07:25:59  84  						 '0')), -- smooth_curve
07:25:59  85  				      0, --  dnsa_cor_bal		  NUMBER(22,2)	 NULL,
07:25:59  86  				      0, --  dnsa_salv_bal		  NUMBER(22,2)	 NULL,
07:25:59  87  				      0, --  cor_ytd			  NUMBER(22,2)	 NULL,
07:25:59  88  				      0, --  salv_ytd			  NUMBER(22,2)	 NULL,
07:25:59  89  				      DGV.COMPANY_ID, --  company_id		       NUMBER(22,0)   NULL,
07:25:59  90  				      DGV.SUBLEDGER_TYPE_ID, --  subledger_type_id	      NUMBER(22,0)   NULL,
07:25:59  91  				      DGV.DESCRIPTION, --  description			VARCHAR2(254)  NULL,
07:25:59  92  				      DGV.FCST_DEPR_METHOD_ID, --  depr_method_id		NUMBER(22,0)   NULL,
07:25:59  93  				      DGV.MID_PERIOD_CONV, --  mid_period_conv		    NUMBER(22,2)   NULL,
07:25:59  94  				      lower(trim(DGV.MID_PERIOD_METHOD)), --  mid_period_method 	   VARCHAR2(35)   NULL,
07:25:59  95  				      DMR.RATE, --  rate			 NUMBER(22,8)	NULL,
07:25:59  96  				      CASE
07:25:59  97  						WHEN Lower(Trim(DGV.MID_PERIOD_METHOD)) = 'end of life' THEN 1
07:25:59  98  						WHEN Lower(Trim(DGV.MID_PERIOD_METHOD)) = 'curve' or Lower(Trim(DGV.MID_PERIOD_METHOD)) = 'curve_no_true_up' THEN 2
07:25:59  99  						ELSE DMR.NET_GROSS
07:25:59 100  				      END, --  net_gross		    NUMBER(22,0)   NULL,
07:25:59 101  				      NVL(DMR.OVER_DEPR_CHECK, 0), --  over_depr_check		    NUMBER(22,0)   NULL,
07:25:59 102  				      DMR.NET_SALVAGE_PCT, --  net_salvage_pct		    NUMBER(22,8)   NULL,
07:25:59 103  				      NVL(DMR.RATE_USED_CODE, 0), --  rate_used_code		   NUMBER(22,0)   NULL,
07:25:59 104  				      DMR.END_OF_LIFE, --  end_of_life			NUMBER(22,0)   NULL,
07:25:59 105  				      NVL(DMR.EXPECTED_AVERAGE_LIFE, 0), --  expected_average_life	  NUMBER(22,0)	 NULL,
07:25:59 106  				      NVL(DMR.RESERVE_RATIO_ID, 0), --	reserve_ratio_id	     NUMBER(22,0)   NULL,
07:25:59 107  				      DMR.COST_OF_REMOVAL_RATE, --  dmr_cost_of_removal_rate	 NUMBER(22,8)	NULL,
07:25:59 108  				      DMR.COST_OF_REMOVAL_PCT, --  cost_of_removal_pct		NUMBER(22,8)   NULL,
07:25:59 109  				      DMR.SALVAGE_RATE, --  dmr_salvage_rate		 NUMBER(22,8)	NULL,
07:25:59 110  				      DMR.INTEREST_RATE, --  interest_rate		  NUMBER(22,8)	 NULL,
07:25:59 111  				      NVL(DMR.AMORTIZABLE_LIFE, 0), --	amortizable_life	     NUMBER(22,0)   NULL,
07:25:59 112  				      DECODE(LOWER(NVL(DMR.COR_TREATMENT, 'no')), 'no', 0, 1), --  cor_treatment		NUMBER(1,0)    NULL,
07:25:59 113  				      DECODE(LOWER(NVL(DMR.SALVAGE_TREATMENT, 'no')), 'no', 0, 1), --  salvage_treatment	    NUMBER(1,0)    NULL,
07:25:59 114  				      NVL(DMR.NET_SALVAGE_AMORT_LIFE, 0), --  net_salvage_amort_life	   NUMBER(22,0)   NULL,
07:25:59 115  				      DMR.ALLOCATION_PROCEDURE, --  allocation_procedure	 VARCHAR2(5)	NULL,
07:25:59 116  				      DL.DEPR_LEDGER_STATUS, --  depr_ledger_status	      NUMBER(22,0)   NULL,
07:25:59 117  				      nvl(DL.BEGIN_RESERVE,0), --  begin_reserve		NUMBER(22,2)   NULL,
07:25:59 118  				      0 AS END_RESERVE, --  end_reserve 		 NUMBER(22,2)	NULL,
07:25:59 119  				      DL.RESERVE_BAL_PROVISION, --  reserve_bal_provision	 NUMBER(22,2)	NULL,
07:25:59 120  				      DL.RESERVE_BAL_COR, --  reserve_bal_cor		   NUMBER(22,2)   NULL,
07:25:59 121  				      DL.SALVAGE_BALANCE, --  salvage_balance		   NUMBER(22,2)   NULL,
07:25:59 122  				      DL.RESERVE_BAL_ADJUST, --  reserve_bal_adjust	      NUMBER(22,2)   NULL,
07:25:59 123  				      DL.RESERVE_BAL_RETIREMENTS, --  reserve_bal_retirements	   NUMBER(22,2)   NULL,
07:25:59 124  				      DL.RESERVE_BAL_TRAN_IN, --  reserve_bal_tran_in	       NUMBER(22,2)   NULL,
07:25:59 125  				      DL.RESERVE_BAL_TRAN_OUT, --  reserve_bal_tran_out 	NUMBER(22,2)   NULL,
07:25:59 126  				      DL.RESERVE_BAL_OTHER_CREDITS, --	reserve_bal_other_credits    NUMBER(22,2)   NULL,
07:25:59 127  				      DL.RESERVE_BAL_GAIN_LOSS, --  reserve_bal_gain_loss	 NUMBER(22,2)	NULL,
07:25:59 128  				      DL.RESERVE_ALLOC_FACTOR, --  reserve_alloc_factor 	NUMBER(22,2)   NULL,
07:25:59 129  				      DL.BEGIN_BALANCE, --  begin_balance		 NUMBER(22,2)	NULL,
07:25:59 130  				      DL.ADDITIONS, --	additions
07:25:59 131  				      DL.RETIREMENTS, --  retirements		       NUMBER(22,2)   NULL,
07:25:59 132  				      DL.TRANSFERS_IN, --  transfers_in 		NUMBER(22,2)   NULL,
07:25:59 133  				      DL.TRANSFERS_OUT, --  transfers_out		 NUMBER(22,2)	NULL,
07:25:59 134  				      DL.ADJUSTMENTS, --  adjustments		       NUMBER(22,2)   NULL,
07:25:59 135  				      0 AS DEPRECIATION_BASE, --  depreciation_base	       NUMBER(22,2)
07:25:59 136  				      0 AS END_BALANCE, --  end_balance 		 NUMBER(22,2)	NULL
07:25:59 137  				      decode(DL.DEPR_LEDGER_STATUS, 1, DL.DEPRECIATION_RATE, DMR.RATE), --  depreciation_rate		 NUMBER(22,8)	NULL,
07:25:59 138  				      0 AS DEPRECIATION_EXPENSE, --  depreciation_expense	  NUMBER(22,2)	 NULL,
07:25:59 139  				      DL.DEPR_EXP_ADJUST, --  depr_exp_adjust		   NUMBER(22,2)   NULL,
07:25:59 140  				      0 AS DEPR_EXP_ALLOC_ADJUST, --  depr_exp_alloc_adjust	   NUMBER(22,2)   NULL,
07:25:59 141  				      DL.COST_OF_REMOVAL, --  cost_of_removal		   NUMBER(22,2)   NULL,
07:25:59 142  				      DL.RESERVE_RETIREMENTS, --  reserve_retirements	       NUMBER(22,2)   NULL,
07:25:59 143  				      DL.SALVAGE_RETURNS, --  salvage_returns		   NUMBER(22,2)   NULL,
07:25:59 144  				      DL.SALVAGE_CASH, --  salvage_cash 		NUMBER(22,2)   NULL,
07:25:59 145  				      DL.RESERVE_CREDITS, --  reserve_credits		   NUMBER(22,2)   NULL,
07:25:59 146  				      DL.RESERVE_ADJUSTMENTS, --  reserve_adjustments	       NUMBER(22,2)   NULL,
07:25:59 147  				      DL.RESERVE_TRAN_IN, --  reserve_tran_in		   NUMBER(22,2)   NULL,
07:25:59 148  				      DL.RESERVE_TRAN_OUT, --  reserve_tran_out 	    NUMBER(22,2)   NULL,
07:25:59 149  				      DL.GAIN_LOSS, --	gain_loss		     NUMBER(22,2)   NULL,
07:25:59 150  				      DL.VINTAGE_NET_SALVAGE_AMORT, --	vintage_net_salvage_amort    NUMBER(22,2)   NULL,
07:25:59 151  				      DL.VINTAGE_NET_SALVAGE_RESERVE, --  vintage_net_salvage_reserve  NUMBER(22,2)   NULL,
07:25:59 152  				      DL.CURRENT_NET_SALVAGE_AMORT, --	current_net_salvage_amort    NUMBER(22,2)   NULL,
07:25:59 153  				      DL.CURRENT_NET_SALVAGE_RESERVE, --  current_net_salvage_reserve  NUMBER(22,2)   NULL,
07:25:59 154  				      DL.IMPAIRMENT_RESERVE_BEG, --  impairment_reserve_beg	  NUMBER(22,2)	 NULL,
07:25:59 155  				      DL.IMPAIRMENT_RESERVE_ACT, --  impairment_reserve_act	  NUMBER(22,2)	 NULL,
07:25:59 156  				      DL.IMPAIRMENT_RESERVE_END, --  impairment_reserve_end	  NUMBER(22,2)	 NULL,
07:25:59 157  				      DL.EST_ANN_NET_ADDS, --  est_ann_net_adds 	    NUMBER(22,2)   NULL,
07:25:59 158  				      NVL(DL.RWIP_ALLOCATION, 0), --  rwip_allocation		   NUMBER(22,2)   NULL,
07:25:59 159  				      DL.COR_BEG_RESERVE, --  cor_beg_reserve		   NUMBER(22,2)   NULL,
07:25:59 160  				      0 AS COR_EXPENSE, --  cor_expense 		 NUMBER(22,2)	NULL,
07:25:59 161  				      NVL(DL.COR_EXP_ADJUST,0), --  cor_exp_adjust		 NUMBER(22,2)	NULL,
07:25:59 162  				      0 AS COR_EXP_ALLOC_ADJUST, --  cor_exp_alloc_adjust	  NUMBER(22,2)	 NULL,
07:25:59 163  				      DL.COR_RES_TRAN_IN, --  cor_res_tran_in		   NUMBER(22,2)   NULL,
07:25:59 164  				      DL.COR_RES_TRAN_OUT, --  cor_res_tran_out 	    NUMBER(22,2)   NULL,
07:25:59 165  				      DL.COR_RES_ADJUST, --  cor_res_adjust		  NUMBER(22,2)	 NULL,
07:25:59 166  				      0 AS COR_END_RESERVE, --	cor_end_reserve 	     NUMBER(22,2)   NULL,
07:25:59 167  				      DL.COST_OF_REMOVAL_RATE, --  cost_of_removal_rate 	NUMBER(22,8)   NULL,
07:25:59 168  				      DL.COST_OF_REMOVAL_BASE, --  cost_of_removal_base 	NUMBER(22,2)   NULL,
07:25:59 169  				      nvl(DL.RWIP_COST_OF_REMOVAL,0), --  rwip_cost_of_removal	       NUMBER(22,2)   NULL,
07:25:59 170  				      nvl(DL.RWIP_SALVAGE_CASH,0), --  rwip_salvage_cash	    NUMBER(22,2)   NULL,
07:25:59 171  				      nvl(DL.RWIP_SALVAGE_RETURNS,0), --  rwip_salvage_returns	       NUMBER(22,2)   NULL,
07:25:59 172  				      nvl(DL.RWIP_RESERVE_CREDITS,0), --  rwip_reserve_credits	       NUMBER(22,2)   NULL,
07:25:59 173  				      nvl(DL.SALVAGE_RATE,0), --  salvage_rate		       NUMBER(22,8)   NULL,
07:25:59 174  				      nvl(SALVAGE_BASE,0), --  salvage_base		    NUMBER(22,2)   NULL,
07:25:59 175  				      nvl(SALVAGE_EXPENSE,0), --  salvage_expense	       NUMBER(22,2)   NULL,
07:25:59 176  				      nvl(DL.SALVAGE_EXP_ADJUST,0), --	salvage_exp_adjust	     NUMBER(22,2)   NULL,
07:25:59 177  				      nvl(SALVAGE_EXP_ALLOC_ADJUST,0), --  salvage_exp_alloc_adjust	NUMBER(22,2)   NULL,
07:25:59 178  				      nvl(DL.RESERVE_BAL_SALVAGE_EXP,0), --  reserve_bal_salvage_exp	  NUMBER(22,2)	 NULL,
07:25:59 179  				      nvl(DL.RESERVE_BLENDING_ADJUSTMENT,0), --  reserve_blending_adjustment  NUMBER(22,2)   NULL,
07:25:59 180  				      nvl(DL.RESERVE_BLENDING_TRANSFER,0), --  reserve_blending_transfer    NUMBER(22,2)   NULL,
07:25:59 181  				      nvl(DL.COR_BLENDING_ADJUSTMENT,0), --  cor_blending_adjustment	  NUMBER(22,2)	 NULL,
07:25:59 182  				      nvl(DL.COR_BLENDING_TRANSFER,0), --  cor_blending_transfer	NUMBER(22,2)   NULL,
07:25:59 183  				      nvl(DL.IMPAIRMENT_ASSET_AMOUNT,0), --  impairment_asset_amount	  NUMBER(22,2)	 NULL,
07:25:59 184  				      nvl(DL.IMPAIRMENT_EXPENSE_AMOUNT,0), --  impairment_expense_amount    NUMBER(22,2)   NULL,
07:25:59 185  				      nvl(DL.RESERVE_BAL_IMPAIRMENT,0), --  reserve_bal_impairment	 NUMBER(22,2)	NUll,
07:25:59 186  				      0, --ORIG_DEPR_EXPENSE
07:25:59 187  				      0, --  orig_depr_exp_alloc_adjust   NUMBER(22,2)	 NULL,
07:25:59 188  				      0, --  orig_salv_expense		  NUMBER(22,2)	 NULL,
07:25:59 189  				      0, --  orig_salv_exp_alloc_adjust   NUMBER(22,2)	 NULL,
07:25:59 190  				      0, --  orig_cor_exp_alloc_adjust	  NUMBER(22,2)	 NULL,
07:25:59 191  				      0, --  orig_cor_expense		  NUMBER(22,2)	 NULL
07:25:59 192  				      nvl(DL.BEGIN_RESERVE,0), --orig_begin_reserve	    NUMBER(22,2) DEFAULT 0  NULL,
07:25:59 193  				      DL.COR_BEG_RESERVE, --  orig_cor_begin_reserve	 NUMBER(22,2) DEFAULT 0 NULL
07:25:59 194  				      dl.impairment_asset_activity_salv, dl.impairment_asset_begin_balance,
07:25:59 195  				      A_VERSION_ID,
07:25:59 196  				      0 as curve_trueup_adj,
07:25:59 197  				      0 as CURVE_TRUEUP_ADJ_SALV,
07:25:59 198  				      0 as CURVE_TRUEUP_ADJ_COR,
07:25:59 199  				      DGV.FACTOR_ID,
07:25:59 200  				      INC.INCREMENTAL_PROCESS_ID
07:25:59 201  			      from FCST_DEPR_METHOD_RATES DMR, FCST_DEPR_LEDGER_INC DL, FCST_DEPR_GROUP_VERSION DGV, INCREMENTAL_PROCESS INC
07:25:59 202  			 where DMR.FCST_DEPR_METHOD_ID = DGV.FCST_DEPR_METHOD_ID
07:25:59 203  			       and DMR.FCST_DEPR_VERSION_ID = DGV.FCST_DEPR_VERSION_ID
07:25:59 204  			       and DMR.EFFECTIVE_DATE =
07:25:59 205  				      (select max(DMR1.EFFECTIVE_DATE)
07:25:59 206  					from FCST_DEPR_METHOD_RATES DMR1
07:25:59 207  				       where DMR.FCST_DEPR_METHOD_ID = DMR1.FCST_DEPR_METHOD_ID
07:25:59 208  					 and DMR.FCST_DEPR_VERSION_ID = DMR1.FCST_DEPR_VERSION_ID
07:25:59 209  					 and DMR.SET_OF_BOOKS_ID = DMR1.SET_OF_BOOKS_ID
07:25:59 210  					 and DMR1.EFFECTIVE_DATE <= DL.GL_POST_MO_YR
07:25:59 211  				       GROUP BY DMR1.FCST_DEPR_METHOD_ID, DMR1.FCST_DEPR_VERSION_ID, DMR1.SET_OF_BOOKS_ID)
07:25:59 212  			       and DL.FCST_DEPR_GROUP_ID = DGV.FCST_DEPR_GROUP_ID
07:25:59 213  			       and DL.FCST_DEPR_VERSION_ID = DGV.FCST_DEPR_VERSION_ID
07:25:59 214  			       and DL.SET_OF_BOOKS_ID = DMR.SET_OF_BOOKS_ID
07:25:59 215  			       and DGV.FCST_DEPR_VERSION_ID = A_VERSION_ID
07:25:59 216  			       and DL.INCREMENTAL_PROCESS_ID = INC.INCREMENTAL_PROCESS_ID
07:25:59 217  			       and INC.INCREMENTAL_PROCESS_ID = a_inc_process_ids(indx)
07:25:59 218  			       and dl.gl_post_mo_yr between my_first_month and my_last_month
07:25:59 219  			       --Either we don't ignore inactive depr groups, or the depr group is active
07:25:59 220  			       and (
07:25:59 221  				      LOWER(trim(NVL(PKG_PP_SYSTEM_CONTROL.F_PP_SYSTEM_CONTROL_COMPANY('Ignore Inactive Depr Groups',DGV.COMPANY_ID),'no'))) = 'no'
07:25:59 222  				      or NVL(DGV.STATUS_ID, 1) = 1 or DL.END_BALANCE <> 0 or DL.END_RESERVE <> 0 or
07:25:59 223  				      DL.COR_END_RESERVE <> 0 or DL.BEGIN_BALANCE <> 0 or DL.BEGIN_RESERVE <> 0 or
07:25:59 224  				      DL.COR_BEG_RESERVE <> 0
07:25:59 225  			       )
07:25:59 226  			       and DGV.SUBLEDGER_TYPE_ID = 0;
07:25:59 227  
07:25:59 228  	    PKG_PP_LOG.P_WRITE_MESSAGE(SQL%ROWCOUNT|| ' rows inserted into DEPR CALC STG');
07:25:59 229  
07:25:59 230  	     update DEPR_CALC_STG
07:25:59 231  		 set calc_month = my_first_month;
07:25:59 232  
07:25:59 233  	     -- Call a function to stage the depr method blending percents for the version
07:25:59 234  		 PP_DEPR_PKG.P_STAGE_BLENDING_FCST;
07:25:59 235  
07:25:59 236  	     PP_DEPR_PKG.P_SET_FISCALYEARSTART;
07:25:59 237  
07:25:59 238  	     PP_DEPR_PKG.G_VERSION_ID := A_VERSION_ID;
07:25:59 239  	     PP_DEPR_PKG.P_BACKFILLDATA_FCST(my_first_month, my_last_month);
07:25:59 240  
07:25:59 241  		      G_RTN := analyze_table('DEPR_CALC_STG',100);
07:25:59 242  
07:25:59 243  		      PKG_PP_ERROR.REMOVE_MODULE_NAME;
07:25:59 244  	      exception
07:25:59 245  		      when others then
07:25:59 246  			      PKG_PP_ERROR.RAISE_ERROR('ERROR','Failed Operation');
07:25:59 247  	 end P_DEPRSTAGE;
07:25:59 248  
07:25:59 249  
07:25:59 250  	 --**************************************************************************
07:25:59 251  	 --			       P_CPRDEPRSTAGE
07:25:59 252  	 --**************************************************************************
07:25:59 253  	 --
07:25:59 254  	 --  Loads the global temp table for calculating depreciation forecast.
07:25:59 255  	 -- THE Load is based on fcst cpr depr inc for a version id,
07:25:59 256  	 -- array of incremental process ids, and array of months
07:25:59 257  	 --
07:25:59 258  
07:25:59 259  	  procedure P_CPRDEPRSTAGE(
07:25:59 260  	      A_VERSION_ID FCST_DEPR_VERSION.FCST_DEPR_VERSION_ID%TYPE,
07:25:59 261  	      A_INC_PROCESS_IDS PKG_PP_COMMON.NUM_TABTYPE,
07:25:59 262  	      A_MONTHS PKG_PP_COMMON.DATE_TABTYPE
07:25:59 263  	  ) is
07:25:59 264  
07:25:59 265  	 begin
07:25:59 266  	      PKG_PP_ERROR.SET_MODULE_NAME('PKG_DEPR_INCREMENTAL.P_CPRDEPRSTAGE');
07:25:59 267  
07:25:59 268  	      FOR i in 1..A_INC_PROCESS_IDS.count loop
07:25:59 269  
07:25:59 270  		  FORALL mndx in indices of A_MONTHS
07:25:59 271  		  insert into CPR_DEPR_CALC_STG
07:25:59 272  		   (ASSET_ID, SET_OF_BOOKS_ID, GL_POSTING_MO_YR, INIT_LIFE, REMAINING_LIFE,
07:25:59 273  		    ESTIMATED_SALVAGE, BEG_ASSET_DOLLARS, NET_ADDS_AND_ADJUST, RETIREMENTS,
07:25:59 274  		    DEPR_CALC_STATUS, TRANSFERS_IN, TRANSFERS_OUT, ASSET_DOLLARS, BEG_RESERVE_MONTH,
07:25:59 275  		    SALVAGE_DOLLARS, RESERVE_ADJUSTMENT, COST_OF_REMOVAL, RESERVE_TRANS_IN,
07:25:59 276  		    RESERVE_TRANS_OUT, DEPR_EXP_ADJUST, OTHER_CREDITS_AND_ADJUST, GAIN_LOSS,
07:25:59 277  		    DEPRECIATION_BASE, CURR_DEPR_EXPENSE, DEPR_RESERVE, BEG_RESERVE_YEAR, YTD_DEPR_EXPENSE,
07:25:59 278  		    YTD_DEPR_EXP_ADJUST, PRIOR_YTD_DEPR_EXPENSE, PRIOR_YTD_DEPR_EXP_ADJUST, ACCT_DISTRIB,
07:25:59 279  		    MONTH_RATE, COMPANY_ID, MID_PERIOD_METHOD, MID_PERIOD_CONV, DEPR_GROUP_ID,
07:25:59 280  		    DEPR_EXP_ALLOC_ADJUST, DEPR_METHOD_ID, TRUE_UP_CPR_DEPR, SALVAGE_EXPENSE,
07:25:59 281  		    SALVAGE_EXP_ADJUST, SALVAGE_EXP_ALLOC_ADJUST, IMPAIRMENT_ASSET_AMOUNT,
07:25:59 282  		    IMPAIRMENT_EXPENSE_AMOUNT, END_OF_LIFE, NET_GROSS, OVER_DEPR_CHECK, RATE,
07:25:59 283  		    EFFECTIVE_DATE, SUBLEDGER_TYPE_ID, ENG_IN_SERVICE_YEAR, TRF_WEIGHT, MIN_MPC, TRUEUP_ADJ,
07:25:59 284  		    NET_TRF, ACTIVITY, ACTIVITY_3, BEG_RES_AMT, NET_IMP_AMT, EXISTS_TWO_MONTHS, EXISTS_ARO, HAS_CFNU,
07:25:59 285  		    HAS_NURV, HAS_NURV_LAST_MONTH, EXISTS_LAST_MONTH, NURV_ADJ,
07:25:59 286  		    IMPAIRMENT_ASSET_ACTIVITY_SALV, IMPAIRMENT_ASSET_BEGIN_BALANCE,
07:25:59 287  		    INCREMENTAL_PROCESS_ID)
07:25:59 288  		   with CPR_DEPR_VIEW as
07:25:59 289  		    (select a.*
07:25:59 290  			from FCST_CPR_DEPR_INC a, depr_fcst_group_stg tt
07:25:59 291  		       where a.GL_POSTING_MO_YR = A_MONTHS(mndx)
07:25:59 292  			  and a.FCST_DEPR_VERSION_ID = A_VERSION_ID
07:25:59 293  			  and a.fcst_depr_group_id = tt.fcst_depr_group_id
07:25:59 294  			  and a.INCREMENTAL_PROCESS_ID = a_inc_process_ids(i)),
07:25:59 295  		   DEPR_METHOD_RATES_VIEW as
07:25:59 296  		    (select DD.FCST_DEPR_METHOD_ID as DEPR_METHOD_ID,
07:25:59 297  			       DD.SET_OF_BOOKS_ID,
07:25:59 298  			       DD.EFFECTIVE_DATE,
07:25:59 299  			       DD.RATE,
07:25:59 300  			       DD.OVER_DEPR_CHECK,
07:25:59 301  			       DD.NET_GROSS,
07:25:59 302  			       DD.END_OF_LIFE,
07:25:59 303  			       ROW_NUMBER() OVER(partition by DD.FCST_DEPR_METHOD_ID, DD.SET_OF_BOOKS_ID order by DD.EFFECTIVE_DATE desc) as THE_ROW
07:25:59 304  			from FCST_DEPR_METHOD_RATES DD
07:25:59 305  			where DD.EFFECTIVE_DATE <= A_MONTHS(mndx)
07:25:59 306  			  and DD.FCST_DEPR_VERSION_ID = A_VERSION_ID)
07:25:59 307  		    select A.ASSET_ID,
07:25:59 308  			      A.SET_OF_BOOKS_ID,
07:25:59 309  			      A.GL_POSTING_MO_YR,
07:25:59 310  			      nvl(A.INIT_LIFE,0),
07:25:59 311  			      nvl(A.REMAINING_LIFE,0),
07:25:59 312  			      nvl(A.ESTIMATED_SALVAGE,0),
07:25:59 313  			      nvl(A.BEG_ASSET_DOLLARS,0),
07:25:59 314  			      nvl(A.NET_ADDS_AND_ADJUST,0),
07:25:59 315  			      nvl(A.RETIREMENTS,0),
07:25:59 316  			      2,
07:25:59 317  			      nvl(A.TRANSFERS_IN,0),
07:25:59 318  			      nvl(A.TRANSFERS_OUT,0),
07:25:59 319  			      nvl(A.ASSET_DOLLARS,0),
07:25:59 320  			      A.BEG_RESERVE_MONTH,
07:25:59 321  			      nvl(A.SALVAGE_DOLLARS,0),
07:25:59 322  			      nvl(A.RESERVE_ADJUSTMENT,0),
07:25:59 323  			      nvl(A.COST_OF_REMOVAL,0),
07:25:59 324  			      nvl(A.RESERVE_TRANS_IN,0),
07:25:59 325  			      nvl(A.RESERVE_TRANS_OUT,0),
07:25:59 326  			      nvl(A.DEPR_EXP_ADJUST,0),
07:25:59 327  			      nvl(A.OTHER_CREDITS_AND_ADJUST,0),
07:25:59 328  			      nvl(A.GAIN_LOSS,0),
07:25:59 329  			      0,--A.DEPRECIATION_BASE,
07:25:59 330  			      0,--CURR_DEPR_EXPENSE
07:25:59 331  			      nvl(A.DEPR_RESERVE,0),
07:25:59 332  			      nvl(A.BEG_RESERVE_YEAR,0),
07:25:59 333  			      nvl(A.YTD_DEPR_EXPENSE,0),
07:25:59 334  			      nvl(A.YTD_DEPR_EXP_ADJUST,0),
07:25:59 335  			      nvl(A.PRIOR_YTD_DEPR_EXPENSE,0),
07:25:59 336  			      nvl(A.PRIOR_YTD_DEPR_EXP_ADJUST,0),
07:25:59 337  			      A.ACCT_DISTRIB,
07:25:59 338  			      nvl(A.MONTH_RATE,0),
07:25:59 339  			      B.COMPANY_ID,
07:25:59 340  			      lower(trim(B.MID_PERIOD_METHOD)),
07:25:59 341  			      DECODE(GL_POSTING_MO_YR, A_MONTHS(mndx), NVL(B.MID_PERIOD_CONV, 0), A.MID_PERIOD_CONV) MID_PERIOD_CONV,
07:25:59 342  			      DECODE(GL_POSTING_MO_YR, A_MONTHS(mndx), B.FCST_DEPR_GROUP_ID, A.FCST_DEPR_GROUP_ID) DEPR_GROUP_ID,
07:25:59 343  			      0,--DEPR_EXP_ALLOC_ADJUST,
07:25:59 344  			      NVL(A.FCST_DEPR_METHOD_ID, B.FCST_DEPR_METHOD_ID) DEPR_METHOD_ID,
07:25:59 345  			      0 TRUE_UP_CPR_DEPR,
07:25:59 346  			      0,--A.SALVAGE_EXPENSE,
07:25:59 347  			      nvl(A.SALVAGE_EXP_ADJUST,0),
07:25:59 348  			      0,--SALVAGE_EXP_ALLOC_ADJUST,
07:25:59 349  			      nvl(A.IMPAIRMENT_ASSET_AMOUNT,0),
07:25:59 350  			      nvl(A.IMPAIRMENT_EXPENSE_AMOUNT,0),
07:25:59 351  			      C.END_OF_LIFE,
07:25:59 352  			      C.NET_GROSS,
07:25:59 353  			      C.OVER_DEPR_CHECK,
07:25:59 354  			      nvl(C.RATE,0),
07:25:59 355  			      C.EFFECTIVE_DATE,
07:25:59 356  			      B.SUBLEDGER_TYPE_ID,
07:25:59 357  			      nvl( ( select D.ENG_IN_SERVICE_YEAR from cpr_ledger d where d.asset_id = a.asset_id ), A_MONTHS(mndx) ),
07:25:59 358  			      DECODE(LOWER(NVL(PKG_PP_SYSTEM_CONTROL.F_PP_SYSTEM_CONTROL_COMPANY('Transfers In Est Adds',
07:25:59 359  									  B.COMPANY_ID),
07:25:59 360  				       'no')),
07:25:59 361  				  'no',
07:25:59 362  				  1,
07:25:59 363  				  0),
07:25:59 364  			      DECODE(LOWER(NVL(PKG_PP_SYSTEM_CONTROL.F_PP_SYSTEM_CONTROL_COMPANY('CPR DEPR: Allow Exp in Month Added',
07:25:59 365  									  B.COMPANY_ID),
07:25:59 366  				       'yes')),
07:25:59 367  				  'no',
07:25:59 368  				  0,
07:25:59 369  				  -1
07:25:59 370  				  ),
07:25:59 371  			     0,--TRUEUP_ADJ
07:25:59 372  			     0,0,0,0,0,
07:25:59 373  			     0,--EXISTS_TWO_MONTHS
07:25:59 374  			     0,--EXISTS_ARO
07:25:59 375  			     0, --HAS_CFNU
07:25:59 376  			     0, --HAS_NURV
07:25:59 377  			     0, --HAS_NURV_LAST_MONTH
07:25:59 378  			     1, --EXISTS_LAST_MONTH
07:25:59 379  			     0, --NuRV_ADJ
07:25:59 380  			     nvl(A.IMPAIRMENT_ASSET_ACTIVITY_SALV, 0), nvl(A.IMPAIRMENT_ASSET_BEGIN_BALANCE, 0),
07:25:59 381  			     a_inc_process_ids(i)
07:25:59 382  		       from CPR_DEPR_VIEW A, FCST_DEPR_GROUP_VERSION B, DEPR_METHOD_RATES_VIEW C,
07:25:59 383  			     depr_fcst_group_stg tt, COMPANY_SET_OF_BOOKS CSOB
07:25:59 384  		     where A.FCST_DEPR_GROUP_ID = B.FCST_DEPR_GROUP_ID
07:25:59 385  			--and B.SUBLEDGER_TYPE_ID = A_SUBLEDGER --Load all the subledgers for this FCST run
07:25:59 386  			and A.SET_OF_BOOKS_ID = C.SET_OF_BOOKS_ID
07:25:59 387  			and NVL(A.FCST_DEPR_METHOD_ID, B.FCST_DEPR_METHOD_ID) = C.DEPR_METHOD_ID
07:25:59 388  			and A.FCST_DEPR_VERSION_ID = A_VERSION_ID
07:25:59 389  			and A.FCST_DEPR_VERSION_ID = B.FCST_DEPR_VERSION_ID
07:25:59 390  			and tt.fcst_depr_group_id = b.fcst_depr_group_id
07:25:59 391  			and C.THE_ROW = 1
07:25:59 392  			and A.SET_OF_BOOKS_ID = CSOB.SET_OF_BOOKS_ID
07:25:59 393  			and B.COMPANY_ID = CSOB.COMPANY_ID
07:25:59 394  					AND B.SUBLEDGER_TYPE_ID <> 0;
07:25:59 395  
07:25:59 396  	      PKG_PP_LOG.P_WRITE_MESSAGE(SQL%ROWCOUNT|| ' rows inserted into CPR DEPR CALC STG, Incremental Process ID : '||a_inc_process_ids(i));
07:25:59 397  
07:25:59 398  	      G_RTN := analyze_table('CPR_DEPR_CALC_STG',100);
07:25:59 399  
07:25:59 400  	      END LOOP;
07:25:59 401  
07:25:59 402  	      PKG_DEPR_IND_CALC.P_BACKFILL_FCST;
07:25:59 403  
07:25:59 404  	      PKG_PP_ERROR.REMOVE_MODULE_NAME;
07:25:59 405  	  exception
07:25:59 406  	      when others then
07:25:59 407  		  PKG_PP_ERROR.RAISE_ERROR('ERROR','Failed Operation');
07:25:59 408  	 end P_CPRDEPRSTAGE;
07:25:59 409  
07:25:59 410  
07:25:59 411  	 --**************************************************************************
07:25:59 412  	 --			       P_HANDLERESULTS
07:25:59 413  	 --**************************************************************************
07:25:59 414  	      procedure P_HANDLERESULTS(
07:25:59 415  		      A_VERSION_ID FCST_DEPR_VERSION.FCST_DEPR_VERSION_ID%TYPE
07:25:59 416  	      )
07:25:59 417  	      is
07:25:59 418  	      begin
07:25:59 419  		      PKG_PP_ERROR.SET_MODULE_NAME('PKG_DEPR_INCREMENTAL.P_HANDLERESULTS');
07:25:59 420  
07:25:59 421  	    update FCST_DEPR_LEDGER_INC D
07:25:59 422  	       set (BEGIN_RESERVE,
07:25:59 423  		     END_RESERVE,
07:25:59 424  		     BEGIN_BALANCE,
07:25:59 425  		     END_BALANCE,
07:25:59 426  		     DEPRECIATION_BASE,
07:25:59 427  		     DEPRECIATION_RATE,
07:25:59 428  		     DEPRECIATION_EXPENSE,
07:25:59 429  		     DEPR_EXP_ALLOC_ADJUST,
07:25:59 430  		     SALVAGE_BASE,
07:25:59 431  		     SALVAGE_RATE,
07:25:59 432  		     SALVAGE_EXPENSE,
07:25:59 433  		     SALVAGE_EXP_ALLOC_ADJUST,
07:25:59 434  		     SALVAGE_BALANCE,
07:25:59 435  		     COST_OF_REMOVAL_BASE,
07:25:59 436  		     COST_OF_REMOVAL_RATE,
07:25:59 437  		     COR_EXPENSE,
07:25:59 438  		     COR_EXP_ALLOC_ADJUST,
07:25:59 439  		     COR_BEG_RESERVE,
07:25:59 440  		     COR_END_RESERVE,
07:25:59 441  		     IMPAIRMENT_RESERVE_END,
07:25:59 442  		     RESERVE_BAL_IMPAIRMENT,
07:25:59 443  		     RESERVE_BAL_PROVISION,
07:25:59 444  		     RESERVE_BAL_COR,
07:25:59 445  		     RESERVE_BAL_ADJUST,
07:25:59 446  		     RESERVE_BAL_RETIREMENTS,
07:25:59 447  		     RESERVE_BAL_TRAN_IN,
07:25:59 448  		     RESERVE_BAL_TRAN_OUT,
07:25:59 449  		     RESERVE_BAL_GAIN_LOSS,
07:25:59 450  		     RESERVE_BAL_SALVAGE_EXP,
07:25:59 451  		     EST_ANN_NET_ADDS,
07:25:59 452  		     COR_BLENDING_ADJUSTMENT,
07:25:59 453  		     COR_BLENDING_TRANSFER,
07:25:59 454  		     IMPAIRMENT_ASSET_AMOUNT,
07:25:59 455  		     IMPAIRMENT_EXPENSE_AMOUNT,
07:25:59 456  		     RESERVE_BLENDING_ADJUSTMENT,
07:25:59 457  		     RESERVE_BLENDING_TRANSFER,
07:25:59 458  		     RWIP_COST_OF_REMOVAL,
07:25:59 459  		     RWIP_RESERVE_CREDITS,
07:25:59 460  		     RWIP_SALVAGE_CASH,
07:25:59 461  		     RWIP_SALVAGE_RETURNS,
07:25:59 462  		     SALVAGE_EXP_ADJUST) =
07:25:59 463  		    (select S.BEGIN_RESERVE,
07:25:59 464  			    S.END_RESERVE,
07:25:59 465  			    S.BEGIN_BALANCE,
07:25:59 466  			    S.END_BALANCE,
07:25:59 467  			    S.DEPRECIATION_BASE,
07:25:59 468  			    S.DEPRECIATION_RATE,
07:25:59 469  			    S.DEPRECIATION_EXPENSE,
07:25:59 470  			    (S.DEPR_EXP_ALLOC_ADJUST + S.OVER_DEPR_ADJ + S.RETRO_DEPR_ADJ +
07:25:59 471  			    S.CURVE_TRUEUP_ADJ),
07:25:59 472  			    S.SALVAGE_BASE,
07:25:59 473  			    S.SALVAGE_RATE,
07:25:59 474  			    S.SALVAGE_EXPENSE,
07:25:59 475  			    (S.SALVAGE_EXP_ALLOC_ADJUST + S.OVER_DEPR_ADJ_SALV + S.RETRO_SALV_ADJ +
07:25:59 476  			    S.CURVE_TRUEUP_ADJ_SALV),
07:25:59 477  			    S.SALVAGE_BALANCE,
07:25:59 478  			    S.COST_OF_REMOVAL_BASE,
07:25:59 479  			    S.COST_OF_REMOVAL_RATE,
07:25:59 480  			    S.COR_EXPENSE,
07:25:59 481  			    (S.COR_EXP_ALLOC_ADJUST + S.OVER_DEPR_ADJ_COR + S.RETRO_COR_ADJ +
07:25:59 482  			    S.CURVE_TRUEUP_ADJ_COR),
07:25:59 483  			    S.COR_BEG_RESERVE,
07:25:59 484  			    S.COR_END_RESERVE,
07:25:59 485  			    S.IMPAIRMENT_RESERVE_END,
07:25:59 486  			    S.RESERVE_BAL_IMPAIRMENT,
07:25:59 487  			    S.RESERVE_BAL_PROVISION,
07:25:59 488  			    S.RESERVE_BAL_COR,
07:25:59 489  			    S.RESERVE_BAL_ADJUST,
07:25:59 490  			    S.RESERVE_BAL_RETIREMENTS,
07:25:59 491  			    S.RESERVE_BAL_TRAN_IN,
07:25:59 492  			    S.RESERVE_BAL_TRAN_OUT,
07:25:59 493  			    S.RESERVE_BAL_GAIN_LOSS,
07:25:59 494  			    S.RESERVE_BAL_SALVAGE_EXP,
07:25:59 495  			    S.EST_ANN_NET_ADDS,
07:25:59 496  			    S.COR_BLENDING_ADJUSTMENT,
07:25:59 497  			    S.COR_BLENDING_TRANSFER,
07:25:59 498  			    S.IMPAIRMENT_ASSET_AMOUNT,
07:25:59 499  			    S.IMPAIRMENT_EXPENSE_AMOUNT,
07:25:59 500  			    S.RESERVE_BLENDING_ADJUSTMENT,
07:25:59 501  			    S.RESERVE_BLENDING_TRANSFER,
07:25:59 502  			    S.RWIP_COST_OF_REMOVAL,
07:25:59 503  			    S.RWIP_RESERVE_CREDITS,
07:25:59 504  			    S.RWIP_SALVAGE_CASH,
07:25:59 505  			    S.RWIP_SALVAGE_RETURNS,
07:25:59 506  			    S.SALVAGE_EXP_ADJUST
07:25:59 507  		       from DEPR_CALC_STG S
07:25:59 508  		      where D.FCST_DEPR_GROUP_ID = S.DEPR_GROUP_ID
07:25:59 509  			and D.SET_OF_BOOKS_ID = S.SET_OF_BOOKS_ID
07:25:59 510  			and D.GL_POST_MO_YR = S.GL_POST_MO_YR
07:25:59 511  			and D.FCST_DEPR_VERSION_ID = S.FCST_DEPR_VERSION_ID
07:25:59 512  			and S.DEPR_CALC_STATUS = 9)
07:25:59 513  	     where exists (select 1
07:25:59 514  		      from DEPR_CALC_STG S
07:25:59 515  		     where D.FCST_DEPR_GROUP_ID = S.DEPR_GROUP_ID
07:25:59 516  		       and D.SET_OF_BOOKS_ID = S.SET_OF_BOOKS_ID
07:25:59 517  		       and D.GL_POST_MO_YR = S.GL_POST_MO_YR
07:25:59 518  		       and D.FCST_DEPR_VERSION_ID = S.FCST_DEPR_VERSION_ID
07:25:59 519  		       and D.INCREMENTAL_PROCESS_ID = S.INCREMENTAL_PROCESS_ID
07:25:59 520  		       and S.DEPR_CALC_STATUS = 9);
07:25:59 521  
07:25:59 522  	    PKG_PP_LOG.P_WRITE_MESSAGE(SQL%ROWCOUNT|| ' rows updated on FCST DEPR LEDGER INC (with staged data).');
07:25:59 523  
07:25:59 524  	    merge into FCST_CPR_DEPR_INC c
07:25:59 525  		      using (
07:25:59 526  			      select ASSET_ID, SET_OF_BOOKS_ID, GL_POSTING_MO_YR, A_VERSION_ID as FCST_DEPR_VERSION_ID, INIT_LIFE,
07:25:59 527  			      REMAINING_LIFE, ESTIMATED_SALVAGE, BEG_ASSET_DOLLARS, NET_ADDS_AND_ADJUST,
07:25:59 528  			      RETIREMENTS, TRANSFERS_IN, TRANSFERS_OUT, ASSET_DOLLARS, BEG_RESERVE_MONTH,
07:25:59 529  			      SALVAGE_DOLLARS, RESERVE_ADJUSTMENT, COST_OF_REMOVAL, RESERVE_TRANS_IN,
07:25:59 530  			      RESERVE_TRANS_OUT, DEPR_EXP_ADJUST, OTHER_CREDITS_AND_ADJUST, GAIN_LOSS,
07:25:59 531  			      DEPRECIATION_BASE, CURR_DEPR_EXPENSE, DEPR_RESERVE, BEG_RESERVE_YEAR,
07:25:59 532  			      YTD_DEPR_EXPENSE, YTD_DEPR_EXP_ADJUST, PRIOR_YTD_DEPR_EXPENSE,
07:25:59 533  			      PRIOR_YTD_DEPR_EXP_ADJUST, ACCT_DISTRIB, MONTH_RATE, COMPANY_ID,
07:25:59 534  			      MID_PERIOD_METHOD, MID_PERIOD_CONV, DEPR_GROUP_ID as FCST_DEPR_GROUP_ID, DEPR_EXP_ALLOC_ADJUST,
07:25:59 535  			      DEPR_METHOD_ID as FCST_DEPR_METHOD_ID, IMPAIRMENT_ASSET_ACTIVITY_SALV,
07:25:59 536  			      IMPAIRMENT_ASSET_BEGIN_BALANCE, SALVAGE_EXPENSE, SALVAGE_EXP_ADJUST,
07:25:59 537  			      SALVAGE_EXP_ALLOC_ADJUST, IMPAIRMENT_ASSET_AMOUNT, IMPAIRMENT_EXPENSE_AMOUNT, INCREMENTAL_PROCESS_ID
07:25:59 538  			      from CPR_DEPR_CALC_STG
07:25:59 539  			      WHERE DEPR_CALC_STATUS = 9
07:25:59 540  		      ) s
07:25:59 541  		      on (s.asset_id = c.asset_id
07:25:59 542  			      and s.set_of_books_id = c.set_of_books_id
07:25:59 543  			  and s.gl_posting_mo_yr = c.gl_posting_mo_yr
07:25:59 544  			      and S.FCST_DEPR_VERSION_ID = C.FCST_DEPR_VERSION_ID
07:25:59 545  			      and S.INCREMENTAL_PROCESS_ID = C.INCREMENTAL_PROCESS_ID)
07:25:59 546  		      when matched then
07:25:59 547  		      update set c.depreciation_base = s.depreciation_base,
07:25:59 548  					 c.curr_depr_expense = s.curr_depr_expense,
07:25:59 549  					 c.month_rate = s.month_rate,
07:25:59 550  					 c.depr_exp_alloc_adjust = s.depr_exp_alloc_adjust,
07:25:59 551  					 c.salvage_expense = s.salvage_expense,
07:25:59 552  					 c.salvage_exp_alloc_adjust = s.salvage_exp_alloc_adjust,
07:25:59 553  					 c.depr_reserve = s.depr_reserve,
07:25:59 554  					 c.mid_period_conv = s.mid_period_conv,
07:25:59 555  					 c.mid_period_method = s.mid_period_method,
07:25:59 556  					 c.fcst_depr_method_id = s.fcst_depr_method_id,
07:25:59 557  					 c.remaining_life = s.remaining_life,
07:25:59 558  					 c.asset_dollars = s.asset_dollars,
07:25:59 559  					 c.acct_distrib = s.acct_distrib,
07:25:59 560  					 c.init_life = s.init_life
07:25:59 561  		      when not matched then insert
07:25:59 562  		      (
07:25:59 563  			      C.ASSET_ID, C.SET_OF_BOOKS_ID, C.GL_POSTING_MO_YR, C.FCST_DEPR_VERSION_ID, C.INIT_LIFE,
07:25:59 564  			      C.REMAINING_LIFE, C.ESTIMATED_SALVAGE, C.BEG_ASSET_DOLLARS, C.NET_ADDS_AND_ADJUST,
07:25:59 565  			      C.RETIREMENTS, C.TRANSFERS_IN, C.TRANSFERS_OUT, C.ASSET_DOLLARS, C.BEG_RESERVE_MONTH,
07:25:59 566  			      C.SALVAGE_DOLLARS, C.RESERVE_ADJUSTMENT, C.COST_OF_REMOVAL, C.RESERVE_TRANS_IN,
07:25:59 567  			      C.RESERVE_TRANS_OUT, C.DEPR_EXP_ADJUST, C.OTHER_CREDITS_AND_ADJUST, C.GAIN_LOSS,
07:25:59 568  			      C.DEPRECIATION_BASE, C.CURR_DEPR_EXPENSE, C.DEPR_RESERVE, C.BEG_RESERVE_YEAR,
07:25:59 569  			      C.YTD_DEPR_EXPENSE, C.YTD_DEPR_EXP_ADJUST, C.PRIOR_YTD_DEPR_EXPENSE,
07:25:59 570  			      C.PRIOR_YTD_DEPR_EXP_ADJUST, C.ACCT_DISTRIB, C.MONTH_RATE, C.COMPANY_ID,
07:25:59 571  			      C.MID_PERIOD_METHOD, C.MID_PERIOD_CONV, C.FCST_DEPR_GROUP_ID, C.DEPR_EXP_ALLOC_ADJUST,
07:25:59 572  			      C.FCST_DEPR_METHOD_ID, C.IMPAIRMENT_ASSET_ACTIVITY_SALV,
07:25:59 573  			      C.IMPAIRMENT_ASSET_BEGIN_BALANCE, C.SALVAGE_EXPENSE, C.SALVAGE_EXP_ADJUST,
07:25:59 574  			      C.SALVAGE_EXP_ALLOC_ADJUST, C.IMPAIRMENT_ASSET_AMOUNT, C.IMPAIRMENT_EXPENSE_AMOUNT, C.INCREMENTAL_PROCESS_ID
07:25:59 575  		      ) values
07:25:59 576  		      (
07:25:59 577  			      S.ASSET_ID, S.SET_OF_BOOKS_ID, S.GL_POSTING_MO_YR, S.FCST_DEPR_VERSION_ID, S.INIT_LIFE,
07:25:59 578  			      S.REMAINING_LIFE, S.ESTIMATED_SALVAGE, S.BEG_ASSET_DOLLARS, S.NET_ADDS_AND_ADJUST,
07:25:59 579  			      S.RETIREMENTS, S.TRANSFERS_IN, S.TRANSFERS_OUT, S.ASSET_DOLLARS, S.BEG_RESERVE_MONTH,
07:25:59 580  			      S.SALVAGE_DOLLARS, S.RESERVE_ADJUSTMENT, S.COST_OF_REMOVAL, S.RESERVE_TRANS_IN,
07:25:59 581  			      S.RESERVE_TRANS_OUT, S.DEPR_EXP_ADJUST, S.OTHER_CREDITS_AND_ADJUST, S.GAIN_LOSS,
07:25:59 582  			      S.DEPRECIATION_BASE, S.CURR_DEPR_EXPENSE, S.DEPR_RESERVE, S.BEG_RESERVE_YEAR,
07:25:59 583  			      S.YTD_DEPR_EXPENSE, S.YTD_DEPR_EXP_ADJUST, S.PRIOR_YTD_DEPR_EXPENSE,
07:25:59 584  			      S.PRIOR_YTD_DEPR_EXP_ADJUST, S.ACCT_DISTRIB, S.MONTH_RATE, S.COMPANY_ID,
07:25:59 585  			      S.MID_PERIOD_METHOD, S.MID_PERIOD_CONV, S.FCST_DEPR_GROUP_ID, S.DEPR_EXP_ALLOC_ADJUST,
07:25:59 586  			      S.FCST_DEPR_METHOD_ID, S.IMPAIRMENT_ASSET_ACTIVITY_SALV,
07:25:59 587  			      S.IMPAIRMENT_ASSET_BEGIN_BALANCE, S.SALVAGE_EXPENSE, S.SALVAGE_EXP_ADJUST,
07:25:59 588  			      S.SALVAGE_EXP_ALLOC_ADJUST, S.IMPAIRMENT_ASSET_AMOUNT, S.IMPAIRMENT_EXPENSE_AMOUNT, S.INCREMENTAL_PROCESS_ID
07:25:59 589  		      );
07:25:59 590  
07:25:59 591  	   PKG_PP_LOG.P_WRITE_MESSAGE(SQL%ROWCOUNT|| ' rows updated on FCST CPR DEPR INC (with staged CPR data).');
07:25:59 592  
07:25:59 593  	    update FCST_DEPR_LEDGER_INC C
07:25:59 594  	       set (DEPRECIATION_BASE,
07:25:59 595  		     DEPRECIATION_EXPENSE,
07:25:59 596  		     DEPR_EXP_ALLOC_ADJUST,
07:25:59 597  		     SALVAGE_EXPENSE,
07:25:59 598  		     SALVAGE_EXP_ALLOC_ADJUST,
07:25:59 599  		     END_RESERVE,
07:25:59 600  		     END_BALANCE,
07:25:59 601  		     BEGIN_RESERVE,
07:25:59 602  		     BEGIN_BALANCE,
07:25:59 603  		     ADDITIONS,
07:25:59 604  		     RETIREMENTS,
07:25:59 605  		     TRANSFERS_IN,
07:25:59 606  		     TRANSFERS_OUT) =
07:25:59 607  		    (select sum(S.DEPRECIATION_BASE),
07:25:59 608  			    sum(S.CURR_DEPR_EXPENSE),
07:25:59 609  			    sum(S.DEPR_EXP_ALLOC_ADJUST) + sum(S.TRUEUP_ADJ),
07:25:59 610  			    sum(S.SALVAGE_EXPENSE),
07:25:59 611  			    sum(S.SALVAGE_EXP_ALLOC_ADJUST),
07:25:59 612  			    sum(S.DEPR_RESERVE),
07:25:59 613  			    sum(S.ASSET_DOLLARS),
07:25:59 614  			    sum(S.BEG_RESERVE_MONTH),
07:25:59 615  			    sum(S.BEG_ASSET_DOLLARS),
07:25:59 616  			    sum(S.NET_ADDS_AND_ADJUST),
07:25:59 617  			    sum(S.RETIREMENTS),
07:25:59 618  			    sum(S.TRANSFERS_IN),
07:25:59 619  			    sum(S.TRANSFERS_OUT)
07:25:59 620  		       from CPR_DEPR_CALC_STG S
07:25:59 621  		      where S.DEPR_GROUP_ID = C.FCST_DEPR_GROUP_ID
07:25:59 622  			and S.SET_OF_BOOKS_ID = C.SET_OF_BOOKS_ID
07:25:59 623  			and S.GL_POSTING_MO_YR = C.GL_POST_MO_YR
07:25:59 624  			and S.DEPR_CALC_STATUS = 9)
07:25:59 625  	     where exists (select 1
07:25:59 626  		      from CPR_DEPR_CALC_STG S
07:25:59 627  		     where S.DEPR_GROUP_ID = C.FCST_DEPR_GROUP_ID
07:25:59 628  		       and S.SET_OF_BOOKS_ID = C.SET_OF_BOOKS_ID
07:25:59 629  		       and S.GL_POSTING_MO_YR = C.GL_POST_MO_YR
07:25:59 630  		       and S.INCREMENTAL_PROCESS_ID = C.INCREMENTAL_PROCESS_ID
07:25:59 631  		       and S.DEPR_CALC_STATUS = 9);
07:25:59 632  
07:25:59 633  	    PKG_PP_LOG.P_WRITE_MESSAGE(SQL%ROWCOUNT|| ' rows updated on FCST DEPR LEDGER INC (with staged CPR data).');
07:25:59 634  
07:25:59 635  
07:25:59 636  		      PKG_PP_ERROR.REMOVE_MODULE_NAME;
07:25:59 637  	      exception
07:25:59 638  		      when others then
07:25:59 639  			      PKG_PP_ERROR.RAISE_ERROR('ERROR','Failed Operation');
07:25:59 640  	 end P_HANDLERESULTS;
07:25:59 641  
07:25:59 642  end PKG_DEPR_INCREMENTAL;
07:25:59 643  /

Package body created.

07:25:59 hopplant> --**************************
07:25:59 hopplant> -- Log the run of the script
07:25:59 hopplant> --**************************
07:25:59 hopplant> insert into PP_SCHEMA_CHANGE_LOG
07:25:59   2  	 (ID, SKIPPED, MAJOR_VERSION, MINOR_VERSION, POINT_VERSION, PATCH_VERSION, MAINT_NUM, SCRIPT_PATH,
07:25:59   3  	  SCRIPT_NAME, SCRIPT_REVISION, DATE_APPLIED, OS_USER, TERMINAL, SERVICE_NAME)
07:25:59   4  values
07:25:59   5  	 (18182, 0, 2018, 2, 1, 0, 0, 'C:\BitBucketRepos\Classic_PB\scripts\00_base\packages',
07:25:59   6  	  'PKG_DEPR_INCREMENTAL.sql', 1, SYSTIMESTAMP, SYS_CONTEXT('USERENV', 'OS_USER'), SYS_CONTEXT('USERENV', 'TERMINAL'), SYS_CONTEXT('USERENV', 'SERVICE_NAME'));

1 row created.

07:25:59 hopplant> commit;

Commit complete.

07:26:00 hopplant> SPOOL OFF
