07:18:32 hopplant> @&&PP_SCRIPT_PATH.packages_released\2018.2.0.0_PP_PARM_TRANSLATE.sql
07:18:32 hopplant> /*
07:18:32 hopplant> ||============================================================================
07:18:32 hopplant> || Application: PowerPlant
07:18:32 hopplant> || File Name:   maint_036012_system_PP_PARM_TRANSLATE.sql
07:18:32 hopplant> ||============================================================================
07:18:32 hopplant> || Copyright (C) 2014 by PowerPlan Consultants, Inc. All Rights Reserved.
07:18:32 hopplant> ||============================================================================
07:18:32 hopplant> || Version  Date	  Revised By	      Reason for Change
07:18:32 hopplant> || -------- ---------- ------------------- -----------------------------------
07:18:32 hopplant> || 10.4.2.0 01/27/2014 Chris Mardis
07:18:32 hopplant> ||============================================================================
07:18:32 hopplant> */
07:18:32 hopplant> 
07:18:32 hopplant> create or replace package PP_PARM_TRANSLATE as
07:18:32   2  	 G_PKG_VERSION varchar(35) := '2018.2.0.0';
07:18:32   3  	 type LONG_ARRAY is table of number;
07:18:32   4  	 type STRING_ARRAY is table of varchar2(32767); --or clob?
07:18:32   5  	 type INTEGER_ARRAY is table of integer;
07:18:32   6  	 type DECIMAL_ARRAY is table of number;
07:18:32   7  	 type DOUBLE_ARRAY is table of number;
07:18:32   8  	 type DATE_ARRAY is table of date;
07:18:32   9  	 type DATETIME_ARRAY is table of date;
07:18:32  10  	 type BOOLEAN_ARRAY is table of boolean;
07:18:32  11  
07:18:32  12  	 type S_PARM_ARRAYS is record(
07:18:32  13  	    LONG_ARG	  LONG_ARRAY,
07:18:32  14  	    LONG_ARG2	  LONG_ARRAY,
07:18:32  15  	    LONG_ARG3	  LONG_ARRAY,
07:18:32  16  	    LONG_ARG4	  LONG_ARRAY,
07:18:32  17  	    LONG_ARG5	  LONG_ARRAY,
07:18:32  18  	    STRING_ARG	  STRING_ARRAY,
07:18:32  19  	    STRING_ARG2   STRING_ARRAY,
07:18:32  20  	    STRING_ARG3   STRING_ARRAY,
07:18:32  21  	    STRING_ARG4   STRING_ARRAY,
07:18:32  22  	    STRING_ARG5   STRING_ARRAY,
07:18:32  23  	    INTEGER_ARG   INTEGER_ARRAY,
07:18:32  24  	    INTEGER_ARG2  INTEGER_ARRAY,
07:18:32  25  	    INTEGER_ARG3  INTEGER_ARRAY,
07:18:32  26  	    INTEGER_ARG4  INTEGER_ARRAY,
07:18:32  27  	    INTEGER_ARG5  INTEGER_ARRAY,
07:18:32  28  	    DECIMAL_ARG   DECIMAL_ARRAY,
07:18:32  29  	    DECIMAL_ARG2  DECIMAL_ARRAY,
07:18:32  30  	    DECIMAL_ARG3  DECIMAL_ARRAY,
07:18:32  31  	    DECIMAL_ARG4  DECIMAL_ARRAY,
07:18:32  32  	    DECIMAL_ARG5  DECIMAL_ARRAY,
07:18:32  33  	    DOUBLE_ARG	  DOUBLE_ARRAY,
07:18:32  34  	    DOUBLE_ARG2   DOUBLE_ARRAY,
07:18:32  35  	    DOUBLE_ARG3   DOUBLE_ARRAY,
07:18:32  36  	    DOUBLE_ARG4   DOUBLE_ARRAY,
07:18:32  37  	    DOUBLE_ARG5   DOUBLE_ARRAY,
07:18:32  38  	    DATE_ARG	  DATE_ARRAY,
07:18:32  39  	    DATE_ARG2	  DATE_ARRAY,
07:18:32  40  	    DATE_ARG3	  DATE_ARRAY,
07:18:32  41  	    DATE_ARG4	  DATE_ARRAY,
07:18:32  42  	    DATE_ARG5	  DATE_ARRAY,
07:18:32  43  	    DATETIME_ARG  DATETIME_ARRAY,
07:18:32  44  	    DATETIME_ARG2 DATETIME_ARRAY,
07:18:32  45  	    DATETIME_ARG3 DATETIME_ARRAY,
07:18:32  46  	    DATETIME_ARG4 DATETIME_ARRAY,
07:18:32  47  	    DATETIME_ARG5 DATETIME_ARRAY,
07:18:32  48  	    BOOLEAN_ARG   BOOLEAN_ARRAY,
07:18:32  49  	    BOOLEAN_ARG2  BOOLEAN_ARRAY,
07:18:32  50  	    BOOLEAN_ARG3  BOOLEAN_ARRAY,
07:18:32  51  	    BOOLEAN_ARG4  BOOLEAN_ARRAY,
07:18:32  52  	    BOOLEAN_ARG5  BOOLEAN_ARRAY);
07:18:32  53  
07:18:32  54  	 type S_PARM_LABELS is record(
07:18:32  55  	    LONG_LABEL	    varchar2(4000),
07:18:32  56  	    LONG_LABEL2     varchar2(4000),
07:18:32  57  	    LONG_LABEL3     varchar2(4000),
07:18:32  58  	    LONG_LABEL4     varchar2(4000),
07:18:32  59  	    LONG_LABEL5     varchar2(4000),
07:18:32  60  	    STRING_LABEL    varchar2(4000),
07:18:32  61  	    STRING_LABEL2   varchar2(4000),
07:18:32  62  	    STRING_LABEL3   varchar2(4000),
07:18:32  63  	    STRING_LABEL4   varchar2(4000),
07:18:32  64  	    STRING_LABEL5   varchar2(4000),
07:18:32  65  	    INTEGER_LABEL   varchar2(4000),
07:18:32  66  	    INTEGER_LABEL2  varchar2(4000),
07:18:32  67  	    INTEGER_LABEL3  varchar2(4000),
07:18:32  68  	    INTEGER_LABEL4  varchar2(4000),
07:18:33  69  	    INTEGER_LABEL5  varchar2(4000),
07:18:33  70  	    DECIMAL_LABEL   varchar2(4000),
07:18:33  71  	    DECIMAL_LABEL2  varchar2(4000),
07:18:33  72  	    DECIMAL_LABEL3  varchar2(4000),
07:18:33  73  	    DECIMAL_LABEL4  varchar2(4000),
07:18:33  74  	    DECIMAL_LABEL5  varchar2(4000),
07:18:33  75  	    DOUBLE_LABEL    varchar2(4000),
07:18:33  76  	    DOUBLE_LABEL2   varchar2(4000),
07:18:33  77  	    DOUBLE_LABEL3   varchar2(4000),
07:18:33  78  	    DOUBLE_LABEL4   varchar2(4000),
07:18:33  79  	    DOUBLE_LABEL5   varchar2(4000),
07:18:33  80  	    DATE_LABEL	    varchar2(4000),
07:18:33  81  	    DATE_LABEL2     varchar2(4000),
07:18:33  82  	    DATE_LABEL3     varchar2(4000),
07:18:33  83  	    DATE_LABEL4     varchar2(4000),
07:18:33  84  	    DATE_LABEL5     varchar2(4000),
07:18:33  85  	    DATETIME_LABEL  varchar2(4000),
07:18:33  86  	    DATETIME_LABEL2 varchar2(4000),
07:18:33  87  	    DATETIME_LABEL3 varchar2(4000),
07:18:33  88  	    DATETIME_LABEL4 varchar2(4000),
07:18:33  89  	    DATETIME_LABEL5 varchar2(4000),
07:18:33  90  	    BOOLEAN_LABEL   varchar2(4000),
07:18:33  91  	    BOOLEAN_LABEL2  varchar2(4000),
07:18:33  92  	    BOOLEAN_LABEL3  varchar2(4000),
07:18:33  93  	    BOOLEAN_LABEL4  varchar2(4000),
07:18:33  94  	    BOOLEAN_LABEL5  varchar2(4000));
07:18:33  95  
07:18:33  96  	 function STRUCTS_TO_STRINGS(ARGS   in S_PARM_ARRAYS,
07:18:33  97  				     LABELS in S_PARM_LABELS) return varchar2;
07:18:33  98  	 procedure STRING_TO_STRUCTS(JSON   in varchar2,
07:18:33  99  				     ARGS   in out S_PARM_ARRAYS,
07:18:33 100  				     LABELS in out S_PARM_LABELS);
07:18:33 101  
07:18:33 102  end PP_PARM_TRANSLATE;
07:18:33 103  /

Package created.

07:18:33 hopplant> 
07:18:33 hopplant> 
07:18:33 hopplant> create or replace package body PP_PARM_TRANSLATE as
07:18:33   2  
07:18:33   3  	 function SANITIZE_STRING(ASTRING in varchar2) return varchar2 is
07:18:33   4  	    RETVAL varchar2(32767);
07:18:33   5  	 begin
07:18:33   6  	    RETVAL := replace(ASTRING, '{', '~ob~');
07:18:33   7  	    RETVAL := replace(RETVAL, '}', '~cb~');
07:18:33   8  	    RETVAL := replace(RETVAL, ',', '~comma~');
07:18:33   9  	    RETVAL := replace(RETVAL, '\', '~slash~');
07:18:33  10  	    RETVAL := replace(RETVAL, '"', '\"');
07:18:33  11  	    return RETVAL;
07:18:33  12  	 end;
07:18:33  13  
07:18:33  14  	 function UNSANITIZE_STRING(ASTRING in varchar) return varchar2 is
07:18:33  15  	    RETVAL varchar2(32767);
07:18:33  16  	 begin
07:18:33  17  	    RETVAL := replace(ASTRING, '\"', '"');
07:18:33  18  	    RETVAL := replace(RETVAL, '~ob~', '{');
07:18:33  19  	    RETVAL := replace(RETVAL, '~cb~', '}');
07:18:33  20  	    RETVAL := replace(RETVAL, '~comma~', ',');
07:18:33  21  	    RETVAL := replace(RETVAL, '~slash~', '\');
07:18:33  22  	    return RETVAL;
07:18:33  23  	 end;
07:18:33  24  
07:18:33  25  	 function STRING_TO_STRING_ARRAY(ASTRING in varchar2) return STRING_ARRAY is
07:18:33  26  	    RETVAL     STRING_ARRAY;
07:18:33  27  	    UNIT_START number;
07:18:33  28  	    UNIT_STOP  number;
07:18:33  29  	    UNIT_VAL   varchar2(32767);
07:18:33  30  	    IDX        number;
07:18:33  31  	 begin
07:18:33  32  	    RETVAL := STRING_ARRAY();
07:18:33  33  
07:18:33  34  	    IDX        := 1;
07:18:33  35  	    UNIT_START := 1;
07:18:33  36  	    UNIT_STOP  := INSTR(ASTRING, ',');
07:18:33  37  
07:18:33  38  	    while UNIT_STOP > 0
07:18:33  39  	    loop
07:18:33  40  	       UNIT_VAL := trim(SUBSTR(ASTRING, UNIT_START, UNIT_STOP - UNIT_START));
07:18:33  41  	       RETVAL.EXTEND(1);
07:18:33  42  	       RETVAL(IDX) := UNSANITIZE_STRING(UNIT_VAL);
07:18:33  43  
07:18:33  44  	       UNIT_START := UNIT_STOP + 1;
07:18:33  45  	       UNIT_STOP  := INSTR(ASTRING, ',', UNIT_START);
07:18:33  46  	       IDX	  := IDX + 1;
07:18:33  47  	    end loop;
07:18:33  48  
07:18:33  49  	    UNIT_VAL := trim(SUBSTR(ASTRING, UNIT_START));
07:18:33  50  	    RETVAL.EXTEND(1);
07:18:33  51  	    RETVAL(IDX) := UNSANITIZE_STRING(UNIT_VAL);
07:18:33  52  
07:18:33  53  	    return RETVAL;
07:18:33  54  	 end;
07:18:33  55  
07:18:33  56  	 function STRING_TO_LONG_ARRAY(ASTRING in varchar2) return LONG_ARRAY is
07:18:33  57  	    RETVAL     LONG_ARRAY;
07:18:33  58  	    UNIT_START number;
07:18:33  59  	    UNIT_STOP  number;
07:18:33  60  	    UNIT_VAL   varchar2(255);
07:18:33  61  	    IDX        number;
07:18:33  62  	 begin
07:18:33  63  	    RETVAL := LONG_ARRAY();
07:18:33  64  
07:18:33  65  	    IDX        := 1;
07:18:33  66  	    UNIT_START := 1;
07:18:33  67  	    UNIT_STOP  := INSTR(ASTRING, ',');
07:18:33  68  
07:18:33  69  	    while UNIT_STOP > 0
07:18:33  70  	    loop
07:18:33  71  	       UNIT_VAL := trim(SUBSTR(ASTRING, UNIT_START, UNIT_STOP - UNIT_START));
07:18:33  72  	       RETVAL.EXTEND(1);
07:18:33  73  	       RETVAL(IDX) := TO_NUMBER(UNIT_VAL);
07:18:33  74  
07:18:33  75  	       UNIT_START := UNIT_STOP + 1;
07:18:33  76  	       UNIT_STOP  := INSTR(ASTRING, ',', UNIT_START);
07:18:33  77  	       IDX	  := IDX + 1;
07:18:33  78  	    end loop;
07:18:33  79  
07:18:33  80  	    UNIT_VAL := trim(SUBSTR(ASTRING, UNIT_START));
07:18:33  81  	    RETVAL.EXTEND(1);
07:18:33  82  	    RETVAL(IDX) := TO_NUMBER(UNIT_VAL);
07:18:33  83  
07:18:33  84  	    return RETVAL;
07:18:33  85  	 end;
07:18:33  86  
07:18:33  87  	 function STRING_TO_INTEGER_ARRAY(ASTRING in varchar2) return INTEGER_ARRAY is
07:18:33  88  	    RETVAL     INTEGER_ARRAY;
07:18:33  89  	    UNIT_START number;
07:18:33  90  	    UNIT_STOP  number;
07:18:33  91  	    UNIT_VAL   varchar2(255);
07:18:33  92  	    IDX        number;
07:18:33  93  	 begin
07:18:33  94  	    RETVAL := INTEGER_ARRAY();
07:18:33  95  
07:18:33  96  	    IDX        := 1;
07:18:33  97  	    UNIT_START := 1;
07:18:33  98  	    UNIT_STOP  := INSTR(ASTRING, ',');
07:18:33  99  
07:18:33 100  	    while UNIT_STOP > 0
07:18:33 101  	    loop
07:18:33 102  	       UNIT_VAL := trim(SUBSTR(ASTRING, UNIT_START, UNIT_STOP - UNIT_START));
07:18:33 103  	       RETVAL.EXTEND(1);
07:18:33 104  	       RETVAL(IDX) := TO_NUMBER(UNIT_VAL);
07:18:33 105  
07:18:33 106  	       UNIT_START := UNIT_STOP + 1;
07:18:33 107  	       UNIT_STOP  := INSTR(ASTRING, ',', UNIT_START);
07:18:33 108  	       IDX	  := IDX + 1;
07:18:33 109  	    end loop;
07:18:33 110  
07:18:33 111  	    UNIT_VAL := trim(SUBSTR(ASTRING, UNIT_START));
07:18:33 112  	    RETVAL.EXTEND(1);
07:18:33 113  	    RETVAL(IDX) := TO_NUMBER(UNIT_VAL);
07:18:33 114  
07:18:33 115  	    return RETVAL;
07:18:33 116  	 end;
07:18:33 117  
07:18:33 118  	 function STRING_TO_DECIMAL_ARRAY(ASTRING in varchar2) return DECIMAL_ARRAY is
07:18:33 119  	    RETVAL     DECIMAL_ARRAY;
07:18:33 120  	    UNIT_START number;
07:18:33 121  	    UNIT_STOP  number;
07:18:33 122  	    UNIT_VAL   varchar2(255);
07:18:33 123  	    IDX        number;
07:18:33 124  	 begin
07:18:33 125  	    RETVAL := DECIMAL_ARRAY();
07:18:33 126  
07:18:33 127  	    IDX        := 1;
07:18:33 128  	    UNIT_START := 1;
07:18:33 129  	    UNIT_STOP  := INSTR(ASTRING, ',');
07:18:33 130  
07:18:33 131  	    while UNIT_STOP > 0
07:18:33 132  	    loop
07:18:33 133  	       UNIT_VAL := trim(SUBSTR(ASTRING, UNIT_START, UNIT_STOP - UNIT_START));
07:18:33 134  	       RETVAL.EXTEND(1);
07:18:33 135  	       RETVAL(IDX) := TO_NUMBER(UNIT_VAL);
07:18:33 136  
07:18:33 137  	       UNIT_START := UNIT_STOP + 1;
07:18:33 138  	       UNIT_STOP  := INSTR(ASTRING, ',', UNIT_START);
07:18:33 139  	       IDX	  := IDX + 1;
07:18:33 140  	    end loop;
07:18:33 141  
07:18:33 142  	    UNIT_VAL := trim(SUBSTR(ASTRING, UNIT_START));
07:18:33 143  	    RETVAL.EXTEND(1);
07:18:33 144  	    RETVAL(IDX) := TO_NUMBER(UNIT_VAL);
07:18:33 145  
07:18:33 146  	    return RETVAL;
07:18:33 147  	 end;
07:18:33 148  
07:18:33 149  	 function STRING_TO_DOUBLE_ARRAY(ASTRING in varchar2) return DOUBLE_ARRAY is
07:18:33 150  	    RETVAL     DOUBLE_ARRAY;
07:18:33 151  	    UNIT_START number;
07:18:33 152  	    UNIT_STOP  number;
07:18:33 153  	    UNIT_VAL   varchar2(255);
07:18:33 154  	    IDX        number;
07:18:33 155  	 begin
07:18:33 156  	    RETVAL := DOUBLE_ARRAY();
07:18:33 157  
07:18:33 158  	    IDX        := 1;
07:18:33 159  	    UNIT_START := 1;
07:18:33 160  	    UNIT_STOP  := INSTR(ASTRING, ',');
07:18:33 161  
07:18:33 162  	    while UNIT_STOP > 0
07:18:33 163  	    loop
07:18:33 164  	       UNIT_VAL := trim(SUBSTR(ASTRING, UNIT_START, UNIT_STOP - UNIT_START));
07:18:33 165  	       RETVAL.EXTEND(1);
07:18:33 166  	       RETVAL(IDX) := TO_NUMBER(UNIT_VAL);
07:18:33 167  
07:18:33 168  	       UNIT_START := UNIT_STOP + 1;
07:18:33 169  	       UNIT_STOP  := INSTR(ASTRING, ',', UNIT_START);
07:18:33 170  	       IDX	  := IDX + 1;
07:18:33 171  	    end loop;
07:18:33 172  
07:18:33 173  	    UNIT_VAL := trim(SUBSTR(ASTRING, UNIT_START));
07:18:33 174  	    RETVAL.EXTEND(1);
07:18:33 175  	    RETVAL(IDX) := TO_NUMBER(UNIT_VAL);
07:18:33 176  
07:18:33 177  	    return RETVAL;
07:18:33 178  	 end;
07:18:33 179  
07:18:33 180  	 function STRING_TO_DATE_ARRAY(ASTRING in varchar2) return DATE_ARRAY is
07:18:33 181  	    RETVAL     DATE_ARRAY;
07:18:33 182  	    UNIT_START number;
07:18:33 183  	    UNIT_STOP  number;
07:18:33 184  	    UNIT_VAL   varchar2(255);
07:18:33 185  	    IDX        number;
07:18:33 186  	 begin
07:18:33 187  	    RETVAL := DATE_ARRAY();
07:18:33 188  
07:18:33 189  	    IDX        := 1;
07:18:33 190  	    UNIT_START := 1;
07:18:33 191  	    UNIT_STOP  := INSTR(ASTRING, ',');
07:18:33 192  
07:18:33 193  	    while UNIT_STOP > 0
07:18:33 194  	    loop
07:18:33 195  	       UNIT_VAL := trim(SUBSTR(ASTRING, UNIT_START, UNIT_STOP - UNIT_START));
07:18:33 196  	       RETVAL.EXTEND(1);
07:18:33 197  	       RETVAL(IDX) := TO_DATE(UNIT_VAL, 'MM/DD/YYYY');
07:18:33 198  
07:18:33 199  	       UNIT_START := UNIT_STOP + 1;
07:18:33 200  	       UNIT_STOP  := INSTR(ASTRING, ',', UNIT_START);
07:18:33 201  	       IDX	  := IDX + 1;
07:18:33 202  	    end loop;
07:18:33 203  
07:18:33 204  	    UNIT_VAL := trim(SUBSTR(ASTRING, UNIT_START));
07:18:33 205  	    RETVAL.EXTEND(1);
07:18:33 206  	    RETVAL(IDX) := TO_DATE(UNIT_VAL, 'MM/DD/YYYY');
07:18:33 207  
07:18:33 208  	    return RETVAL;
07:18:33 209  	 end;
07:18:33 210  
07:18:33 211  	 function STRING_TO_DATETIME_ARRAY(ASTRING in varchar2) return DATETIME_ARRAY is
07:18:33 212  	    RETVAL     DATETIME_ARRAY;
07:18:33 213  	    UNIT_START number;
07:18:33 214  	    UNIT_STOP  number;
07:18:33 215  	    UNIT_VAL   varchar2(255);
07:18:33 216  	    IDX        number;
07:18:33 217  	 begin
07:18:33 218  	    RETVAL := DATETIME_ARRAY();
07:18:33 219  
07:18:33 220  	    IDX        := 1;
07:18:33 221  	    UNIT_START := 1;
07:18:33 222  	    UNIT_STOP  := INSTR(ASTRING, ',');
07:18:33 223  
07:18:33 224  	    while UNIT_STOP > 0
07:18:33 225  	    loop
07:18:33 226  	       UNIT_VAL := trim(SUBSTR(ASTRING, UNIT_START, UNIT_STOP - UNIT_START));
07:18:33 227  	       RETVAL.EXTEND(1);
07:18:33 228  	       RETVAL(IDX) := TO_DATE(UNIT_VAL, 'MM/DD/YYYY HH24:MI:SS');
07:18:33 229  
07:18:33 230  	       UNIT_START := UNIT_STOP + 1;
07:18:33 231  	       UNIT_STOP  := INSTR(ASTRING, ',', UNIT_START);
07:18:33 232  	       IDX	  := IDX + 1;
07:18:33 233  	    end loop;
07:18:33 234  
07:18:33 235  	    UNIT_VAL := trim(SUBSTR(ASTRING, UNIT_START));
07:18:33 236  	    RETVAL.EXTEND(1);
07:18:33 237  	    RETVAL(IDX) := TO_DATE(UNIT_VAL, 'MM/DD/YYYY HH24:MI:SS');
07:18:33 238  
07:18:33 239  	    return RETVAL;
07:18:33 240  	 end;
07:18:33 241  
07:18:33 242  	 function STRING_TO_BOOLEAN_ARRAY(ASTRING in varchar2) return BOOLEAN_ARRAY is
07:18:33 243  	    RETVAL     BOOLEAN_ARRAY;
07:18:33 244  	    UNIT_START number;
07:18:33 245  	    UNIT_STOP  number;
07:18:33 246  	    UNIT_VAL   varchar2(255);
07:18:33 247  	    IDX        number;
07:18:33 248  	 begin
07:18:33 249  	    RETVAL := BOOLEAN_ARRAY();
07:18:33 250  
07:18:33 251  	    IDX        := 1;
07:18:33 252  	    UNIT_START := 1;
07:18:33 253  	    UNIT_STOP  := INSTR(ASTRING, ',');
07:18:33 254  
07:18:33 255  	    while UNIT_STOP > 0
07:18:33 256  	    loop
07:18:33 257  	       UNIT_VAL := trim(SUBSTR(ASTRING, UNIT_START, UNIT_STOP - UNIT_START));
07:18:33 258  	       RETVAL.EXTEND(1);
07:18:33 259  	       RETVAL(IDX) := case UNIT_VAL
07:18:33 260  				 when 'true' then
07:18:33 261  				  true
07:18:33 262  				 else
07:18:33 263  				  false
07:18:33 264  			      end;
07:18:33 265  
07:18:33 266  	       UNIT_START := UNIT_STOP + 1;
07:18:33 267  	       UNIT_STOP  := INSTR(ASTRING, ',', UNIT_START);
07:18:33 268  	       IDX	  := IDX + 1;
07:18:33 269  	    end loop;
07:18:33 270  
07:18:33 271  	    UNIT_VAL := trim(SUBSTR(ASTRING, UNIT_START));
07:18:33 272  	    RETVAL.EXTEND(1);
07:18:33 273  	    RETVAL(IDX) := case UNIT_VAL
07:18:33 274  			      when 'true' then
07:18:33 275  			       true
07:18:33 276  			      else
07:18:33 277  			       false
07:18:33 278  			   end;
07:18:33 279  
07:18:33 280  	    return RETVAL;
07:18:33 281  	 end;
07:18:33 282  
07:18:33 283  	 function LONG_ARRAY_TO_STRING(ARG in LONG_ARRAY) return varchar2 is
07:18:33 284  	    RETVAL varchar2(32767);
07:18:33 285  	 begin
07:18:33 286  	    RETVAL := '<' || ARG(1);
07:18:33 287  	    for IDX in 2 .. ARG.COUNT
07:18:33 288  	    loop
07:18:33 289  	       RETVAL := RETVAL || ', ' || ARG(IDX);
07:18:33 290  	    end loop;
07:18:33 291  	    RETVAL := RETVAL || '>';
07:18:33 292  	    return RETVAL;
07:18:33 293  	 end;
07:18:33 294  
07:18:33 295  	 function STRING_ARRAY_TO_STRING(ARG in STRING_ARRAY) return varchar2 is
07:18:33 296  	    RETVAL varchar2(32767);
07:18:33 297  	 begin
07:18:33 298  	    RETVAL := '<' || SANITIZE_STRING(ARG(1));
07:18:33 299  	    for IDX in 2 .. ARG.COUNT
07:18:33 300  	    loop
07:18:33 301  	       RETVAL := RETVAL || ', ' || SANITIZE_STRING(ARG(IDX));
07:18:33 302  	    end loop;
07:18:33 303  	    RETVAL := RETVAL || '>';
07:18:33 304  	    return RETVAL;
07:18:33 305  	 end;
07:18:33 306  
07:18:33 307  	 function INTEGER_ARRAY_TO_STRING(ARG in INTEGER_ARRAY) return varchar2 is
07:18:33 308  	    RETVAL varchar2(32767);
07:18:33 309  	 begin
07:18:33 310  	    RETVAL := '<' || ARG(1);
07:18:33 311  	    for IDX in 2 .. ARG.COUNT
07:18:33 312  	    loop
07:18:33 313  	       RETVAL := RETVAL || ', ' || ARG(IDX);
07:18:33 314  	    end loop;
07:18:33 315  	    RETVAL := RETVAL || '>';
07:18:33 316  	    return RETVAL;
07:18:33 317  	 end;
07:18:33 318  
07:18:33 319  	 function DECIMAL_ARRAY_TO_STRING(ARG in DECIMAL_ARRAY) return varchar2 is
07:18:34 320  	    RETVAL varchar2(32767);
07:18:34 321  	 begin
07:18:34 322  	    RETVAL := '<' || ARG(1);
07:18:34 323  	    for IDX in 2 .. ARG.COUNT
07:18:34 324  	    loop
07:18:34 325  	       RETVAL := RETVAL || ', ' || ARG(IDX);
07:18:34 326  	    end loop;
07:18:34 327  	    RETVAL := RETVAL || '>';
07:18:34 328  	    return RETVAL;
07:18:34 329  	 end;
07:18:34 330  
07:18:34 331  	 function DOUBLE_ARRAY_TO_STRING(ARG in DOUBLE_ARRAY) return varchar2 is
07:18:34 332  	    RETVAL varchar2(32767);
07:18:34 333  	 begin
07:18:34 334  	    RETVAL := '<' || ARG(1);
07:18:34 335  	    for IDX in 2 .. ARG.COUNT
07:18:34 336  	    loop
07:18:34 337  	       RETVAL := RETVAL || ', ' || ARG(IDX);
07:18:34 338  	    end loop;
07:18:34 339  	    RETVAL := RETVAL || '>';
07:18:34 340  	    return RETVAL;
07:18:34 341  	 end;
07:18:34 342  
07:18:34 343  	 function DATE_ARRAY_TO_STRING(ARG in DATE_ARRAY) return varchar2 is
07:18:34 344  	    RETVAL varchar2(32767);
07:18:34 345  	 begin
07:18:34 346  	    RETVAL := '<' || TO_CHAR(ARG(1), 'MM/DD/YYYY');
07:18:34 347  	    for IDX in 2 .. ARG.COUNT
07:18:34 348  	    loop
07:18:34 349  	       RETVAL := RETVAL || ', ' || TO_CHAR(ARG(IDX), 'MM/DD/YYYY');
07:18:34 350  	    end loop;
07:18:34 351  	    RETVAL := RETVAL || '>';
07:18:34 352  	    return RETVAL;
07:18:34 353  	 end;
07:18:34 354  
07:18:34 355  	 function DATETIME_ARRAY_TO_STRING(ARG in DATETIME_ARRAY) return varchar2 is
07:18:34 356  	    RETVAL varchar2(32767);
07:18:34 357  	 begin
07:18:34 358  	    RETVAL := '<' || TO_CHAR(ARG(1), 'MM/DD/YYYY HH24:MI:SS');
07:18:34 359  	    for IDX in 2 .. ARG.COUNT
07:18:34 360  	    loop
07:18:34 361  	       RETVAL := RETVAL || ', ' || TO_CHAR(ARG(IDX), 'MM/DD/YYYY HH24:MI:SS');
07:18:34 362  	    end loop;
07:18:34 363  	    RETVAL := RETVAL || '>';
07:18:34 364  	    return RETVAL;
07:18:34 365  	 end;
07:18:34 366  
07:18:34 367  	 function BOOLEAN_ARRAY_TO_STRING(ARG in BOOLEAN_ARRAY) return varchar2 is
07:18:34 368  	    RETVAL varchar2(32767);
07:18:34 369  	 begin
07:18:34 370  	    RETVAL := '<' || case
07:18:34 371  			 when ARG(1) then
07:18:34 372  			  'true'
07:18:34 373  			 else
07:18:34 374  			  'false'
07:18:34 375  		      end;
07:18:34 376  	    for IDX in 2 .. ARG.COUNT
07:18:34 377  	    loop
07:18:34 378  	       RETVAL := RETVAL || ', ' || case
07:18:34 379  			    when ARG(IDX) then
07:18:34 380  			     'true'
07:18:34 381  			    else
07:18:34 382  			     'false'
07:18:34 383  			 end;
07:18:34 384  	    end loop;
07:18:34 385  	    RETVAL := RETVAL || '>';
07:18:34 386  	    return RETVAL;
07:18:34 387  	 end;
07:18:34 388  
07:18:34 389  	 function STRUCTS_TO_STRINGS(ARGS   in S_PARM_ARRAYS,
07:18:34 390  				     LABELS in S_PARM_LABELS) return varchar2 is
07:18:34 391  	    RETVAL varchar2(32767);
07:18:34 392  	 begin
07:18:34 393  	    RETVAL := '{"parms":[';
07:18:34 394  
07:18:34 395  	    if ARGS.LONG_ARG is not null and ARGS.LONG_ARG.COUNT > 0 then
07:18:34 396  	       RETVAL := RETVAL || ',{"type":"long","value":"' || LONG_ARRAY_TO_STRING(ARGS.LONG_ARG) ||
07:18:34 397  			 '","label":"' || LABELS.LONG_LABEL || '"}';
07:18:34 398  	    end if;
07:18:34 399  	    if ARGS.LONG_ARG2 is not null and ARGS.LONG_ARG2.COUNT > 0 then
07:18:34 400  	       RETVAL := RETVAL || ',{"type":"long2","value":"' || LONG_ARRAY_TO_STRING(ARGS.LONG_ARG2) ||
07:18:34 401  			 '","label":"' || LABELS.LONG_LABEL2 || '"}';
07:18:34 402  	    end if;
07:18:34 403  	    if ARGS.LONG_ARG3 is not null and ARGS.LONG_ARG3.COUNT > 0 then
07:18:34 404  	       RETVAL := RETVAL || ',{"type":"long3","value":"' || LONG_ARRAY_TO_STRING(ARGS.LONG_ARG3) ||
07:18:34 405  			 '","label":"' || LABELS.LONG_LABEL3 || '"}';
07:18:34 406  	    end if;
07:18:34 407  	    if ARGS.LONG_ARG4 is not null and ARGS.LONG_ARG4.COUNT > 0 then
07:18:34 408  	       RETVAL := RETVAL || ',{"type":"long4","value":"' || LONG_ARRAY_TO_STRING(ARGS.LONG_ARG4) ||
07:18:34 409  			 '","label":"' || LABELS.LONG_LABEL4 || '"}';
07:18:34 410  	    end if;
07:18:34 411  	    if ARGS.LONG_ARG5 is not null and ARGS.LONG_ARG5.COUNT > 0 then
07:18:34 412  	       RETVAL := RETVAL || ',{"type":"long5","value":"' || LONG_ARRAY_TO_STRING(ARGS.LONG_ARG5) ||
07:18:34 413  			 '","label":"' || LABELS.LONG_LABEL5 || '"}';
07:18:34 414  	    end if;
07:18:34 415  	    if ARGS.STRING_ARG is not null and ARGS.STRING_ARG.COUNT > 0 then
07:18:34 416  	       RETVAL := RETVAL || ',{"type":"string","value":"' ||
07:18:34 417  			 STRING_ARRAY_TO_STRING(ARGS.STRING_ARG) || '","label":"' || LABELS.STRING_LABEL || '"}';
07:18:34 418  	    end if;
07:18:34 419  	    if ARGS.STRING_ARG2 is not null and ARGS.STRING_ARG2.COUNT > 0 then
07:18:34 420  	       RETVAL := RETVAL || ',{"type":"string2","value":"' ||
07:18:34 421  			 STRING_ARRAY_TO_STRING(ARGS.STRING_ARG2) || '","label":"' ||
07:18:34 422  			 LABELS.STRING_LABEL2 || '"}';
07:18:34 423  	    end if;
07:18:34 424  	    if ARGS.STRING_ARG3 is not null and ARGS.STRING_ARG3.COUNT > 0 then
07:18:34 425  	       RETVAL := RETVAL || ',{"type":"string3","value":"' ||
07:18:34 426  			 STRING_ARRAY_TO_STRING(ARGS.STRING_ARG3) || '","label":"' ||
07:18:34 427  			 LABELS.STRING_LABEL3 || '"}';
07:18:34 428  	    end if;
07:18:34 429  	    if ARGS.STRING_ARG4 is not null and ARGS.STRING_ARG4.COUNT > 0 then
07:18:34 430  	       RETVAL := RETVAL || ',{"type":"string4","value":"' ||
07:18:34 431  			 STRING_ARRAY_TO_STRING(ARGS.STRING_ARG4) || '","label":"' ||
07:18:34 432  			 LABELS.STRING_LABEL4 || '"}';
07:18:34 433  	    end if;
07:18:34 434  	    if ARGS.STRING_ARG5 is not null and ARGS.STRING_ARG5.COUNT > 0 then
07:18:34 435  	       RETVAL := RETVAL || ',{"type":"string5","value":"' ||
07:18:34 436  			 STRING_ARRAY_TO_STRING(ARGS.STRING_ARG5) || '","label":"' ||
07:18:34 437  			 LABELS.STRING_LABEL5 || '"}';
07:18:34 438  	    end if;
07:18:34 439  	    if ARGS.INTEGER_ARG is not null and ARGS.INTEGER_ARG.COUNT > 0 then
07:18:34 440  	       RETVAL := RETVAL || ',{"type":"integer","value":"' ||
07:18:34 441  			 INTEGER_ARRAY_TO_STRING(ARGS.INTEGER_ARG) || '","label":"' ||
07:18:34 442  			 LABELS.INTEGER_LABEL || '"}';
07:18:34 443  	    end if;
07:18:34 444  	    if ARGS.INTEGER_ARG2 is not null and ARGS.INTEGER_ARG2.COUNT > 0 then
07:18:34 445  	       RETVAL := RETVAL || ',{"type":"integer2","value":"' ||
07:18:34 446  			 INTEGER_ARRAY_TO_STRING(ARGS.INTEGER_ARG2) || '","label":"' ||
07:18:34 447  			 LABELS.INTEGER_LABEL2 || '"}';
07:18:34 448  	    end if;
07:18:34 449  	    if ARGS.INTEGER_ARG3 is not null and ARGS.INTEGER_ARG3.COUNT > 0 then
07:18:34 450  	       RETVAL := RETVAL || ',{"type":"integer3","value":"' ||
07:18:34 451  			 INTEGER_ARRAY_TO_STRING(ARGS.INTEGER_ARG3) || '","label":"' ||
07:18:34 452  			 LABELS.INTEGER_LABEL3 || '"}';
07:18:34 453  	    end if;
07:18:34 454  	    if ARGS.INTEGER_ARG4 is not null and ARGS.INTEGER_ARG4.COUNT > 0 then
07:18:34 455  	       RETVAL := RETVAL || ',{"type":"integer4","value":"' ||
07:18:34 456  			 INTEGER_ARRAY_TO_STRING(ARGS.INTEGER_ARG4) || '","label":"' ||
07:18:34 457  			 LABELS.INTEGER_LABEL4 || '"}';
07:18:34 458  	    end if;
07:18:34 459  	    if ARGS.INTEGER_ARG5 is not null and ARGS.INTEGER_ARG5.COUNT > 0 then
07:18:34 460  	       RETVAL := RETVAL || ',{"type":"integer5","value":"' ||
07:18:34 461  			 INTEGER_ARRAY_TO_STRING(ARGS.INTEGER_ARG5) || '","label":"' ||
07:18:34 462  			 LABELS.INTEGER_LABEL5 || '"}';
07:18:34 463  	    end if;
07:18:34 464  	    if ARGS.DECIMAL_ARG is not null and ARGS.DECIMAL_ARG.COUNT > 0 then
07:18:34 465  	       RETVAL := RETVAL || ',{"type":"decimal","value":"' ||
07:18:34 466  			 DECIMAL_ARRAY_TO_STRING(ARGS.DECIMAL_ARG) || '","label":"' ||
07:18:34 467  			 LABELS.DECIMAL_LABEL || '"}';
07:18:34 468  	    end if;
07:18:34 469  	    if ARGS.DECIMAL_ARG2 is not null and ARGS.DECIMAL_ARG2.COUNT > 0 then
07:18:34 470  	       RETVAL := RETVAL || ',{"type":"decimal2","value":"' ||
07:18:34 471  			 DECIMAL_ARRAY_TO_STRING(ARGS.DECIMAL_ARG2) || '","label":"' ||
07:18:34 472  			 LABELS.DECIMAL_LABEL2 || '"}';
07:18:34 473  	    end if;
07:18:34 474  	    if ARGS.DECIMAL_ARG3 is not null and ARGS.DECIMAL_ARG3.COUNT > 0 then
07:18:34 475  	       RETVAL := RETVAL || ',{"type":"decimal3","value":"' ||
07:18:34 476  			 DECIMAL_ARRAY_TO_STRING(ARGS.DECIMAL_ARG3) || '","label":"' ||
07:18:34 477  			 LABELS.DECIMAL_LABEL3 || '"}';
07:18:34 478  	    end if;
07:18:34 479  	    if ARGS.DECIMAL_ARG4 is not null and ARGS.DECIMAL_ARG4.COUNT > 0 then
07:18:34 480  	       RETVAL := RETVAL || ',{"type":"decimal4","value":"' ||
07:18:34 481  			 DECIMAL_ARRAY_TO_STRING(ARGS.DECIMAL_ARG4) || '","label":"' ||
07:18:34 482  			 LABELS.DECIMAL_LABEL4 || '"}';
07:18:34 483  	    end if;
07:18:34 484  	    if ARGS.DECIMAL_ARG5 is not null and ARGS.DECIMAL_ARG5.COUNT > 0 then
07:18:34 485  	       RETVAL := RETVAL || ',{"type":"decimal5","value":"' ||
07:18:34 486  			 DECIMAL_ARRAY_TO_STRING(ARGS.DECIMAL_ARG5) || '","label":"' ||
07:18:34 487  			 LABELS.DECIMAL_LABEL5 || '"}';
07:18:34 488  	    end if;
07:18:34 489  	    if ARGS.DOUBLE_ARG is not null and ARGS.DOUBLE_ARG.COUNT > 0 then
07:18:34 490  	       RETVAL := RETVAL || ',{"type":"double","value":"' ||
07:18:34 491  			 DOUBLE_ARRAY_TO_STRING(ARGS.DOUBLE_ARG) || '","label":"' || LABELS.DOUBLE_LABEL || '"}';
07:18:34 492  	    end if;
07:18:34 493  	    if ARGS.DOUBLE_ARG2 is not null and ARGS.DOUBLE_ARG2.COUNT > 0 then
07:18:34 494  	       RETVAL := RETVAL || ',{"type":"double2","value":"' ||
07:18:34 495  			 DOUBLE_ARRAY_TO_STRING(ARGS.DOUBLE_ARG2) || '","label":"' ||
07:18:34 496  			 LABELS.DOUBLE_LABEL2 || '"}';
07:18:34 497  	    end if;
07:18:34 498  	    if ARGS.DOUBLE_ARG3 is not null and ARGS.DOUBLE_ARG3.COUNT > 0 then
07:18:34 499  	       RETVAL := RETVAL || ',{"type":"double3","value":"' ||
07:18:34 500  			 DOUBLE_ARRAY_TO_STRING(ARGS.DOUBLE_ARG3) || '","label":"' ||
07:18:34 501  			 LABELS.DOUBLE_LABEL3 || '"}';
07:18:34 502  	    end if;
07:18:34 503  	    if ARGS.DOUBLE_ARG4 is not null and ARGS.DOUBLE_ARG4.COUNT > 0 then
07:18:34 504  	       RETVAL := RETVAL || ',{"type":"double4","value":"' ||
07:18:34 505  			 DOUBLE_ARRAY_TO_STRING(ARGS.DOUBLE_ARG4) || '","label":"' ||
07:18:34 506  			 LABELS.DOUBLE_LABEL4 || '"}';
07:18:34 507  	    end if;
07:18:34 508  	    if ARGS.DOUBLE_ARG5 is not null and ARGS.DOUBLE_ARG5.COUNT > 0 then
07:18:34 509  	       RETVAL := RETVAL || ',{"type":"double5","value":"' ||
07:18:34 510  			 DOUBLE_ARRAY_TO_STRING(ARGS.DOUBLE_ARG5) || '","label":"' ||
07:18:34 511  			 LABELS.DOUBLE_LABEL5 || '"}';
07:18:34 512  	    end if;
07:18:34 513  	    if ARGS.DATE_ARG is not null and ARGS.DATE_ARG.COUNT > 0 then
07:18:34 514  	       RETVAL := RETVAL || ',{"type":"date","value":"' || DATE_ARRAY_TO_STRING(ARGS.DATE_ARG) ||
07:18:34 515  			 '","label":"' || LABELS.DATE_LABEL || '"}';
07:18:34 516  	    end if;
07:18:34 517  	    if ARGS.DATE_ARG2 is not null and ARGS.DATE_ARG2.COUNT > 0 then
07:18:34 518  	       RETVAL := RETVAL || ',{"type":"date2","value":"' || DATE_ARRAY_TO_STRING(ARGS.DATE_ARG2) ||
07:18:34 519  			 '","label":"' || LABELS.DATE_LABEL2 || '"}';
07:18:34 520  	    end if;
07:18:34 521  	    if ARGS.DATE_ARG3 is not null and ARGS.DATE_ARG3.COUNT > 0 then
07:18:34 522  	       RETVAL := RETVAL || ',{"type":"date3","value":"' || DATE_ARRAY_TO_STRING(ARGS.DATE_ARG3) ||
07:18:34 523  			 '","label":"' || LABELS.DATE_LABEL3 || '"}';
07:18:34 524  	    end if;
07:18:34 525  	    if ARGS.DATE_ARG4 is not null and ARGS.DATE_ARG4.COUNT > 0 then
07:18:34 526  	       RETVAL := RETVAL || ',{"type":"date4","value":"' || DATE_ARRAY_TO_STRING(ARGS.DATE_ARG4) ||
07:18:34 527  			 '","label":"' || LABELS.DATE_LABEL4 || '"}';
07:18:34 528  	    end if;
07:18:34 529  	    if ARGS.DATE_ARG5 is not null and ARGS.DATE_ARG5.COUNT > 0 then
07:18:34 530  	       RETVAL := RETVAL || ',{"type":"date5","value":"' || DATE_ARRAY_TO_STRING(ARGS.DATE_ARG5) ||
07:18:34 531  			 '","label":"' || LABELS.DATE_LABEL5 || '"}';
07:18:34 532  	    end if;
07:18:34 533  	    if ARGS.DATETIME_ARG is not null and ARGS.DATETIME_ARG.COUNT > 0 then
07:18:34 534  	       RETVAL := RETVAL || ',{"type":"datetime","value":"' ||
07:18:34 535  			 DATETIME_ARRAY_TO_STRING(ARGS.DATETIME_ARG) || '","label":"' ||
07:18:34 536  			 LABELS.DATETIME_LABEL || '"}';
07:18:34 537  	    end if;
07:18:34 538  	    if ARGS.DATETIME_ARG2 is not null and ARGS.DATETIME_ARG2.COUNT > 0 then
07:18:34 539  	       RETVAL := RETVAL || ',{"type":"datetime2","value":"' ||
07:18:34 540  			 DATETIME_ARRAY_TO_STRING(ARGS.DATETIME_ARG2) || '","label":"' ||
07:18:34 541  			 LABELS.DATETIME_LABEL2 || '"}';
07:18:34 542  	    end if;
07:18:34 543  	    if ARGS.DATETIME_ARG3 is not null and ARGS.DATETIME_ARG3.COUNT > 0 then
07:18:34 544  	       RETVAL := RETVAL || ',{"type":"datetime3","value":"' ||
07:18:34 545  			 DATETIME_ARRAY_TO_STRING(ARGS.DATETIME_ARG3) || '","label":"' ||
07:18:34 546  			 LABELS.DATETIME_LABEL3 || '"}';
07:18:34 547  	    end if;
07:18:34 548  	    if ARGS.DATETIME_ARG4 is not null and ARGS.DATETIME_ARG4.COUNT > 0 then
07:18:34 549  	       RETVAL := RETVAL || ',{"type":"datetime4","value":"' ||
07:18:34 550  			 DATETIME_ARRAY_TO_STRING(ARGS.DATETIME_ARG4) || '","label":"' ||
07:18:34 551  			 LABELS.DATETIME_LABEL4 || '"}';
07:18:34 552  	    end if;
07:18:34 553  	    if ARGS.DATETIME_ARG5 is not null and ARGS.DATETIME_ARG5.COUNT > 0 then
07:18:34 554  	       RETVAL := RETVAL || ',{"type":"datetime5","value":"' ||
07:18:34 555  			 DATETIME_ARRAY_TO_STRING(ARGS.DATETIME_ARG5) || '","label":"' ||
07:18:34 556  			 LABELS.DATETIME_LABEL5 || '"}';
07:18:34 557  	    end if;
07:18:34 558  	    if ARGS.BOOLEAN_ARG is not null and ARGS.BOOLEAN_ARG.COUNT > 0 then
07:18:34 559  	       RETVAL := RETVAL || ',{"type":"boolean","value":"' ||
07:18:34 560  			 BOOLEAN_ARRAY_TO_STRING(ARGS.BOOLEAN_ARG) || '","label":"' ||
07:18:34 561  			 LABELS.BOOLEAN_LABEL || '"}';
07:18:34 562  	    end if;
07:18:34 563  	    if ARGS.BOOLEAN_ARG2 is not null and ARGS.BOOLEAN_ARG2.COUNT > 0 then
07:18:34 564  	       RETVAL := RETVAL || ',{"type":"boolean2","value":"' ||
07:18:34 565  			 BOOLEAN_ARRAY_TO_STRING(ARGS.BOOLEAN_ARG2) || '","label":"' ||
07:18:34 566  			 LABELS.BOOLEAN_LABEL2 || '"}';
07:18:34 567  	    end if;
07:18:34 568  	    if ARGS.BOOLEAN_ARG3 is not null and ARGS.BOOLEAN_ARG3.COUNT > 0 then
07:18:34 569  	       RETVAL := RETVAL || ',{"type":"boolean3","value":"' ||
07:18:34 570  			 BOOLEAN_ARRAY_TO_STRING(ARGS.BOOLEAN_ARG3) || '","label":"' ||
07:18:34 571  			 LABELS.BOOLEAN_LABEL3 || '"}';
07:18:34 572  	    end if;
07:18:34 573  	    if ARGS.BOOLEAN_ARG4 is not null and ARGS.BOOLEAN_ARG4.COUNT > 0 then
07:18:34 574  	       RETVAL := RETVAL || ',{"type":"boolean4","value":"' ||
07:18:34 575  			 BOOLEAN_ARRAY_TO_STRING(ARGS.BOOLEAN_ARG4) || '","label":"' ||
07:18:34 576  			 LABELS.BOOLEAN_LABEL4 || '"}';
07:18:34 577  	    end if;
07:18:34 578  	    if ARGS.BOOLEAN_ARG5 is not null and ARGS.BOOLEAN_ARG5.COUNT > 0 then
07:18:34 579  	       RETVAL := RETVAL || ',{"type":"boolean5","value":"' ||
07:18:34 580  			 BOOLEAN_ARRAY_TO_STRING(ARGS.BOOLEAN_ARG5) || '","label":"' ||
07:18:34 581  			 LABELS.BOOLEAN_LABEL5 || '"}';
07:18:34 582  	    end if;
07:18:34 583  
07:18:34 584  	    RETVAL := replace(RETVAL, '[,', '[') || ']}';
07:18:34 585  	    return RETVAL;
07:18:34 586  	 end;
07:18:34 587  
07:18:34 588  	 procedure STRING_TO_STRUCTS(JSON   in varchar2,
07:18:34 589  				     ARGS   in out S_PARM_ARRAYS,
07:18:34 590  				     LABELS in out S_PARM_LABELS) is
07:18:34 591  	    APARM      varchar2(32767);
07:18:34 592  	    ATYPE      varchar2(15);
07:18:34 593  	    AVALUE     varchar2(32767);
07:18:34 594  	    ALABEL     varchar2(4000);
07:18:34 595  	    TYPE_START number;
07:18:34 596  	    TYPE_STOP  number;
07:18:34 597  	    VAL_START  number;
07:18:34 598  	    VAL_STOP   number;
07:18:34 599  	    LAB_START  number;
07:18:34 600  	    LAB_STOP   number;
07:18:34 601  	    PARM_START number;
07:18:34 602  	    PARM_STOP  number;
07:18:34 603  	 begin
07:18:34 604  	    PARM_START := INSTR(JSON, '{', INSTR(JSON, 'parms', 1)) + 1;
07:18:34 605  	    PARM_STOP  := INSTR(JSON, '}', PARM_START);
07:18:34 606  	    while PARM_START > 1
07:18:34 607  	    loop
07:18:34 608  	       APARM	  := SUBSTR(JSON, PARM_START, PARM_STOP - PARM_START);
07:18:34 609  	       TYPE_START := INSTR(APARM, '"type":"') + 8;
07:18:34 610  	       TYPE_STOP  := INSTR(APARM, '"', TYPE_START);
07:18:34 611  	       ATYPE	  := SUBSTR(APARM, TYPE_START, TYPE_STOP - TYPE_START);
07:18:34 612  	       VAL_START  := INSTR(APARM, '"value":"<') + 10;
07:18:34 613  	       VAL_STOP   := INSTR(APARM, '>",', VAL_START);
07:18:34 614  	       AVALUE	  := SUBSTR(APARM, VAL_START, VAL_STOP - VAL_START);
07:18:34 615  	       LAB_START  := INSTR(APARM, '"label":"') + 9;
07:18:34 616  	       LAB_STOP   := INSTR(APARM, '"', LAB_START);
07:18:34 617  	       ALABEL	  := SUBSTR(APARM, LAB_START, LAB_STOP - LAB_START);
07:18:34 618  
07:18:34 619  	       if ATYPE = 'long' then
07:18:34 620  		  ARGS.LONG_ARG     := STRING_TO_LONG_ARRAY(AVALUE);
07:18:34 621  		  LABELS.LONG_LABEL := ALABEL;
07:18:34 622  	       elsif ATYPE = 'long2' then
07:18:34 623  		  ARGS.LONG_ARG2     := STRING_TO_LONG_ARRAY(AVALUE);
07:18:34 624  		  LABELS.LONG_LABEL2 := ALABEL;
07:18:34 625  	       elsif ATYPE = 'long3' then
07:18:34 626  		  ARGS.LONG_ARG3     := STRING_TO_LONG_ARRAY(AVALUE);
07:18:34 627  		  LABELS.LONG_LABEL3 := ALABEL;
07:18:34 628  	       elsif ATYPE = 'long4' then
07:18:34 629  		  ARGS.LONG_ARG4     := STRING_TO_LONG_ARRAY(AVALUE);
07:18:34 630  		  LABELS.LONG_LABEL4 := ALABEL;
07:18:34 631  	       elsif ATYPE = 'long5' then
07:18:34 632  		  ARGS.LONG_ARG5     := STRING_TO_LONG_ARRAY(AVALUE);
07:18:34 633  		  LABELS.LONG_LABEL5 := ALABEL;
07:18:34 634  	       elsif ATYPE = 'string' then
07:18:34 635  		  ARGS.STRING_ARG     := STRING_TO_STRING_ARRAY(AVALUE);
07:18:34 636  		  LABELS.STRING_LABEL := ALABEL;
07:18:34 637  	       elsif ATYPE = 'string2' then
07:18:34 638  		  ARGS.STRING_ARG2     := STRING_TO_STRING_ARRAY(AVALUE);
07:18:34 639  		  LABELS.STRING_LABEL2 := ALABEL;
07:18:34 640  	       elsif ATYPE = 'string3' then
07:18:34 641  		  ARGS.STRING_ARG3     := STRING_TO_STRING_ARRAY(AVALUE);
07:18:34 642  		  LABELS.STRING_LABEL3 := ALABEL;
07:18:34 643  	       elsif ATYPE = 'string4' then
07:18:34 644  		  ARGS.STRING_ARG4     := STRING_TO_STRING_ARRAY(AVALUE);
07:18:34 645  		  LABELS.STRING_LABEL4 := ALABEL;
07:18:34 646  	       elsif ATYPE = 'string5' then
07:18:34 647  		  ARGS.STRING_ARG5     := STRING_TO_STRING_ARRAY(AVALUE);
07:18:34 648  		  LABELS.STRING_LABEL5 := ALABEL;
07:18:34 649  	       elsif ATYPE = 'integer' then
07:18:34 650  		  ARGS.INTEGER_ARG     := STRING_TO_INTEGER_ARRAY(AVALUE);
07:18:34 651  		  LABELS.INTEGER_LABEL := ALABEL;
07:18:34 652  	       elsif ATYPE = 'integer2' then
07:18:34 653  		  ARGS.INTEGER_ARG2	:= STRING_TO_INTEGER_ARRAY(AVALUE);
07:18:34 654  		  LABELS.INTEGER_LABEL2 := ALABEL;
07:18:34 655  	       elsif ATYPE = 'integer3' then
07:18:34 656  		  ARGS.INTEGER_ARG3	:= STRING_TO_INTEGER_ARRAY(AVALUE);
07:18:34 657  		  LABELS.INTEGER_LABEL3 := ALABEL;
07:18:34 658  	       elsif ATYPE = 'integer4' then
07:18:34 659  		  ARGS.INTEGER_ARG4	:= STRING_TO_INTEGER_ARRAY(AVALUE);
07:18:34 660  		  LABELS.INTEGER_LABEL4 := ALABEL;
07:18:34 661  	       elsif ATYPE = 'integer5' then
07:18:34 662  		  ARGS.INTEGER_ARG5	:= STRING_TO_INTEGER_ARRAY(AVALUE);
07:18:34 663  		  LABELS.INTEGER_LABEL5 := ALABEL;
07:18:34 664  	       elsif ATYPE = 'decimal' then
07:18:34 665  		  ARGS.DECIMAL_ARG     := STRING_TO_DECIMAL_ARRAY(AVALUE);
07:18:34 666  		  LABELS.DECIMAL_LABEL := ALABEL;
07:18:34 667  	       elsif ATYPE = 'decimal2' then
07:18:34 668  		  ARGS.DECIMAL_ARG2	:= STRING_TO_DECIMAL_ARRAY(AVALUE);
07:18:34 669  		  LABELS.DECIMAL_LABEL2 := ALABEL;
07:18:34 670  	       elsif ATYPE = 'decimal3' then
07:18:34 671  		  ARGS.DECIMAL_ARG3	:= STRING_TO_DECIMAL_ARRAY(AVALUE);
07:18:34 672  		  LABELS.DECIMAL_LABEL3 := ALABEL;
07:18:34 673  	       elsif ATYPE = 'decimal4' then
07:18:34 674  		  ARGS.DECIMAL_ARG4	:= STRING_TO_DECIMAL_ARRAY(AVALUE);
07:18:34 675  		  LABELS.DECIMAL_LABEL4 := ALABEL;
07:18:34 676  	       elsif ATYPE = 'decimal5' then
07:18:34 677  		  ARGS.DECIMAL_ARG5	:= STRING_TO_DECIMAL_ARRAY(AVALUE);
07:18:34 678  		  LABELS.DECIMAL_LABEL5 := ALABEL;
07:18:34 679  	       elsif ATYPE = 'double' then
07:18:34 680  		  ARGS.DOUBLE_ARG     := STRING_TO_DOUBLE_ARRAY(AVALUE);
07:18:34 681  		  LABELS.DOUBLE_LABEL := ALABEL;
07:18:34 682  	       elsif ATYPE = 'double2' then
07:18:34 683  		  ARGS.DOUBLE_ARG2     := STRING_TO_DOUBLE_ARRAY(AVALUE);
07:18:34 684  		  LABELS.DOUBLE_LABEL2 := ALABEL;
07:18:34 685  	       elsif ATYPE = 'double3' then
07:18:34 686  		  ARGS.DOUBLE_ARG3     := STRING_TO_DOUBLE_ARRAY(AVALUE);
07:18:34 687  		  LABELS.DOUBLE_LABEL3 := ALABEL;
07:18:34 688  	       elsif ATYPE = 'double4' then
07:18:34 689  		  ARGS.DOUBLE_ARG4     := STRING_TO_DOUBLE_ARRAY(AVALUE);
07:18:34 690  		  LABELS.DOUBLE_LABEL4 := ALABEL;
07:18:34 691  	       elsif ATYPE = 'double5' then
07:18:34 692  		  ARGS.DOUBLE_ARG5     := STRING_TO_DOUBLE_ARRAY(AVALUE);
07:18:34 693  		  LABELS.DOUBLE_LABEL5 := ALABEL;
07:18:34 694  	       elsif ATYPE = 'date' then
07:18:34 695  		  ARGS.DATE_ARG     := STRING_TO_DATE_ARRAY(AVALUE);
07:18:34 696  		  LABELS.DATE_LABEL := ALABEL;
07:18:34 697  	       elsif ATYPE = 'date2' then
07:18:34 698  		  ARGS.DATE_ARG2     := STRING_TO_DATE_ARRAY(AVALUE);
07:18:34 699  		  LABELS.DATE_LABEL2 := ALABEL;
07:18:34 700  	       elsif ATYPE = 'date3' then
07:18:34 701  		  ARGS.DATE_ARG3     := STRING_TO_DATE_ARRAY(AVALUE);
07:18:34 702  		  LABELS.DATE_LABEL3 := ALABEL;
07:18:34 703  	       elsif ATYPE = 'date4' then
07:18:34 704  		  ARGS.DATE_ARG4     := STRING_TO_DATE_ARRAY(AVALUE);
07:18:34 705  		  LABELS.DATE_LABEL4 := ALABEL;
07:18:34 706  	       elsif ATYPE = 'date5' then
07:18:34 707  		  ARGS.DATE_ARG5     := STRING_TO_DATE_ARRAY(AVALUE);
07:18:34 708  		  LABELS.DATE_LABEL5 := ALABEL;
07:18:34 709  	       elsif ATYPE = 'datetime' then
07:18:34 710  		  ARGS.DATETIME_ARG	:= STRING_TO_DATETIME_ARRAY(AVALUE);
07:18:34 711  		  LABELS.DATETIME_LABEL := ALABEL;
07:18:34 712  	       elsif ATYPE = 'datetime2' then
07:18:34 713  		  ARGS.DATETIME_ARG2	 := STRING_TO_DATETIME_ARRAY(AVALUE);
07:18:34 714  		  LABELS.DATETIME_LABEL2 := ALABEL;
07:18:34 715  	       elsif ATYPE = 'datetime3' then
07:18:34 716  		  ARGS.DATETIME_ARG3	 := STRING_TO_DATETIME_ARRAY(AVALUE);
07:18:34 717  		  LABELS.DATETIME_LABEL3 := ALABEL;
07:18:34 718  	       elsif ATYPE = 'datetime4' then
07:18:34 719  		  ARGS.DATETIME_ARG4	 := STRING_TO_DATETIME_ARRAY(AVALUE);
07:18:34 720  		  LABELS.DATETIME_LABEL4 := ALABEL;
07:18:34 721  	       elsif ATYPE = 'datetime5' then
07:18:34 722  		  ARGS.DATETIME_ARG5	 := STRING_TO_DATETIME_ARRAY(AVALUE);
07:18:34 723  		  LABELS.DATETIME_LABEL5 := ALABEL;
07:18:34 724  	       elsif ATYPE = 'boolean' then
07:18:34 725  		  ARGS.BOOLEAN_ARG     := STRING_TO_BOOLEAN_ARRAY(AVALUE);
07:18:34 726  		  LABELS.BOOLEAN_LABEL := ALABEL;
07:18:34 727  	       elsif ATYPE = 'boolean2' then
07:18:34 728  		  ARGS.BOOLEAN_ARG2	:= STRING_TO_BOOLEAN_ARRAY(AVALUE);
07:18:34 729  		  LABELS.BOOLEAN_LABEL2 := ALABEL;
07:18:34 730  	       elsif ATYPE = 'boolean3' then
07:18:34 731  		  ARGS.BOOLEAN_ARG3	:= STRING_TO_BOOLEAN_ARRAY(AVALUE);
07:18:34 732  		  LABELS.BOOLEAN_LABEL3 := ALABEL;
07:18:34 733  	       elsif ATYPE = 'boolean4' then
07:18:34 734  		  ARGS.BOOLEAN_ARG4	:= STRING_TO_BOOLEAN_ARRAY(AVALUE);
07:18:34 735  		  LABELS.BOOLEAN_LABEL4 := ALABEL;
07:18:34 736  	       elsif ATYPE = 'boolean5' then
07:18:34 737  		  ARGS.BOOLEAN_ARG5	:= STRING_TO_BOOLEAN_ARRAY(AVALUE);
07:18:34 738  		  LABELS.BOOLEAN_LABEL5 := ALABEL;
07:18:34 739  	       end if;
07:18:34 740  
07:18:34 741  	       PARM_START := INSTR(JSON, '{', PARM_STOP, 1) + 1;
07:18:34 742  	       PARM_STOP  := INSTR(JSON, '}', PARM_START, 1);
07:18:34 743  	    end loop;
07:18:34 744  	 end;
07:18:34 745  
07:18:34 746  end PP_PARM_TRANSLATE;
07:18:34 747  /

Package body created.

07:18:34 hopplant> --**************************
07:18:34 hopplant> -- Log the run of the script
07:18:34 hopplant> --**************************
07:18:34 hopplant> insert into PP_SCHEMA_CHANGE_LOG
07:18:34   2  	 (ID, SKIPPED, MAJOR_VERSION, MINOR_VERSION, POINT_VERSION, PATCH_VERSION, MAINT_NUM, SCRIPT_PATH,
07:18:34   3  	  SCRIPT_NAME, SCRIPT_REVISION, DATE_APPLIED, OS_USER, TERMINAL, SERVICE_NAME)
07:18:34   4  values
07:18:34   5  	 (16304, 0, 2018, 2, 0, 0, 0, 'c:\plasticwks\powerplant\sql\packages',
07:18:34   6  	  'PP_PARM_TRANSLATE.sql', 1, SYSTIMESTAMP, SYS_CONTEXT('USERENV', 'OS_USER'), SYS_CONTEXT('USERENV', 'TERMINAL'), SYS_CONTEXT('USERENV', 'SERVICE_NAME'));

1 row created.

07:18:34 hopplant> commit;

Commit complete.

07:18:34 hopplant> SPOOL OFF
