07:16:41 hopplant> @&&PP_SCRIPT_PATH.packages_released\2018.2.0.0_PKG_LEASE_BUCKET.sql
07:16:41 hopplant> /*
07:16:41 hopplant> ||============================================================================
07:16:41 hopplant> || Application: PowerPlant
07:16:41 hopplant> || File Name:   maint_039519_lease_PKG_LEASE_BUCKET.sql
07:16:41 hopplant> ||============================================================================
07:16:41 hopplant> || Copyright (C) 2014 by PowerPlan, Inc. All Rights Reserved.
07:16:41 hopplant> ||============================================================================
07:16:41 hopplant> || Version  Date	  Revised By	   Reason for Change
07:16:41 hopplant> || -------- ---------- ---------------- --------------------------------------
07:16:41 hopplant> || 10.4.3.0 06/10/2014 Kyle Peterson
07:16:41 hopplant> ||============================================================================
07:16:41 hopplant> */
07:16:41 hopplant> 
07:16:41 hopplant> create or replace package PKG_LEASE_BUCKET as
07:16:41   2  	 /*
07:16:41   3  	      ||============================================================================
07:16:41   4  	      || Application: PowerPlant
07:16:41   5  	      || File Name:   PKG_LEASE_BUCKET.sql
07:16:41   6  	      ||============================================================================
07:16:41   7  	      || Copyright (C) 2014 by PowerPlan, Inc. All Rights Reserved.
07:16:41   8  	      ||============================================================================
07:16:41   9  	      || Version  Date	     Revised By       Reason for Change
07:16:41  10  	      || -------- ---------- ---------------- --------------------------------------
07:16:41  11  	      || 10.4.3.0 06/10/2014 Kyle Peterson
07:16:41  12  	      ||============================================================================
07:16:41  13  	      */
07:16:41  14  	      G_PKG_VERSION varchar(35) := '2018.2.0.0';
07:16:41  15  
07:16:41  16  	      type LS_RENT_BUCKET_ADMIN_TABLE is table of LS_RENT_BUCKET_ADMIN%rowtype index by PLS_INTEGER;
07:16:41  17  	      type BUCKET_ACCTS is table of LS_RENT_BUCKET_ADMIN%rowtype index by PLS_INTEGER;
07:16:41  18  
07:16:41  19  	      procedure P_CALC_EXEC_ACCRUALS(A_TABLE in PKG_LEASE_CALC.ASSET_SCHEDULE_LINE_TYPE);
07:16:41  20  
07:16:41  21  	      procedure P_CALC_CONT_ACCRUALS(A_TABLE in PKG_LEASE_CALC.ASSET_SCHEDULE_LINE_TYPE);
07:16:41  22  
07:16:41  23  	      procedure P_CALC_EXEC_PAYMENTS(A_TABLE in PKG_LEASE_CALC.ASSET_SCHEDULE_LINE_TABLE);
07:16:41  24  
07:16:41  25  	      procedure P_CALC_CONT_PAYMENTS(A_TABLE in PKG_LEASE_CALC.ASSET_SCHEDULE_LINE_TABLE);
07:16:41  26  
07:16:41  27  	      function F_GET_TAX_TYPE(A_TYPE in varchar2, A_NUMBER number) return number;
07:16:41  28  
07:16:41  29  	      function F_GET_ACCTS return BUCKET_ACCTS;
07:16:41  30  
07:16:41  31  end PKG_LEASE_BUCKET;
07:16:41  32  /

Package created.

07:16:41 hopplant> create or replace package body PKG_LEASE_BUCKET as
07:16:41   2  	 /*
07:16:41   3  	      ||============================================================================
07:16:41   4  	      || Application: PowerPlant
07:16:41   5  	      || File Name:   PKG_LEASE_BUCKET.sql
07:16:41   6  	      ||============================================================================
07:16:41   7  	      || Copyright (C) 2014 by PowerPlan, Inc. All Rights Reserved.
07:16:41   8  	      ||============================================================================
07:16:41   9  	      || Version  Date	     Revised By       Reason for Change
07:16:41  10  	      || -------- ---------- ---------------- --------------------------------------
07:16:41  11  	      || 10.4.3.0 06/10/2014 Kyle Peterson
07:16:41  12  	      ||============================================================================
07:16:41  13  	      */
07:16:41  14  
07:16:41  15  	      procedure P_CALC_EXEC_ACCRUALS(A_TABLE in PKG_LEASE_CALC.ASSET_SCHEDULE_LINE_TYPE) is
07:16:41  16  
07:16:41  17  	      begin
07:16:41  18  		      /*Accrual_type_id = 2 is for interest accrual. If payments had accruals they'd be 1. Exec buckets 1-10 are 3-12. Offset by 2*/
07:16:41  19  
07:16:41  20  		      forall SCHEDULEINDEX in indices of A_TABLE
07:16:41  21  			      merge into LS_MONTHLY_ACCRUAL_STG STG
07:16:41  22  			      using (select 0 as ACCRUAL_ID,
07:16:41  23  					      3 as ACCRUAL_TYPE_ID,
07:16:41  24  					      A_TABLE(SCHEDULEINDEX).LS_ASSET_ID as LS_ASSET_ID,
07:16:41  25  					      nvl(A_TABLE(SCHEDULEINDEX).EXECUTORY_ACCRUAL1, 0) as AMOUNT,
07:16:41  26  					      A_TABLE(SCHEDULEINDEX).MONTH as GL_POSTING_MO_YR,
07:16:41  27  					      A_TABLE(SCHEDULEINDEX).SET_OF_BOOKS_ID as SET_OF_BOOKS_ID
07:16:41  28  					      from DUAL
07:16:41  29  					      where nvl(A_TABLE(SCHEDULEINDEX).EXECUTORY_ACCRUAL1, 0)  <> 0) B
07:16:41  30  			      on (b.ACCRUAL_TYPE_ID = STG.ACCRUAL_TYPE_ID
07:16:41  31  				      and b.LS_ASSET_ID = STG.LS_ASSET_ID
07:16:41  32  				      and b.GL_POSTING_MO_YR = STG.GL_POSTING_MO_YR
07:16:41  33  				      and b.SET_OF_BOOKS_ID = STG.SET_OF_BOOKS_ID)
07:16:41  34  			      when matched then update set STG.AMOUNT = B.AMOUNT
07:16:41  35  			      when not matched then insert (ACCRUAL_ID, ACCRUAL_TYPE_ID, LS_ASSET_ID, AMOUNT, GL_POSTING_MO_YR, SET_OF_BOOKS_ID)
07:16:41  36  			      values (LS_MONTHLY_ACCRUAL_STG_SEQ.NEXTVAL, B.ACCRUAL_TYPE_ID, B.LS_ASSET_ID, B.AMOUNT, B.GL_POSTING_MO_YR, B.SET_OF_BOOKS_ID);
07:16:41  37  
07:16:41  38  		      forall SCHEDULEINDEX in indices of A_TABLE
07:16:41  39  			      merge into LS_MONTHLY_ACCRUAL_STG STG
07:16:41  40  			      using (select 0 as ACCRUAL_ID,
07:16:41  41  					      4 as ACCRUAL_TYPE_ID,
07:16:41  42  					      A_TABLE(SCHEDULEINDEX).LS_ASSET_ID as LS_ASSET_ID,
07:16:41  43  					      nvl(A_TABLE(SCHEDULEINDEX).EXECUTORY_ACCRUAL2, 0) as AMOUNT,
07:16:41  44  					      A_TABLE(SCHEDULEINDEX).MONTH as GL_POSTING_MO_YR,
07:16:41  45  					      A_TABLE(SCHEDULEINDEX).SET_OF_BOOKS_ID as SET_OF_BOOKS_ID
07:16:41  46  					      from DUAL
07:16:41  47  					      where nvl(A_TABLE(SCHEDULEINDEX).EXECUTORY_ACCRUAL2, 0)  <> 0) B
07:16:41  48  			      on (b.ACCRUAL_TYPE_ID = STG.ACCRUAL_TYPE_ID
07:16:41  49  				      and b.LS_ASSET_ID = STG.LS_ASSET_ID
07:16:41  50  				      and b.GL_POSTING_MO_YR = STG.GL_POSTING_MO_YR
07:16:41  51  				      and b.SET_OF_BOOKS_ID = STG.SET_OF_BOOKS_ID)
07:16:41  52  			      when matched then update set STG.AMOUNT = B.AMOUNT
07:16:41  53  			      when not matched then insert (ACCRUAL_ID, ACCRUAL_TYPE_ID, LS_ASSET_ID, AMOUNT, GL_POSTING_MO_YR, SET_OF_BOOKS_ID)
07:16:41  54  			      values (LS_MONTHLY_ACCRUAL_STG_SEQ.NEXTVAL, B.ACCRUAL_TYPE_ID, B.LS_ASSET_ID, B.AMOUNT, B.GL_POSTING_MO_YR, B.SET_OF_BOOKS_ID);
07:16:41  55  
07:16:41  56  		      forall SCHEDULEINDEX in indices of A_TABLE
07:16:41  57  			      merge into LS_MONTHLY_ACCRUAL_STG STG
07:16:41  58  			      using (select 0 as ACCRUAL_ID,
07:16:41  59  					      5 as ACCRUAL_TYPE_ID,
07:16:41  60  					      A_TABLE(SCHEDULEINDEX).LS_ASSET_ID as LS_ASSET_ID,
07:16:41  61  					      nvl(A_TABLE(SCHEDULEINDEX).EXECUTORY_ACCRUAL3, 0) as AMOUNT,
07:16:41  62  					      A_TABLE(SCHEDULEINDEX).MONTH as GL_POSTING_MO_YR,
07:16:41  63  					      A_TABLE(SCHEDULEINDEX).SET_OF_BOOKS_ID as SET_OF_BOOKS_ID
07:16:41  64  					      from DUAL
07:16:41  65  					      where nvl(A_TABLE(SCHEDULEINDEX).EXECUTORY_ACCRUAL3, 0)  <> 0) B
07:16:41  66  			      on (b.ACCRUAL_TYPE_ID = STG.ACCRUAL_TYPE_ID
07:16:41  67  				      and b.LS_ASSET_ID = STG.LS_ASSET_ID
07:16:41  68  				      and b.GL_POSTING_MO_YR = STG.GL_POSTING_MO_YR
07:16:41  69  				      and b.SET_OF_BOOKS_ID = STG.SET_OF_BOOKS_ID)
07:16:41  70  			      when matched then update set STG.AMOUNT = B.AMOUNT
07:16:41  71  			      when not matched then insert (ACCRUAL_ID, ACCRUAL_TYPE_ID, LS_ASSET_ID, AMOUNT, GL_POSTING_MO_YR, SET_OF_BOOKS_ID)
07:16:41  72  			      values (LS_MONTHLY_ACCRUAL_STG_SEQ.NEXTVAL, B.ACCRUAL_TYPE_ID, B.LS_ASSET_ID, B.AMOUNT, B.GL_POSTING_MO_YR, B.SET_OF_BOOKS_ID);
07:16:41  73  
07:16:41  74  		      forall SCHEDULEINDEX in indices of A_TABLE
07:16:41  75  			      merge into LS_MONTHLY_ACCRUAL_STG STG
07:16:41  76  			      using (select 0 as ACCRUAL_ID,
07:16:41  77  					      6 as ACCRUAL_TYPE_ID,
07:16:41  78  					      A_TABLE(SCHEDULEINDEX).LS_ASSET_ID as LS_ASSET_ID,
07:16:41  79  					      nvl(A_TABLE(SCHEDULEINDEX).EXECUTORY_ACCRUAL4, 0) as AMOUNT,
07:16:41  80  					      A_TABLE(SCHEDULEINDEX).MONTH as GL_POSTING_MO_YR,
07:16:41  81  					      A_TABLE(SCHEDULEINDEX).SET_OF_BOOKS_ID as SET_OF_BOOKS_ID
07:16:41  82  					      from DUAL
07:16:41  83  					      where nvl(A_TABLE(SCHEDULEINDEX).EXECUTORY_ACCRUAL4, 0)  <> 0) B
07:16:41  84  			      on (b.ACCRUAL_TYPE_ID = STG.ACCRUAL_TYPE_ID
07:16:41  85  				      and b.LS_ASSET_ID = STG.LS_ASSET_ID
07:16:41  86  				      and b.GL_POSTING_MO_YR = STG.GL_POSTING_MO_YR
07:16:41  87  				      and b.SET_OF_BOOKS_ID = STG.SET_OF_BOOKS_ID)
07:16:41  88  			      when matched then update set STG.AMOUNT = B.AMOUNT
07:16:41  89  			      when not matched then insert (ACCRUAL_ID, ACCRUAL_TYPE_ID, LS_ASSET_ID, AMOUNT, GL_POSTING_MO_YR, SET_OF_BOOKS_ID)
07:16:41  90  			      values (LS_MONTHLY_ACCRUAL_STG_SEQ.NEXTVAL, B.ACCRUAL_TYPE_ID, B.LS_ASSET_ID, B.AMOUNT, B.GL_POSTING_MO_YR, B.SET_OF_BOOKS_ID);
07:16:41  91  
07:16:41  92  		      forall SCHEDULEINDEX in indices of A_TABLE
07:16:41  93  			      merge into LS_MONTHLY_ACCRUAL_STG STG
07:16:41  94  			      using (select 0 as ACCRUAL_ID,
07:16:41  95  					      7 as ACCRUAL_TYPE_ID,
07:16:41  96  					      A_TABLE(SCHEDULEINDEX).LS_ASSET_ID as LS_ASSET_ID,
07:16:41  97  					      nvl(A_TABLE(SCHEDULEINDEX).EXECUTORY_ACCRUAL5, 0) as AMOUNT,
07:16:41  98  					      A_TABLE(SCHEDULEINDEX).MONTH as GL_POSTING_MO_YR,
07:16:41  99  					      A_TABLE(SCHEDULEINDEX).SET_OF_BOOKS_ID as SET_OF_BOOKS_ID
07:16:41 100  					      from DUAL
07:16:41 101  					      where nvl(A_TABLE(SCHEDULEINDEX).EXECUTORY_ACCRUAL5, 0)  <> 0) B
07:16:41 102  			      on (b.ACCRUAL_TYPE_ID = STG.ACCRUAL_TYPE_ID
07:16:41 103  				      and b.LS_ASSET_ID = STG.LS_ASSET_ID
07:16:41 104  				      and b.GL_POSTING_MO_YR = STG.GL_POSTING_MO_YR
07:16:41 105  				      and b.SET_OF_BOOKS_ID = STG.SET_OF_BOOKS_ID)
07:16:41 106  			      when matched then update set STG.AMOUNT = B.AMOUNT
07:16:41 107  			      when not matched then insert (ACCRUAL_ID, ACCRUAL_TYPE_ID, LS_ASSET_ID, AMOUNT, GL_POSTING_MO_YR, SET_OF_BOOKS_ID)
07:16:41 108  			      values (LS_MONTHLY_ACCRUAL_STG_SEQ.NEXTVAL, B.ACCRUAL_TYPE_ID, B.LS_ASSET_ID, B.AMOUNT, B.GL_POSTING_MO_YR, B.SET_OF_BOOKS_ID);
07:16:41 109  
07:16:41 110  		      forall SCHEDULEINDEX in indices of A_TABLE
07:16:41 111  			      merge into LS_MONTHLY_ACCRUAL_STG STG
07:16:41 112  			      using (select 0 as ACCRUAL_ID,
07:16:41 113  					      8 as ACCRUAL_TYPE_ID,
07:16:41 114  					      A_TABLE(SCHEDULEINDEX).LS_ASSET_ID as LS_ASSET_ID,
07:16:41 115  					      nvl(A_TABLE(SCHEDULEINDEX).EXECUTORY_ACCRUAL6, 0) as AMOUNT,
07:16:41 116  					      A_TABLE(SCHEDULEINDEX).MONTH as GL_POSTING_MO_YR,
07:16:41 117  					      A_TABLE(SCHEDULEINDEX).SET_OF_BOOKS_ID as SET_OF_BOOKS_ID
07:16:41 118  					      from DUAL
07:16:41 119  					      where nvl(A_TABLE(SCHEDULEINDEX).EXECUTORY_ACCRUAL6, 0)  <> 0) B
07:16:41 120  			      on (b.ACCRUAL_TYPE_ID = STG.ACCRUAL_TYPE_ID
07:16:41 121  				      and b.LS_ASSET_ID = STG.LS_ASSET_ID
07:16:41 122  				      and b.GL_POSTING_MO_YR = STG.GL_POSTING_MO_YR
07:16:41 123  				      and b.SET_OF_BOOKS_ID = STG.SET_OF_BOOKS_ID)
07:16:41 124  			      when matched then update set STG.AMOUNT = B.AMOUNT
07:16:41 125  			      when not matched then insert (ACCRUAL_ID, ACCRUAL_TYPE_ID, LS_ASSET_ID, AMOUNT, GL_POSTING_MO_YR, SET_OF_BOOKS_ID)
07:16:41 126  			      values (LS_MONTHLY_ACCRUAL_STG_SEQ.NEXTVAL, B.ACCRUAL_TYPE_ID, B.LS_ASSET_ID, B.AMOUNT, B.GL_POSTING_MO_YR, B.SET_OF_BOOKS_ID);
07:16:41 127  
07:16:41 128  		      forall SCHEDULEINDEX in indices of A_TABLE
07:16:41 129  			      merge into LS_MONTHLY_ACCRUAL_STG STG
07:16:41 130  			      using (select 0 as ACCRUAL_ID,
07:16:41 131  					      9 as ACCRUAL_TYPE_ID,
07:16:41 132  					      A_TABLE(SCHEDULEINDEX).LS_ASSET_ID as LS_ASSET_ID,
07:16:41 133  					      nvl(A_TABLE(SCHEDULEINDEX).EXECUTORY_ACCRUAL7, 0) as AMOUNT,
07:16:41 134  					      A_TABLE(SCHEDULEINDEX).MONTH as GL_POSTING_MO_YR,
07:16:41 135  					      A_TABLE(SCHEDULEINDEX).SET_OF_BOOKS_ID as SET_OF_BOOKS_ID
07:16:41 136  					      from DUAL
07:16:41 137  					      where nvl(A_TABLE(SCHEDULEINDEX).EXECUTORY_ACCRUAL7, 0)  <> 0) B
07:16:41 138  			      on (b.ACCRUAL_TYPE_ID = STG.ACCRUAL_TYPE_ID
07:16:41 139  				      and b.LS_ASSET_ID = STG.LS_ASSET_ID
07:16:41 140  				      and b.GL_POSTING_MO_YR = STG.GL_POSTING_MO_YR
07:16:41 141  				      and b.SET_OF_BOOKS_ID = STG.SET_OF_BOOKS_ID)
07:16:41 142  			      when matched then update set STG.AMOUNT = B.AMOUNT
07:16:41 143  			      when not matched then insert (ACCRUAL_ID, ACCRUAL_TYPE_ID, LS_ASSET_ID, AMOUNT, GL_POSTING_MO_YR, SET_OF_BOOKS_ID)
07:16:41 144  			      values (LS_MONTHLY_ACCRUAL_STG_SEQ.NEXTVAL, B.ACCRUAL_TYPE_ID, B.LS_ASSET_ID, B.AMOUNT, B.GL_POSTING_MO_YR, B.SET_OF_BOOKS_ID);
07:16:41 145  
07:16:41 146  		      forall SCHEDULEINDEX in indices of A_TABLE
07:16:41 147  			      merge into LS_MONTHLY_ACCRUAL_STG STG
07:16:41 148  			      using (select 0 as ACCRUAL_ID,
07:16:41 149  					      10 as ACCRUAL_TYPE_ID,
07:16:41 150  					      A_TABLE(SCHEDULEINDEX).LS_ASSET_ID as LS_ASSET_ID,
07:16:41 151  					      nvl(A_TABLE(SCHEDULEINDEX).EXECUTORY_ACCRUAL8, 0) as AMOUNT,
07:16:41 152  					      A_TABLE(SCHEDULEINDEX).MONTH as GL_POSTING_MO_YR,
07:16:41 153  					      A_TABLE(SCHEDULEINDEX).SET_OF_BOOKS_ID as SET_OF_BOOKS_ID
07:16:41 154  					      from DUAL
07:16:41 155  					      where nvl(A_TABLE(SCHEDULEINDEX).EXECUTORY_ACCRUAL8, 0)  <> 0) B
07:16:41 156  			      on (b.ACCRUAL_TYPE_ID = STG.ACCRUAL_TYPE_ID
07:16:41 157  				      and b.LS_ASSET_ID = STG.LS_ASSET_ID
07:16:41 158  				      and b.GL_POSTING_MO_YR = STG.GL_POSTING_MO_YR
07:16:41 159  				      and b.SET_OF_BOOKS_ID = STG.SET_OF_BOOKS_ID)
07:16:41 160  			      when matched then update set STG.AMOUNT = B.AMOUNT
07:16:41 161  			      when not matched then insert (ACCRUAL_ID, ACCRUAL_TYPE_ID, LS_ASSET_ID, AMOUNT, GL_POSTING_MO_YR, SET_OF_BOOKS_ID)
07:16:41 162  			      values (LS_MONTHLY_ACCRUAL_STG_SEQ.NEXTVAL, B.ACCRUAL_TYPE_ID, B.LS_ASSET_ID, B.AMOUNT, B.GL_POSTING_MO_YR, B.SET_OF_BOOKS_ID);
07:16:41 163  
07:16:41 164  		      forall SCHEDULEINDEX in indices of A_TABLE
07:16:41 165  			      merge into LS_MONTHLY_ACCRUAL_STG STG
07:16:41 166  			      using (select 0 as ACCRUAL_ID,
07:16:41 167  					      11 as ACCRUAL_TYPE_ID,
07:16:41 168  					      A_TABLE(SCHEDULEINDEX).LS_ASSET_ID as LS_ASSET_ID,
07:16:41 169  					      nvl(A_TABLE(SCHEDULEINDEX).EXECUTORY_ACCRUAL9, 0) as AMOUNT,
07:16:41 170  					      A_TABLE(SCHEDULEINDEX).MONTH as GL_POSTING_MO_YR,
07:16:41 171  					      A_TABLE(SCHEDULEINDEX).SET_OF_BOOKS_ID as SET_OF_BOOKS_ID
07:16:41 172  					      from DUAL
07:16:41 173  					      where nvl(A_TABLE(SCHEDULEINDEX).EXECUTORY_ACCRUAL9, 0)  <> 0) B
07:16:41 174  			      on (b.ACCRUAL_TYPE_ID = STG.ACCRUAL_TYPE_ID
07:16:41 175  				      and b.LS_ASSET_ID = STG.LS_ASSET_ID
07:16:41 176  				      and b.GL_POSTING_MO_YR = STG.GL_POSTING_MO_YR
07:16:41 177  				      and b.SET_OF_BOOKS_ID = STG.SET_OF_BOOKS_ID)
07:16:41 178  			      when matched then update set STG.AMOUNT = B.AMOUNT
07:16:41 179  			      when not matched then insert (ACCRUAL_ID, ACCRUAL_TYPE_ID, LS_ASSET_ID, AMOUNT, GL_POSTING_MO_YR, SET_OF_BOOKS_ID)
07:16:41 180  			      values (LS_MONTHLY_ACCRUAL_STG_SEQ.NEXTVAL, B.ACCRUAL_TYPE_ID, B.LS_ASSET_ID, B.AMOUNT, B.GL_POSTING_MO_YR, B.SET_OF_BOOKS_ID);
07:16:41 181  
07:16:41 182  		      forall SCHEDULEINDEX in indices of A_TABLE
07:16:41 183  			      merge into LS_MONTHLY_ACCRUAL_STG STG
07:16:41 184  			      using (select 0 as ACCRUAL_ID,
07:16:41 185  					      12 as ACCRUAL_TYPE_ID,
07:16:41 186  					      A_TABLE(SCHEDULEINDEX).LS_ASSET_ID as LS_ASSET_ID,
07:16:41 187  					      nvl(A_TABLE(SCHEDULEINDEX).EXECUTORY_ACCRUAL10, 0) as AMOUNT,
07:16:41 188  					      A_TABLE(SCHEDULEINDEX).MONTH as GL_POSTING_MO_YR,
07:16:41 189  					      A_TABLE(SCHEDULEINDEX).SET_OF_BOOKS_ID as SET_OF_BOOKS_ID
07:16:41 190  					      from DUAL
07:16:41 191  					      where nvl(A_TABLE(SCHEDULEINDEX).EXECUTORY_ACCRUAL10, 0)	<> 0) B
07:16:41 192  			      on (b.ACCRUAL_TYPE_ID = STG.ACCRUAL_TYPE_ID
07:16:41 193  				      and b.LS_ASSET_ID = STG.LS_ASSET_ID
07:16:41 194  				      and b.GL_POSTING_MO_YR = STG.GL_POSTING_MO_YR
07:16:41 195  				      and b.SET_OF_BOOKS_ID = STG.SET_OF_BOOKS_ID)
07:16:41 196  			      when matched then update set STG.AMOUNT = B.AMOUNT
07:16:41 197  			      when not matched then insert (ACCRUAL_ID, ACCRUAL_TYPE_ID, LS_ASSET_ID, AMOUNT, GL_POSTING_MO_YR, SET_OF_BOOKS_ID)
07:16:41 198  			      values (LS_MONTHLY_ACCRUAL_STG_SEQ.NEXTVAL, B.ACCRUAL_TYPE_ID, B.LS_ASSET_ID, B.AMOUNT, B.GL_POSTING_MO_YR, B.SET_OF_BOOKS_ID);
07:16:41 199  
07:16:41 200  
07:16:41 201  
07:16:41 202  	      end P_CALC_EXEC_ACCRUALS;
07:16:41 203  
07:16:41 204  	      procedure P_CALC_CONT_ACCRUALS(A_TABLE in PKG_LEASE_CALC.ASSET_SCHEDULE_LINE_TYPE) is
07:16:41 205  
07:16:41 206  	      begin
07:16:41 207  		      /*Accrual_type_id = 2 is for interest accrual. If payments had accruals they'd be 1. Cont buckets 1-10 are 13-22. Offset by 12*/
07:16:41 208  
07:16:41 209  		      forall SCHEDULEINDEX in indices of A_TABLE
07:16:41 210  			      merge into LS_MONTHLY_ACCRUAL_STG STG
07:16:41 211  			      using (select 0 as ACCRUAL_ID,
07:16:41 212  					      13 as ACCRUAL_TYPE_ID,
07:16:41 213  					      A_TABLE(SCHEDULEINDEX).LS_ASSET_ID as LS_ASSET_ID,
07:16:41 214  					      nvl(A_TABLE(SCHEDULEINDEX).CONTINGENT_ACCRUAL1, 0) as AMOUNT,
07:16:41 215  					      A_TABLE(SCHEDULEINDEX).MONTH as GL_POSTING_MO_YR,
07:16:41 216  					      A_TABLE(SCHEDULEINDEX).SET_OF_BOOKS_ID as SET_OF_BOOKS_ID
07:16:41 217  					      from DUAL
07:16:41 218  					      where nvl(A_TABLE(SCHEDULEINDEX).CONTINGENT_ACCRUAL1, 0)	<> 0) B
07:16:41 219  			      on (b.ACCRUAL_TYPE_ID = STG.ACCRUAL_TYPE_ID
07:16:41 220  				      and b.LS_ASSET_ID = STG.LS_ASSET_ID
07:16:41 221  				      and b.GL_POSTING_MO_YR = STG.GL_POSTING_MO_YR
07:16:41 222  				      and b.SET_OF_BOOKS_ID = STG.SET_OF_BOOKS_ID)
07:16:41 223  			      when matched then update set STG.AMOUNT = B.AMOUNT
07:16:41 224  			      when not matched then insert (ACCRUAL_ID, ACCRUAL_TYPE_ID, LS_ASSET_ID, AMOUNT, GL_POSTING_MO_YR, SET_OF_BOOKS_ID)
07:16:41 225  			      values (LS_MONTHLY_ACCRUAL_STG_SEQ.NEXTVAL, B.ACCRUAL_TYPE_ID, B.LS_ASSET_ID, B.AMOUNT, B.GL_POSTING_MO_YR, B.SET_OF_BOOKS_ID);
07:16:41 226  
07:16:41 227  		      forall SCHEDULEINDEX in indices of A_TABLE
07:16:41 228  			      merge into LS_MONTHLY_ACCRUAL_STG STG
07:16:41 229  			      using (select 0 as ACCRUAL_ID,
07:16:41 230  					      14 as ACCRUAL_TYPE_ID,
07:16:41 231  					      A_TABLE(SCHEDULEINDEX).LS_ASSET_ID as LS_ASSET_ID,
07:16:41 232  					      nvl(A_TABLE(SCHEDULEINDEX).CONTINGENT_ACCRUAL2, 0) as AMOUNT,
07:16:41 233  					      A_TABLE(SCHEDULEINDEX).MONTH as GL_POSTING_MO_YR,
07:16:41 234  					      A_TABLE(SCHEDULEINDEX).SET_OF_BOOKS_ID as SET_OF_BOOKS_ID
07:16:41 235  					      from DUAL
07:16:41 236  					      where nvl(A_TABLE(SCHEDULEINDEX).CONTINGENT_ACCRUAL2, 0)	<> 0) B
07:16:41 237  			      on (b.ACCRUAL_TYPE_ID = STG.ACCRUAL_TYPE_ID
07:16:41 238  				      and b.LS_ASSET_ID = STG.LS_ASSET_ID
07:16:41 239  				      and b.GL_POSTING_MO_YR = STG.GL_POSTING_MO_YR
07:16:41 240  				      and b.SET_OF_BOOKS_ID = STG.SET_OF_BOOKS_ID)
07:16:41 241  			      when matched then update set STG.AMOUNT = B.AMOUNT
07:16:41 242  			      when not matched then insert (ACCRUAL_ID, ACCRUAL_TYPE_ID, LS_ASSET_ID, AMOUNT, GL_POSTING_MO_YR, SET_OF_BOOKS_ID)
07:16:41 243  			      values (LS_MONTHLY_ACCRUAL_STG_SEQ.NEXTVAL, B.ACCRUAL_TYPE_ID, B.LS_ASSET_ID, B.AMOUNT, B.GL_POSTING_MO_YR, B.SET_OF_BOOKS_ID);
07:16:41 244  
07:16:41 245  		      forall SCHEDULEINDEX in indices of A_TABLE
07:16:41 246  			      merge into LS_MONTHLY_ACCRUAL_STG STG
07:16:41 247  			      using (select 0 as ACCRUAL_ID,
07:16:41 248  					      15 as ACCRUAL_TYPE_ID,
07:16:41 249  					      A_TABLE(SCHEDULEINDEX).LS_ASSET_ID as LS_ASSET_ID,
07:16:41 250  					      nvl(A_TABLE(SCHEDULEINDEX).CONTINGENT_ACCRUAL3, 0) as AMOUNT,
07:16:41 251  					      A_TABLE(SCHEDULEINDEX).MONTH as GL_POSTING_MO_YR,
07:16:41 252  					      A_TABLE(SCHEDULEINDEX).SET_OF_BOOKS_ID as SET_OF_BOOKS_ID
07:16:41 253  					      from DUAL
07:16:41 254  					      where nvl(A_TABLE(SCHEDULEINDEX).CONTINGENT_ACCRUAL3, 0)	<> 0) B
07:16:41 255  			      on (b.ACCRUAL_TYPE_ID = STG.ACCRUAL_TYPE_ID
07:16:41 256  				      and b.LS_ASSET_ID = STG.LS_ASSET_ID
07:16:41 257  				      and b.GL_POSTING_MO_YR = STG.GL_POSTING_MO_YR
07:16:41 258  				      and b.SET_OF_BOOKS_ID = STG.SET_OF_BOOKS_ID)
07:16:41 259  			      when matched then update set STG.AMOUNT = B.AMOUNT
07:16:41 260  			      when not matched then insert (ACCRUAL_ID, ACCRUAL_TYPE_ID, LS_ASSET_ID, AMOUNT, GL_POSTING_MO_YR, SET_OF_BOOKS_ID)
07:16:41 261  			      values (LS_MONTHLY_ACCRUAL_STG_SEQ.NEXTVAL, B.ACCRUAL_TYPE_ID, B.LS_ASSET_ID, B.AMOUNT, B.GL_POSTING_MO_YR, B.SET_OF_BOOKS_ID);
07:16:41 262  
07:16:41 263  		      forall SCHEDULEINDEX in indices of A_TABLE
07:16:41 264  			      merge into LS_MONTHLY_ACCRUAL_STG STG
07:16:41 265  			      using (select 0 as ACCRUAL_ID,
07:16:41 266  					      16 as ACCRUAL_TYPE_ID,
07:16:41 267  					      A_TABLE(SCHEDULEINDEX).LS_ASSET_ID as LS_ASSET_ID,
07:16:41 268  					      nvl(A_TABLE(SCHEDULEINDEX).CONTINGENT_ACCRUAL4, 0) as AMOUNT,
07:16:41 269  					      A_TABLE(SCHEDULEINDEX).MONTH as GL_POSTING_MO_YR,
07:16:41 270  					      A_TABLE(SCHEDULEINDEX).SET_OF_BOOKS_ID as SET_OF_BOOKS_ID
07:16:41 271  					      from DUAL
07:16:41 272  					      where nvl(A_TABLE(SCHEDULEINDEX).CONTINGENT_ACCRUAL4, 0)	<> 0) B
07:16:41 273  			      on (b.ACCRUAL_TYPE_ID = STG.ACCRUAL_TYPE_ID
07:16:41 274  				      and b.LS_ASSET_ID = STG.LS_ASSET_ID
07:16:41 275  				      and b.GL_POSTING_MO_YR = STG.GL_POSTING_MO_YR
07:16:41 276  				      and b.SET_OF_BOOKS_ID = STG.SET_OF_BOOKS_ID)
07:16:41 277  			      when matched then update set STG.AMOUNT = B.AMOUNT
07:16:41 278  			      when not matched then insert (ACCRUAL_ID, ACCRUAL_TYPE_ID, LS_ASSET_ID, AMOUNT, GL_POSTING_MO_YR, SET_OF_BOOKS_ID)
07:16:41 279  			      values (LS_MONTHLY_ACCRUAL_STG_SEQ.NEXTVAL, B.ACCRUAL_TYPE_ID, B.LS_ASSET_ID, B.AMOUNT, B.GL_POSTING_MO_YR, B.SET_OF_BOOKS_ID);
07:16:41 280  
07:16:41 281  		      forall SCHEDULEINDEX in indices of A_TABLE
07:16:41 282  			      merge into LS_MONTHLY_ACCRUAL_STG STG
07:16:41 283  			      using (select 0 as ACCRUAL_ID,
07:16:41 284  					      17 as ACCRUAL_TYPE_ID,
07:16:41 285  					      A_TABLE(SCHEDULEINDEX).LS_ASSET_ID as LS_ASSET_ID,
07:16:41 286  					      nvl(A_TABLE(SCHEDULEINDEX).CONTINGENT_ACCRUAL5, 0) as AMOUNT,
07:16:41 287  					      A_TABLE(SCHEDULEINDEX).MONTH as GL_POSTING_MO_YR,
07:16:41 288  					      A_TABLE(SCHEDULEINDEX).SET_OF_BOOKS_ID as SET_OF_BOOKS_ID
07:16:41 289  					      from DUAL
07:16:41 290  					      where nvl(A_TABLE(SCHEDULEINDEX).CONTINGENT_ACCRUAL5, 0)	<> 0) B
07:16:41 291  			      on (b.ACCRUAL_TYPE_ID = STG.ACCRUAL_TYPE_ID
07:16:41 292  				      and b.LS_ASSET_ID = STG.LS_ASSET_ID
07:16:41 293  				      and b.GL_POSTING_MO_YR = STG.GL_POSTING_MO_YR
07:16:41 294  				      and b.SET_OF_BOOKS_ID = STG.SET_OF_BOOKS_ID)
07:16:41 295  			      when matched then update set STG.AMOUNT = B.AMOUNT
07:16:41 296  			      when not matched then insert (ACCRUAL_ID, ACCRUAL_TYPE_ID, LS_ASSET_ID, AMOUNT, GL_POSTING_MO_YR, SET_OF_BOOKS_ID)
07:16:41 297  			      values (LS_MONTHLY_ACCRUAL_STG_SEQ.NEXTVAL, B.ACCRUAL_TYPE_ID, B.LS_ASSET_ID, B.AMOUNT, B.GL_POSTING_MO_YR, B.SET_OF_BOOKS_ID);
07:16:41 298  
07:16:41 299  		      forall SCHEDULEINDEX in indices of A_TABLE
07:16:41 300  			      merge into LS_MONTHLY_ACCRUAL_STG STG
07:16:41 301  			      using (select 0 as ACCRUAL_ID,
07:16:41 302  					      18 as ACCRUAL_TYPE_ID,
07:16:41 303  					      A_TABLE(SCHEDULEINDEX).LS_ASSET_ID as LS_ASSET_ID,
07:16:41 304  					      nvl(A_TABLE(SCHEDULEINDEX).CONTINGENT_ACCRUAL6, 0) as AMOUNT,
07:16:41 305  					      A_TABLE(SCHEDULEINDEX).MONTH as GL_POSTING_MO_YR,
07:16:41 306  					      A_TABLE(SCHEDULEINDEX).SET_OF_BOOKS_ID as SET_OF_BOOKS_ID
07:16:41 307  					      from DUAL
07:16:41 308  					      where nvl(A_TABLE(SCHEDULEINDEX).CONTINGENT_ACCRUAL6, 0)	<> 0) B
07:16:41 309  			      on (b.ACCRUAL_TYPE_ID = STG.ACCRUAL_TYPE_ID
07:16:41 310  				      and b.LS_ASSET_ID = STG.LS_ASSET_ID
07:16:41 311  				      and b.GL_POSTING_MO_YR = STG.GL_POSTING_MO_YR
07:16:41 312  				      and b.SET_OF_BOOKS_ID = STG.SET_OF_BOOKS_ID)
07:16:41 313  			      when matched then update set STG.AMOUNT = B.AMOUNT
07:16:41 314  			      when not matched then insert (ACCRUAL_ID, ACCRUAL_TYPE_ID, LS_ASSET_ID, AMOUNT, GL_POSTING_MO_YR, SET_OF_BOOKS_ID)
07:16:41 315  			      values (LS_MONTHLY_ACCRUAL_STG_SEQ.NEXTVAL, B.ACCRUAL_TYPE_ID, B.LS_ASSET_ID, B.AMOUNT, B.GL_POSTING_MO_YR, B.SET_OF_BOOKS_ID);
07:16:41 316  
07:16:41 317  		      forall SCHEDULEINDEX in indices of A_TABLE
07:16:41 318  			      merge into LS_MONTHLY_ACCRUAL_STG STG
07:16:41 319  			      using (select 0 as ACCRUAL_ID,
07:16:41 320  					      19 as ACCRUAL_TYPE_ID,
07:16:41 321  					      A_TABLE(SCHEDULEINDEX).LS_ASSET_ID as LS_ASSET_ID,
07:16:41 322  					      nvl(A_TABLE(SCHEDULEINDEX).CONTINGENT_ACCRUAL7, 0) as AMOUNT,
07:16:41 323  					      A_TABLE(SCHEDULEINDEX).MONTH as GL_POSTING_MO_YR,
07:16:41 324  					      A_TABLE(SCHEDULEINDEX).SET_OF_BOOKS_ID as SET_OF_BOOKS_ID
07:16:41 325  					      from DUAL
07:16:41 326  					      where nvl(A_TABLE(SCHEDULEINDEX).CONTINGENT_ACCRUAL7, 0)	<> 0) B
07:16:41 327  			      on (b.ACCRUAL_TYPE_ID = STG.ACCRUAL_TYPE_ID
07:16:41 328  				      and b.LS_ASSET_ID = STG.LS_ASSET_ID
07:16:41 329  				      and b.GL_POSTING_MO_YR = STG.GL_POSTING_MO_YR
07:16:41 330  				      and b.SET_OF_BOOKS_ID = STG.SET_OF_BOOKS_ID)
07:16:41 331  			      when matched then update set STG.AMOUNT = B.AMOUNT
07:16:41 332  			      when not matched then insert (ACCRUAL_ID, ACCRUAL_TYPE_ID, LS_ASSET_ID, AMOUNT, GL_POSTING_MO_YR, SET_OF_BOOKS_ID)
07:16:41 333  			      values (LS_MONTHLY_ACCRUAL_STG_SEQ.NEXTVAL, B.ACCRUAL_TYPE_ID, B.LS_ASSET_ID, B.AMOUNT, B.GL_POSTING_MO_YR, B.SET_OF_BOOKS_ID);
07:16:41 334  
07:16:41 335  		      forall SCHEDULEINDEX in indices of A_TABLE
07:16:41 336  			      merge into LS_MONTHLY_ACCRUAL_STG STG
07:16:41 337  			      using (select 0 as ACCRUAL_ID,
07:16:41 338  					      20 as ACCRUAL_TYPE_ID,
07:16:41 339  					      A_TABLE(SCHEDULEINDEX).LS_ASSET_ID as LS_ASSET_ID,
07:16:41 340  					      nvl(A_TABLE(SCHEDULEINDEX).CONTINGENT_ACCRUAL8, 0) as AMOUNT,
07:16:41 341  					      A_TABLE(SCHEDULEINDEX).MONTH as GL_POSTING_MO_YR,
07:16:41 342  					      A_TABLE(SCHEDULEINDEX).SET_OF_BOOKS_ID as SET_OF_BOOKS_ID
07:16:41 343  					      from DUAL
07:16:41 344  					      where nvl(A_TABLE(SCHEDULEINDEX).CONTINGENT_ACCRUAL8, 0)	<> 0) B
07:16:41 345  			      on (b.ACCRUAL_TYPE_ID = STG.ACCRUAL_TYPE_ID
07:16:41 346  				      and b.LS_ASSET_ID = STG.LS_ASSET_ID
07:16:41 347  				      and b.GL_POSTING_MO_YR = STG.GL_POSTING_MO_YR
07:16:41 348  				      and b.SET_OF_BOOKS_ID = STG.SET_OF_BOOKS_ID)
07:16:41 349  			      when matched then update set STG.AMOUNT = B.AMOUNT
07:16:41 350  			      when not matched then insert (ACCRUAL_ID, ACCRUAL_TYPE_ID, LS_ASSET_ID, AMOUNT, GL_POSTING_MO_YR, SET_OF_BOOKS_ID)
07:16:41 351  			      values (LS_MONTHLY_ACCRUAL_STG_SEQ.NEXTVAL, B.ACCRUAL_TYPE_ID, B.LS_ASSET_ID, B.AMOUNT, B.GL_POSTING_MO_YR, B.SET_OF_BOOKS_ID);
07:16:41 352  
07:16:41 353  		      forall SCHEDULEINDEX in indices of A_TABLE
07:16:41 354  			      merge into LS_MONTHLY_ACCRUAL_STG STG
07:16:41 355  			      using (select 0 as ACCRUAL_ID,
07:16:41 356  					      21 as ACCRUAL_TYPE_ID,
07:16:41 357  					      A_TABLE(SCHEDULEINDEX).LS_ASSET_ID as LS_ASSET_ID,
07:16:41 358  					      nvl(A_TABLE(SCHEDULEINDEX).CONTINGENT_ACCRUAL9, 0) as AMOUNT,
07:16:41 359  					      A_TABLE(SCHEDULEINDEX).MONTH as GL_POSTING_MO_YR,
07:16:41 360  					      A_TABLE(SCHEDULEINDEX).SET_OF_BOOKS_ID as SET_OF_BOOKS_ID
07:16:41 361  					      from DUAL
07:16:41 362  					      where nvl(A_TABLE(SCHEDULEINDEX).CONTINGENT_ACCRUAL9, 0)	<> 0) B
07:16:41 363  			      on (b.ACCRUAL_TYPE_ID = STG.ACCRUAL_TYPE_ID
07:16:41 364  				      and b.LS_ASSET_ID = STG.LS_ASSET_ID
07:16:41 365  				      and b.GL_POSTING_MO_YR = STG.GL_POSTING_MO_YR
07:16:41 366  				      and b.SET_OF_BOOKS_ID = STG.SET_OF_BOOKS_ID)
07:16:41 367  			      when matched then update set STG.AMOUNT = B.AMOUNT
07:16:41 368  			      when not matched then insert (ACCRUAL_ID, ACCRUAL_TYPE_ID, LS_ASSET_ID, AMOUNT, GL_POSTING_MO_YR, SET_OF_BOOKS_ID)
07:16:41 369  			      values (LS_MONTHLY_ACCRUAL_STG_SEQ.NEXTVAL, B.ACCRUAL_TYPE_ID, B.LS_ASSET_ID, B.AMOUNT, B.GL_POSTING_MO_YR, B.SET_OF_BOOKS_ID);
07:16:41 370  
07:16:41 371  		      forall SCHEDULEINDEX in indices of A_TABLE
07:16:41 372  			      merge into LS_MONTHLY_ACCRUAL_STG STG
07:16:41 373  			      using (select 0 as ACCRUAL_ID,
07:16:41 374  					      22 as ACCRUAL_TYPE_ID,
07:16:41 375  					      A_TABLE(SCHEDULEINDEX).LS_ASSET_ID as LS_ASSET_ID,
07:16:41 376  					      nvl(A_TABLE(SCHEDULEINDEX).CONTINGENT_ACCRUAL10, 0) as AMOUNT,
07:16:41 377  					      A_TABLE(SCHEDULEINDEX).MONTH as GL_POSTING_MO_YR,
07:16:41 378  					      A_TABLE(SCHEDULEINDEX).SET_OF_BOOKS_ID as SET_OF_BOOKS_ID
07:16:41 379  					      from DUAL
07:16:41 380  					      where nvl(A_TABLE(SCHEDULEINDEX).CONTINGENT_ACCRUAL10, 0)  <> 0) B
07:16:41 381  			      on (b.ACCRUAL_TYPE_ID = STG.ACCRUAL_TYPE_ID
07:16:41 382  				      and b.LS_ASSET_ID = STG.LS_ASSET_ID
07:16:41 383  				      and b.GL_POSTING_MO_YR = STG.GL_POSTING_MO_YR
07:16:41 384  				      and b.SET_OF_BOOKS_ID = STG.SET_OF_BOOKS_ID)
07:16:41 385  			      when matched then update set STG.AMOUNT = B.AMOUNT
07:16:41 386  			      when not matched then insert (ACCRUAL_ID, ACCRUAL_TYPE_ID, LS_ASSET_ID, AMOUNT, GL_POSTING_MO_YR, SET_OF_BOOKS_ID)
07:16:41 387  			      values (LS_MONTHLY_ACCRUAL_STG_SEQ.NEXTVAL, B.ACCRUAL_TYPE_ID, B.LS_ASSET_ID, B.AMOUNT, B.GL_POSTING_MO_YR, B.SET_OF_BOOKS_ID);
07:16:41 388  
07:16:41 389  
07:16:41 390  
07:16:41 391  	      end P_CALC_CONT_ACCRUALS;
07:16:41 392  
07:16:41 393  	      procedure P_CALC_EXEC_PAYMENTS(A_TABLE in PKG_LEASE_CALC.ASSET_SCHEDULE_LINE_TABLE) is
07:16:41 394  	      begin
07:16:41 395  
07:16:41 396  		      forall SCHEDULEINDEX in indices of A_TABLE
07:16:41 397  			      insert into LS_PAYMENT_LINE
07:16:41 398  		  (PAYMENT_ID, PAYMENT_LINE_NUMBER, PAYMENT_TYPE_ID, LS_ASSET_ID, AMOUNT,
07:16:41 399  		   GL_POSTING_MO_YR, SET_OF_BOOKS_ID)
07:16:41 400  		  (select PAYMENT_ID,
07:16:41 401  			  A_TABLE(SCHEDULEINDEX).ROWNUMBER,
07:16:41 402  			  3,
07:16:41 403  			  A_TABLE(SCHEDULEINDEX).LS_ASSET_ID,
07:16:41 404  			  A_TABLE(SCHEDULEINDEX).EXECUTORY_PAID1 * A_TABLE(SCHEDULEINDEX).PAYMENT_PCT,
07:16:41 405  			  A_TABLE(SCHEDULEINDEX).GL_POST_MO_YR,
07:16:41 406  			  A_TABLE(SCHEDULEINDEX).SET_OF_BOOKS_ID
07:16:41 407  		     from LS_PAYMENT_HDR
07:16:41 408  		    where PAYMENT_MONTH = A_TABLE(SCHEDULEINDEX).PAYMENT_MONTH
07:16:41 409  		      and LEASE_ID = A_TABLE(SCHEDULEINDEX).LEASE_ID
07:16:41 410  				      and ILR_ID = case when A_TABLE(SCHEDULEINDEX).LS_RECONCILE_TYPE_ID in (1,2)
07:16:41 411  							      then A_TABLE(SCHEDULEINDEX).ILR_ID else -1 end
07:16:41 412  		      and LS_ASSET_ID = case when A_TABLE(SCHEDULEINDEX).LS_RECONCILE_TYPE_ID = 1
07:16:41 413  							      then A_TABLE(SCHEDULEINDEX).LS_ASSET_ID else -1 end
07:16:41 414  		      and COMPANY_ID = A_TABLE(SCHEDULEINDEX).COMPANY_ID
07:16:41 415  		      and VENDOR_ID = A_TABLE(SCHEDULEINDEX).VENDOR_ID
07:16:41 416  		      and NVL(A_TABLE(SCHEDULEINDEX).RETIREMENT_DATE, A_TABLE(SCHEDULEINDEX).PAYMENT_MONTH) >= A_TABLE(SCHEDULEINDEX).PAYMENT_MONTH
07:16:41 417  		      and A_TABLE(SCHEDULEINDEX).EXECUTORY_PAID1 <> 0);
07:16:41 418  
07:16:41 419  		      forall SCHEDULEINDEX in indices of A_TABLE
07:16:41 420  			      insert into LS_PAYMENT_LINE
07:16:41 421  		  (PAYMENT_ID, PAYMENT_LINE_NUMBER, PAYMENT_TYPE_ID, LS_ASSET_ID, AMOUNT,
07:16:41 422  		   GL_POSTING_MO_YR, SET_OF_BOOKS_ID)
07:16:41 423  		  (select PAYMENT_ID,
07:16:41 424  			  A_TABLE(SCHEDULEINDEX).ROWNUMBER,
07:16:41 425  			  4,
07:16:41 426  			  A_TABLE(SCHEDULEINDEX).LS_ASSET_ID,
07:16:41 427  			  A_TABLE(SCHEDULEINDEX).EXECUTORY_PAID2 * A_TABLE(SCHEDULEINDEX).PAYMENT_PCT,
07:16:41 428  			  A_TABLE(SCHEDULEINDEX).GL_POST_MO_YR,
07:16:41 429  			  A_TABLE(SCHEDULEINDEX).SET_OF_BOOKS_ID
07:16:41 430  		     from LS_PAYMENT_HDR
07:16:41 431  		    where PAYMENT_MONTH = A_TABLE(SCHEDULEINDEX).PAYMENT_MONTH
07:16:41 432  		      and LEASE_ID = A_TABLE(SCHEDULEINDEX).LEASE_ID
07:16:41 433  				      and ILR_ID = case when A_TABLE(SCHEDULEINDEX).LS_RECONCILE_TYPE_ID in (1,2)
07:16:41 434  							      then A_TABLE(SCHEDULEINDEX).ILR_ID else -1 end
07:16:41 435  		      and LS_ASSET_ID = case when A_TABLE(SCHEDULEINDEX).LS_RECONCILE_TYPE_ID = 1
07:16:41 436  							      then A_TABLE(SCHEDULEINDEX).LS_ASSET_ID else -1 end
07:16:41 437  		      and COMPANY_ID = A_TABLE(SCHEDULEINDEX).COMPANY_ID
07:16:41 438  		      and VENDOR_ID = A_TABLE(SCHEDULEINDEX).VENDOR_ID
07:16:41 439  		      and NVL(A_TABLE(SCHEDULEINDEX).RETIREMENT_DATE, A_TABLE(SCHEDULEINDEX).PAYMENT_MONTH) >= A_TABLE(SCHEDULEINDEX).PAYMENT_MONTH
07:16:41 440  		      and A_TABLE(SCHEDULEINDEX).EXECUTORY_PAID2 <> 0);
07:16:41 441  
07:16:41 442  		      forall SCHEDULEINDEX in indices of A_TABLE
07:16:41 443  			      insert into LS_PAYMENT_LINE
07:16:41 444  		  (PAYMENT_ID, PAYMENT_LINE_NUMBER, PAYMENT_TYPE_ID, LS_ASSET_ID, AMOUNT,
07:16:41 445  		   GL_POSTING_MO_YR, SET_OF_BOOKS_ID)
07:16:41 446  		  (select PAYMENT_ID,
07:16:41 447  			  A_TABLE(SCHEDULEINDEX).ROWNUMBER,
07:16:41 448  			  5,
07:16:41 449  			  A_TABLE(SCHEDULEINDEX).LS_ASSET_ID,
07:16:41 450  			  A_TABLE(SCHEDULEINDEX).EXECUTORY_PAID3 * A_TABLE(SCHEDULEINDEX).PAYMENT_PCT,
07:16:41 451  			  A_TABLE(SCHEDULEINDEX).GL_POST_MO_YR,
07:16:41 452  			  A_TABLE(SCHEDULEINDEX).SET_OF_BOOKS_ID
07:16:41 453  		     from LS_PAYMENT_HDR
07:16:41 454  		    where PAYMENT_MONTH = A_TABLE(SCHEDULEINDEX).PAYMENT_MONTH
07:16:41 455  		      and LEASE_ID = A_TABLE(SCHEDULEINDEX).LEASE_ID
07:16:41 456  				      and ILR_ID = case when A_TABLE(SCHEDULEINDEX).LS_RECONCILE_TYPE_ID in (1,2)
07:16:41 457  							      then A_TABLE(SCHEDULEINDEX).ILR_ID else -1 end
07:16:41 458  		      and LS_ASSET_ID = case when A_TABLE(SCHEDULEINDEX).LS_RECONCILE_TYPE_ID = 1
07:16:41 459  							      then A_TABLE(SCHEDULEINDEX).LS_ASSET_ID else -1 end
07:16:41 460  		      and COMPANY_ID = A_TABLE(SCHEDULEINDEX).COMPANY_ID
07:16:41 461  		      and VENDOR_ID = A_TABLE(SCHEDULEINDEX).VENDOR_ID
07:16:41 462  		      and NVL(A_TABLE(SCHEDULEINDEX).RETIREMENT_DATE, A_TABLE(SCHEDULEINDEX).PAYMENT_MONTH) >= A_TABLE(SCHEDULEINDEX).PAYMENT_MONTH
07:16:41 463  		      and A_TABLE(SCHEDULEINDEX).EXECUTORY_PAID3 <> 0);
07:16:41 464  
07:16:41 465  		      forall SCHEDULEINDEX in indices of A_TABLE
07:16:41 466  			      insert into LS_PAYMENT_LINE
07:16:41 467  		  (PAYMENT_ID, PAYMENT_LINE_NUMBER, PAYMENT_TYPE_ID, LS_ASSET_ID, AMOUNT,
07:16:41 468  		   GL_POSTING_MO_YR, SET_OF_BOOKS_ID)
07:16:41 469  		  (select PAYMENT_ID,
07:16:41 470  			  A_TABLE(SCHEDULEINDEX).ROWNUMBER,
07:16:41 471  			  6,
07:16:41 472  			  A_TABLE(SCHEDULEINDEX).LS_ASSET_ID,
07:16:41 473  			  A_TABLE(SCHEDULEINDEX).EXECUTORY_PAID4 * A_TABLE(SCHEDULEINDEX).PAYMENT_PCT,
07:16:41 474  			  A_TABLE(SCHEDULEINDEX).GL_POST_MO_YR,
07:16:41 475  			  A_TABLE(SCHEDULEINDEX).SET_OF_BOOKS_ID
07:16:41 476  		     from LS_PAYMENT_HDR
07:16:41 477  		    where PAYMENT_MONTH = A_TABLE(SCHEDULEINDEX).PAYMENT_MONTH
07:16:41 478  		      and LEASE_ID = A_TABLE(SCHEDULEINDEX).LEASE_ID
07:16:41 479  				      and ILR_ID = case when A_TABLE(SCHEDULEINDEX).LS_RECONCILE_TYPE_ID in (1,2)
07:16:41 480  							      then A_TABLE(SCHEDULEINDEX).ILR_ID else -1 end
07:16:41 481  		      and LS_ASSET_ID = case when A_TABLE(SCHEDULEINDEX).LS_RECONCILE_TYPE_ID = 1
07:16:41 482  							      then A_TABLE(SCHEDULEINDEX).LS_ASSET_ID else -1 end
07:16:41 483  		      and COMPANY_ID = A_TABLE(SCHEDULEINDEX).COMPANY_ID
07:16:41 484  		      and VENDOR_ID = A_TABLE(SCHEDULEINDEX).VENDOR_ID
07:16:41 485  		      and NVL(A_TABLE(SCHEDULEINDEX).RETIREMENT_DATE, A_TABLE(SCHEDULEINDEX).PAYMENT_MONTH) >= A_TABLE(SCHEDULEINDEX).PAYMENT_MONTH
07:16:41 486  		      and A_TABLE(SCHEDULEINDEX).EXECUTORY_PAID4 <> 0);
07:16:41 487  
07:16:41 488  		      forall SCHEDULEINDEX in indices of A_TABLE
07:16:41 489  			      insert into LS_PAYMENT_LINE
07:16:41 490  		  (PAYMENT_ID, PAYMENT_LINE_NUMBER, PAYMENT_TYPE_ID, LS_ASSET_ID, AMOUNT,
07:16:41 491  		   GL_POSTING_MO_YR, SET_OF_BOOKS_ID)
07:16:41 492  		  (select PAYMENT_ID,
07:16:41 493  			  A_TABLE(SCHEDULEINDEX).ROWNUMBER,
07:16:41 494  			  7,
07:16:41 495  			  A_TABLE(SCHEDULEINDEX).LS_ASSET_ID,
07:16:41 496  			  A_TABLE(SCHEDULEINDEX).EXECUTORY_PAID5 * A_TABLE(SCHEDULEINDEX).PAYMENT_PCT,
07:16:41 497  			  A_TABLE(SCHEDULEINDEX).GL_POST_MO_YR,
07:16:41 498  			  A_TABLE(SCHEDULEINDEX).SET_OF_BOOKS_ID
07:16:41 499  		     from LS_PAYMENT_HDR
07:16:41 500  		    where PAYMENT_MONTH = A_TABLE(SCHEDULEINDEX).PAYMENT_MONTH
07:16:41 501  		      and LEASE_ID = A_TABLE(SCHEDULEINDEX).LEASE_ID
07:16:41 502  				      and ILR_ID = case when A_TABLE(SCHEDULEINDEX).LS_RECONCILE_TYPE_ID in (1,2)
07:16:41 503  							      then A_TABLE(SCHEDULEINDEX).ILR_ID else -1 end
07:16:41 504  		      and LS_ASSET_ID = case when A_TABLE(SCHEDULEINDEX).LS_RECONCILE_TYPE_ID = 1
07:16:41 505  							      then A_TABLE(SCHEDULEINDEX).LS_ASSET_ID else -1 end
07:16:41 506  		      and COMPANY_ID = A_TABLE(SCHEDULEINDEX).COMPANY_ID
07:16:41 507  		      and VENDOR_ID = A_TABLE(SCHEDULEINDEX).VENDOR_ID
07:16:41 508  		      and NVL(A_TABLE(SCHEDULEINDEX).RETIREMENT_DATE, A_TABLE(SCHEDULEINDEX).PAYMENT_MONTH) >= A_TABLE(SCHEDULEINDEX).PAYMENT_MONTH
07:16:41 509  		      and A_TABLE(SCHEDULEINDEX).EXECUTORY_PAID5 <> 0);
07:16:41 510  
07:16:41 511  		      forall SCHEDULEINDEX in indices of A_TABLE
07:16:41 512  			      insert into LS_PAYMENT_LINE
07:16:41 513  		  (PAYMENT_ID, PAYMENT_LINE_NUMBER, PAYMENT_TYPE_ID, LS_ASSET_ID, AMOUNT,
07:16:41 514  		   GL_POSTING_MO_YR, SET_OF_BOOKS_ID)
07:16:41 515  		  (select PAYMENT_ID,
07:16:41 516  			  A_TABLE(SCHEDULEINDEX).ROWNUMBER,
07:16:41 517  			  8,
07:16:41 518  			  A_TABLE(SCHEDULEINDEX).LS_ASSET_ID,
07:16:41 519  			  A_TABLE(SCHEDULEINDEX).EXECUTORY_PAID6 * A_TABLE(SCHEDULEINDEX).PAYMENT_PCT,
07:16:41 520  			  A_TABLE(SCHEDULEINDEX).GL_POST_MO_YR,
07:16:41 521  			  A_TABLE(SCHEDULEINDEX).SET_OF_BOOKS_ID
07:16:41 522  		     from LS_PAYMENT_HDR
07:16:41 523  		    where PAYMENT_MONTH = A_TABLE(SCHEDULEINDEX).PAYMENT_MONTH
07:16:41 524  		      and LEASE_ID = A_TABLE(SCHEDULEINDEX).LEASE_ID
07:16:41 525  				      and ILR_ID = case when A_TABLE(SCHEDULEINDEX).LS_RECONCILE_TYPE_ID in (1,2)
07:16:41 526  							      then A_TABLE(SCHEDULEINDEX).ILR_ID else -1 end
07:16:41 527  		      and LS_ASSET_ID = case when A_TABLE(SCHEDULEINDEX).LS_RECONCILE_TYPE_ID = 1
07:16:41 528  							      then A_TABLE(SCHEDULEINDEX).LS_ASSET_ID else -1 end
07:16:41 529  		      and COMPANY_ID = A_TABLE(SCHEDULEINDEX).COMPANY_ID
07:16:41 530  		      and VENDOR_ID = A_TABLE(SCHEDULEINDEX).VENDOR_ID
07:16:41 531  		      and NVL(A_TABLE(SCHEDULEINDEX).RETIREMENT_DATE, A_TABLE(SCHEDULEINDEX).PAYMENT_MONTH) >= A_TABLE(SCHEDULEINDEX).PAYMENT_MONTH
07:16:41 532  		      and A_TABLE(SCHEDULEINDEX).EXECUTORY_PAID6 <> 0);
07:16:41 533  
07:16:41 534  		      forall SCHEDULEINDEX in indices of A_TABLE
07:16:41 535  			      insert into LS_PAYMENT_LINE
07:16:41 536  		  (PAYMENT_ID, PAYMENT_LINE_NUMBER, PAYMENT_TYPE_ID, LS_ASSET_ID, AMOUNT,
07:16:41 537  		   GL_POSTING_MO_YR, SET_OF_BOOKS_ID)
07:16:41 538  		  (select PAYMENT_ID,
07:16:41 539  			  A_TABLE(SCHEDULEINDEX).ROWNUMBER,
07:16:41 540  			  9,
07:16:41 541  			  A_TABLE(SCHEDULEINDEX).LS_ASSET_ID,
07:16:41 542  			  A_TABLE(SCHEDULEINDEX).EXECUTORY_PAID7 * A_TABLE(SCHEDULEINDEX).PAYMENT_PCT,
07:16:41 543  			  A_TABLE(SCHEDULEINDEX).GL_POST_MO_YR,
07:16:41 544  			  A_TABLE(SCHEDULEINDEX).SET_OF_BOOKS_ID
07:16:41 545  		     from LS_PAYMENT_HDR
07:16:41 546  		    where PAYMENT_MONTH = A_TABLE(SCHEDULEINDEX).PAYMENT_MONTH
07:16:41 547  		      and LEASE_ID = A_TABLE(SCHEDULEINDEX).LEASE_ID
07:16:41 548  				      and ILR_ID = case when A_TABLE(SCHEDULEINDEX).LS_RECONCILE_TYPE_ID in (1,2)
07:16:41 549  							      then A_TABLE(SCHEDULEINDEX).ILR_ID else -1 end
07:16:41 550  		      and LS_ASSET_ID = case when A_TABLE(SCHEDULEINDEX).LS_RECONCILE_TYPE_ID = 1
07:16:41 551  							      then A_TABLE(SCHEDULEINDEX).LS_ASSET_ID else -1 end
07:16:41 552  		      and COMPANY_ID = A_TABLE(SCHEDULEINDEX).COMPANY_ID
07:16:41 553  		      and VENDOR_ID = A_TABLE(SCHEDULEINDEX).VENDOR_ID
07:16:41 554  		      and NVL(A_TABLE(SCHEDULEINDEX).RETIREMENT_DATE, A_TABLE(SCHEDULEINDEX).PAYMENT_MONTH) >= A_TABLE(SCHEDULEINDEX).PAYMENT_MONTH
07:16:41 555  		      and A_TABLE(SCHEDULEINDEX).EXECUTORY_PAID7 <> 0);
07:16:41 556  
07:16:41 557  		      forall SCHEDULEINDEX in indices of A_TABLE
07:16:41 558  			      insert into LS_PAYMENT_LINE
07:16:41 559  		  (PAYMENT_ID, PAYMENT_LINE_NUMBER, PAYMENT_TYPE_ID, LS_ASSET_ID, AMOUNT,
07:16:41 560  		   GL_POSTING_MO_YR, SET_OF_BOOKS_ID)
07:16:41 561  		  (select PAYMENT_ID,
07:16:41 562  			  A_TABLE(SCHEDULEINDEX).ROWNUMBER,
07:16:41 563  			  10,
07:16:41 564  			  A_TABLE(SCHEDULEINDEX).LS_ASSET_ID,
07:16:41 565  			  A_TABLE(SCHEDULEINDEX).EXECUTORY_PAID8 * A_TABLE(SCHEDULEINDEX).PAYMENT_PCT,
07:16:41 566  			  A_TABLE(SCHEDULEINDEX).GL_POST_MO_YR,
07:16:41 567  			  A_TABLE(SCHEDULEINDEX).SET_OF_BOOKS_ID
07:16:41 568  		     from LS_PAYMENT_HDR
07:16:41 569  		    where PAYMENT_MONTH = A_TABLE(SCHEDULEINDEX).PAYMENT_MONTH
07:16:41 570  		      and LEASE_ID = A_TABLE(SCHEDULEINDEX).LEASE_ID
07:16:41 571  				      and ILR_ID = case when A_TABLE(SCHEDULEINDEX).LS_RECONCILE_TYPE_ID in (1,2)
07:16:41 572  							      then A_TABLE(SCHEDULEINDEX).ILR_ID else -1 end
07:16:41 573  		      and LS_ASSET_ID = case when A_TABLE(SCHEDULEINDEX).LS_RECONCILE_TYPE_ID = 1
07:16:41 574  							      then A_TABLE(SCHEDULEINDEX).LS_ASSET_ID else -1 end
07:16:41 575  		      and COMPANY_ID = A_TABLE(SCHEDULEINDEX).COMPANY_ID
07:16:41 576  		      and VENDOR_ID = A_TABLE(SCHEDULEINDEX).VENDOR_ID
07:16:41 577  		      and NVL(A_TABLE(SCHEDULEINDEX).RETIREMENT_DATE, A_TABLE(SCHEDULEINDEX).PAYMENT_MONTH) >= A_TABLE(SCHEDULEINDEX).PAYMENT_MONTH
07:16:41 578  		      and A_TABLE(SCHEDULEINDEX).EXECUTORY_PAID8 <> 0);
07:16:41 579  
07:16:41 580  		      forall SCHEDULEINDEX in indices of A_TABLE
07:16:41 581  			      insert into LS_PAYMENT_LINE
07:16:41 582  		  (PAYMENT_ID, PAYMENT_LINE_NUMBER, PAYMENT_TYPE_ID, LS_ASSET_ID, AMOUNT,
07:16:41 583  		   GL_POSTING_MO_YR, SET_OF_BOOKS_ID)
07:16:41 584  		  (select PAYMENT_ID,
07:16:41 585  			  A_TABLE(SCHEDULEINDEX).ROWNUMBER,
07:16:41 586  			  11,
07:16:41 587  			  A_TABLE(SCHEDULEINDEX).LS_ASSET_ID,
07:16:41 588  			  A_TABLE(SCHEDULEINDEX).EXECUTORY_PAID9 * A_TABLE(SCHEDULEINDEX).PAYMENT_PCT,
07:16:41 589  			  A_TABLE(SCHEDULEINDEX).GL_POST_MO_YR,
07:16:41 590  			  A_TABLE(SCHEDULEINDEX).SET_OF_BOOKS_ID
07:16:41 591  		     from LS_PAYMENT_HDR
07:16:41 592  		    where PAYMENT_MONTH = A_TABLE(SCHEDULEINDEX).PAYMENT_MONTH
07:16:41 593  		      and LEASE_ID = A_TABLE(SCHEDULEINDEX).LEASE_ID
07:16:41 594  				      and ILR_ID = case when A_TABLE(SCHEDULEINDEX).LS_RECONCILE_TYPE_ID in (1,2)
07:16:41 595  							      then A_TABLE(SCHEDULEINDEX).ILR_ID else -1 end
07:16:41 596  		      and LS_ASSET_ID = case when A_TABLE(SCHEDULEINDEX).LS_RECONCILE_TYPE_ID = 1
07:16:41 597  							      then A_TABLE(SCHEDULEINDEX).LS_ASSET_ID else -1 end
07:16:41 598  		      and COMPANY_ID = A_TABLE(SCHEDULEINDEX).COMPANY_ID
07:16:41 599  		      and VENDOR_ID = A_TABLE(SCHEDULEINDEX).VENDOR_ID
07:16:41 600  		      and NVL(A_TABLE(SCHEDULEINDEX).RETIREMENT_DATE, A_TABLE(SCHEDULEINDEX).PAYMENT_MONTH) >= A_TABLE(SCHEDULEINDEX).PAYMENT_MONTH
07:16:41 601  		      and A_TABLE(SCHEDULEINDEX).EXECUTORY_PAID9 <> 0);
07:16:41 602  
07:16:41 603  		      forall SCHEDULEINDEX in indices of A_TABLE
07:16:41 604  			      insert into LS_PAYMENT_LINE
07:16:41 605  		  (PAYMENT_ID, PAYMENT_LINE_NUMBER, PAYMENT_TYPE_ID, LS_ASSET_ID, AMOUNT,
07:16:41 606  		   GL_POSTING_MO_YR, SET_OF_BOOKS_ID)
07:16:41 607  		  (select PAYMENT_ID,
07:16:41 608  			  A_TABLE(SCHEDULEINDEX).ROWNUMBER,
07:16:41 609  			  12,
07:16:41 610  			  A_TABLE(SCHEDULEINDEX).LS_ASSET_ID,
07:16:41 611  			  A_TABLE(SCHEDULEINDEX).EXECUTORY_PAID10 * A_TABLE(SCHEDULEINDEX).PAYMENT_PCT,
07:16:41 612  			  A_TABLE(SCHEDULEINDEX).GL_POST_MO_YR,
07:16:41 613  			  A_TABLE(SCHEDULEINDEX).SET_OF_BOOKS_ID
07:16:41 614  		     from LS_PAYMENT_HDR
07:16:41 615  		    where PAYMENT_MONTH = A_TABLE(SCHEDULEINDEX).PAYMENT_MONTH
07:16:41 616  		      and LEASE_ID = A_TABLE(SCHEDULEINDEX).LEASE_ID
07:16:41 617  				      and ILR_ID = case when A_TABLE(SCHEDULEINDEX).LS_RECONCILE_TYPE_ID in (1,2)
07:16:41 618  							      then A_TABLE(SCHEDULEINDEX).ILR_ID else -1 end
07:16:41 619  		      and LS_ASSET_ID = case when A_TABLE(SCHEDULEINDEX).LS_RECONCILE_TYPE_ID = 1
07:16:41 620  							      then A_TABLE(SCHEDULEINDEX).LS_ASSET_ID else -1 end
07:16:41 621  		      and COMPANY_ID = A_TABLE(SCHEDULEINDEX).COMPANY_ID
07:16:41 622  		      and VENDOR_ID = A_TABLE(SCHEDULEINDEX).VENDOR_ID
07:16:41 623  		      and NVL(A_TABLE(SCHEDULEINDEX).RETIREMENT_DATE, A_TABLE(SCHEDULEINDEX).PAYMENT_MONTH) >= A_TABLE(SCHEDULEINDEX).PAYMENT_MONTH
07:16:41 624  		      and A_TABLE(SCHEDULEINDEX).EXECUTORY_PAID10 <> 0);
07:16:41 625  
07:16:41 626  	      end P_CALC_EXEC_PAYMENTS;
07:16:41 627  
07:16:41 628  	      procedure P_CALC_CONT_PAYMENTS(A_TABLE in PKG_LEASE_CALC.ASSET_SCHEDULE_LINE_TABLE) is
07:16:41 629  	      begin
07:16:41 630  
07:16:41 631  		      forall SCHEDULEINDEX in indices of A_TABLE
07:16:41 632  			      insert into LS_PAYMENT_LINE
07:16:41 633  		  (PAYMENT_ID, PAYMENT_LINE_NUMBER, PAYMENT_TYPE_ID, LS_ASSET_ID, AMOUNT,
07:16:41 634  		   GL_POSTING_MO_YR, SET_OF_BOOKS_ID)
07:16:41 635  		  (select PAYMENT_ID,
07:16:41 636  			  A_TABLE(SCHEDULEINDEX).ROWNUMBER,
07:16:41 637  			  13,
07:16:41 638  			  A_TABLE(SCHEDULEINDEX).LS_ASSET_ID,
07:16:41 639  			  A_TABLE(SCHEDULEINDEX).CONTINGENT_PAID1 * A_TABLE(SCHEDULEINDEX).PAYMENT_PCT,
07:16:41 640  			  A_TABLE(SCHEDULEINDEX).GL_POST_MO_YR,
07:16:41 641  			  A_TABLE(SCHEDULEINDEX).SET_OF_BOOKS_ID
07:16:41 642  		     from LS_PAYMENT_HDR
07:16:41 643  		    where PAYMENT_MONTH = A_TABLE(SCHEDULEINDEX).PAYMENT_MONTH
07:16:41 644  		      and LEASE_ID = A_TABLE(SCHEDULEINDEX).LEASE_ID
07:16:41 645  				      and ILR_ID = case when A_TABLE(SCHEDULEINDEX).LS_RECONCILE_TYPE_ID in (1,2)
07:16:41 646  							      then A_TABLE(SCHEDULEINDEX).ILR_ID else -1 end
07:16:41 647  		      and LS_ASSET_ID = case when A_TABLE(SCHEDULEINDEX).LS_RECONCILE_TYPE_ID = 1
07:16:41 648  							      then A_TABLE(SCHEDULEINDEX).LS_ASSET_ID else -1 end
07:16:41 649  		      and COMPANY_ID = A_TABLE(SCHEDULEINDEX).COMPANY_ID
07:16:41 650  		      and VENDOR_ID = A_TABLE(SCHEDULEINDEX).VENDOR_ID
07:16:41 651  		      and NVL(A_TABLE(SCHEDULEINDEX).RETIREMENT_DATE, A_TABLE(SCHEDULEINDEX).PAYMENT_MONTH) >= A_TABLE(SCHEDULEINDEX).PAYMENT_MONTH
07:16:41 652  		      and A_TABLE(SCHEDULEINDEX).CONTINGENT_PAID1 <> 0);
07:16:41 653  
07:16:41 654  		      forall SCHEDULEINDEX in indices of A_TABLE
07:16:41 655  			      insert into LS_PAYMENT_LINE
07:16:41 656  		  (PAYMENT_ID, PAYMENT_LINE_NUMBER, PAYMENT_TYPE_ID, LS_ASSET_ID, AMOUNT,
07:16:41 657  		   GL_POSTING_MO_YR, SET_OF_BOOKS_ID)
07:16:42 658  		  (select PAYMENT_ID,
07:16:42 659  			  A_TABLE(SCHEDULEINDEX).ROWNUMBER,
07:16:42 660  			  14,
07:16:42 661  			  A_TABLE(SCHEDULEINDEX).LS_ASSET_ID,
07:16:42 662  			  A_TABLE(SCHEDULEINDEX).CONTINGENT_PAID2 * A_TABLE(SCHEDULEINDEX).PAYMENT_PCT,
07:16:42 663  			  A_TABLE(SCHEDULEINDEX).GL_POST_MO_YR,
07:16:42 664  			  A_TABLE(SCHEDULEINDEX).SET_OF_BOOKS_ID
07:16:42 665  		     from LS_PAYMENT_HDR
07:16:42 666  		    where PAYMENT_MONTH = A_TABLE(SCHEDULEINDEX).PAYMENT_MONTH
07:16:42 667  		      and LEASE_ID = A_TABLE(SCHEDULEINDEX).LEASE_ID
07:16:42 668  				      and ILR_ID = case when A_TABLE(SCHEDULEINDEX).LS_RECONCILE_TYPE_ID in (1,2)
07:16:42 669  							      then A_TABLE(SCHEDULEINDEX).ILR_ID else -1 end
07:16:42 670  		      and LS_ASSET_ID = case when A_TABLE(SCHEDULEINDEX).LS_RECONCILE_TYPE_ID = 1
07:16:42 671  							      then A_TABLE(SCHEDULEINDEX).LS_ASSET_ID else -1 end
07:16:42 672  		      and COMPANY_ID = A_TABLE(SCHEDULEINDEX).COMPANY_ID
07:16:42 673  		      and VENDOR_ID = A_TABLE(SCHEDULEINDEX).VENDOR_ID
07:16:42 674  		      and NVL(A_TABLE(SCHEDULEINDEX).RETIREMENT_DATE, A_TABLE(SCHEDULEINDEX).PAYMENT_MONTH) >= A_TABLE(SCHEDULEINDEX).PAYMENT_MONTH
07:16:42 675  		      and A_TABLE(SCHEDULEINDEX).CONTINGENT_PAID2 <> 0);
07:16:42 676  
07:16:42 677  		      forall SCHEDULEINDEX in indices of A_TABLE
07:16:42 678  			      insert into LS_PAYMENT_LINE
07:16:42 679  		  (PAYMENT_ID, PAYMENT_LINE_NUMBER, PAYMENT_TYPE_ID, LS_ASSET_ID, AMOUNT,
07:16:42 680  		   GL_POSTING_MO_YR, SET_OF_BOOKS_ID)
07:16:42 681  		  (select PAYMENT_ID,
07:16:42 682  			  A_TABLE(SCHEDULEINDEX).ROWNUMBER,
07:16:42 683  			  15,
07:16:42 684  			  A_TABLE(SCHEDULEINDEX).LS_ASSET_ID,
07:16:42 685  			  A_TABLE(SCHEDULEINDEX).CONTINGENT_PAID3 * A_TABLE(SCHEDULEINDEX).PAYMENT_PCT,
07:16:42 686  			  A_TABLE(SCHEDULEINDEX).GL_POST_MO_YR,
07:16:42 687  			  A_TABLE(SCHEDULEINDEX).SET_OF_BOOKS_ID
07:16:42 688  		     from LS_PAYMENT_HDR
07:16:42 689  		    where PAYMENT_MONTH = A_TABLE(SCHEDULEINDEX).PAYMENT_MONTH
07:16:42 690  		      and LEASE_ID = A_TABLE(SCHEDULEINDEX).LEASE_ID
07:16:42 691  				      and ILR_ID = case when A_TABLE(SCHEDULEINDEX).LS_RECONCILE_TYPE_ID in (1,2)
07:16:42 692  							      then A_TABLE(SCHEDULEINDEX).ILR_ID else -1 end
07:16:42 693  		      and LS_ASSET_ID = case when A_TABLE(SCHEDULEINDEX).LS_RECONCILE_TYPE_ID = 1
07:16:42 694  							      then A_TABLE(SCHEDULEINDEX).LS_ASSET_ID else -1 end
07:16:42 695  		      and COMPANY_ID = A_TABLE(SCHEDULEINDEX).COMPANY_ID
07:16:42 696  		      and VENDOR_ID = A_TABLE(SCHEDULEINDEX).VENDOR_ID
07:16:42 697  		      and NVL(A_TABLE(SCHEDULEINDEX).RETIREMENT_DATE, A_TABLE(SCHEDULEINDEX).PAYMENT_MONTH) >= A_TABLE(SCHEDULEINDEX).PAYMENT_MONTH
07:16:42 698  		      and A_TABLE(SCHEDULEINDEX).CONTINGENT_PAID3 <> 0);
07:16:42 699  
07:16:42 700  		      forall SCHEDULEINDEX in indices of A_TABLE
07:16:42 701  			      insert into LS_PAYMENT_LINE
07:16:42 702  		  (PAYMENT_ID, PAYMENT_LINE_NUMBER, PAYMENT_TYPE_ID, LS_ASSET_ID, AMOUNT,
07:16:42 703  		   GL_POSTING_MO_YR, SET_OF_BOOKS_ID)
07:16:42 704  		  (select PAYMENT_ID,
07:16:42 705  			  A_TABLE(SCHEDULEINDEX).ROWNUMBER,
07:16:42 706  			  16,
07:16:42 707  			  A_TABLE(SCHEDULEINDEX).LS_ASSET_ID,
07:16:42 708  			  A_TABLE(SCHEDULEINDEX).CONTINGENT_PAID4 * A_TABLE(SCHEDULEINDEX).PAYMENT_PCT,
07:16:42 709  			  A_TABLE(SCHEDULEINDEX).GL_POST_MO_YR,
07:16:42 710  			  A_TABLE(SCHEDULEINDEX).SET_OF_BOOKS_ID
07:16:42 711  		     from LS_PAYMENT_HDR
07:16:42 712  		    where PAYMENT_MONTH = A_TABLE(SCHEDULEINDEX).PAYMENT_MONTH
07:16:42 713  		      and LEASE_ID = A_TABLE(SCHEDULEINDEX).LEASE_ID
07:16:42 714  				      and ILR_ID = case when A_TABLE(SCHEDULEINDEX).LS_RECONCILE_TYPE_ID in (1,2)
07:16:42 715  							      then A_TABLE(SCHEDULEINDEX).ILR_ID else -1 end
07:16:42 716  		      and LS_ASSET_ID = case when A_TABLE(SCHEDULEINDEX).LS_RECONCILE_TYPE_ID = 1
07:16:42 717  							      then A_TABLE(SCHEDULEINDEX).LS_ASSET_ID else -1 end
07:16:42 718  		      and COMPANY_ID = A_TABLE(SCHEDULEINDEX).COMPANY_ID
07:16:42 719  		      and VENDOR_ID = A_TABLE(SCHEDULEINDEX).VENDOR_ID
07:16:42 720  		      and NVL(A_TABLE(SCHEDULEINDEX).RETIREMENT_DATE, A_TABLE(SCHEDULEINDEX).PAYMENT_MONTH) >= A_TABLE(SCHEDULEINDEX).PAYMENT_MONTH
07:16:42 721  		      and A_TABLE(SCHEDULEINDEX).CONTINGENT_PAID4 <> 0);
07:16:42 722  
07:16:42 723  		      forall SCHEDULEINDEX in indices of A_TABLE
07:16:42 724  			      insert into LS_PAYMENT_LINE
07:16:42 725  		  (PAYMENT_ID, PAYMENT_LINE_NUMBER, PAYMENT_TYPE_ID, LS_ASSET_ID, AMOUNT,
07:16:42 726  		   GL_POSTING_MO_YR, SET_OF_BOOKS_ID)
07:16:42 727  		  (select PAYMENT_ID,
07:16:42 728  			  A_TABLE(SCHEDULEINDEX).ROWNUMBER,
07:16:42 729  			  17,
07:16:42 730  			  A_TABLE(SCHEDULEINDEX).LS_ASSET_ID,
07:16:42 731  			  A_TABLE(SCHEDULEINDEX).CONTINGENT_PAID5 * A_TABLE(SCHEDULEINDEX).PAYMENT_PCT,
07:16:42 732  			  A_TABLE(SCHEDULEINDEX).GL_POST_MO_YR,
07:16:42 733  			  A_TABLE(SCHEDULEINDEX).SET_OF_BOOKS_ID
07:16:42 734  		     from LS_PAYMENT_HDR
07:16:42 735  		    where PAYMENT_MONTH = A_TABLE(SCHEDULEINDEX).PAYMENT_MONTH
07:16:42 736  		      and LEASE_ID = A_TABLE(SCHEDULEINDEX).LEASE_ID
07:16:42 737  				      and ILR_ID = case when A_TABLE(SCHEDULEINDEX).LS_RECONCILE_TYPE_ID in (1,2)
07:16:42 738  							      then A_TABLE(SCHEDULEINDEX).ILR_ID else -1 end
07:16:42 739  		      and LS_ASSET_ID = case when A_TABLE(SCHEDULEINDEX).LS_RECONCILE_TYPE_ID = 1
07:16:42 740  							      then A_TABLE(SCHEDULEINDEX).LS_ASSET_ID else -1 end
07:16:42 741  		      and COMPANY_ID = A_TABLE(SCHEDULEINDEX).COMPANY_ID
07:16:42 742  		      and VENDOR_ID = A_TABLE(SCHEDULEINDEX).VENDOR_ID
07:16:42 743  		      and NVL(A_TABLE(SCHEDULEINDEX).RETIREMENT_DATE, A_TABLE(SCHEDULEINDEX).PAYMENT_MONTH) >= A_TABLE(SCHEDULEINDEX).PAYMENT_MONTH
07:16:42 744  		      and A_TABLE(SCHEDULEINDEX).CONTINGENT_PAID5 <> 0);
07:16:42 745  
07:16:42 746  		      forall SCHEDULEINDEX in indices of A_TABLE
07:16:42 747  			      insert into LS_PAYMENT_LINE
07:16:42 748  		  (PAYMENT_ID, PAYMENT_LINE_NUMBER, PAYMENT_TYPE_ID, LS_ASSET_ID, AMOUNT,
07:16:42 749  		   GL_POSTING_MO_YR, SET_OF_BOOKS_ID)
07:16:42 750  		  (select PAYMENT_ID,
07:16:42 751  			  A_TABLE(SCHEDULEINDEX).ROWNUMBER,
07:16:42 752  			  18,
07:16:42 753  			  A_TABLE(SCHEDULEINDEX).LS_ASSET_ID,
07:16:42 754  			  A_TABLE(SCHEDULEINDEX).CONTINGENT_PAID6 * A_TABLE(SCHEDULEINDEX).PAYMENT_PCT,
07:16:42 755  			  A_TABLE(SCHEDULEINDEX).GL_POST_MO_YR,
07:16:42 756  			  A_TABLE(SCHEDULEINDEX).SET_OF_BOOKS_ID
07:16:42 757  		     from LS_PAYMENT_HDR
07:16:42 758  		    where PAYMENT_MONTH = A_TABLE(SCHEDULEINDEX).PAYMENT_MONTH
07:16:42 759  		      and LEASE_ID = A_TABLE(SCHEDULEINDEX).LEASE_ID
07:16:42 760  				      and ILR_ID = case when A_TABLE(SCHEDULEINDEX).LS_RECONCILE_TYPE_ID in (1,2)
07:16:42 761  							      then A_TABLE(SCHEDULEINDEX).ILR_ID else -1 end
07:16:42 762  		      and LS_ASSET_ID = case when A_TABLE(SCHEDULEINDEX).LS_RECONCILE_TYPE_ID = 1
07:16:42 763  							      then A_TABLE(SCHEDULEINDEX).LS_ASSET_ID else -1 end
07:16:42 764  		      and COMPANY_ID = A_TABLE(SCHEDULEINDEX).COMPANY_ID
07:16:42 765  		      and VENDOR_ID = A_TABLE(SCHEDULEINDEX).VENDOR_ID
07:16:42 766  		      and NVL(A_TABLE(SCHEDULEINDEX).RETIREMENT_DATE, A_TABLE(SCHEDULEINDEX).PAYMENT_MONTH) >= A_TABLE(SCHEDULEINDEX).PAYMENT_MONTH
07:16:42 767  		      and A_TABLE(SCHEDULEINDEX).CONTINGENT_PAID6 <> 0);
07:16:42 768  
07:16:42 769  		      forall SCHEDULEINDEX in indices of A_TABLE
07:16:42 770  			      insert into LS_PAYMENT_LINE
07:16:42 771  		  (PAYMENT_ID, PAYMENT_LINE_NUMBER, PAYMENT_TYPE_ID, LS_ASSET_ID, AMOUNT,
07:16:42 772  		   GL_POSTING_MO_YR, SET_OF_BOOKS_ID)
07:16:42 773  		  (select PAYMENT_ID,
07:16:42 774  			  A_TABLE(SCHEDULEINDEX).ROWNUMBER,
07:16:42 775  			  19,
07:16:42 776  			  A_TABLE(SCHEDULEINDEX).LS_ASSET_ID,
07:16:42 777  			  A_TABLE(SCHEDULEINDEX).CONTINGENT_PAID7 * A_TABLE(SCHEDULEINDEX).PAYMENT_PCT,
07:16:42 778  			  A_TABLE(SCHEDULEINDEX).GL_POST_MO_YR,
07:16:42 779  			  A_TABLE(SCHEDULEINDEX).SET_OF_BOOKS_ID
07:16:42 780  		     from LS_PAYMENT_HDR
07:16:42 781  		    where PAYMENT_MONTH = A_TABLE(SCHEDULEINDEX).PAYMENT_MONTH
07:16:42 782  		      and LEASE_ID = A_TABLE(SCHEDULEINDEX).LEASE_ID
07:16:42 783  				      and ILR_ID = case when A_TABLE(SCHEDULEINDEX).LS_RECONCILE_TYPE_ID in (1,2)
07:16:42 784  							      then A_TABLE(SCHEDULEINDEX).ILR_ID else -1 end
07:16:42 785  		      and LS_ASSET_ID = case when A_TABLE(SCHEDULEINDEX).LS_RECONCILE_TYPE_ID = 1
07:16:42 786  							      then A_TABLE(SCHEDULEINDEX).LS_ASSET_ID else -1 end
07:16:42 787  		      and COMPANY_ID = A_TABLE(SCHEDULEINDEX).COMPANY_ID
07:16:42 788  		      and VENDOR_ID = A_TABLE(SCHEDULEINDEX).VENDOR_ID
07:16:42 789  		      and NVL(A_TABLE(SCHEDULEINDEX).RETIREMENT_DATE, A_TABLE(SCHEDULEINDEX).PAYMENT_MONTH) >= A_TABLE(SCHEDULEINDEX).PAYMENT_MONTH
07:16:42 790  		      and A_TABLE(SCHEDULEINDEX).CONTINGENT_PAID7 <> 0);
07:16:42 791  
07:16:42 792  		      forall SCHEDULEINDEX in indices of A_TABLE
07:16:42 793  			      insert into LS_PAYMENT_LINE
07:16:42 794  		  (PAYMENT_ID, PAYMENT_LINE_NUMBER, PAYMENT_TYPE_ID, LS_ASSET_ID, AMOUNT,
07:16:42 795  		   GL_POSTING_MO_YR, SET_OF_BOOKS_ID)
07:16:42 796  		  (select PAYMENT_ID,
07:16:42 797  			  A_TABLE(SCHEDULEINDEX).ROWNUMBER,
07:16:42 798  			  20,
07:16:42 799  			  A_TABLE(SCHEDULEINDEX).LS_ASSET_ID,
07:16:42 800  			  A_TABLE(SCHEDULEINDEX).CONTINGENT_PAID8 * A_TABLE(SCHEDULEINDEX).PAYMENT_PCT,
07:16:42 801  			  A_TABLE(SCHEDULEINDEX).GL_POST_MO_YR,
07:16:42 802  			  A_TABLE(SCHEDULEINDEX).SET_OF_BOOKS_ID
07:16:42 803  		     from LS_PAYMENT_HDR
07:16:42 804  		    where PAYMENT_MONTH = A_TABLE(SCHEDULEINDEX).PAYMENT_MONTH
07:16:42 805  		      and LEASE_ID = A_TABLE(SCHEDULEINDEX).LEASE_ID
07:16:42 806  				      and ILR_ID = case when A_TABLE(SCHEDULEINDEX).LS_RECONCILE_TYPE_ID in (1,2)
07:16:42 807  							      then A_TABLE(SCHEDULEINDEX).ILR_ID else -1 end
07:16:42 808  		      and LS_ASSET_ID = case when A_TABLE(SCHEDULEINDEX).LS_RECONCILE_TYPE_ID = 1
07:16:42 809  							      then A_TABLE(SCHEDULEINDEX).LS_ASSET_ID else -1 end
07:16:42 810  		      and COMPANY_ID = A_TABLE(SCHEDULEINDEX).COMPANY_ID
07:16:42 811  		      and VENDOR_ID = A_TABLE(SCHEDULEINDEX).VENDOR_ID
07:16:42 812  		      and NVL(A_TABLE(SCHEDULEINDEX).RETIREMENT_DATE, A_TABLE(SCHEDULEINDEX).PAYMENT_MONTH) >= A_TABLE(SCHEDULEINDEX).PAYMENT_MONTH
07:16:42 813  		      and A_TABLE(SCHEDULEINDEX).CONTINGENT_PAID8 <> 0);
07:16:42 814  
07:16:42 815  		      forall SCHEDULEINDEX in indices of A_TABLE
07:16:42 816  			      insert into LS_PAYMENT_LINE
07:16:42 817  		  (PAYMENT_ID, PAYMENT_LINE_NUMBER, PAYMENT_TYPE_ID, LS_ASSET_ID, AMOUNT,
07:16:42 818  		   GL_POSTING_MO_YR, SET_OF_BOOKS_ID)
07:16:42 819  		  (select PAYMENT_ID,
07:16:42 820  			  A_TABLE(SCHEDULEINDEX).ROWNUMBER,
07:16:42 821  			  21,
07:16:42 822  			  A_TABLE(SCHEDULEINDEX).LS_ASSET_ID,
07:16:42 823  			  A_TABLE(SCHEDULEINDEX).CONTINGENT_PAID9 * A_TABLE(SCHEDULEINDEX).PAYMENT_PCT,
07:16:42 824  			  A_TABLE(SCHEDULEINDEX).GL_POST_MO_YR,
07:16:42 825  			  A_TABLE(SCHEDULEINDEX).SET_OF_BOOKS_ID
07:16:42 826  		     from LS_PAYMENT_HDR
07:16:42 827  		    where PAYMENT_MONTH = A_TABLE(SCHEDULEINDEX).PAYMENT_MONTH
07:16:42 828  		      and LEASE_ID = A_TABLE(SCHEDULEINDEX).LEASE_ID
07:16:42 829  				      and ILR_ID = case when A_TABLE(SCHEDULEINDEX).LS_RECONCILE_TYPE_ID in (1,2)
07:16:42 830  							      then A_TABLE(SCHEDULEINDEX).ILR_ID else -1 end
07:16:42 831  		      and LS_ASSET_ID = case when A_TABLE(SCHEDULEINDEX).LS_RECONCILE_TYPE_ID = 1
07:16:42 832  							      then A_TABLE(SCHEDULEINDEX).LS_ASSET_ID else -1 end
07:16:42 833  		      and COMPANY_ID = A_TABLE(SCHEDULEINDEX).COMPANY_ID
07:16:42 834  		      and VENDOR_ID = A_TABLE(SCHEDULEINDEX).VENDOR_ID
07:16:42 835  		      and NVL(A_TABLE(SCHEDULEINDEX).RETIREMENT_DATE, A_TABLE(SCHEDULEINDEX).PAYMENT_MONTH) >= A_TABLE(SCHEDULEINDEX).PAYMENT_MONTH
07:16:42 836  		      and A_TABLE(SCHEDULEINDEX).CONTINGENT_PAID9 <> 0);
07:16:42 837  
07:16:42 838  		      forall SCHEDULEINDEX in indices of A_TABLE
07:16:42 839  			      insert into LS_PAYMENT_LINE
07:16:42 840  		  (PAYMENT_ID, PAYMENT_LINE_NUMBER, PAYMENT_TYPE_ID, LS_ASSET_ID, AMOUNT,
07:16:42 841  		   GL_POSTING_MO_YR, SET_OF_BOOKS_ID)
07:16:42 842  		  (select PAYMENT_ID,
07:16:42 843  			  A_TABLE(SCHEDULEINDEX).ROWNUMBER,
07:16:42 844  			  22,
07:16:42 845  			  A_TABLE(SCHEDULEINDEX).LS_ASSET_ID,
07:16:42 846  			  A_TABLE(SCHEDULEINDEX).CONTINGENT_PAID10 * A_TABLE(SCHEDULEINDEX).PAYMENT_PCT,
07:16:42 847  			  A_TABLE(SCHEDULEINDEX).GL_POST_MO_YR,
07:16:42 848  			  A_TABLE(SCHEDULEINDEX).SET_OF_BOOKS_ID
07:16:42 849  		     from LS_PAYMENT_HDR
07:16:42 850  		    where PAYMENT_MONTH = A_TABLE(SCHEDULEINDEX).PAYMENT_MONTH
07:16:42 851  		      and LEASE_ID = A_TABLE(SCHEDULEINDEX).LEASE_ID
07:16:42 852  				      and ILR_ID = case when A_TABLE(SCHEDULEINDEX).LS_RECONCILE_TYPE_ID in (1,2)
07:16:42 853  							      then A_TABLE(SCHEDULEINDEX).ILR_ID else -1 end
07:16:42 854  		      and LS_ASSET_ID = case when A_TABLE(SCHEDULEINDEX).LS_RECONCILE_TYPE_ID = 1
07:16:42 855  							      then A_TABLE(SCHEDULEINDEX).LS_ASSET_ID else -1 end
07:16:42 856  		      and COMPANY_ID = A_TABLE(SCHEDULEINDEX).COMPANY_ID
07:16:42 857  		      and VENDOR_ID = A_TABLE(SCHEDULEINDEX).VENDOR_ID
07:16:42 858  		      and NVL(A_TABLE(SCHEDULEINDEX).RETIREMENT_DATE, A_TABLE(SCHEDULEINDEX).PAYMENT_MONTH) >= A_TABLE(SCHEDULEINDEX).PAYMENT_MONTH
07:16:42 859  		      and A_TABLE(SCHEDULEINDEX).CONTINGENT_PAID10 <> 0);
07:16:42 860  
07:16:42 861  		      -- OFFSET the amount for taxes paid to STATE.
07:16:42 862  		      -- use payment_type_id = -99 to handle the offset to reduce the total payment header
07:16:42 863  		      forall SCHEDULEINDEX in indices of A_TABLE
07:16:42 864  			      insert into LS_PAYMENT_LINE
07:16:42 865  		  (PAYMENT_ID, PAYMENT_LINE_NUMBER, PAYMENT_TYPE_ID, LS_ASSET_ID, AMOUNT,
07:16:42 866  		   GL_POSTING_MO_YR, SET_OF_BOOKS_ID)
07:16:42 867  		  (select H.PAYMENT_ID,
07:16:42 868  			  A_TABLE(SCHEDULEINDEX).ROWNUMBER,
07:16:42 869  			  -99,
07:16:42 870  			  A_TABLE(SCHEDULEINDEX).LS_ASSET_ID,
07:16:42 871  			  -1 * sum(LMT.PAYMENT_AMOUNT),
07:16:42 872  			  A_TABLE(SCHEDULEINDEX).GL_POST_MO_YR,
07:16:42 873  			  A_TABLE(SCHEDULEINDEX).SET_OF_BOOKS_ID
07:16:42 874  		     from LS_PAYMENT_HDR H, LS_MONTHLY_TAX LMT, ls_tax_local ltt
07:16:42 875  		    where lmt.tax_local_id = ltt.tax_local_id
07:16:42 876  				and ltt.pay_lessor = 0
07:16:42 877  				and LMT.schedule_month = H.GL_POSTING_MO_YR
07:16:42 878  	      and NVL(A_TABLE(SCHEDULEINDEX).RETIREMENT_DATE, A_TABLE(SCHEDULEINDEX).PAYMENT_MONTH) >= A_TABLE(SCHEDULEINDEX).PAYMENT_MONTH
07:16:42 879  				      and LMT.set_of_books_id = A_TABLE(SCHEDULEINDEX).SET_OF_BOOKS_ID
07:16:42 880  				      and LMT.LS_ASSET_ID = A_TABLE(SCHEDULEINDEX).LS_ASSET_ID
07:16:42 881  				and H.PAYMENT_MONTH = A_TABLE(SCHEDULEINDEX).PAYMENT_MONTH
07:16:42 882  		      and H.LEASE_ID = A_TABLE(SCHEDULEINDEX).LEASE_ID
07:16:42 883  				      and H.ILR_ID = case when A_TABLE(SCHEDULEINDEX).LS_RECONCILE_TYPE_ID in (1,2)
07:16:42 884  							      then A_TABLE(SCHEDULEINDEX).ILR_ID else -1 end
07:16:42 885  		      and H.LS_ASSET_ID = case when A_TABLE(SCHEDULEINDEX).LS_RECONCILE_TYPE_ID = 1
07:16:42 886  							      then A_TABLE(SCHEDULEINDEX).LS_ASSET_ID else -1 end
07:16:42 887  		      and H.COMPANY_ID = A_TABLE(SCHEDULEINDEX).COMPANY_ID
07:16:42 888  		      and H.VENDOR_ID = A_TABLE(SCHEDULEINDEX).VENDOR_ID
07:16:42 889  				      group by H.PAYMENT_ID
07:16:42 890  				      );
07:16:42 891  
07:16:42 892  	      end P_CALC_CONT_PAYMENTS;
07:16:42 893  
07:16:42 894  	      function F_GET_TAX_TYPE(A_TYPE varchar2, A_NUMBER number) return number is
07:16:42 895  		      x number := 2;
07:16:42 896  	      begin
07:16:42 897  		      if lower(A_TYPE) = 'contingent' then
07:16:42 898  			      x := 12;
07:16:42 899  		      end if;
07:16:42 900  
07:16:42 901  		      return x + A_NUMBER;
07:16:42 902  
07:16:42 903  	      end F_GET_TAX_TYPE;
07:16:42 904  
07:16:42 905  	      function F_GET_ACCTS return BUCKET_ACCTS is
07:16:42 906  		      rtn BUCKET_ACCTS;
07:16:42 907  		      x number;
07:16:42 908  	      begin
07:16:42 909  
07:16:42 910  		      for L_LOC in (select *
07:16:42 911  						      from LS_RENT_BUCKET_ADMIN
07:16:42 912  						      where STATUS_CODE_ID = 1)
07:16:42 913  		      loop
07:16:42 914  			      if lower(L_LOC.RENT_TYPE) = 'executory' then
07:16:42 915  				      x := 2;
07:16:42 916  			      else
07:16:42 917  				      x := 12;
07:16:42 918  			      end if;
07:16:42 919  
07:16:42 920  			      rtn(x + L_LOC.BUCKET_NUMBER) := L_LOC;
07:16:42 921  
07:16:42 922  		      end loop;
07:16:42 923  
07:16:42 924  		      return rtn;
07:16:42 925  
07:16:42 926  	      end F_GET_ACCTS;
07:16:42 927  
07:16:42 928  end PKG_LEASE_BUCKET;
07:16:42 929  /

Package body created.

07:16:42 hopplant> --**************************
07:16:42 hopplant> -- Log the run of the script
07:16:42 hopplant> --**************************
07:16:42 hopplant> insert into PP_SCHEMA_CHANGE_LOG
07:16:42   2  	 (ID, SKIPPED, MAJOR_VERSION, MINOR_VERSION, POINT_VERSION, PATCH_VERSION, MAINT_NUM, SCRIPT_PATH,
07:16:42   3  	  SCRIPT_NAME, SCRIPT_REVISION, DATE_APPLIED, OS_USER, TERMINAL, SERVICE_NAME)
07:16:42   4  values
07:16:42   5  	 (16252, 0, 2018, 2, 0, 0, 0, 'c:\plasticwks\powerplant\sql\packages',
07:16:42   6  	  'PKG_LEASE_BUCKET.sql', 1, SYSTIMESTAMP, SYS_CONTEXT('USERENV', 'OS_USER'), SYS_CONTEXT('USERENV', 'TERMINAL'), SYS_CONTEXT('USERENV', 'SERVICE_NAME'));

1 row created.

07:16:42 hopplant> commit;

Commit complete.

07:16:42 hopplant> SPOOL OFF
