07:28:35 hopplant> @&&PP_SCRIPT_PATH.packages_released\2018.2.1.0_PKG_LESSOR_COMMON.sql
07:28:35 hopplant> /*
07:28:35 hopplant> ||=================================================================================================
07:28:35 hopplant> || Application: PowerPlant
07:28:35 hopplant> || Object Name: PKG_LESSOR_COMMON
07:28:35 hopplant> || Description:
07:28:35 hopplant> ||=================================================================================================
07:28:35 hopplant> || Copyright (C) 2017 by PowerPlan, Inc. All Rights Reserved.
07:28:35 hopplant> ||=================================================================================================
07:28:35 hopplant> || Version	 Date	    Revised By	      Reason for Change
07:28:35 hopplant> || ---------- ---------- --------------    ----------------------------------------------------------
07:28:35 hopplant> || 2017.1.0.0 11/01/2017 C.Shilling	      Create package
07:28:35 hopplant> || 2017.3.0.0 01/02/2018 Anand R	      PP-50272 Add Lessor version of F_BOOKJE and F_MC_BOOKJE
07:28:35 hopplant> || 2018.3.0.0 04/22/2018 B. Beck	      Add Asset Re-Recognition
07:28:35 hopplant> ||=================================================================================================
07:28:35 hopplant> */
07:28:35 hopplant> CREATE OR REPLACE PACKAGE pkg_lessor_common AS
07:28:35   2  	      G_PKG_VERSION varchar(35) := '2018.2.1.0';
07:28:35   3  	      procedure p_startLog (a_process_description varchar2);
07:28:35   4  
07:28:35   5  	      -- function the return the process id for lessor calcs
07:28:35   6  	      FUNCTION f_get_process_id(a_description pp_processes.description%TYPE)
07:28:35   7  		      RETURN pp_processes.process_id%TYPE;
07:28:35   8  
07:28:35   9  	      --overlaoaded function with A_ORIG for the ORIGINATOR column on GL_TRANSACTION
07:28:35  10  	 function F_BOOKJE(A_LSR_ILR_ID   in number,
07:28:35  11  			   A_TRANS_TYPE    in number,
07:28:35  12  			   A_AMT	   in number,
07:28:35  13  			   A_GL_ACCOUNT_ID in number,
07:28:35  14  			   A_GAIN_LOSS	   in number,
07:28:35  15  			   A_COMPANY_ID    in number,
07:28:35  16  			   A_MONTH	   in date,
07:28:35  17  			   A_DR_CR	   in number,
07:28:35  18  			   A_GL_JC	   in varchar2,
07:28:35  19  			   A_SOB_ID	   in number,
07:28:35  20  			   A_JE_METHOD_ID    in number,
07:28:35  21  			   A_AMOUNT_TYPE     in number,
07:28:35  22  			   A_REVERSAL_CONVENTION in number,
07:28:35  23  			   A_ORIG	   in varchar2,
07:28:35  24  			   A_MSG	   out varchar2) return number;
07:28:35  25  
07:28:35  26  	 -- Function to perform booking of LESSEE JEs (Multicurrencies)
07:28:35  27  	 function F_BOOKJE(A_LSR_ILR_ID   in number,
07:28:35  28  			      A_TRANS_TYPE    in number,
07:28:35  29  			      A_AMT	      in number,
07:28:35  30  			      A_GL_ACCOUNT_ID in number,
07:28:35  31  			      A_GAIN_LOSS     in number,
07:28:35  32  			      A_COMPANY_ID    in number,
07:28:35  33  			      A_MONTH	      in date,
07:28:35  34  			      A_DR_CR	      in number,
07:28:35  35  			      A_GL_JC	      in varchar2,
07:28:35  36  			      A_SOB_ID	      in number,
07:28:35  37  			      A_JE_METHOD_ID	in number,
07:28:35  38  			      A_AMOUNT_TYPE	in number,
07:28:35  39  			      A_REVERSAL_CONVENTION in number,
07:28:35  40  			      A_MSG	      out varchar2) return number;
07:28:35  41  
07:28:35  42  
07:28:35  43  	 -- Function to perform booking of LESSOR JEs (Multicurrencies)
07:28:35  44  	 function F_MC_BOOKJE(A_LSR_ILR_ID   in number,
07:28:35  45  			      A_TRANS_TYPE    in number,
07:28:35  46  			      A_AMT	      in number,
07:28:35  47  			      A_GL_ACCOUNT_ID in number,
07:28:35  48  			      A_GAIN_LOSS     in number,
07:28:35  49  			      A_COMPANY_ID    in number,
07:28:35  50  			      A_MONTH	      in date,
07:28:35  51  			      A_DR_CR	      in number,
07:28:35  52  			      A_GL_JC	      in varchar2,
07:28:35  53  			      A_SOB_ID	      in number,
07:28:35  54  			      A_JE_METHOD_ID	in number,
07:28:35  55  			      A_AMOUNT_TYPE	in number,
07:28:35  56  			      A_REVERSAL_CONVENTION in number,
07:28:35  57  			      A_EXCHANGE_RATE in number,
07:28:35  58  			      A_CURRENCY_FROM in number,
07:28:35  59  			      A_CURRENCY_TO   in number,
07:28:35  60  			      A_MSG	      out varchar2) return number;
07:28:35  61  
07:28:35  62  	 --overlaoaded function with A_ORIG for the ORIGINATOR column on GL_TRANSACTION (Multicurrencies)
07:28:35  63  	 function F_MC_BOOKJE(A_LSR_ILR_ID   in number,
07:28:35  64  			      A_TRANS_TYPE    in number,
07:28:35  65  			      A_AMT	      in number,
07:28:35  66  			      A_GL_ACCOUNT_ID in number,
07:28:35  67  			      A_GAIN_LOSS     in number,
07:28:35  68  			      A_COMPANY_ID    in number,
07:28:35  69  			      A_MONTH	      in date,
07:28:35  70  			      A_DR_CR	      in number,
07:28:35  71  			      A_GL_JC	      in varchar2,
07:28:35  72  			      A_SOB_ID	      in number,
07:28:35  73  			      A_JE_METHOD_ID	in number,
07:28:35  74  			      A_AMOUNT_TYPE	in number,
07:28:35  75  			      A_REVERSAL_CONVENTION in number,
07:28:35  76  			      A_EXCHANGE_RATE in number,
07:28:35  77  			      A_CURRENCY_FROM in number,
07:28:35  78  			      A_CURRENCY_TO   in number,
07:28:35  79  			      A_ORIG	      in varchar2,
07:28:35  80  			      A_MSG	      out varchar2) return number;
07:28:35  81  
07:28:35  82  	      TYPE ilr_schedule_line IS RECORD (
07:28:35  83  		      ilr_id				lsr_ilr_schedule_sales_direct.ilr_id%TYPE,
07:28:35  84  		      set_of_books_id		lsr_ilr_schedule_sales_direct.set_of_books_id%TYPE,
07:28:35  85  		      rownumber 			INTEGER,
07:28:35  86  		      company_id			lsr_ilr.company_id%type,
07:28:35  87  		      month				lsr_ilr_schedule.month%type,
07:28:35  88  		      principal_received	lsr_ilr_schedule_sales_direct.principal_received%TYPE,
07:28:35  89  		      interest_income	    lsr_ilr_schedule.interest_income_received%TYPE,
07:28:35  90  		      interest_unguaranteed lsr_ilr_schedule_sales_direct.interest_unguaranteed_residual %TYPE,
07:28:35  91  		      recognized_profit     lsr_ilr_schedule_direct_fin.recognized_profit %TYPE,
07:28:35  92  		      initial_direct_cost   lsr_ilr_schedule.initial_direct_cost %TYPE,
07:28:35  93  		      executory1			lsr_ilr_schedule.executory_paid1%TYPE,
07:28:35  94  		      executory2			lsr_ilr_schedule.executory_paid2%TYPE,
07:28:35  95  		      executory3			lsr_ilr_schedule.executory_paid3%TYPE,
07:28:35  96  		      executory4			lsr_ilr_schedule.executory_paid4%TYPE,
07:28:35  97  		      executory5			lsr_ilr_schedule.executory_paid5%TYPE,
07:28:35  98  		      executory6			lsr_ilr_schedule.executory_paid6%TYPE,
07:28:35  99  		      executory7			lsr_ilr_schedule.executory_paid7%TYPE,
07:28:35 100  		      executory8			lsr_ilr_schedule.executory_paid8%TYPE,
07:28:35 101  		      executory9			lsr_ilr_schedule.executory_paid9%TYPE,
07:28:35 102  		      executory10			lsr_ilr_schedule.executory_paid10%TYPE,
07:28:35 103  		      contingent1			lsr_ilr_schedule.contingent_paid1%TYPE,
07:28:35 104  		      contingent2			lsr_ilr_schedule.contingent_paid2%TYPE,
07:28:35 105  		      contingent3			lsr_ilr_schedule.contingent_paid3%TYPE,
07:28:35 106  		      contingent4			lsr_ilr_schedule.contingent_paid4%TYPE,
07:28:35 107  		      contingent5			lsr_ilr_schedule.contingent_paid5%TYPE,
07:28:35 108  		      contingent6			lsr_ilr_schedule.contingent_paid6%TYPE,
07:28:35 109  		      contingent7			lsr_ilr_schedule.contingent_paid7%TYPE,
07:28:35 110  		      contingent8			lsr_ilr_schedule.contingent_paid8%TYPE,
07:28:35 111  		      contingent9			lsr_ilr_schedule.contingent_paid9%TYPE,
07:28:35 112  		      contingent10		lsr_ilr_schedule.contingent_paid10%TYPE,
07:28:35 113  		      accrued_rent		lsr_ilr_schedule.accrued_rent%TYPE,
07:28:35 114  		      deferred_rent		lsr_ilr_schedule.deferred_rent%TYPE
07:28:35 115  	      );
07:28:35 116  
07:28:35 117  
07:28:35 118  
07:28:35 119  	      TYPE ilr_schedule_line_table IS TABLE OF ilr_schedule_line INDEX BY PLS_INTEGER;
07:28:35 120  
07:28:35 121  
07:28:35 122  	      TYPE asset_rerecognition IS RECORD (
07:28:35 123  		      ldg_asset_id		      pend_transaction.ldg_asset_id%TYPE,
07:28:35 124  		      ldg_activity_id		      pend_transaction.ldg_activity_id%TYPE,
07:28:35 125  		      ldg_depr_group_id 	      pend_transaction.ldg_depr_group_id%TYPE,
07:28:35 126  		      books_schema_id		      pend_transaction.books_schema_id%TYPE,
07:28:35 127  		      retirement_unit_id	      pend_transaction.retirement_unit_id%TYPE,
07:28:35 128  		      utility_account_id	      pend_transaction.utility_account_id%TYPE,
07:28:35 129  		      bus_segment_id		      pend_transaction.bus_segment_id%TYPE,
07:28:35 130  		      func_class_id		      pend_transaction.func_class_id%TYPE,
07:28:35 131  		      sub_account_id		      pend_transaction.sub_account_id%TYPE,
07:28:35 132  		      asset_location_id 	      pend_transaction.asset_location_id%TYPE,
07:28:35 133  		      gl_account_id		      pend_transaction.gl_account_id%TYPE,
07:28:35 134  		      company_id			      pend_transaction.company_id%TYPE,
07:28:35 135  		      gl_posting_mo_yr		      pend_transaction.gl_posting_mo_yr%TYPE,
07:28:35 136  		      subledger_indicator	      pend_transaction.subledger_indicator%TYPE,
07:28:35 137  		      activity_code		      pend_transaction.activity_code%TYPE,
07:28:35 138  		      work_order_number 	      pend_transaction.work_order_number%TYPE,
07:28:35 139  		      posting_quantity		      pend_transaction.posting_quantity%TYPE,
07:28:35 140  		      user_id1				      pend_transaction.user_id1%TYPE,
07:28:35 141  		      posting_amount		      pend_transaction.posting_amount%TYPE,
07:28:35 142  		      in_service_year		      pend_transaction.in_service_year%TYPE,
07:28:35 143  		      description			      pend_transaction.description%TYPE,
07:28:35 144  		      long_description		      pend_transaction.long_description%TYPE,
07:28:35 145  		      property_group_id 	      pend_transaction.property_group_id%TYPE,
07:28:35 146  		      retire_method_id		      pend_transaction.retire_method_id%TYPE,
07:28:35 147  		      posting_status		      pend_transaction.posting_status%TYPE,
07:28:35 148  		      cost_of_removal		      pend_transaction.cost_of_removal%TYPE,
07:28:35 149  		      salvage_cash		      pend_transaction.salvage_cash%TYPE,
07:28:35 150  		      salvage_returns		      pend_transaction.salvage_returns%TYPE,
07:28:35 151  		      reserve				      pend_transaction.reserve%TYPE,
07:28:35 152  		      misc_description		      pend_transaction.misc_description%TYPE,
07:28:35 153  		      ferc_activity_code	      pend_transaction.ferc_activity_code%TYPE,
07:28:35 154  		      serial_number		      pend_transaction.serial_number%TYPE,
07:28:35 155  		      reserve_credits		      pend_transaction.reserve_credits%TYPE,
07:28:35 156  		      gain_loss_reversal	      pend_transaction.gain_loss_reversal%TYPE,
07:28:35 157  		      disposition_code		      pend_transaction.disposition_code%TYPE,
07:28:35 158  		      asset_activity_id 	      cpr_activity.asset_activity_id%TYPE,
07:28:35 159  		      orig_posting_amount     pend_transaction.posting_amount%TYPE,
07:28:35 160  		      set_of_books_id		      set_of_books.set_of_books_id%TYPE
07:28:35 161  	      );
07:28:35 162  	      TYPE asset_rerecognition_table IS TABLE OF asset_rerecognition INDEX BY PLS_INTEGER;
07:28:35 163  
07:28:35 164  	      /*****************************************************************************
07:28:35 165  	      * Procedure: p_rerecognize_cpr_assets
07:28:35 166  	      * PURPOSE: Creates pending transactions for POST to pick up to re-recognize an asset after it had been
07:28:35 167  	      * 				      de-recognized due to creating a Sales Type or Direct Finance Lease
07:28:35 168  	      * PARAMETERS:
07:28:35 169  	      *   a_asset_rerecognition_tbl: A table of ILR records to re-recognize
07:28:35 170  	      *
07:28:35 171  	      * RETURNS: NONE
07:28:35 172  	      ******************************************************************************/
07:28:35 173  	      PROCEDURE p_rerecognize_cpr_assets(a_asset_rerecognition_tbl pkg_lessor_common.asset_rerecognition_table);
07:28:35 174  
07:28:35 175  	      /*****************************************************************************
07:28:35 176  	      * Procedure: f_approvedclassification_dfst
07:28:35 177  	      * PURPOSE: Determines if this ILR is a reclassificationfrom DF -> ST or ST -> DF
07:28:35 178  	      * PARAMETERS:
07:28:35 179  	      *   a_ilr_id: The ID of the ILR we are currently building. Used to filter the prior schedule records.
07:28:35 180  	      *   a_revision: The revision of the ILR we are currently building.
07:28:35 181  	      *   a_set_of_books_id: The set of books id to check
07:28:35 182  	      *   a_cap_type_id: The "new / current" cap type id
07:28:35 183  	      *
07:28:35 184  	      * RETURNS: number: 1 if is DF->ST or ST->DF 0 otherwise
07:28:35 185  	      ******************************************************************************/
07:28:35 186  	      function f_approvedclassification_dfst(a_ilr_id NUMBER,
07:28:35 187  					    a_revision NUMBER,
07:28:35 188  										a_set_of_books_id NUMBER,
07:28:35 189  										a_cap_type_id NUMBER)
07:28:35 190  	      RETURN number;
07:28:35 191  
07:28:35 192  END pkg_lessor_common;
07:28:35 193  /

Package created.

07:28:35 hopplant> 
07:28:35 hopplant> 
07:28:35 hopplant> CREATE OR REPLACE PACKAGE BODY pkg_lessor_common AS
07:28:35   2  	      --**************************************************************
07:28:35   3  	      --	 functions
07:28:35   4  	      --**************************************************************
07:28:35   5  	      -- returns the process id for lease calc
07:28:35   6  	      FUNCTION f_get_process_id(a_description pp_processes.description%TYPE)
07:28:35   7  		      RETURN pp_processes.process_id%TYPE
07:28:35   8  	      IS
07:28:35   9  		      l_process_id pp_processes.process_id%TYPE;
07:28:35  10  	      BEGIN
07:28:35  11  		      SELECT process_id
07:28:35  12  		      INTO l_process_id
07:28:35  13  		      FROM pp_processes
07:28:35  14  		      WHERE description = a_description;
07:28:35  15  
07:28:35  16  		      RETURN l_process_id;
07:28:35  17  	      EXCEPTION
07:28:35  18  		      WHEN No_Data_Found THEN
07:28:35  19  			      Raise_Application_Error(-20000, 'The description passed to PKG_LESSOR_COMMON.F_GET_PROCESS_ID (''' || a_description || ''') was not found.');
07:28:35  20  	      END f_get_process_id;
07:28:35  21  
07:28:35  22  	  --Wrapper for the overloaded version
07:28:35  23  	 function F_BOOKJE(A_LSR_ILR_ID   in number,
07:28:35  24  			   A_TRANS_TYPE    in number,
07:28:35  25  			   A_AMT	   in number,
07:28:35  26  			   A_GL_ACCOUNT_ID in number,
07:28:35  27  			   A_GAIN_LOSS	   in number,
07:28:35  28  			   A_COMPANY_ID    in number,
07:28:35  29  			   A_MONTH	   in date,
07:28:35  30  			   A_DR_CR	   in number,
07:28:35  31  			   A_GL_JC	   in varchar2,
07:28:35  32  			   A_SOB_ID	   in number,
07:28:35  33  			   A_JE_METHOD_ID    in number,
07:28:35  34  			   A_AMOUNT_TYPE     in number,
07:28:35  35  			   A_REVERSAL_CONVENTION in number,
07:28:35  36  			   A_MSG	   out varchar2) return number is
07:28:35  37  
07:28:35  38  	 begin
07:28:35  39  
07:28:35  40  	    return F_BOOKJE(A_LSR_ILR_ID, A_TRANS_TYPE, A_AMT, A_GL_ACCOUNT_ID, A_GAIN_LOSS,
07:28:35  41  			    A_COMPANY_ID, A_MONTH, A_DR_CR, A_GL_JC, A_SOB_ID, A_JE_METHOD_ID, A_AMOUNT_TYPE,
07:28:35  42  			     A_REVERSAL_CONVENTION, '', A_MSG);
07:28:35  43  	 exception
07:28:35  44  	    when others then
07:28:35  45  	       return -1;
07:28:35  46  	 end F_BOOKJE;
07:28:35  47  
07:28:35  48  	 --**************************************************************************
07:28:35  49  	 --			       F_BOOKJE
07:28:35  50  	 --**************************************************************************
07:28:35  51  	 function F_BOOKJE(A_LSR_ILR_ID   in number,
07:28:35  52  			   A_TRANS_TYPE    in number,
07:28:35  53  			   A_AMT	   in number,
07:28:35  54  			   A_GL_ACCOUNT_ID in number,
07:28:35  55  			   A_GAIN_LOSS	   in number,
07:28:35  56  			   A_COMPANY_ID    in number,
07:28:35  57  			   A_MONTH	   in date,
07:28:35  58  			   A_DR_CR	   in number,
07:28:35  59  			   A_GL_JC	   in varchar2,
07:28:35  60  			   A_SOB_ID	   in number,
07:28:35  61  			   A_JE_METHOD_ID    in number,
07:28:35  62  			   A_AMOUNT_TYPE     in number,
07:28:35  63  			   A_REVERSAL_CONVENTION in number,
07:28:35  64  			   A_ORIG	   in varchar2,
07:28:35  65  			   A_MSG	   out varchar2) return number is
07:28:35  66  	    L_GL_ACCOUNT varchar2(2000);
07:28:35  67  
07:28:35  68  	 begin
07:28:35  69  
07:28:35  70  	    A_MSG	:= 'Starting JE Creation for trans_type: ' || TO_CHAR(A_TRANS_TYPE);
07:28:35  71  
07:28:35  72  	       L_GL_ACCOUNT := PP_GL_TRANSACTION(A_TRANS_TYPE,
07:28:35  73  						  '',
07:28:35  74  						  '',
07:28:35  75  						  '',
07:28:35  76  						  '',
07:28:35  77  						  A_GL_ACCOUNT_ID,
07:28:35  78  						  A_GAIN_LOSS,
07:28:35  79  						  '',
07:28:35  80  						  A_JE_METHOD_ID,
07:28:35  81  						  A_SOB_ID,
07:28:35  82  						  A_AMOUNT_TYPE,
07:28:35  83  						  A_REVERSAL_CONVENTION,
07:28:35  84  						  A_LSR_ILR_ID);
07:28:35  85  
07:28:35  86  	       if LOWER(L_GL_ACCOUNT) like '%error%' then
07:28:35  87  		  A_MSG := L_GL_ACCOUNT;
07:28:35  88  		  return - 1;
07:28:35  89  	       end if;
07:28:35  90  
07:28:35  91  
07:28:35  92  	       A_MSG := 'Inserting into gl_transaction: ' || TO_CHAR(A_TRANS_TYPE);
07:28:35  93  	       insert into GL_TRANSACTION
07:28:35  94  		  (GL_TRANS_ID, "MONTH", COMPANY_NUMBER, GL_ACCOUNT, DEBIT_CREDIT_INDICATOR, AMOUNT,
07:28:35  95  		   GL_JE_CODE, GL_STATUS_ID, DESCRIPTION, source, ORIGINATOR, COMMENTS, PEND_TRANS_ID,
07:28:35  96  		   ASSET_ID, AMOUNT_TYPE, JE_METHOD_ID, TAX_ORIG_MONTH_NUMBER, TRANS_TYPE)
07:28:35  97  		  select PWRPLANT1.NEXTVAL,
07:28:35  98  			 A_MONTH,
07:28:35  99  			 C.GL_COMPANY_NO,
07:28:35 100  			 L_GL_ACCOUNT,
07:28:35 101  			 A_DR_CR,
07:28:35 102  			 A_AMT * NVL(A_REVERSAL_CONVENTION,1),
07:28:35 103  			 A_GL_JC,
07:28:35 104  			 to_number(nvl(trim(pkg_pp_system_control.f_pp_system_control_company('Lease Specific GL Trans Status', A_COMPANY_ID)), 1)),
07:28:35 105  			 'TRANS TYPE: ' || TO_CHAR(A_TRANS_TYPE),
07:28:35 106  			 'LESSOR',
07:28:35 107  			 A_ORIG,
07:28:35 108  			 '',
07:28:35 109  			 '',
07:28:35 110  			 '',
07:28:35 111  			 A_AMOUNT_TYPE,
07:28:35 112  			 A_JE_METHOD_ID,
07:28:35 113  			 null,
07:28:35 114  						 A_TRANS_TYPE
07:28:35 115  		    from COMPANY_SETUP C
07:28:35 116  		   where C.COMPANY_ID = A_COMPANY_ID;
07:28:35 117  
07:28:35 118  	    return 1;
07:28:35 119  	 exception
07:28:35 120  	    when others then
07:28:35 121  		       a_msg:=SUBSTR(A_MSG || ': ' || sqlerrm, 1, 2000);
07:28:35 122  	       return -1;
07:28:35 123  	 end F_BOOKJE;
07:28:35 124  
07:28:35 125  	 --Wrapper for the overloaded version (Multicurrencies)
07:28:35 126  	 function F_MC_BOOKJE(A_LSR_ILR_ID   in number,
07:28:35 127  			      A_TRANS_TYPE    in number,
07:28:35 128  			      A_AMT	      in number,
07:28:35 129  			      A_GL_ACCOUNT_ID in number,
07:28:35 130  			      A_GAIN_LOSS     in number,
07:28:35 131  			      A_COMPANY_ID    in number,
07:28:35 132  			      A_MONTH	      in date,
07:28:35 133  			      A_DR_CR	      in number,
07:28:35 134  			      A_GL_JC	      in varchar2,
07:28:35 135  			      A_SOB_ID	      in number,
07:28:35 136  			      A_JE_METHOD_ID	in number,
07:28:35 137  			      A_AMOUNT_TYPE	in number,
07:28:35 138  			      A_REVERSAL_CONVENTION in number,
07:28:35 139  			      A_EXCHANGE_RATE in number,
07:28:35 140  			      A_CURRENCY_FROM in number,
07:28:35 141  			      A_CURRENCY_TO   in number,
07:28:35 142  			      A_MSG	      out varchar2) return number is
07:28:35 143  
07:28:35 144  	 begin
07:28:35 145  
07:28:35 146  	    return F_MC_BOOKJE(A_LSR_ILR_ID, A_TRANS_TYPE, A_AMT, A_GL_ACCOUNT_ID, A_GAIN_LOSS,
07:28:35 147  			    A_COMPANY_ID, A_MONTH, A_DR_CR, A_GL_JC, A_SOB_ID, A_JE_METHOD_ID, A_AMOUNT_TYPE,
07:28:35 148  		  A_REVERSAL_CONVENTION, A_EXCHANGE_RATE, A_CURRENCY_FROM, A_CURRENCY_TO, '', A_MSG);
07:28:35 149  	 exception
07:28:35 150  	    when others then
07:28:35 151  	       return -1;
07:28:35 152  	 end F_MC_BOOKJE;
07:28:35 153  
07:28:35 154  	 --**************************************************************************
07:28:35 155  	 --			       F_MC_BOOKJE (Multicurrencies)
07:28:35 156  	 --**************************************************************************
07:28:35 157  	 function F_MC_BOOKJE(A_LSR_ILR_ID   in number,
07:28:35 158  			   A_TRANS_TYPE    in number,
07:28:35 159  			   A_AMT	   in number,
07:28:35 160  			   A_GL_ACCOUNT_ID in number,
07:28:35 161  			   A_GAIN_LOSS	   in number,
07:28:35 162  			   A_COMPANY_ID    in number,
07:28:35 163  			   A_MONTH	   in date,
07:28:35 164  			   A_DR_CR	   in number,
07:28:35 165  			   A_GL_JC	   in varchar2,
07:28:35 166  			   A_SOB_ID	   in number,
07:28:35 167  			   A_JE_METHOD_ID    in number,
07:28:35 168  			   A_AMOUNT_TYPE     in number,
07:28:35 169  			   A_REVERSAL_CONVENTION in number,
07:28:35 170  			   A_EXCHANGE_RATE in number,
07:28:35 171  			   A_CURRENCY_FROM in number,
07:28:35 172  			   A_CURRENCY_TO   in number,
07:28:35 173  			   A_ORIG	   in varchar2,
07:28:35 174  			   A_MSG	   out varchar2) return number is
07:28:35 175  	    L_GL_ACCOUNT varchar2(2000);
07:28:35 176  	    L_GL_TRANS_ID number;
07:28:35 177  		L_CONTRACT_JES	varchar2(100);
07:28:35 178  		L_JE_METHOD_SOB_CHECK number;
07:28:35 179  
07:28:35 180  	 begin
07:28:35 181  
07:28:35 182  		A_MSG	    := 'Getting Contract Currency JE System Control';
07:28:35 183  		L_CONTRACT_JES:=lower(trim(PKG_PP_SYSTEM_CONTROL.f_pp_system_control_company('Lease: Contract Currency JEs', A_COMPANY_ID)));
07:28:35 184  
07:28:35 185  		if L_CONTRACT_JES IS NULL then
07:28:35 186  		      L_CONTRACT_JES := 'no';
07:28:35 187  		end if;
07:28:35 188  
07:28:35 189  		if L_CONTRACT_JES = 'yes' then
07:28:35 190  		      A_MSG := 'Checking JE Method Set of Books' ;
07:28:35 191  		      L_JE_METHOD_SOB_CHECK := PKG_LEASE_COMMON.F_JE_METHOD_SOB_CHECK(A_MSG);
07:28:35 192  
07:28:35 193  		      if L_JE_METHOD_SOB_CHECK > 0 then
07:28:35 194  			    A_MSG := 'You cannot book contract currency JEs with more than one set of books configured per JE Method';
07:28:35 195  				return -1;
07:28:35 196  		      end if;
07:28:35 197  		end if;
07:28:35 198  
07:28:35 199  
07:28:35 200  	    A_MSG	:= 'Starting JE Creation for trans_type: ' || TO_CHAR(A_TRANS_TYPE);
07:28:35 201  
07:28:35 202  	       L_GL_ACCOUNT := PP_GL_TRANSACTION(A_TRANS_TYPE,
07:28:35 203  						  '',
07:28:35 204  						  '',
07:28:35 205  						  '',
07:28:35 206  						  '',
07:28:35 207  						  A_GL_ACCOUNT_ID,
07:28:35 208  						  A_GAIN_LOSS,
07:28:35 209  						  '',
07:28:35 210  						  A_JE_METHOD_ID,
07:28:35 211  						  A_SOB_ID,
07:28:35 212  						  A_AMOUNT_TYPE,
07:28:35 213  						  A_REVERSAL_CONVENTION,
07:28:35 214  						  A_LSR_ILR_ID);
07:28:35 215  
07:28:35 216  	       if LOWER(L_GL_ACCOUNT) like '%error%' then
07:28:35 217  		  A_MSG := L_GL_ACCOUNT;
07:28:35 218  		  return - 1;
07:28:35 219  	       end if;
07:28:35 220  
07:28:35 221  	    select PWRPLANT1.NEXTVAL into L_GL_TRANS_ID from dual;
07:28:35 222  
07:28:35 223  	       A_MSG := 'Inserting into gl_transaction: ' || TO_CHAR(A_TRANS_TYPE);
07:28:35 224  	       insert into GL_TRANSACTION
07:28:35 225  		  (GL_TRANS_ID, "MONTH", COMPANY_NUMBER, GL_ACCOUNT, DEBIT_CREDIT_INDICATOR, AMOUNT,
07:28:35 226  		   GL_JE_CODE, GL_STATUS_ID, DESCRIPTION, source, ORIGINATOR, COMMENTS, PEND_TRANS_ID,
07:28:35 227  		   ASSET_ID, AMOUNT_TYPE, JE_METHOD_ID, TAX_ORIG_MONTH_NUMBER, TRANS_TYPE)
07:28:35 228  		  select L_GL_TRANS_ID,
07:28:35 229  			 A_MONTH,
07:28:35 230  			 C.GL_COMPANY_NO,
07:28:35 231  			 L_GL_ACCOUNT,
07:28:35 232  			 A_DR_CR,
07:28:35 233  			 A_AMT * decode(L_CONTRACT_JES, 'yes', 1, A_EXCHANGE_RATE) * NVL(A_REVERSAL_CONVENTION,1),
07:28:35 234  			 A_GL_JC,
07:28:35 235  			 to_number(nvl(trim(pkg_pp_system_control.f_pp_system_control_company('Lease Specific GL Trans Status', A_COMPANY_ID)), 1)),
07:28:35 236  			 'TRANS TYPE: ' || TO_CHAR(A_TRANS_TYPE) || '; ILR ID: ' || TO_CHAR(A_LSR_ILR_ID),
07:28:35 237  			 'LESSOR',
07:28:35 238  			 A_ORIG,
07:28:35 239  			 '',
07:28:35 240  			 '',
07:28:35 241  			 '',
07:28:35 242  			 A_AMOUNT_TYPE,
07:28:35 243  			 A_JE_METHOD_ID,
07:28:35 244  			 null,
07:28:36 245  			 A_TRANS_TYPE
07:28:36 246  		    from COMPANY_SETUP C
07:28:36 247  		   where C.COMPANY_ID = A_COMPANY_ID;
07:28:36 248  
07:28:36 249  	       A_MSG := 'Inserting into ls_mc_gl_transaction_audit: ' || TO_CHAR(A_TRANS_TYPE);
07:28:36 250  	   insert into LS_MC_GL_TRANSACTION_AUDIT
07:28:36 251  	      (COMPANY_ID, GL_POSTING_MO_YR, GL_TRANS_ID, TRANS_TYPE, GL_JE_CODE,
07:28:36 252  	    FROM_CURRENCY, TO_CURRENCY, EXCHANGE_RATE, CALCULATED_AMOUNT, TRANSLATED_AMOUNT, ILR_ID, LS_CURRENCY_TYPE_ID)
07:28:36 253  	       select A_COMPANY_ID,
07:28:36 254  		    A_MONTH,
07:28:36 255  		L_GL_TRANS_ID,
07:28:36 256  		A_TRANS_TYPE,
07:28:36 257  		A_GL_JC,
07:28:36 258  		A_CURRENCY_FROM,
07:28:36 259  		A_CURRENCY_TO,
07:28:36 260  		A_EXCHANGE_RATE,
07:28:36 261  		A_AMT * NVL(A_REVERSAL_CONVENTION,1),
07:28:36 262  		A_AMT * decode(L_CONTRACT_JES, 'yes', 1, A_EXCHANGE_RATE) * NVL(A_REVERSAL_CONVENTION,1),
07:28:36 263  			A_LSR_ILR_ID,
07:28:36 264  			decode(L_CONTRACT_JES, 'yes', 1, 2)
07:28:36 265  	    from DUAL;
07:28:36 266  
07:28:36 267  	    return 1;
07:28:36 268  	 exception
07:28:36 269  	    when others then
07:28:36 270  	   a_msg:=SUBSTR(A_MSG || ': ' || sqlerrm, 1, 2000);
07:28:36 271  	       return -1;
07:28:36 272  	 end F_MC_BOOKJE;
07:28:36 273  
07:28:36 274  	 procedure p_startLog (a_process_description varchar2) is
07:28:36 275  	 begin
07:28:36 276  		      --Start log for passed in process
07:28:36 277  		      pkg_pp_log.p_start_log(pkg_lessor_common.f_get_Process_id(a_process_description));
07:28:36 278  
07:28:36 279  	 end p_startLog;
07:28:36 280  
07:28:36 281  
07:28:36 282  	      /*****************************************************************************
07:28:36 283  	      * Procedure: p_rerecognize_cpr_assets
07:28:36 284  	      * PURPOSE: Creates pending transactions for POST to pick up to re-recognize an asset after it had been
07:28:36 285  	      * 				      de-recognized due to creating a Sales Type or Direct Finance Lease
07:28:36 286  	      * PARAMETERS:
07:28:36 287  	      *   a_asset_rerecognition_tbl: A table of ILR records to re-recognize
07:28:36 288  	      *
07:28:36 289  	      * RETURNS: NONE
07:28:36 290  	      ******************************************************************************/
07:28:36 291  	      PROCEDURE p_rerecognize_cpr_assets(a_asset_rerecognition_tbl pkg_lessor_common.asset_rerecognition_table)
07:28:36 292  	      IS
07:28:36 293  		      l_pend_trans_id	      pend_transaction.pend_trans_id%TYPE;
07:28:36 294  		      l_ratio			      NUMBER;
07:28:36 295  		      l_pt_num_rows	      NUMBER;
07:28:36 296  		      l_pb_num_rows	      NUMBER;
07:28:36 297  		      l_round_err_rows	      NUMBER;
07:28:36 298  		      l_msg			      VARCHAR2(2000);
07:28:36 299  	      L_GL_JE_CODE	      VARCHAR2(35);
07:28:36 300  		      l_sum_basis_check       pend_transaction.posting_amount%TYPE;
07:28:36 301  		      asset			      pkg_lessor_common.asset_rerecognition;
07:28:36 302  	      BEGIN
07:28:36 303  		      pkg_pp_log.p_write_message('Starting p_rerecognize_cpr_assets');
07:28:36 304  
07:28:36 305  		      L_MSG:='Retrieving L_GL_JE_CODE';
07:28:36 306  		      select gl_je_code
07:28:36 307  		      into L_GL_JE_CODE
07:28:36 308  		      from standard_journal_entries, gl_je_control
07:28:36 309  		      where standard_journal_entries.je_id = gl_je_control.je_id
07:28:36 310  		      and upper(ltrim(rtrim(process_id))) = 'LSR RERECOGNITION';
07:28:36 311  
07:28:36 312  		      IF L_GL_JE_CODE IS NULL THEN
07:28:36 313  			 L_MSG := 'Error Retrieving L_GL_JE_CODE';
07:28:36 314  			 PKG_PP_LOG.P_WRITE_MESSAGE(L_MSG);
07:28:36 315  			 RETURN ;
07:28:36 316  		      END IF;
07:28:36 317  
07:28:36 318  		      l_pt_num_rows := 0;
07:28:36 319  		      l_pb_num_rows := 0;
07:28:36 320  		      l_round_err_rows := 0;
07:28:36 321  
07:28:36 322  		      --loop over eligible ILRs and their assets
07:28:36 323  		      FOR i IN a_asset_rerecognition_tbl.FIRST .. a_asset_rerecognition_tbl.LAST LOOP
07:28:36 324  			      asset := a_asset_rerecognition_tbl(i);
07:28:36 325  
07:28:36 326  			      --get new pend_trans_id
07:28:36 327  			      l_pend_trans_id := pwrplant1.NEXTVAL;
07:28:36 328  			      --insert into pend_transaction
07:28:36 329  			      INSERT INTO pend_transaction (pend_trans_id, ldg_asset_id, ldg_activity_id, ldg_depr_group_id, books_schema_id, retirement_unit_id, utility_account_id,
07:28:36 330  				      bus_segment_id, func_class_id, sub_account_id, asset_location_id, gl_account_id, company_id, gl_posting_mo_yr, subledger_indicator, activity_code,
07:28:36 331  				      gl_je_code, work_order_number, posting_quantity, user_id1, posting_amount, in_service_year, description, long_description, property_group_id,
07:28:36 332  				      retire_method_id, posting_status, cost_of_removal, salvage_cash, salvage_returns, reserve, misc_description, ferc_activity_code, reserve_credits,
07:28:36 333  				      gain_loss_reversal, disposition_code)
07:28:36 334  			      VALUES (l_pend_trans_id, asset.ldg_asset_id, asset.ldg_activity_id, asset.ldg_depr_group_id, asset.books_schema_id, asset.retirement_unit_id, asset.utility_account_id,
07:28:36 335  				      asset.bus_segment_id, asset.func_class_id, asset.sub_account_id, asset.asset_location_id, asset.gl_account_id, asset.company_id, asset.gl_posting_mo_yr, asset.subledger_indicator, asset.activity_code,
07:28:36 336  				      l_gl_je_code, asset.work_order_number, asset.posting_quantity * -1, asset.user_id1, asset.posting_amount, asset.in_service_year, asset.description, asset.long_description, asset.property_group_id,
07:28:36 337  				      asset.retire_method_id, asset.posting_status, asset.cost_of_removal, asset.salvage_cash, asset.salvage_returns, asset.reserve, asset.misc_description, asset.ferc_activity_code, asset.reserve_credits,
07:28:36 338  				      asset.gain_loss_reversal, asset.disposition_code);
07:28:36 339  
07:28:36 340  			      l_pt_num_rows := l_pt_num_rows + SQL%rowcount;
07:28:36 341  
07:28:36 342  			      l_ratio := 1;
07:28:36 343  			      if asset.orig_posting_amount <> 0 then
07:28:36 344  				      l_ratio := asset.posting_amount / asset.orig_posting_amount;
07:28:36 345  			      end if;
07:28:36 346  
07:28:36 347  			      --insert into pend_basis
07:28:36 348  			      INSERT INTO pend_basis(pend_trans_id, basis_1, basis_2, basis_3, basis_4, basis_5, basis_6, basis_7, basis_8, basis_9, basis_10,
07:28:36 349  				      basis_11, basis_12, basis_13, basis_14, basis_15, basis_16, basis_17, basis_18, basis_19, basis_20,
07:28:36 350  				      basis_21, basis_22, basis_23, basis_24, basis_25, basis_26, basis_27, basis_28, basis_29, basis_30,
07:28:36 351  				      basis_31, basis_32, basis_33, basis_34, basis_35, basis_36, basis_37, basis_38, basis_39, basis_40,
07:28:36 352  				      basis_41, basis_42, basis_43, basis_44, basis_45, basis_46, basis_47, basis_48, basis_49, basis_50,
07:28:36 353  				      basis_51, basis_52, basis_53, basis_54, basis_55, basis_56, basis_57, basis_58, basis_59, basis_60,
07:28:36 354  				      basis_61, basis_62, basis_63, basis_64, basis_65, basis_66, basis_67, basis_68, basis_69, basis_70)
07:28:36 355  			      select
07:28:36 356  				      l_pend_trans_id,
07:28:36 357  				      l_ratio * cab.basis_1, l_ratio * cab.basis_2, l_ratio * cab.basis_3, l_ratio * cab.basis_4, l_ratio * cab.basis_5, l_ratio * cab.basis_6, l_ratio * cab.basis_7, l_ratio * cab.basis_8,
07:28:36 358  				      l_ratio * cab.basis_9, l_ratio * cab.basis_10, l_ratio * cab.basis_11, l_ratio * cab.basis_12, l_ratio * cab.basis_13, l_ratio * cab.basis_14, l_ratio * cab.basis_15, l_ratio * cab.basis_16,
07:28:36 359  				      l_ratio * cab.basis_17, l_ratio * cab.basis_18, l_ratio * cab.basis_19, l_ratio * cab.basis_20, l_ratio * cab.basis_21, l_ratio * cab.basis_22, l_ratio * cab.basis_23, l_ratio * cab.basis_24,
07:28:36 360  				      l_ratio * cab.basis_25, l_ratio * cab.basis_26, l_ratio * cab.basis_27, l_ratio * cab.basis_28, l_ratio * cab.basis_29, l_ratio * cab.basis_30, l_ratio * cab.basis_31, l_ratio * cab.basis_32,
07:28:36 361  				      l_ratio * cab.basis_33, l_ratio * cab.basis_34, l_ratio * cab.basis_35, l_ratio * cab.basis_36, l_ratio * cab.basis_37, l_ratio * cab.basis_38, l_ratio * cab.basis_39, l_ratio * cab.basis_40,
07:28:36 362  				      l_ratio * cab.basis_41, l_ratio * cab.basis_42, l_ratio * cab.basis_43, l_ratio * cab.basis_44, l_ratio * cab.basis_45, l_ratio * cab.basis_46, l_ratio * cab.basis_47, l_ratio * cab.basis_48,
07:28:36 363  				      l_ratio * cab.basis_49, l_ratio * cab.basis_50, l_ratio * cab.basis_51, l_ratio * cab.basis_52, l_ratio * cab.basis_53, l_ratio * cab.basis_54, l_ratio * cab.basis_55, l_ratio * cab.basis_56,
07:28:36 364  				      l_ratio * cab.basis_57, l_ratio * cab.basis_58, l_ratio * cab.basis_59, l_ratio * cab.basis_60, l_ratio * cab.basis_61, l_ratio * cab.basis_62, l_ratio * cab.basis_63, l_ratio * cab.basis_64,
07:28:36 365  				      l_ratio * cab.basis_65, l_ratio * cab.basis_66, l_ratio * cab.basis_67, l_ratio * cab.basis_68, l_ratio * cab.basis_69, l_ratio * cab.basis_70
07:28:36 366  			      from cpr_act_basis cab
07:28:36 367  			      where cab.asset_id = asset.ldg_asset_id
07:28:36 368  			      and cab.asset_activity_id = asset.asset_activity_id
07:28:36 369  			      ;
07:28:36 370  
07:28:36 371  			      l_pb_num_rows := l_pb_num_rows + SQL%rowcount;
07:28:36 372  
07:28:36 373  			      --check that the sum of the basis amounts equals the original posting_amount
07:28:36 374  			      SELECT cost
07:28:36 375  			      INTO l_sum_basis_check
07:28:36 376  			      FROM cpr_post_basis_amounts_view
07:28:36 377  			      WHERE set_of_books_id = asset.set_of_books_id
07:28:36 378  			      AND pend_trans_id = l_pend_trans_id;
07:28:36 379  
07:28:36 380  			      IF asset.posting_amount - l_sum_basis_check <> 0 THEN
07:28:36 381  				      --apply the difference to basis_1 (this is how POST handles this situation)
07:28:36 382  				      UPDATE pend_basis
07:28:36 383  				      SET basis_1 = basis_1 + asset.posting_amount - l_sum_basis_check
07:28:36 384  				      WHERE pend_trans_id = l_pend_trans_id;
07:28:36 385  
07:28:36 386  				      l_round_err_rows := l_round_err_rows + 1;
07:28:36 387  			      END IF;
07:28:36 388  		      END LOOP;
07:28:36 389  
07:28:36 390  		      pkg_pp_log.p_write_message(l_pt_num_rows || ' rows inserted into pend_transaction.');
07:28:36 391  		      pkg_pp_log.p_write_message(l_pb_num_rows || ' rows inserted into pend_basis.');
07:28:36 392  		      pkg_pp_log.p_write_message(l_round_err_rows || ' pend_basis rounding errors corrected.');
07:28:36 393  	      EXCEPTION
07:28:36 394  		      WHEN OTHERS THEN
07:28:36 395  		      IF SQLCODE BETWEEN -20999 AND -20000 THEN
07:28:36 396  			      ROLLBACK;
07:28:36 397  			      pkg_pp_log.p_write_message(SQLERRM);
07:28:36 398  			      RAISE;
07:28:36 399  			      --PowerBuilder can't distinguish between nothing returning from the procedure (expected) and an actual no_data_found error in the procedure
07:28:36 400  		      ELSIF SQLCODE = 100 THEN
07:28:36 401  			      ROLLBACK;
07:28:36 402  			      pkg_pp_log.p_write_message('Error creating Lessor Termination Asset Re-recognition pending transactions - ' || SQLERRM || f_get_call_stack);
07:28:36 403  			      Raise_Application_Error(-20000, SubStr('Error creating Lessor Termination Asset Re-recognition pending transactions - ORA-01403 - NO DATA FOUND' || Chr(10) || f_get_call_stack, 1, 2000));
07:28:36 404  		      ELSE
07:28:36 405  			      ROLLBACK;
07:28:36 406  			      pkg_pp_log.p_write_message('Error creating Lessor Termination Asset Re-recognition pending transactions - ORA' || SQLCODE || ' - ' || SQLERRM || Chr(10) || f_get_call_stack);
07:28:36 407  			      RAISE;
07:28:36 408  		      END IF;
07:28:36 409  	      END p_rerecognize_cpr_assets;
07:28:36 410  
07:28:36 411  
07:28:36 412  	  /*****************************************************************************
07:28:36 413  	      * Procedure: f_approvedclassification_dfst
07:28:36 414  	      * PURPOSE: Determines if this ILR is a reclassificationfrom DF -> ST or ST -> DF
07:28:36 415  	      * PARAMETERS:
07:28:36 416  	      *   a_ilr_id: The ID of the ILR we are currently building. Used to filter the prior schedule records.
07:28:36 417  	      *   a_revision: The revision of the ILR we are currently building.
07:28:36 418  	      *   a_set_of_books_id: The set of books id to check
07:28:36 419  	      *   a_cap_type_id: The "new / current" cap type id
07:28:36 420  	      *
07:28:36 421  	      * RETURNS: number: 1 if is DF->ST or ST->DF 0 otherwise, -1 if error
07:28:36 422  	      ******************************************************************************/
07:28:36 423  	      function f_approvedclassification_dfst(a_ilr_id NUMBER,
07:28:36 424  					    a_revision NUMBER,
07:28:36 425  										a_set_of_books_id NUMBER,
07:28:36 426  										a_cap_type_id NUMBER)
07:28:36 427  	      RETURN number
07:28:36 428  	      IS
07:28:36 429  		      ll_approvedClassification number;
07:28:36 430  		      ll_toCheckClassification number;
07:28:36 431  		      ll_prior_approved_revision number;
07:28:36 432  		      ld_approval_date date;
07:28:36 433  		      ll_checkExists number;
07:28:36 434  	      begin
07:28:36 435  		      ll_approvedClassification := 0;
07:28:36 436  		      ll_toCheckClassification := 0;
07:28:36 437  
07:28:36 438  		      --only do this for ILRS not being initiated
07:28:36 439  		      select count(1)
07:28:36 440  		      into ll_checkExists
07:28:36 441  		      from lsr_ilr_options
07:28:36 442  		      where lsr_ilr_options.ilr_id = a_ilr_id
07:28:36 443  		      ;
07:28:36 444  
07:28:36 445  		      if ll_checkExists > 0 then
07:28:36 446  			      select sob.fasb_cap_type_id
07:28:36 447  			      into ll_toCheckClassification
07:28:36 448  			      from lsr_fasb_type_sob sob
07:28:36 449  			      where sob.cap_type_id = a_cap_type_id
07:28:36 450  			      and sob.set_of_books_id = a_set_of_books_id
07:28:36 451  			      ;
07:28:36 452  
07:28:36 453  			      -- get the approval date for this revision.
07:28:36 454  			      -- if no approval date, then use system date
07:28:36 455  			      select nvl(
07:28:36 456  			      (
07:28:36 457  				      select approval_date
07:28:36 458  				      from lsr_ilr_approval
07:28:36 459  				      where approval_status_id = 3
07:28:36 460  				      and revision = a_revision
07:28:36 461  				      and ilr_id = a_ilr_id
07:28:36 462  				      ), sysdate
07:28:36 463  			      )
07:28:36 464  			      into ld_approval_date
07:28:36 465  			      from dual;
07:28:36 466  
07:28:36 467  			      -- find the latest approved revision less than this approval date.
07:28:36 468  			      -- if none exist, then use this revision
07:28:36 469  			      select nvl(
07:28:36 470  				      (
07:28:36 471  				      select max(revision) keep(dense_rank first order by approval_date desc)
07:28:36 472  				      from lsr_ilr_approval
07:28:36 473  				      where approval_status_id = 3
07:28:36 474  				      and approval_date < ld_approval_date
07:28:36 475  				      and ilr_id =  a_ilr_id
07:28:36 476  				      ), a_revision
07:28:36 477  			      )
07:28:36 478  			      into ll_prior_approved_revision
07:28:36 479  			      from dual
07:28:36 480  			      ;
07:28:36 481  
07:28:36 482  			      if ll_prior_approved_revision <> a_revision then
07:28:36 483  				      select nvl(
07:28:36 484  					      (
07:28:36 485  					      select lsr_fasb_type_sob.fasb_cap_type_id
07:28:36 486  					      from lsr_fasb_type_sob, lsr_ilr_options
07:28:36 487  					      where lsr_fasb_type_sob.cap_type_id = lsr_ilr_options.lease_cap_type_id
07:28:36 488  					      and lsr_fasb_type_sob.set_of_books_id = a_set_of_books_id
07:28:36 489  					      and lsr_ilr_options.ilr_id = a_ilr_id
07:28:36 490  					      and lsr_ilr_options.revision = ll_prior_approved_revision
07:28:36 491  					      ), ll_toCheckClassification
07:28:36 492  				      )
07:28:36 493  				      into ll_approvedClassification
07:28:36 494  				      from dual
07:28:36 495  				      ;
07:28:36 496  			      end if;
07:28:36 497  		      end if;
07:28:36 498  
07:28:36 499  		      if (ll_toCheckClassification + ll_approvedClassification) = 5 then
07:28:36 500  			      return 1;
07:28:36 501  		      else
07:28:36 502  			      return 0;
07:28:36 503  		      end if;
07:28:36 504  
07:28:36 505  	      exception
07:28:36 506  		      when others then
07:28:36 507  			      return -1;
07:28:36 508  	      end f_approvedclassification_dfst;
07:28:36 509  
07:28:36 510  END pkg_lessor_common;
07:28:36 511  /

Package body created.

07:28:36 hopplant> --**************************
07:28:36 hopplant> -- Log the run of the script
07:28:36 hopplant> --**************************
07:28:36 hopplant> insert into PP_SCHEMA_CHANGE_LOG
07:28:36   2  	 (ID, SKIPPED, MAJOR_VERSION, MINOR_VERSION, POINT_VERSION, PATCH_VERSION, MAINT_NUM, SCRIPT_PATH,
07:28:36   3  	  SCRIPT_NAME, SCRIPT_REVISION, DATE_APPLIED, OS_USER, TERMINAL, SERVICE_NAME)
07:28:36   4  values
07:28:36   5  	 (18444, 0, 2018, 2, 1, 0, 0, 'C:\BitBucketRepos\classic_pb\scripts\00_base\packages',
07:28:36   6  	  'PKG_LESSOR_COMMON.sql', 1, SYSTIMESTAMP, SYS_CONTEXT('USERENV', 'OS_USER'), SYS_CONTEXT('USERENV', 'TERMINAL'), SYS_CONTEXT('USERENV', 'SERVICE_NAME'));

1 row created.

07:28:36 hopplant> commit;

Commit complete.

07:28:36 hopplant> SPOOL OFF
