07:09:28 hopplant> @&&PP_SCRIPT_PATH.maint_scripts\2018.1.0.1_maint_052803_lessee_01_post_schedule_dynamic_validation_dml.sql
07:09:28 hopplant> /*
07:09:28 hopplant> ||============================================================================
07:09:28 hopplant> || Application: PowerPlan
07:09:28 hopplant> || Object Name: maint_052803_lessee_01_post_schedule_dynamic_validation_dml.sql
07:09:28 hopplant> ||============================================================================
07:09:28 hopplant> || Copyright (C) 2018 by PowerPlan Inc. All Rights Reserved.
07:09:28 hopplant> ||============================================================================
07:09:28 hopplant> || Version	 Date	    Revised By	     Reason for Change
07:09:28 hopplant> || ---------- ---------- ---------------- --------------------------------------
07:09:28 hopplant> || 2018.1.0.1 12/7/2018 Crystal Yura     Add new dynamic validation for Post Schedule Build, Rename existing to Pre
07:09:28 hopplant> ||============================================================================
07:09:28 hopplant> */
07:09:28 hopplant> 
07:09:28 hopplant> 
07:09:28 hopplant> INSERT INTO WO_VALIDATION_TYPE
07:09:28   2  	(WO_VALIDATION_TYPE_ID, DESCRIPTION, LONG_DESCRIPTION, FUNCTION, FIND_COMPANY, COL1, COL2, HARD_EDIT)
07:09:28   3  	SELECT 5015,
07:09:28   4  	       'Lessee ILRs Post',
07:09:28   5  	       'Lessee ILRs Post Schedule Build/Send for Approval',
07:09:28   6  	       'uo_ls_ilrcntr_wksp_details',
07:09:28   7  	       'select company_id from ls_ilr where ilr_id = <arg1>',
07:09:28   8  	       'ilr_id',
07:09:28   9  	       'revision',
07:09:28  10  	       '1'
07:09:28  11  	  FROM DUAL
07:09:28  12  	 WHERE NOT EXISTS (SELECT 1
07:09:28  13  		  FROM WO_VALIDATION_TYPE
07:09:28  14  		 WHERE WO_VALIDATION_TYPE_ID = 5015
07:09:28  15  		   AND LOWER(FUNCTION) = 'uo_ls_ilrcntr_wksp_details');

1 row created.

07:09:28 hopplant> 
07:09:28 hopplant> UPDATE WO_VALIDATION_TYPE
07:09:28   2  SET description = 'Lessee ILRs Pre',
07:09:28   3  long_description = 'Lessee ILRs Pre Schedule Build'
07:09:28   4  WHERE WO_VALIDATION_TYPE_ID = 5001;

1 row updated.

07:09:28 hopplant> 
07:09:28 hopplant> --****************************************************
07:09:28 hopplant> --Log the run of the script to local PP_SCHEMA_LOG
07:09:28 hopplant> --****************************************************
07:09:28 hopplant> INSERT INTO PP_SCHEMA_CHANGE_LOG
07:09:28   2  	  (ID, SKIPPED, MAJOR_VERSION, MINOR_VERSION, POINT_VERSION, PATCH_VERSION, MAINT_NUM, SCRIPT_PATH,
07:09:28   3  	  SCRIPT_NAME, SCRIPT_REVISION, DATE_APPLIED, OS_USER, TERMINAL, SERVICE_NAME)
07:09:28   4  VALUES
07:09:28   5  	  (12884, 0, 2018, 1, 0, 1, 52803, 'C:\PlasticWks\powerplant\sql\maint_scripts', '2018.1.0.1_maint_052803_lessee_01_post_schedule_dynamic_validation_dml.sql', 1,
07:09:28   6  	  SYSTIMESTAMP, SYS_CONTEXT('USERENV', 'OS_USER'), SYS_CONTEXT('USERENV', 'TERMINAL'),
07:09:28   7  	  SYS_CONTEXT('USERENV', 'SERVICE_NAME'));

1 row created.

07:09:28 hopplant> COMMIT;

Commit complete.

07:09:28 hopplant> SPOOL OFF
