18:21:13 hopplant> @&&PP_SCRIPT_PATH.maint_scripts\10.4.2.2_maint_038741_taxrpr_RPR_BASIS_PKG.sql
18:21:13 hopplant> /*
18:21:13 hopplant> ||============================================================================
18:21:13 hopplant> || Application: PowerPlant
18:21:13 hopplant> || File Name:   maint_038741_taxrpr_RPR_BASIS_PKG.sql
18:21:13 hopplant> ||============================================================================
18:21:13 hopplant> || Copyright (C) 2014 by PowerPlan, Inc. All Rights Reserved.
18:21:13 hopplant> ||============================================================================
18:21:13 hopplant> || Version  Date	  Revised By	   Reason for Change
18:21:13 hopplant> || -------- ---------- ---------------- --------------------------------------
18:21:13 hopplant> || 10.4.2.2 06/25/2014 Alex P.
18:21:13 hopplant> ||============================================================================
18:21:13 hopplant> */
18:21:13 hopplant> 
18:21:13 hopplant> create or replace package RPR_BASIS_PKG is
18:21:13   2  	 /*
18:21:13   3  	 ||============================================================================
18:21:13   4  	 || Application: PowerPlant
18:21:13   5  	 || Object Name: RPR_BASIS_PKG
18:21:13   6  	 || Description: Functions and Procedures to maipulate Tax Repairs basis buckets
18:21:13   7  	 ||============================================================================
18:21:13   8  	 || Copyright (C) 2013 by PowerPlan Consultants, Inc. All Rights Reserved.
18:21:13   9  	 ||============================================================================
18:21:13  10  	 || Version  Date	Revised By     Reason for Change
18:21:13  11  	 || -------- ---------- -------------- ----------------------------------------
18:21:13  12  	 || 10.4.1.0 07/19/2013 Alex P.
18:21:13  13  	 ||	     08/12/2013 Alex P.        i_activity_cost_sqls was missing commas
18:21:13  14  	 ||============================================================================
18:21:13  15  	 */
18:21:13  16  
18:21:13  17  	 -- Public function and procedure declarations
18:21:13  18  	 procedure P_POPULATE_BASIS_BUCKETS;
18:21:13  19  
18:21:13  20  	 procedure P_CREATE_REPAIR_BOOK_SUMMARY;
18:21:13  21  
18:21:13  22  	 procedure P_GET_BASIS_BUCKETS(A_REPAIR_BOOK_SUMMARY_ID     out number,
18:21:13  23  				       A_RETIREMENT_BOOK_SUMMARY_ID out number,
18:21:13  24  				       A_ADD_QUALIFIED_SQLS	    out varchar2,
18:21:13  25  				       A_RETIREMENT_SQLS	    out varchar2,
18:21:13  26  
18:21:13  27  				       A_AFUDC_EQUITY_SQLS	     out varchar2,
18:21:13  28  				       A_AFUDC_DEBT_SQLS	     out varchar2,
18:21:13  29  				       A_OTHER_BOOK_BASIS_DIFFS_SQLS out varchar2,
18:21:13  30  				       A_OTHER_TAX_BASIS_DIFFS_SQLS  out varchar2,
18:21:13  31  				       A_TOTAL_BOOK_COST_SQLS	     out varchar2,
18:21:13  32  				       A_REVERSAL_BASIS_DIFFS_SQLS   out varchar2,
18:21:13  33  
18:21:13  34  				       A_ADD_QUALIFIED_STR	  out varchar2,
18:21:13  35  				       A_RETIREMENT_STR 	  out varchar2,
18:21:13  36  				       A_REVERSAL_BASIS_DIFFS_STR out varchar2,
18:21:13  37  
18:21:13  38  				       A_REVERSALS_BOOKED_SQLS	   out varchar2,
18:21:13  39  				       A_ACTIVITY_COST_SQLS	   out varchar2,
18:21:13  40  				       A_CHARGE_TYPE_VIEW_SQLS	   out varchar2,
18:21:13  41  				       A_BOOK_ONLY_SQLS 	   out varchar2,
18:21:13  42  				       A_TAX_ONLY_BASIS_DIFFS_SQLS out varchar2);
18:21:13  43  
18:21:13  44  end RPR_BASIS_PKG;
18:21:13  45  /

Package created.

18:21:13 hopplant> 
18:21:13 hopplant> 
18:21:13 hopplant> create or replace package body RPR_BASIS_PKG is
18:21:13   2  	 /*
18:21:13   3  	 ||============================================================================
18:21:13   4  	 || Application: PowerPlant
18:21:13   5  	 || Object Name: RPR_BASIS_PKG
18:21:13   6  	 || Description: Functions and Procedures to manipulate Tax Repairs basis buckets
18:21:13   7  	 ||============================================================================
18:21:13   8  	 || Copyright (C) 2013 by PowerPlan Consultants, Inc. All Rights Reserved.
18:21:13   9  	 ||============================================================================
18:21:13  10  	 || Version  Date	Revised By     Reason for Change
18:21:13  11  	 || -------- ---------- -------------- ----------------------------------------
18:21:13  12  	 || 10.4.1.0 07/19/2013 Alex P.
18:21:13  13  	 ||============================================================================
18:21:13  14  	 */
18:21:13  15  
18:21:13  16  	 /******************************************************************************
18:21:13  17  	 i_repair_book_summary_id:  Tax Repairs Taken basis bucket number
18:21:13  18  	     Example: 19
18:21:13  19  	 i_retirement_book_summary_id:	Retirement Reversal Taken basis bucket number
18:21:13  20  	     Example: 21
18:21:13  21  	 i_add_qualified_sqls: The SQL clause that captures all book costs that qualify to be expensed for tax.
18:21:13  22  	     Example: cab.basis_1 + cab.basis_2 + cab.basis_3 + cab.basis_7 + cab.basis_8 + cab.basis_9 + cab.basis_10 + cab.basis_11 + cab.basis_15 + cab.basis_16 + cab.basis_17 + cab.basis_18
18:21:13  23  	 i_retirement_sqls:  The SQL clause that captures the book costs that are not subject to tax retirements due to tax repairs.
18:21:13  24  	     Example: i_retirement_sqls = cab.basis_1 + cab.basis_2 + cab.basis_3 + cab.basis_4 + cab.basis_5 + cab.basis_7 + cab.basis_8 + cab.basis_9 + cab.basis_10 + cab.basis_11 + cab.basis_15 + cab.basis_16 + cab.basis_17 + cab.basis_18
18:21:13  25  	 i_afudc_equity_sqls:  Sum of ADUDC equity buckets
18:21:13  26  	     Example:  cab.basis_5
18:21:13  27  	 i_afudc_debt_sqls:  Sum of AFUDC debt buckets
18:21:13  28  	     Example:  cab.basis_4
18:21:13  29  	 i_other_book_basis_diffs_sqls: Book Only Costs other that AFUDC Debt and Equity
18:21:13  30  	     Example: same format as AFUDC Equity and Debt, oftentimes empty.
18:21:13  31  	 i_other_tax_basis_diffs_sqls: Tax Only Cost other than CPI
18:21:13  32  	     Example: same format as AFUDC Equity and Debt, oftentimes empty.
18:21:13  33  	 i_total_book_cost_sqls:  Sum of all the book cost basis nuckets
18:21:13  34  	     Example: cab.basis_1 + cab.basis_2 + cab.basis_3 + cab.basis_4 + cab.basis_5 + cab.basis_7 + cab.basis_8 + cab.basis_9 + cab.basis_10 + cab.basis_11 + cab.basis_15 + cab.basis_16 + cab.basis_17 + cab.basis_18
18:21:13  35  	 i_reversal_basis_diffs_sqls:  This holds an sql for the sum of tax expense reversal basis buckets.
18:21:13  36  	     Example: cab.basis_20
18:21:13  37  	 i_add_qualified_str: Comma seperated list of add qualified basis buckets.
18:21:13  38  	 i_retirement_str: Comma seperated list of basis buckets eligible for retirement reversal.
18:21:13  39  	 i_reversal_basis_diffs_str:  This holds the comma seperated list of tax repairs output basis buckets
18:21:13  40  	     Example: 19, 21, 20
18:21:13  41  	 i_reversals_booked_sqls: This holds the decode that is used to get the reversal booked in each Tax Repairs book summary in cpr_act_basis
18:21:13  42  	     Example: decode(bs.book_summary_id, 19, decode (ca.ferc_activity_code, 2,0, cab.basis_19), 21, case when ca.ferc_activity_code = 2 and ca.tax_orig_month_number is not null then cab.basis_21 else 0 end , 20, decode  (ca.ferc_activity_code, 2, 0, cab.basis_20), 0)
18:21:13  43  	 i_activity_cost_sqls:	This holds the decode that is used to get the activity that should be reversed for each Tax Repairs book summary in cpr_act_basis
18:21:13  44  	     Example: decode(bs.book_summary_id, 19 decode (ca.ferc_activity_code, 2,0, cab.basis_1 + cab.basis_2 + cab.basis_3 + cab.basis_7 + cab.basis_8 + cab.basis_9 + cab.basis_10 + cab.basis_11 + cab.basis_15 + cab.basis_16 + cab.basis_17 + cab.basis_18) , 21, decode (ca.ferc_activity_code, 2, cab.basis_1 + cab.basis_2 + cab.basis_3 + cab.basis_4 + cab.basis_5 + cab.basis_7 + cab.basis_8 + cab.basis_9 + cab.basis_10 + cab.basis_11 + cab.basis_15 + cab.basis_16 + cab.basis_17 + cab.basis_18,0)20, decode (ca.ferc_activity_code, 2, 0, cab.basis_14) , 0)
18:21:13  45  	 i_charge_type_view_sqls:  This holds the view that specifies which charge types to reverse in which tax repairs charge types
18:21:13  46  	     Example: select * from ( select reversal_ct.charge_type_id reversal_charge_type, ce.cost_element_id reversal_cost_element, ct.charge_type_id charge_type_to_reverse, decode(ct.charge_type_id,reversal_ct.charge_type_id,1,0) is_reversal_ct from charge_type reversal_ct, charge_type ct, cost_element ce where reversal_ct.book_summary_id = 19 and reversal_ct.charge_type_id = ce.charge_type_id and ct.book_summary_id in (1, 2, 3, 7, 8, 9, 10, 11, 15, 16, 17, 18, 19) union all select reversal_ct.charge_type_id reversal_charge_type, ce.cost_element_id reversal_cost_element, ct.charge_type_id charge_type_to_reverse, decode(ct.charge_type_id,reversal_ct.charge_type_id,1,0) is_reversal_ct from charge_type reversal_ct, charge_type ct, cost_element ce where reversal_ct.book_summary_id = 20 and reversal_ct.charge_type_id = ce.charge_type_id and ct.book_summary_id in (14, 20) union all select 0 reversal_charge_type, 0 reversal_cost_element, ct.charge_type_id charge_type_to_reverse, 2 is_reversal_ct from charge_type ct where ct.book_summary_id in (5, 4) ) where -5=-5
18:21:13  47  	 i_book_only_sqls:  This hold the sum of book only basis buckets. i_book_only_sqls = i_afudc_equity_sqls + i_afudc_debt_sqls + i_other_book_basis_diffs_sqls
18:21:13  48  	     Example: cab.basis_5 + cab.basis_4
18:21:13  49  	 i_tax_only_basis_diffs_sqls:  This holds an sql for the sum of tax only basis buckets, such as CPI found in tax_reversal_book_summary table.
18:21:13  50  	     Example: cab.basis_14
18:21:13  51  	 ******************************************************************************/
18:21:13  52  
18:21:13  53  	 I_REPAIR_BOOK_SUMMARY_ID     number;
18:21:13  54  	 I_RETIREMENT_BOOK_SUMMARY_ID number;
18:21:13  55  
18:21:13  56  	 I_ADD_QUALIFIED_SQLS varchar2(2000);
18:21:13  57  	 I_RETIREMENT_SQLS    varchar2(2000);
18:21:13  58  
18:21:13  59  	 I_AFUDC_EQUITY_SQLS	       varchar2(2000);
18:21:13  60  	 I_AFUDC_DEBT_SQLS	       varchar2(2000);
18:21:13  61  	 I_OTHER_BOOK_BASIS_DIFFS_SQLS varchar2(2000);
18:21:13  62  	 I_OTHER_TAX_BASIS_DIFFS_SQLS  varchar2(2000);
18:21:13  63  	 I_TOTAL_BOOK_COST_SQLS        varchar2(2000);
18:21:13  64  	 I_REVERSAL_BASIS_DIFFS_SQLS   varchar2(2000);
18:21:13  65  
18:21:13  66  	 I_ADD_QUALIFIED_STR	    varchar2(2000);
18:21:13  67  	 I_RETIREMENT_STR	    varchar2(2000);
18:21:13  68  	 I_REVERSAL_BASIS_DIFFS_STR varchar2(2000);
18:21:13  69  
18:21:13  70  	 I_REVERSALS_BOOKED_SQLS     varchar2(2000);
18:21:13  71  	 I_ACTIVITY_COST_SQLS	     varchar2(2000);
18:21:13  72  	 I_CHARGE_TYPE_VIEW_SQLS     varchar2(2000);
18:21:13  73  	 I_BOOK_ONLY_SQLS	     varchar2(2000);
18:21:13  74  	 I_TAX_ONLY_BASIS_DIFFS_SQLS varchar2(2000);
18:21:13  75  
18:21:13  76  	 -- Function and procedure implementations
18:21:13  77  
18:21:13  78  	 --**************************************************************************
18:21:13  79  	 --			       PRINTOUT
18:21:13  80  	 --**************************************************************************
18:21:13  81  	 procedure PRINTOUT(MESSAGE in varchar2) is
18:21:13  82  	 begin
18:21:13  83  	    DBMS_OUTPUT.PUT_LINE(MESSAGE);
18:21:13  84  	 end PRINTOUT;
18:21:13  85  
18:21:13  86  	 --**************************************************************************
18:21:13  87  	 --			       GETBASISINDICATOR
18:21:13  88  	 --**************************************************************************
18:21:13  89  	 procedure GETBASISINDICATOR(IN_COL_NAME in varchar2,
18:21:13  90  				     OUT_VAL	 out number) is
18:21:13  91  	 begin
18:21:13  92  	    execute immediate 'SELECT ' || IN_COL_NAME || ' FROM set_of_books where set_of_books_id = 1'
18:21:13  93  	       into OUT_VAL;
18:21:13  94  	 end GETBASISINDICATOR;
18:21:13  95  
18:21:13  96  	 --**************************************************************************
18:21:13  97  	 --			       P_POPULATE_BASIS_BUCKETS
18:21:13  98  	 --**************************************************************************
18:21:13  99  	 procedure P_POPULATE_BASIS_BUCKETS is
18:21:13 100  
18:21:13 101  	    --******************************************************************************
18:21:13 102  	    -- Assigns values to the instance variables that contain the SQL statements used
18:21:13 103  	    -- to insert basis amounts into the tax repairs processing tables.	This function
18:21:13 104  	    -- only needs to be called once each time the repairs process runs.
18:21:13 105  	    -- It populates private variables of this package.
18:21:13 106  	    --******************************************************************************
18:21:13 107  
18:21:13 108  	    cursor CURREPAIRQUALIFIEDBUCKETS is
18:21:13 109  	       select BS.BOOK_SUMMARY_ID BOOK_SUMMARY_ID,
18:21:13 110  		      BS.SUMMARY_NAME SUMMARY_NAME,
18:21:13 111  		      NVL(BS.RECONCILE_ITEM_ID, 0) RECONCILE_ITEM_ID,
18:21:13 112  		      NVL(RTRIM(UPPER("TYPE")), 'TAX') TAX_RECONCILE_TYPE,
18:21:14 113  		      DECODE(BS.BOOK_SUMMARY_ID,
18:21:14 114  			     AFC_EQUITY_BOOK_SUMMARY.AFC_EQUITY_BOOK_SUMMARY_ID,
18:21:14 115  			     'afudc_equity',
18:21:14 116  			     AFC_DEBT_BOOK_SUMMARY.AFC_DEBT_BOOK_SUMMARY_ID,
18:21:14 117  			     'afudc_debt',
18:21:14 118  			     CPI_BOOK_SUMMARY.CPI_BOOK_SUMMARY_ID,
18:21:14 119  			     'cpi',
18:21:14 120  			     'none') BOOK_SUMMARY_INTEREST_TYPE
18:21:14 121  		 from BOOK_SUMMARY BS,
18:21:14 122  		      TAX_RECONCILE_ITEM TRI,
18:21:14 123  		      (select distinct C.BOOK_SUMMARY_ID AFC_EQUITY_BOOK_SUMMARY_ID
18:21:14 124  			 from AFUDC_CONTROL A, COST_ELEMENT B, CHARGE_TYPE C
18:21:14 125  			where A.EQUITY_COST_ELEMENT = B.COST_ELEMENT_ID
18:21:14 126  			  and B.CHARGE_TYPE_ID = C.CHARGE_TYPE_ID) AFC_EQUITY_BOOK_SUMMARY,
18:21:14 127  		      (select distinct C.BOOK_SUMMARY_ID AFC_DEBT_BOOK_SUMMARY_ID
18:21:14 128  			 from AFUDC_CONTROL A, COST_ELEMENT B, CHARGE_TYPE C
18:21:14 129  			where A.DEBT_COST_ELEMENT = B.COST_ELEMENT_ID
18:21:14 130  			  and B.CHARGE_TYPE_ID = C.CHARGE_TYPE_ID) AFC_DEBT_BOOK_SUMMARY,
18:21:14 131  		      (select distinct C.BOOK_SUMMARY_ID CPI_BOOK_SUMMARY_ID
18:21:14 132  			 from AFUDC_CONTROL A, COST_ELEMENT B, CHARGE_TYPE C
18:21:14 133  			where A.CPI_COST_ELEMENT = B.COST_ELEMENT_ID
18:21:14 134  			  and B.CHARGE_TYPE_ID = C.CHARGE_TYPE_ID) CPI_BOOK_SUMMARY
18:21:14 135  		where BS.RECONCILE_ITEM_ID = TRI.RECONCILE_ITEM_ID(+)
18:21:14 136  		  and BS.BOOK_SUMMARY_ID = AFC_EQUITY_BOOK_SUMMARY.AFC_EQUITY_BOOK_SUMMARY_ID(+)
18:21:14 137  		  and BS.BOOK_SUMMARY_ID = AFC_DEBT_BOOK_SUMMARY.AFC_DEBT_BOOK_SUMMARY_ID(+)
18:21:14 138  		  and BS.BOOK_SUMMARY_ID = CPI_BOOK_SUMMARY.CPI_BOOK_SUMMARY_ID(+)
18:21:14 139  		order by BS.BOOK_SUMMARY_ID;
18:21:14 140  
18:21:14 141  	    cursor CURTAXREVERSALBUCKETS is
18:21:14 142  	       select BOOK_SUMMARY_ID, REVERSAL_BOOK_SUMMARY_ID
18:21:14 143  		 from TAX_REVERSAL_BOOK_SUMMARY
18:21:14 144  		where TAX_REVERSAL_TYPE = 'Repairs'
18:21:14 145  		order by REVERSAL_BOOK_SUMMARY_ID;
18:21:14 146  
18:21:14 147  	    cursor CURSETOFBOOKS is
18:21:14 148  	       select * from SET_OF_BOOKS where SET_OF_BOOKS_ID = 1;
18:21:14 149  
18:21:14 150  	    type REPAIRQUALIFIEDBUCKETSREC is table of CURREPAIRQUALIFIEDBUCKETS%rowtype index by binary_integer;
18:21:14 151  	    type TAXREVERSALBUCKETSREC is table of CURTAXREVERSALBUCKETS%rowtype index by binary_integer;
18:21:14 152  	    type SETOFBOOKSREC is table of CURSETOFBOOKS%rowtype index by binary_integer;
18:21:14 153  
18:21:14 154  	    LOCREPAIRQUALIFIEDBUCKETS	   REPAIRQUALIFIEDBUCKETSREC;
18:21:14 155  	    LOCTAXREVERSALBUCKETS	   TAXREVERSALBUCKETSREC;
18:21:14 156  	    LOCSETOFBOOKS		   SETOFBOOKSREC;
18:21:14 157  	    I				   number := 0;
18:21:14 158  	    K				   number := 0;
18:21:14 159  	    BASIS_INDICATOR		   number;
18:21:14 160  	    ROWS_FOUND			   number;
18:21:14 161  	    SQL_TMP			   varchar2(2000);
18:21:14 162  	    STR_TMP			   varchar2(2000);
18:21:14 163  	    BOOK_SUMMARIES_AFUDC_EQUITY    varchar2(2000);
18:21:14 164  	    BOOK_SUMMARIES_AFUDC_DEBT	   varchar2(2000);
18:21:14 165  	    BOOK_SUMMARIES_OTHER_BOOKONLY  varchar2(2000);
18:21:14 166  	    BOOK_SUMMARIES_ALL_BOOKONLY    varchar2(2000);
18:21:14 167  	    CHARGE_TYPE_VIEW_SQLS_BASE	   varchar2(2000);
18:21:14 168  	    CHARGE_TYPE_VIEW_SQLS_BOOKONLY varchar2(2000);
18:21:14 169  	    BOOK_SUMMARIES_TO_REVERSE	   varchar2(2000);
18:21:14 170  	    NEXT_REVERSAL_BUCKET	   boolean;
18:21:14 171  
18:21:14 172  	 begin
18:21:14 173  	    K := 0;
18:21:14 174  	    for QUALIFIEDBUCKETROW in CURREPAIRQUALIFIEDBUCKETS
18:21:14 175  	    loop
18:21:14 176  	       K := K + 1;
18:21:14 177  	       LOCREPAIRQUALIFIEDBUCKETS(K) := QUALIFIEDBUCKETROW; -- Load the buckets into a structure
18:21:14 178  	    end loop;
18:21:14 179  
18:21:14 180  	    K := 0;
18:21:14 181  	    for REVERSALBUCKETROW in CURTAXREVERSALBUCKETS
18:21:14 182  	    loop
18:21:14 183  	       K := K + 1;
18:21:14 184  	       LOCTAXREVERSALBUCKETS(K) := REVERSALBUCKETROW; -- Load the book summary into a structure
18:21:14 185  	    end loop;
18:21:14 186  
18:21:14 187  	    K := 0;
18:21:14 188  	    for SETOFBOOKSROW in CURSETOFBOOKS
18:21:14 189  	    loop
18:21:14 190  	       K := K + 1;
18:21:14 191  	       LOCSETOFBOOKS(K) := SETOFBOOKSROW; -- Load the book summary into a structure
18:21:14 192  	    end loop;
18:21:14 193  
18:21:14 194  	    --
18:21:14 195  	    --	Create a SQL that can be used to determine which charge types should be reversed and what charge types they should be reversed into
18:21:14 196  	    --	This will be used to assign the instance variable i_charge_type_view_sqls
18:21:14 197  	    --
18:21:14 198  	    CHARGE_TYPE_VIEW_SQLS_BASE := 'select reversal_ct.charge_type_id reversal_charge_type, ' ||
18:21:14 199  					  ' ce.cost_element_id reversal_cost_element, ' ||
18:21:14 200  					  ' ct.charge_type_id charge_type_to_reverse, ' ||
18:21:14 201  					  ' decode(ct.charge_type_id,reversal_ct.charge_type_id,1,0) is_reversal_ct ' ||
18:21:14 202  					  '    from    charge_type reversal_ct, ' ||
18:21:14 203  					  '	       charge_type ct, ' ||
18:21:14 204  					  '	       cost_element ce ' ||
18:21:14 205  					  '    where reversal_ct.book_summary_id = <REVERSAL_BOOKSUMMARY> ' ||
18:21:14 206  					  '	   and reversal_ct.charge_type_id = ce.charge_type_id ' ||
18:21:14 207  					  '	   and ct.book_summary_id in (<BOOKSUMMARY_TO_REVERSE>) ';
18:21:14 208  
18:21:14 209  	    CHARGE_TYPE_VIEW_SQLS_BOOKONLY := 'select 0 reversal_charge_type, ' ||
18:21:14 210  					      ' 	   0 reversal_cost_element, ' ||
18:21:14 211  					      ' 	   ct.charge_type_id charge_type_to_reverse, ' ||
18:21:14 212  					      ' 	   2 is_reversal_ct ' ||
18:21:14 213  					      '    from    charge_type ct ' ||
18:21:14 214  					      '    where    ct.book_summary_id in (<BOOKSUMMARY_BOOKONLY>) ';
18:21:14 215  	    --
18:21:14 216  	    -- Beging looping on the array
18:21:14 217  	    --
18:21:14 218  	    for K in 1 .. LOCREPAIRQUALIFIEDBUCKETS.COUNT
18:21:14 219  	    loop
18:21:14 220  
18:21:14 221  	       case LOWER(LOCREPAIRQUALIFIEDBUCKETS(K).SUMMARY_NAME)
18:21:14 222  		  when 'tax repairs' then
18:21:14 223  		     I_REPAIR_BOOK_SUMMARY_ID := LOCREPAIRQUALIFIEDBUCKETS(K).BOOK_SUMMARY_ID;
18:21:14 224  		     CONTINUE;
18:21:14 225  		  when 'retirement reversal' then
18:21:14 226  		     I_RETIREMENT_BOOK_SUMMARY_ID := LOCREPAIRQUALIFIEDBUCKETS(K).BOOK_SUMMARY_ID;
18:21:14 227  		     CONTINUE;
18:21:14 228  		  else
18:21:14 229  		     null;
18:21:14 230  	       end case;
18:21:14 231  
18:21:14 232  	       STR_TMP := TO_CHAR(LOCREPAIRQUALIFIEDBUCKETS(K).BOOK_SUMMARY_ID);
18:21:14 233  	       SQL_TMP := 'cab.basis_' || STR_TMP;
18:21:14 234  
18:21:14 235  	       GETBASISINDICATOR('basis_' || LOCREPAIRQUALIFIEDBUCKETS(K).BOOK_SUMMARY_ID ||
18:21:14 236  				 '_indicator',
18:21:14 237  				 BASIS_INDICATOR);
18:21:14 238  
18:21:14 239  	       if BASIS_INDICATOR = 1 then
18:21:14 240  		  -- For the Tax Repairs update method, use bases included in the financial set of books that are not assigned tax
18:21:14 241  		  -- reconcile items (this will exclude items like AFUDC)
18:21:14 242  		  if LOCREPAIRQUALIFIEDBUCKETS(K).RECONCILE_ITEM_ID = 0 then
18:21:14 243  		     if I_ADD_QUALIFIED_SQLS is not null then
18:21:14 244  			I_ADD_QUALIFIED_SQLS	  := I_ADD_QUALIFIED_SQLS || ' + ';
18:21:14 245  			I_ADD_QUALIFIED_STR	  := I_ADD_QUALIFIED_STR || ', ';
18:21:14 246  			BOOK_SUMMARIES_TO_REVERSE := BOOK_SUMMARIES_TO_REVERSE || ', ';
18:21:14 247  		     else
18:21:14 248  			I_ADD_QUALIFIED_SQLS	  := null;
18:21:14 249  			I_ADD_QUALIFIED_STR	  := null;
18:21:14 250  			BOOK_SUMMARIES_TO_REVERSE := null;
18:21:14 251  		     end if;
18:21:14 252  
18:21:14 253  		     I_ADD_QUALIFIED_SQLS      := I_ADD_QUALIFIED_SQLS || SQL_TMP;
18:21:14 254  		     I_ADD_QUALIFIED_STR       := I_ADD_QUALIFIED_STR || STR_TMP;
18:21:14 255  		     BOOK_SUMMARIES_TO_REVERSE := BOOK_SUMMARIES_TO_REVERSE ||
18:21:14 256  						  TO_CHAR(LOCREPAIRQUALIFIEDBUCKETS(K).BOOK_SUMMARY_ID);
18:21:14 257  
18:21:14 258  		  else
18:21:14 259  		     -- Check to see if this should be included in the AFUDC SQLs
18:21:14 260  
18:21:14 261  		     case LOCREPAIRQUALIFIEDBUCKETS(K).BOOK_SUMMARY_INTEREST_TYPE
18:21:14 262  			when 'afudc_equity' then
18:21:14 263  			   if I_AFUDC_EQUITY_SQLS is not null then
18:21:14 264  			      I_AFUDC_EQUITY_SQLS	  := I_AFUDC_EQUITY_SQLS || ' + ';
18:21:14 265  			      BOOK_SUMMARIES_AFUDC_EQUITY := BOOK_SUMMARIES_AFUDC_EQUITY || ',	';
18:21:14 266  			   else
18:21:14 267  			      I_AFUDC_EQUITY_SQLS	  := null;
18:21:14 268  			      BOOK_SUMMARIES_AFUDC_EQUITY := null;
18:21:14 269  			   end if;
18:21:14 270  
18:21:14 271  			   I_AFUDC_EQUITY_SQLS	       := I_AFUDC_EQUITY_SQLS || SQL_TMP;
18:21:14 272  			   BOOK_SUMMARIES_AFUDC_EQUITY := BOOK_SUMMARIES_AFUDC_EQUITY ||
18:21:14 273  							  TO_CHAR(LOCREPAIRQUALIFIEDBUCKETS(K)
18:21:14 274  								  .BOOK_SUMMARY_ID);
18:21:14 275  			when 'afudc_debt' then
18:21:14 276  			   if I_AFUDC_DEBT_SQLS is not null then
18:21:14 277  			      I_AFUDC_DEBT_SQLS 	:= I_AFUDC_DEBT_SQLS || ' + ';
18:21:14 278  			      BOOK_SUMMARIES_AFUDC_DEBT := BOOK_SUMMARIES_AFUDC_DEBT || ',  ';
18:21:14 279  			   else
18:21:14 280  			      I_AFUDC_DEBT_SQLS 	:= null;
18:21:14 281  			      BOOK_SUMMARIES_AFUDC_DEBT := null;
18:21:14 282  			   end if;
18:21:14 283  
18:21:14 284  			   I_AFUDC_DEBT_SQLS	     := I_AFUDC_DEBT_SQLS || SQL_TMP;
18:21:14 285  			   BOOK_SUMMARIES_AFUDC_DEBT := BOOK_SUMMARIES_AFUDC_DEBT ||
18:21:14 286  							TO_CHAR(LOCREPAIRQUALIFIEDBUCKETS(K)
18:21:14 287  								.BOOK_SUMMARY_ID);
18:21:14 288  			else
18:21:14 289  			   --If it's not AFUDC, then include it in the "Other Book Basis Difference" buckets SQL
18:21:14 290  			   if I_OTHER_BOOK_BASIS_DIFFS_SQLS is not null then
18:21:14 291  			      I_OTHER_BOOK_BASIS_DIFFS_SQLS := I_OTHER_BOOK_BASIS_DIFFS_SQLS || ' + ';
18:21:14 292  			      BOOK_SUMMARIES_OTHER_BOOKONLY := BOOK_SUMMARIES_OTHER_BOOKONLY || ', ';
18:21:14 293  			   else
18:21:14 294  			      I_OTHER_BOOK_BASIS_DIFFS_SQLS := null;
18:21:14 295  			      BOOK_SUMMARIES_OTHER_BOOKONLY := null;
18:21:14 296  			   end if;
18:21:14 297  
18:21:14 298  			   I_OTHER_BOOK_BASIS_DIFFS_SQLS := I_OTHER_BOOK_BASIS_DIFFS_SQLS || SQL_TMP;
18:21:14 299  			   BOOK_SUMMARIES_OTHER_BOOKONLY := BOOK_SUMMARIES_OTHER_BOOKONLY ||
18:21:14 300  							    TO_CHAR(LOCREPAIRQUALIFIEDBUCKETS(K)
18:21:14 301  								    .BOOK_SUMMARY_ID);
18:21:14 302  		     end case;
18:21:14 303  		  end if;
18:21:14 304  
18:21:14 305  		  -- For the Retirement Reversal update method, use bases included in the financial set of books that are not assigned
18:21:14 306  		  -- tax reconcile items, or have tax reconcile items of type "BOOK"
18:21:14 307  		  if LOCREPAIRQUALIFIEDBUCKETS(K)
18:21:14 308  		   .RECONCILE_ITEM_ID = 0 or LOCREPAIRQUALIFIEDBUCKETS(K).TAX_RECONCILE_TYPE = 'BOOK' then
18:21:14 309  
18:21:14 310  		     if I_RETIREMENT_SQLS is not null then
18:21:14 311  			I_RETIREMENT_SQLS := I_RETIREMENT_SQLS || ' + ';
18:21:14 312  			I_RETIREMENT_STR  := I_RETIREMENT_STR || ', ';
18:21:14 313  		     else
18:21:14 314  			I_RETIREMENT_SQLS := null;
18:21:14 315  			I_RETIREMENT_STR  := null;
18:21:14 316  		     end if;
18:21:14 317  
18:21:14 318  		     if I_TOTAL_BOOK_COST_SQLS is not null then
18:21:14 319  			I_TOTAL_BOOK_COST_SQLS := I_TOTAL_BOOK_COST_SQLS || ' + ';
18:21:14 320  		     else
18:21:14 321  			I_TOTAL_BOOK_COST_SQLS := null;
18:21:14 322  		     end if;
18:21:14 323  
18:21:14 324  		     I_RETIREMENT_SQLS	    := I_RETIREMENT_SQLS || SQL_TMP;
18:21:14 325  		     I_RETIREMENT_STR	    := I_RETIREMENT_STR || STR_TMP;
18:21:14 326  		     I_TOTAL_BOOK_COST_SQLS := I_TOTAL_BOOK_COST_SQLS || SQL_TMP;
18:21:14 327  		  end if;
18:21:14 328  	       else
18:21:14 329  		  -- basis_indicator = 0
18:21:14 330  		  --
18:21:14 331  		  -- For the Tax Repairs Reversal update method, use bases not included in the financial set of books with tax reconcile
18:21:14 332  		  -- items of type "TAX" (This will pick up CPI and similar)
18:21:14 333  		  --
18:21:14 334  		  if LOCREPAIRQUALIFIEDBUCKETS(K).TAX_RECONCILE_TYPE = 'TAX' then
18:21:14 335  		     --
18:21:14 336  		     -- Determine if this guy is going to get reversed (if it's included in tax_reversal_book_summary).
18:21:14 337  		     -- If it isn't, then let's capture it for reporting (reconciling back to tax basis)
18:21:14 338  		     --
18:21:14 339  		     ROWS_FOUND := 0;
18:21:14 340  		     for I in 1 .. LOCTAXREVERSALBUCKETS.COUNT
18:21:14 341  		     loop
18:21:14 342  			if LOCTAXREVERSALBUCKETS(I)
18:21:14 343  			 .BOOK_SUMMARY_ID = LOCREPAIRQUALIFIEDBUCKETS(K).BOOK_SUMMARY_ID then
18:21:14 344  			   ROWS_FOUND := 1; -- There is atleast 1 record
18:21:14 345  			   exit;
18:21:14 346  			end if;
18:21:14 347  		     end loop;
18:21:14 348  
18:21:14 349  		     if ROWS_FOUND = 0 then
18:21:14 350  			if I_OTHER_TAX_BASIS_DIFFS_SQLS is not null then
18:21:14 351  			   I_OTHER_TAX_BASIS_DIFFS_SQLS := I_OTHER_TAX_BASIS_DIFFS_SQLS || ' + ';
18:21:14 352  			else
18:21:14 353  			   I_OTHER_TAX_BASIS_DIFFS_SQLS := null;
18:21:14 354  			end if;
18:21:14 355  			I_OTHER_TAX_BASIS_DIFFS_SQLS := I_OTHER_TAX_BASIS_DIFFS_SQLS || SQL_TMP;
18:21:14 356  			-- Found a record in	tax_reversal_book_summary
18:21:14 357  		     else
18:21:14 358  			if I_TAX_ONLY_BASIS_DIFFS_SQLS is not null then
18:21:14 359  			   I_TAX_ONLY_BASIS_DIFFS_SQLS := I_TAX_ONLY_BASIS_DIFFS_SQLS || ' + ';
18:21:14 360  			else
18:21:14 361  			   I_TAX_ONLY_BASIS_DIFFS_SQLS := null;
18:21:14 362  			end if;
18:21:14 363  			I_TAX_ONLY_BASIS_DIFFS_SQLS := I_TAX_ONLY_BASIS_DIFFS_SQLS || SQL_TMP;
18:21:14 364  		     end if;
18:21:14 365  		  end if;
18:21:14 366  	       end if; -- basis_indicator = 1
18:21:14 367  	    end loop;
18:21:14 368  
18:21:14 369  	    --
18:21:14 370  	    --	  Populate the instance variables
18:21:14 371  	    --
18:21:14 372  
18:21:14 373  	    -- Create a comma-delimited string for the basis differences that store the reversal amounts
18:21:14 374  	    I_REVERSAL_BASIS_DIFFS_STR := TO_CHAR(I_REPAIR_BOOK_SUMMARY_ID);
18:21:14 375  
18:21:14 376  	    -- The i_reversals_booked_sqls variable stores a decode that is used to pull the activity from cpr_act_basis for the tax repairs basis buckets
18:21:14 377  	    I_REVERSALS_BOOKED_SQLS := ' decode(bs.book_summary_id, ' ||
18:21:14 378  				       TO_CHAR(I_REPAIR_BOOK_SUMMARY_ID) ||
18:21:14 379  				       ', decode (ca.ferc_activity_code, 2,0, cab.basis_' ||
18:21:14 380  				       TO_CHAR(I_REPAIR_BOOK_SUMMARY_ID) || '), ';
18:21:14 381  
18:21:14 382  	    -- The i_activity_cost_sqls variable stores the decode that is used to get the activity that should be reversed for each Tax Repairs
18:21:14 383  	    -- book summary in cpr_act_basis
18:21:14 384  	    I_ACTIVITY_COST_SQLS := ' decode(bs.book_summary_id, ' || TO_CHAR(I_REPAIR_BOOK_SUMMARY_ID) ||
18:21:14 385  				    ', decode (ca.ferc_activity_code, 2,0, ' || I_ADD_QUALIFIED_SQLS || ') ';
18:21:14 386  
18:21:14 387  	    -- Create the view that will be used in CWIP processing to determine which charge types to reverse
18:21:14 388  	    I_CHARGE_TYPE_VIEW_SQLS := replace(replace(CHARGE_TYPE_VIEW_SQLS_BASE,
18:21:14 389  						       '<REVERSAL_BOOKSUMMARY>',
18:21:14 390  						       TO_CHAR(I_REPAIR_BOOK_SUMMARY_ID)),
18:21:14 391  					       '<BOOKSUMMARY_TO_REVERSE>',
18:21:14 392  					       BOOK_SUMMARIES_TO_REVERSE || ', ' ||
18:21:14 393  					       TO_CHAR(I_REPAIR_BOOK_SUMMARY_ID));
18:21:14 394  
18:21:14 395  	    -- Add the retirement book summary to our SQL if it's defined
18:21:14 396  	    if I_RETIREMENT_BOOK_SUMMARY_ID > 0 then
18:21:14 397  	       I_REVERSAL_BASIS_DIFFS_STR := I_REVERSAL_BASIS_DIFFS_STR || ', ' ||
18:21:14 398  					     TO_CHAR(I_RETIREMENT_BOOK_SUMMARY_ID);
18:21:14 399  	       I_REVERSALS_BOOKED_SQLS	  := I_REVERSALS_BOOKED_SQLS ||
18:21:14 400  					     TO_CHAR(I_RETIREMENT_BOOK_SUMMARY_ID) ||
18:21:14 401  					     ', case when ca.ferc_activity_code = 2 and ca.tax_orig_month_number is not null then cab.basis_' ||
18:21:14 402  					     TO_CHAR(I_RETIREMENT_BOOK_SUMMARY_ID) || ' else 0 end , ';
18:21:14 403  
18:21:14 404  	       I_ACTIVITY_COST_SQLS := I_ACTIVITY_COST_SQLS || ', ' ||
18:21:14 405  				       TO_CHAR(I_RETIREMENT_BOOK_SUMMARY_ID) ||
18:21:14 406  				       ', decode (ca.ferc_activity_code, 2, ' || I_RETIREMENT_SQLS ||
18:21:14 407  				       ',0)';
18:21:14 408  	    end if;
18:21:14 409  
18:21:14 410  	    NEXT_REVERSAL_BUCKET := true;
18:21:14 411  	    for K in 1 .. LOCTAXREVERSALBUCKETS.COUNT
18:21:14 412  	    loop
18:21:14 413  	       if NEXT_REVERSAL_BUCKET then
18:21:14 414  		  BOOK_SUMMARIES_TO_REVERSE  := null;
18:21:14 415  		  I_REVERSAL_BASIS_DIFFS_STR := I_REVERSAL_BASIS_DIFFS_STR || ', ' ||
18:21:14 416  						TO_CHAR(LOCTAXREVERSALBUCKETS(K).REVERSAL_BOOK_SUMMARY_ID);
18:21:14 417  
18:21:14 418  		  if I_REVERSAL_BASIS_DIFFS_SQLS is null then
18:21:14 419  		     I_REVERSAL_BASIS_DIFFS_SQLS := 'cab.basis_' ||
18:21:14 420  						    TO_CHAR(LOCTAXREVERSALBUCKETS(K)
18:21:14 421  							    .REVERSAL_BOOK_SUMMARY_ID);
18:21:14 422  		  else
18:21:14 423  		     I_REVERSAL_BASIS_DIFFS_SQLS := I_REVERSAL_BASIS_DIFFS_SQLS || ' + cab.basis_' ||
18:21:14 424  						    TO_CHAR(LOCTAXREVERSALBUCKETS(K)
18:21:14 425  							    .REVERSAL_BOOK_SUMMARY_ID);
18:21:14 426  		  end if;
18:21:14 427  
18:21:14 428  		  I_REVERSALS_BOOKED_SQLS := I_REVERSALS_BOOKED_SQLS ||
18:21:14 429  					     TO_CHAR(LOCTAXREVERSALBUCKETS(K).REVERSAL_BOOK_SUMMARY_ID) ||
18:21:14 430  					     ', decode	(ca.ferc_activity_code, 2, 0, cab.basis_' ||
18:21:14 431  					     TO_CHAR(LOCTAXREVERSALBUCKETS(K).REVERSAL_BOOK_SUMMARY_ID) ||
18:21:14 432  					     '), ';
18:21:14 433  
18:21:14 434  		  I_ACTIVITY_COST_SQLS := I_ACTIVITY_COST_SQLS || ', ' ||
18:21:14 435  					  TO_CHAR(LOCTAXREVERSALBUCKETS(K).REVERSAL_BOOK_SUMMARY_ID) ||
18:21:14 436  					  ', decode (ca.ferc_activity_code, 2, 0, cab.basis_' ||
18:21:14 437  					  TO_CHAR(LOCTAXREVERSALBUCKETS(K).BOOK_SUMMARY_ID) || ') ';
18:21:14 438  
18:21:14 439  		  BOOK_SUMMARIES_TO_REVERSE := TO_CHAR(LOCTAXREVERSALBUCKETS(K).BOOK_SUMMARY_ID);
18:21:14 440  	       else
18:21:14 441  		  I_ACTIVITY_COST_SQLS	    := I_ACTIVITY_COST_SQLS || ' + cab.basis_' ||
18:21:14 442  					       TO_CHAR(LOCTAXREVERSALBUCKETS(K).BOOK_SUMMARY_ID);
18:21:14 443  		  BOOK_SUMMARIES_TO_REVERSE := BOOK_SUMMARIES_TO_REVERSE || ', ' ||
18:21:14 444  					       TO_CHAR(LOCTAXREVERSALBUCKETS(K).BOOK_SUMMARY_ID);
18:21:14 445  	       end if;
18:21:14 446  
18:21:14 447  	       --
18:21:14 448  	       -- Determine if the next row is a new reversal_book_summary_id.	If it's not, then add this reversal bucket the charge_type view
18:21:14 449  	       --
18:21:14 450  	       NEXT_REVERSAL_BUCKET := true;
18:21:14 451  	       if K < LOCTAXREVERSALBUCKETS.COUNT then
18:21:14 452  		  if LOCTAXREVERSALBUCKETS(K + 1)
18:21:14 453  		   .REVERSAL_BOOK_SUMMARY_ID = LOCTAXREVERSALBUCKETS(K).REVERSAL_BOOK_SUMMARY_ID then
18:21:14 454  		     NEXT_REVERSAL_BUCKET := false;
18:21:14 455  		  end if;
18:21:14 456  	       else
18:21:14 457  		  --i_charge_type_view_sqls := REPLACE(REPLACE(charge_type_view_sqls_base,'<REVERSAL_BOOKSUMMARY>',TO_CHAR(i_repair_book_summary_id)),
18:21:14 458  		  --			       '<BOOKSUMMARY_TO_REVERSE>', book_summaries_to_reverse||', '||TO_CHAR(i_repair_book_summary_id));
18:21:14 459  
18:21:14 460  		  I_CHARGE_TYPE_VIEW_SQLS := I_CHARGE_TYPE_VIEW_SQLS || ' union all ' ||
18:21:14 461  					     replace(replace(CHARGE_TYPE_VIEW_SQLS_BASE,
18:21:14 462  							     '<REVERSAL_BOOKSUMMARY>',
18:21:14 463  							     TO_CHAR(LOCTAXREVERSALBUCKETS(K)
18:21:14 464  								     .REVERSAL_BOOK_SUMMARY_ID)),
18:21:14 465  						     '<BOOKSUMMARY_TO_REVERSE>',
18:21:14 466  						     BOOK_SUMMARIES_TO_REVERSE || ', ' ||
18:21:14 467  						     TO_CHAR(LOCTAXREVERSALBUCKETS(K)
18:21:14 468  							     .REVERSAL_BOOK_SUMMARY_ID));
18:21:14 469  	       end if;
18:21:14 470  	    end loop;
18:21:14 471  
18:21:14 472  	    I_REVERSALS_BOOKED_SQLS := I_REVERSALS_BOOKED_SQLS || '0)';
18:21:14 473  	    I_ACTIVITY_COST_SQLS    := I_ACTIVITY_COST_SQLS || ', 0)';
18:21:14 474  
18:21:14 475  	    --
18:21:14 476  	    -- Get i_book_only_sqls
18:21:14 477  	    --
18:21:14 478  	    if I_AFUDC_EQUITY_SQLS is not null then
18:21:14 479  	       I_BOOK_ONLY_SQLS 	   := I_AFUDC_EQUITY_SQLS;
18:21:14 480  	       BOOK_SUMMARIES_ALL_BOOKONLY := BOOK_SUMMARIES_AFUDC_EQUITY;
18:21:14 481  	    end if;
18:21:14 482  
18:21:14 483  	    if I_AFUDC_DEBT_SQLS is not null then
18:21:14 484  	       if I_BOOK_ONLY_SQLS is null then
18:21:14 485  		  I_BOOK_ONLY_SQLS	      := I_AFUDC_DEBT_SQLS;
18:21:14 486  		  BOOK_SUMMARIES_ALL_BOOKONLY := BOOK_SUMMARIES_AFUDC_DEBT;
18:21:14 487  	       else
18:21:14 488  		  I_BOOK_ONLY_SQLS	      := I_BOOK_ONLY_SQLS || ' + ' || I_AFUDC_DEBT_SQLS;
18:21:14 489  		  BOOK_SUMMARIES_ALL_BOOKONLY := BOOK_SUMMARIES_ALL_BOOKONLY || ', ' || BOOK_SUMMARIES_AFUDC_DEBT;
18:21:14 490  	       end if;
18:21:14 491  	    end if;
18:21:14 492  
18:21:14 493  	    if I_OTHER_BOOK_BASIS_DIFFS_SQLS is not null then
18:21:14 494  	       if I_BOOK_ONLY_SQLS is null then
18:21:14 495  		  I_BOOK_ONLY_SQLS	      := I_OTHER_BOOK_BASIS_DIFFS_SQLS;
18:21:14 496  		  BOOK_SUMMARIES_ALL_BOOKONLY := BOOK_SUMMARIES_OTHER_BOOKONLY;
18:21:14 497  	       else
18:21:14 498  		  I_BOOK_ONLY_SQLS	      := I_BOOK_ONLY_SQLS || ' + ' || I_OTHER_BOOK_BASIS_DIFFS_SQLS;
18:21:14 499  		  BOOK_SUMMARIES_ALL_BOOKONLY := BOOK_SUMMARIES_ALL_BOOKONLY || ', ' || BOOK_SUMMARIES_OTHER_BOOKONLY;
18:21:14 500  	       end if;
18:21:14 501  	    end if;
18:21:14 502  
18:21:14 503  	    if BOOK_SUMMARIES_ALL_BOOKONLY is not null then
18:21:14 504  	       I_CHARGE_TYPE_VIEW_SQLS := I_CHARGE_TYPE_VIEW_SQLS || ' union all ' ||
18:21:14 505  					  replace(CHARGE_TYPE_VIEW_SQLS_BOOKONLY,
18:21:14 506  						  '<BOOKSUMMARY_BOOKONLY>',
18:21:14 507  						  BOOK_SUMMARIES_ALL_BOOKONLY);
18:21:14 508  	    end if;
18:21:14 509  
18:21:14 510  	    --
18:21:14 511  	    -- Attach -5=-5, so we can attach a where clause if needed
18:21:14 512  	    --
18:21:14 513  	    I_CHARGE_TYPE_VIEW_SQLS := ' select * from ( ' || I_CHARGE_TYPE_VIEW_SQLS ||
18:21:14 514  				       ' ) where -5=-5 ';
18:21:14 515  
18:21:14 516  	    /*
18:21:14 517  	    PrintOut( 'i_add_qualified_sqls = ' || i_add_qualified_sqls );
18:21:14 518  	    PrintOut( 'i_retirement_sqls = ' || i_retirement_sqls );
18:21:14 519  	    PrintOut( 'i_add_qualified_str = ' || i_add_qualified_str );
18:21:14 520  	    PrintOut( 'i_retirement_str = ' || i_retirement_str );
18:21:14 521  	    PrintOut( 'i_afudc_debt_sqls = ' || i_afudc_debt_sqls );
18:21:14 522  	    PrintOut( 'i_afudc_equity_sqls = ' || i_afudc_equity_sqls );
18:21:14 523  	    PrintOut( 'i_other_book_basis_diffs_sqls = ' || i_other_book_basis_diffs_sqls );
18:21:14 524  	    PrintOut( 'i_other_tax_basis_diffs_sqls = ' || i_other_tax_basis_diffs_sqls );
18:21:14 525  	    PrintOut( 'i_total_book_cost_sqls = ' || i_total_book_cost_sqls );
18:21:14 526  	    PrintOut( 'i_reversal_basis_diffs_sqls = ' || i_reversal_basis_diffs_sqls );
18:21:14 527  	    PrintOut( 'i_reversal_basis_diffs_str = ' || i_reversal_basis_diffs_str );
18:21:14 528  	    PrintOut( 'i_reversals_booked_sqls = ' || i_reversals_booked_sqls );
18:21:14 529  	    PrintOut( 'i_activity_cost_sqls = ' || i_activity_cost_sqls );
18:21:14 530  	    PrintOut( 'i_charge_type_view_sqls = ' || i_charge_type_view_sqls );
18:21:14 531  	    PrintOut( 'i_book_only_sqls = ' || i_book_only_sqls );
18:21:14 532  	    PrintOut( 'i_tax_only_basis_diffs_sqls = ' || i_tax_only_basis_diffs_sqls );
18:21:14 533  	    PrintOut( 'i_retirement_book_summary_id = ' || to_char(i_retirement_book_summary_id) );
18:21:14 534  	    PrintOut( 'i_repair_book_summary_id = ' || to_char(i_repair_book_summary_id) );
18:21:14 535  	    */
18:21:14 536  
18:21:14 537  	 end P_POPULATE_BASIS_BUCKETS;
18:21:14 538  
18:21:14 539  	 procedure P_CREATE_REPAIR_BOOK_SUMMARY is
18:21:14 540  	    RBS_SQLS varchar2(4000);
18:21:14 541  
18:21:14 542  	 begin
18:21:14 543  	    RBS_SQLS := 	    ' CREATE OR REPLACE VIEW repair_book_summary AS ';
18:21:14 544  	    RBS_SQLS := RBS_SQLS || ' SELECT  rs.repair_schema_id	 repair_schema_id, ';
18:21:14 545  	    RBS_SQLS := RBS_SQLS || '	      rbs.book_summary_id	 book_summary_id, ';
18:21:14 546  	    RBS_SQLS := RBS_SQLS || '	      rbs.update_method 	 update_method, ';
18:21:14 547  	    RBS_SQLS := RBS_SQLS || '	      NULL			 time_stamp, ';
18:21:14 548  	    RBS_SQLS := RBS_SQLS || '	      NULL			 user_ud, ';
18:21:14 549  	    RBS_SQLS := RBS_SQLS || '	      rbs.book_summary_id_output book_summary_id_output, ';
18:21:14 550  	    RBS_SQLS := RBS_SQLS || '	      ce_output.cost_element_id  cost_element_id_output ';
18:21:14 551  	    RBS_SQLS := RBS_SQLS || ' FROM ';
18:21:14 552  	    RBS_SQLS := RBS_SQLS || ' ( ';
18:21:14 553  	    RBS_SQLS := RBS_SQLS || '	SELECT	bs.book_summary_id		   book_summary_id, ';
18:21:14 554  	    RBS_SQLS := RBS_SQLS || '	''add qualified''			   update_method, ';
18:21:14 555  	    RBS_SQLS := RBS_SQLS || '	bs_output.book_summary_id		   book_summary_id_output ';
18:21:14 556  	    RBS_SQLS := RBS_SQLS || ' FROM book_summary       bs, ';
18:21:14 557  	    RBS_SQLS := RBS_SQLS || '	   book_summary       bs_output ';
18:21:14 558  	    RBS_SQLS := RBS_SQLS || ' WHERE bs.book_summary_id in (' || I_ADD_QUALIFIED_STR || ') ';
18:21:14 559  	    RBS_SQLS := RBS_SQLS || '	and lower(bs_output.summary_name) = ''tax repairs'' ';
18:21:14 560  	    RBS_SQLS := RBS_SQLS || ' UNION ';
18:21:14 561  	    RBS_SQLS := RBS_SQLS || ' SELECT  bs.book_summary_id		     book_summary_id, ';
18:21:14 562  	    RBS_SQLS := RBS_SQLS || '	      ''retirement reversal''		     update_method, ';
18:21:14 563  	    RBS_SQLS := RBS_SQLS || '	      bs_output.book_summary_id 	     book_summary_id_output ';
18:21:14 564  	    RBS_SQLS := RBS_SQLS || '	FROM book_summary	bs, ';
18:21:14 565  	    RBS_SQLS := RBS_SQLS || '	     book_summary	bs_output ';
18:21:14 566  	    RBS_SQLS := RBS_SQLS || '  WHERE bs.book_summary_id in (' || I_RETIREMENT_STR || ') ';
18:21:14 567  	    RBS_SQLS := RBS_SQLS || '	 and lower(bs_output.summary_name) = ''retirement reversal'' ';
18:21:14 568  	    RBS_SQLS := RBS_SQLS || '  UNION ';
18:21:14 569  	    RBS_SQLS := RBS_SQLS || '  SELECT book_summary_id, ';
18:21:14 570  	    RBS_SQLS := RBS_SQLS || '	      ''reverse'', ';
18:21:14 571  	    RBS_SQLS := RBS_SQLS || '	      reversal_book_summary_id ';
18:21:14 572  	    RBS_SQLS := RBS_SQLS || '  FROM   tax_reversal_book_summary ';
18:21:14 573  	    RBS_SQLS := RBS_SQLS || '  WHERE  tax_reversal_type = ''Repairs'' ';
18:21:14 574  	    RBS_SQLS := RBS_SQLS || ' ) rbs, ';
18:21:14 575  	    RBS_SQLS := RBS_SQLS || ' repair_schema	 rs, ';
18:21:14 576  	    RBS_SQLS := RBS_SQLS || ' charge_type	 ct_output, ';
18:21:14 577  	    RBS_SQLS := RBS_SQLS || ' cost_element	 ce_output ';
18:21:14 578  	    RBS_SQLS := RBS_SQLS || ' WHERE  ct_output.book_summary_id = rbs.book_summary_id_output ';
18:21:14 579  	    RBS_SQLS := RBS_SQLS || ' and ct_output.charge_type_id = ce_output.charge_type_id ';
18:21:14 580  
18:21:14 581  	    --PrintOut( rbs_sqls );
18:21:14 582  	    execute immediate RBS_SQLS;
18:21:14 583  
18:21:14 584  	 end P_CREATE_REPAIR_BOOK_SUMMARY;
18:21:14 585  
18:21:14 586  	 procedure P_GET_BASIS_BUCKETS(A_REPAIR_BOOK_SUMMARY_ID     out number,
18:21:14 587  				       A_RETIREMENT_BOOK_SUMMARY_ID out number,
18:21:14 588  
18:21:14 589  				       A_ADD_QUALIFIED_SQLS out varchar2,
18:21:14 590  				       A_RETIREMENT_SQLS    out varchar2,
18:21:14 591  
18:21:14 592  				       A_AFUDC_EQUITY_SQLS	     out varchar2,
18:21:14 593  				       A_AFUDC_DEBT_SQLS	     out varchar2,
18:21:14 594  				       A_OTHER_BOOK_BASIS_DIFFS_SQLS out varchar2,
18:21:14 595  				       A_OTHER_TAX_BASIS_DIFFS_SQLS  out varchar2,
18:21:14 596  				       A_TOTAL_BOOK_COST_SQLS	     out varchar2,
18:21:14 597  				       A_REVERSAL_BASIS_DIFFS_SQLS   out varchar2,
18:21:14 598  
18:21:14 599  				       A_ADD_QUALIFIED_STR	  out varchar2,
18:21:14 600  				       A_RETIREMENT_STR 	  out varchar2,
18:21:14 601  				       A_REVERSAL_BASIS_DIFFS_STR out varchar2,
18:21:14 602  
18:21:14 603  				       A_REVERSALS_BOOKED_SQLS	   out varchar2,
18:21:14 604  				       A_ACTIVITY_COST_SQLS	   out varchar2,
18:21:14 605  				       A_CHARGE_TYPE_VIEW_SQLS	   out varchar2,
18:21:14 606  				       A_BOOK_ONLY_SQLS 	   out varchar2,
18:21:14 607  				       A_TAX_ONLY_BASIS_DIFFS_SQLS out varchar2) is
18:21:14 608  	 begin
18:21:14 609  	    A_REPAIR_BOOK_SUMMARY_ID	 := I_REPAIR_BOOK_SUMMARY_ID;
18:21:14 610  	    A_RETIREMENT_BOOK_SUMMARY_ID := I_RETIREMENT_BOOK_SUMMARY_ID;
18:21:14 611  
18:21:14 612  	    A_ADD_QUALIFIED_SQLS := I_ADD_QUALIFIED_SQLS;
18:21:14 613  	    A_RETIREMENT_SQLS	 := I_RETIREMENT_SQLS;
18:21:14 614  
18:21:14 615  	    A_AFUDC_EQUITY_SQLS 	  := I_AFUDC_EQUITY_SQLS;
18:21:14 616  	    A_AFUDC_DEBT_SQLS		  := I_AFUDC_DEBT_SQLS;
18:21:14 617  	    A_OTHER_BOOK_BASIS_DIFFS_SQLS := I_OTHER_BOOK_BASIS_DIFFS_SQLS;
18:21:14 618  	    A_OTHER_TAX_BASIS_DIFFS_SQLS  := I_OTHER_TAX_BASIS_DIFFS_SQLS;
18:21:14 619  	    A_TOTAL_BOOK_COST_SQLS	  := I_TOTAL_BOOK_COST_SQLS;
18:21:14 620  	    A_REVERSAL_BASIS_DIFFS_SQLS   := I_REVERSAL_BASIS_DIFFS_SQLS;
18:21:14 621  
18:21:14 622  	    A_ADD_QUALIFIED_STR        := I_ADD_QUALIFIED_STR;
18:21:14 623  	    A_RETIREMENT_STR	       := I_RETIREMENT_STR;
18:21:14 624  	    A_REVERSAL_BASIS_DIFFS_STR := I_REVERSAL_BASIS_DIFFS_STR;
18:21:14 625  
18:21:14 626  	    A_REVERSALS_BOOKED_SQLS	:= I_REVERSALS_BOOKED_SQLS;
18:21:14 627  	    A_ACTIVITY_COST_SQLS	:= I_ACTIVITY_COST_SQLS;
18:21:14 628  	    A_CHARGE_TYPE_VIEW_SQLS	:= I_CHARGE_TYPE_VIEW_SQLS;
18:21:14 629  	    A_BOOK_ONLY_SQLS		:= I_BOOK_ONLY_SQLS;
18:21:14 630  	    A_TAX_ONLY_BASIS_DIFFS_SQLS := I_TAX_ONLY_BASIS_DIFFS_SQLS;
18:21:14 631  	 end P_GET_BASIS_BUCKETS;
18:21:14 632  
18:21:14 633  end RPR_BASIS_PKG;
18:21:14 634  /

Package body created.

18:21:14 hopplant> 
18:21:14 hopplant> --**************************
18:21:14 hopplant> -- Log the run of the script
18:21:14 hopplant> --**************************
18:21:14 hopplant> 
18:21:14 hopplant> insert into PP_SCHEMA_CHANGE_LOG
18:21:14   2  	 (ID, SKIPPED, MAJOR_VERSION, MINOR_VERSION, POINT_VERSION, PATCH_VERSION, MAINT_NUM, SCRIPT_PATH,
18:21:14   3  	  SCRIPT_NAME, SCRIPT_REVISION, DATE_APPLIED, OS_USER, TERMINAL, SERVICE_NAME)
18:21:14   4  values
18:21:14   5  	 (1251, 0, 10, 4, 2, 2, 38741, 'C:\PlasticWks\powerplant\sql\maint_scripts', '10.4.2.2_maint_038741_taxrpr_RPR_BASIS_PKG.sql', 1,
18:21:14   6  	  SYSTIMESTAMP, SYS_CONTEXT('USERENV', 'OS_USER'), SYS_CONTEXT('USERENV', 'TERMINAL'),
18:21:14   7  	  SYS_CONTEXT('USERENV', 'SERVICE_NAME'));

1 row created.

18:21:14 hopplant> commit;

Commit complete.

18:21:14 hopplant> SPOOL OFF
