18:20:19 hopplant> @&&PP_SCRIPT_PATH.maint_scripts\10.4.2.0_maint_037099_lease_PKG_LEASE_ASSET_POST.sql
18:20:19 hopplant> SET DEFINE OFF
18:20:19 hopplant> /*
18:20:19 hopplant> ||============================================================================
18:20:19 hopplant> || Application: PowerPlant
18:20:19 hopplant> || File Name:   maint_037099_lease_PKG_LEASE_ASSET_POST.sql
18:20:19 hopplant> ||============================================================================
18:20:19 hopplant> || Copyright (C) 2014 by PowerPlan, Inc. All Rights Reserved.
18:20:19 hopplant> ||============================================================================
18:20:19 hopplant> || Version  Date	  Revised By	   Reason for Change
18:20:19 hopplant> || -------- ---------- ---------------- --------------------------------------
18:20:19 hopplant> || 10.4.2.0 03/17/2014 Brandon Beck
18:20:19 hopplant> ||============================================================================
18:20:19 hopplant> */
18:20:19 hopplant> 
18:20:19 hopplant> create or replace package PKG_LEASE_ASSET_POST as
18:20:19   2  	 /*
18:20:19   3  	 ||============================================================================
18:20:19   4  	 || Application: PowerPlant
18:20:19   5  	 || Object Name: PKG_LEASE_ASSET_POST
18:20:19   6  	 || Description:
18:20:19   7  	 ||============================================================================
18:20:19   8  	 || Copyright (C) 2013 by PowerPlan Consultants, Inc. All Rights Reserved.
18:20:19   9  	 ||============================================================================
18:20:19  10  	 || Version  Date	Revised By     Reason for Change
18:20:19  11  	 || -------- ---------- -------------- ----------------------------------------
18:20:19  12  	 || 10.4.0.1 05/07/2013 B.Beck	       Original Version
18:20:19  13  	 ||============================================================================
18:20:19  14  	 */
18:20:19  15  	 G_SEND_JES boolean NOT NULL := true;
18:20:19  16  
18:20:19  17  	 procedure P_SET_ILR_ID(A_ILR_ID number);
18:20:19  18  
18:20:19  19  	 -- Function to perform specific Leased Asset addition
18:20:19  20  	 function F_ADD_ASSET(A_LS_ASSET_ID number) return varchar2;
18:20:19  21  
18:20:19  22  	 -- Function to perform specific Leased Asset retirements
18:20:19  23  	 function F_RETIRE_ASSET(A_CPR_ASSET_ID        number,
18:20:19  24  				 A_ACCT_MONTH	       date,
18:20:19  25  				 A_MONTH	       date,
18:20:19  26  				 A_RETIREMENT_AMOUNT   number,
18:20:19  27  				 A_RETIREMENT_QUANTITY number,
18:20:19  28  				 A_GAIN_LOSS_AMOUNT    number,
18:20:19  29  				 A_DG_ID	       number,
18:20:19  30  				 A_PT_ID	       number,
18:20:19  31  				 A_MSG		       out varchar2) return number;
18:20:19  32  
18:20:19  33  	 -- Function to perform specific Leased Asset transfer from
18:20:19  34  	 function F_TRANSFER_ASSET_FROM(A_CPR_ASSET_ID number,
18:20:19  35  					A_AMOUNT       number,
18:20:19  36  					A_QUANTITY     number,
18:20:19  37  					A_PT_ID        number,
18:20:19  38  					A_MSG	       out varchar2) return number;
18:20:19  39  
18:20:19  40  	 -- Function to perform specific Leased Asset transfer to
18:20:19  41  	 -- takes in the asset attributes to handle a transfer.
18:20:19  42  	 -- out parameter for message.	Returns a number
18:20:19  43  	 -- 1 for success, 0 for failure
18:20:19  44  	 function F_TRANSFER_ASSET_TO(A_CPR_ASSET_ID	   number,
18:20:19  45  				      A_AMOUNT		   number,
18:20:19  46  				      A_QUANTITY	   number,
18:20:19  47  				      A_COMPANY_ID	   number,
18:20:19  48  				      A_BUS_SEGMENT_ID	   number,
18:20:19  49  				      A_UTILITY_ACCOUNT_ID number,
18:20:19  50  				      A_SUB_ACCOUNT_ID	   number,
18:20:19  51  				      A_FUNC_CLASS_ID	   number,
18:20:19  52  				      A_PROPERTY_GROUP_ID  number,
18:20:19  53  				      A_RETIREMENT_UNIT_ID number,
18:20:19  54  				      A_ASSET_LOCATION_ID  number,
18:20:19  55  				      A_DG_ID		   number,
18:20:19  56  				      A_PT_ID		   number,
18:20:19  57  				      A_MSG		   out varchar2) return number;
18:20:19  58  
18:20:19  59  	 function F_GET_ILR_ID return number;
18:20:19  60  end PKG_LEASE_ASSET_POST;
18:20:19  61  /

Package created.

18:20:19 hopplant> 
18:20:19 hopplant> 
18:20:19 hopplant> create or replace package body PKG_LEASE_ASSET_POST as
18:20:19   2  	 /*
18:20:19   3  	 ||============================================================================
18:20:19   4  	 || Application: PowerPlant
18:20:19   5  	 || Object Name: PKG_LEASE_ASSET_POST
18:20:19   6  	 || Description:
18:20:19   7  	 ||============================================================================
18:20:19   8  	 || Copyright (C) 2013 by PowerPlan Consultants, Inc. All Rights Reserved.
18:20:19   9  	 ||============================================================================
18:20:19  10  	 || Version  Date	Revised By     Reason for Change
18:20:19  11  	 || -------- ---------- -------------- ----------------------------------------
18:20:19  12  	 || 10.4.0.1 05/07/2013 B.Beck	       Original Version
18:20:19  13  	 ||============================================================================
18:20:19  14  	 */
18:20:19  15  
18:20:19  16  	 L_ILR_ID number;
18:20:19  17  
18:20:19  18  	 --**************************************************************************
18:20:19  19  	 --			       Start Body
18:20:19  20  	 --**************************************************************************
18:20:19  21  	 --**************************************************************************
18:20:19  22  	 --			       PROCEDURES
18:20:19  23  	 --**************************************************************************
18:20:19  24  	 procedure P_DEPR_SLE( A_LS_ASSET_ID in number, A_REVISION in number,
18:20:19  25  			A_ASSET_ID in number, A_SOB_ID in number,
18:20:19  26  			A_MONTH date, A_MSG out varchar2)
18:20:19  27  	 is
18:20:19  28  	    L_MONTHLY_OBL number(22,2);
18:20:19  29  	    L_TOTAL_OBL number(22,2);
18:20:19  30  	    L_TOTAL_CHECK number(22, 2);
18:20:19  31  	    L_NUM_MONTHS number(22,0);
18:20:19  32  	    L_ROUND number(22,2);
18:20:19  33  	 begin
18:20:19  34  	    A_MSG := 'DELETING from depr_method_sle for current month through end of lease';
18:20:19  35  	    delete from DEPR_METHOD_SLE
18:20:19  36  	    where ASSET_ID = A_ASSET_ID
18:20:19  37  	    and SET_OF_BOOKS_ID = A_SOB_ID
18:20:19  38  	    ;
18:20:19  39  
18:20:19  40  	    a_msg := 'GET number of months';
18:20:19  41  	    select count(1), sum(PRINCIPAL_PAID) + sum(INTEREST_PAID)
18:20:19  42  	    into L_NUM_MONTHS, L_TOTAL_OBL
18:20:19  43  	    from LS_ASSET_SCHEDULE
18:20:19  44  	    where LS_ASSET_ID = A_LS_ASSET_ID
18:20:19  45  	    and REVISION = A_REVISION
18:20:19  46  	    and SET_OF_BOOKS_ID = A_SOB_ID;
18:20:19  47  
18:20:19  48  	    if L_NUM_MONTHS > 0 then
18:20:19  49  	       L_MONTHLY_OBL := round( L_TOTAL_OBL / L_NUM_MONTHS, 2);
18:20:19  50  	       L_TOTAL_CHECK := L_NUM_MONTHS * L_MONTHLY_OBL;
18:20:19  51  	       L_ROUND := L_TOTAL_OBL - L_TOTAL_CHECK;
18:20:19  52  
18:20:19  53  	       A_MSG := 'INSERTING depreciation expense for SLE Method';
18:20:19  54  	       insert into DEPR_METHOD_SLE
18:20:19  55  	       (ASSET_ID, SET_OF_BOOKS_ID, GL_POSTING_MO_YR, DEPR_EXPENSE)
18:20:19  56  	       select A_ASSET_ID, A_SOB_ID, LAS."MONTH",
18:20:19  57  		     case when MAX_MONTH."MONTH" <> LAS."MONTH" then L_MONTHLY_OBL - LAS.INTEREST_ACCRUAL
18:20:19  58  		     else L_MONTHLY_OBL - LAS.INTEREST_ACCRUAL + L_ROUND
18:20:19  59  		     end
18:20:19  60  	       from LS_ASSET_SCHEDULE LAS,
18:20:19  61  		  (
18:20:19  62  		     select LL."MONTH", row_number() over(order by LL."MONTH" desc) THE_ROW
18:20:19  63  		     from LS_ASSET_SCHEDULE LL
18:20:19  64  		     where LL.LS_ASSET_ID = A_LS_ASSET_ID
18:20:19  65  		     and LL.REVISION = A_REVISION
18:20:19  66  		     and LL.SET_OF_BOOKS_ID = A_SOB_ID
18:20:19  67  		  ) MAX_MONTH
18:20:19  68  	       where LAS.LS_ASSET_ID = A_LS_ASSET_ID
18:20:19  69  	       and LAS.REVISION = A_REVISION
18:20:19  70  	       and LAS.SET_OF_BOOKS_ID = A_SOB_ID
18:20:19  71  	       and MAX_MONTH.THE_ROW = 1
18:20:19  72  	       ;
18:20:19  73  	    end if;
18:20:19  74  
18:20:19  75  	    A_MSG := 'OK';
18:20:19  76  	 end P_DEPR_SLE;
18:20:19  77  
18:20:19  78  	 procedure P_DEPR_FERC( A_LS_ASSET_ID in number, A_REVISION in number,
18:20:19  79  			A_ASSET_ID in number, A_SOB_ID in number,
18:20:19  80  			A_MONTH date, A_MSG out varchar2)
18:20:19  81  	 is
18:20:19  82  	    L_MONTHLY_OBL number(22,2);
18:20:19  83  	    L_TOTAL_OBL number(22,2);
18:20:19  84  	    L_TOTAL_CHECK number(22, 2);
18:20:19  85  	    L_NUM_MONTHS number(22,0);
18:20:19  86  	    L_ROUND number(22,2);
18:20:19  87  	 begin
18:20:19  88  	    A_MSG := 'DELETING from depr_method_sle for current month through end of lease';
18:20:19  89  	    delete from DEPR_METHOD_SLE
18:20:19  90  	    where ASSET_ID = A_ASSET_ID
18:20:19  91  	    and SET_OF_BOOKS_ID = A_SOB_ID;
18:20:19  92  
18:20:19  93  	  A_MSG := 'INSERTING depreciation expense for FERC Method';
18:20:19  94  	  insert into DEPR_METHOD_SLE
18:20:19  95  	    (ASSET_ID, SET_OF_BOOKS_ID, GL_POSTING_MO_YR, DEPR_EXPENSE)
18:20:19  96  	    select A_ASSET_ID, A_SOB_ID, LAS."MONTH", LAS.PRINCIPAL_ACCRUAL
18:20:19  97  	     from LS_ASSET_SCHEDULE LAS
18:20:19  98  	    where LAS.LS_ASSET_ID = A_LS_ASSET_ID
18:20:19  99  	      and LAS.REVISION = A_REVISION
18:20:19 100  	      and LAS.SET_OF_BOOKS_ID = A_SOB_ID;
18:20:19 101  
18:20:19 102  
18:20:19 103  	    A_MSG := 'OK';
18:20:19 104  	 end P_DEPR_FERC;
18:20:19 105  
18:20:19 106  	 --**************************************************************************
18:20:19 107  	 --			       SET_ILR_ID
18:20:19 108  	 --**************************************************************************
18:20:19 109  
18:20:19 110  	 procedure P_SET_ILR_ID(A_ILR_ID number) is
18:20:19 111  	 begin
18:20:19 112  	    L_ILR_ID := A_ILR_ID;
18:20:19 113  	 end P_SET_ILR_ID;
18:20:19 114  
18:20:19 115  	 --**************************************************************************
18:20:19 116  	 --			       FUNCTIONS
18:20:19 117  	 --**************************************************************************
18:20:19 118  	 -- Function to perform specific Leased Asset Adjustment
18:20:19 119  	 function F_ADJUST_ASSET(A_LS_ASSET   in LS_ASSET%rowtype,
18:20:19 120  				 A_REVISION   in number,
18:20:19 121  				 A_SOB	      in number,
18:20:19 122  				 A_OBL_ADJ    out number,
18:20:19 123  				 A_LT_OBL_ADJ out number,
18:20:19 124  				 A_ASSET_ID   out number) return varchar2 is
18:20:19 125  	    L_MSG		      varchar2(2000);
18:20:19 126  	    L_ASSET_SCHEDULE_MONTH    LS_ASSET_SCHEDULE%rowtype;
18:20:19 127  	    L_ASSET_SCHEDULE_APPROVED LS_ASSET_SCHEDULE%rowtype;
18:20:19 128  	    L_MONTH		      date;
18:20:19 129  	 begin
18:20:19 130  	    L_MSG := 'Getting the current open month for lessee';
18:20:19 131  	    select min(GL_POSTING_MO_YR)
18:20:19 132  	      into L_MONTH
18:20:19 133  	      from LS_PROCESS_CONTROL
18:20:19 134  	     where LAM_CLOSED is null
18:20:19 135  	       and COMPANY_ID = A_LS_ASSET.COMPANY_ID;
18:20:19 136  
18:20:19 137  	    L_MSG := 'Starting to retrieve leased asset schedule for the month';
18:20:19 138  	    --get the asset_schedule for the first month
18:20:19 139  	    select AA.*
18:20:19 140  	      into L_ASSET_SCHEDULE_MONTH
18:20:19 141  	      from LS_ASSET_SCHEDULE AA
18:20:19 142  	     where AA.LS_ASSET_ID = A_LS_ASSET.LS_ASSET_ID
18:20:19 143  	       and AA.REVISION = A_REVISION
18:20:19 144  	       and AA.SET_OF_BOOKS_ID = A_SOB
18:20:19 145  	       and aa."MONTH" = L_MONTH;
18:20:19 146  
18:20:19 147  	    L_MSG := 'Starting to retrieve leased asset schedule for the approved revision';
18:20:19 148  	    --get the asset_schedule for the first month
18:20:19 149  	    select AA.*
18:20:19 150  	      into L_ASSET_SCHEDULE_APPROVED
18:20:19 151  	      from LS_ASSET_SCHEDULE AA
18:20:19 152  	     where AA.LS_ASSET_ID = A_LS_ASSET.LS_ASSET_ID
18:20:19 153  	       and AA.REVISION = A_LS_ASSET.APPROVED_REVISION
18:20:19 154  	       and AA.SET_OF_BOOKS_ID = A_SOB
18:20:19 155  	       and aa."MONTH" = L_MONTH;
18:20:19 156  
18:20:19 157  	    A_OBL_ADJ	 := L_ASSET_SCHEDULE_MONTH.BEG_OBLIGATION -
18:20:19 158  			    L_ASSET_SCHEDULE_APPROVED.BEG_OBLIGATION;
18:20:19 159  	    A_LT_OBL_ADJ := L_ASSET_SCHEDULE_MONTH.BEG_LT_OBLIGATION -
18:20:19 160  			    L_ASSET_SCHEDULE_APPROVED.BEG_LT_OBLIGATION;
18:20:19 161  
18:20:19 162  	    L_MSG := 'Get the asset id';
18:20:19 163  	    select A.ASSET_ID
18:20:19 164  	      into A_ASSET_ID
18:20:19 165  	      from (select ASSET_ID,
18:20:19 166  			   ROW_NUMBER() OVER(partition by LS_ASSET_ID order by EFFECTIVE_DATE desc) as THE_ROW
18:20:19 167  		      from LS_CPR_ASSET_MAP
18:20:19 168  		     where LS_ASSET_ID = A_LS_ASSET.LS_ASSET_ID) A
18:20:19 169  	     where A.THE_ROW = 1;
18:20:19 170  
18:20:19 171  	    return 'OK';
18:20:19 172  	 exception
18:20:19 173  	    when others then
18:20:19 174  	       L_MSG := SUBSTR(L_MSG || ': ' || sqlerrm, 1, 2000);
18:20:19 175  	       return L_MSG;
18:20:19 176  	 end F_ADJUST_ASSET;
18:20:19 177  
18:20:19 178  	 -- Function to perform specific Leased Asset addition
18:20:19 179  	 function F_ADD_ASSET(A_LS_ASSET_ID number) return varchar2 is
18:20:19 180  
18:20:19 181  	    L_MSG	     varchar2(2000);
18:20:19 182  	    L_DG_ID	     DEPR_GROUP.DEPR_GROUP_ID%type;
18:20:19 183  	    L_LS_ASSET	     LS_ASSET%rowtype;
18:20:19 184  	    L_LS_PEND_TRANS  LS_PEND_TRANSACTION%rowtype;
18:20:19 185  	    L_ASSET_SCHEDULE LS_ASSET_SCHEDULE%rowtype;
18:20:19 186  	    L_MAJOR_LOC      MAJOR_LOCATION.MAJOR_LOCATION_ID%type;
18:20:19 187  	    L_PROP_UNIT      PROPERTY_UNIT.PROPERTY_UNIT_ID%type;
18:20:19 188  	    L_LOC_TYPE	     LOCATION_TYPE.LOCATION_TYPE_ID%type;
18:20:19 189  	    L_ASSET_ID	     CPR_LEDGER.ASSET_ID%type;
18:20:19 190  	    L_SECOND_COST    CPR_LEDGER.SECOND_FINANCIAL_COST%type;
18:20:19 191  	    L_GL_ACCT_ID     GL_ACCOUNT.GL_ACCOUNT_ID%type;
18:20:19 192  	    L_ST_ACCT_ID    GL_ACCOUNT.GL_ACCOUNT_ID%type;
18:20:19 193  	    L_LT_ACCT_ID    GL_ACCOUNT.GL_ACCOUNT_ID%type;
18:20:19 194  	    L_ASSET_ACT_ID   number;
18:20:19 195  	    L_ACT_CODE	     CPR_ACTIVITY.ACTIVITY_CODE%type;
18:20:19 196  	    L_FERC_ACT_CODE  CPR_ACTIVITY.FERC_ACTIVITY_CODE%type;
18:20:19 197  	    L_CHECK	     number;
18:20:19 198  	    L_ADJ	     number;
18:20:19 199  	    L_RTN	     number;
18:20:19 200  	    L_OBL_ADJ	     number;
18:20:19 201  	    L_LT_OBL_ADJ     number;
18:20:19 202  	    L_MONTH	     date;
18:20:19 203  	    L_MID_PERIOD_METHOD varchar2(50);
18:20:19 204  	 begin
18:20:19 205  	    L_MSG := 'Starting to add leased asset';
18:20:19 206  
18:20:19 207  	    -- ls_asset
18:20:19 208  	    select * into L_LS_ASSET from LS_ASSET where LS_ASSET_ID = A_LS_ASSET_ID;
18:20:19 209  
18:20:19 210  	    L_MSG := 'Getting the current open month for lessee';
18:20:19 211  	    select min(GL_POSTING_MO_YR)
18:20:19 212  	      into L_MONTH
18:20:19 213  	      from LS_PROCESS_CONTROL
18:20:19 214  	     where LAM_CLOSED is null
18:20:19 215  	       and COMPANY_ID = L_LS_ASSET.COMPANY_ID;
18:20:19 216  
18:20:19 217  	    -- ls_pend_transaction
18:20:19 218  	    select * into L_LS_PEND_TRANS from LS_PEND_TRANSACTION where LS_ASSET_ID = A_LS_ASSET_ID;
18:20:19 219  
18:20:19 220  	    -- adding an asset if the count returns 0 (meaning it exists in the CPR) and there is an approved revision
18:20:19 221  	    if L_LS_PEND_TRANS.ACTIVITY_CODE = 11 then
18:20:19 222  	       L_ACT_CODE      := 'UADJ';
18:20:19 223  	       L_ADJ	       := 1;
18:20:19 224  	       L_FERC_ACT_CODE := 3;
18:20:19 225  
18:20:19 226  	       -- this is an ADJUSTMENT
18:20:19 227  	       -- figure out the adjustment amounts.
18:20:19 228  	       L_MSG := F_ADJUST_ASSET(L_LS_ASSET,
18:20:19 229  				       L_LS_PEND_TRANS.REVISION,
18:20:19 230  				       1,
18:20:19 231  				       L_OBL_ADJ,
18:20:19 232  				       L_LT_OBL_ADJ,
18:20:19 233  				       L_ASSET_ID);
18:20:19 234  	       if L_MSG <> 'OK' then
18:20:19 235  		  return L_MSG;
18:20:19 236  	       end if;
18:20:19 237  
18:20:19 238  	       L_LS_PEND_TRANS.POSTING_QUANTITY := 0;
18:20:19 239  	    else
18:20:19 240  	       --Generate asset id
18:20:19 241  	       --Hopefully use something marginally better than pwrplant1
18:20:19 242  	       select PWRPLANT1.NEXTVAL into L_ASSET_ID from DUAL;
18:20:19 243  
18:20:19 244  	       L_ACT_CODE      := 'UADD';
18:20:19 245  	       L_ADJ	       := 0;
18:20:19 246  	       L_FERC_ACT_CODE := 1;
18:20:19 247  	       L_ASSET_ACT_ID  := 1;
18:20:19 248  	    end if;
18:20:19 249  
18:20:19 250  	    -- gl_account
18:20:19 251  	    select IA.CAP_ASSET_ACCOUNT_ID, IA.ST_OBLIG_ACCOUNT_ID, IA.LT_OBLIG_ACCOUNT_ID
18:20:19 252  	      into L_GL_ACCT_ID, L_ST_ACCT_ID, L_LT_ACCT_ID
18:20:19 253  	      from LS_ILR_ACCOUNT IA, LS_ASSET LA
18:20:19 254  	     where LA.ILR_ID = IA.ILR_ID
18:20:19 255  	       and LA.LS_ASSET_ID = A_LS_ASSET_ID;
18:20:19 256  
18:20:19 257  	    -- major_location
18:20:19 258  	    select MAJOR_LOCATION_ID
18:20:19 259  	      into L_MAJOR_LOC
18:20:19 260  	      from ASSET_LOCATION
18:20:19 261  	     where ASSET_LOCATION_ID = L_LS_ASSET.ASSET_LOCATION_ID;
18:20:19 262  
18:20:19 263  	    -- location_type
18:20:19 264  	    select LOCATION_TYPE_ID
18:20:19 265  	      into L_LOC_TYPE
18:20:19 266  	      from MAJOR_LOCATION
18:20:19 267  	     where MAJOR_LOCATION_ID = L_MAJOR_LOC;
18:20:19 268  
18:20:19 269  	    -- property_unit
18:20:19 270  	    select PROPERTY_UNIT_ID
18:20:19 271  	      into L_PROP_UNIT
18:20:19 272  	      from RETIREMENT_UNIT
18:20:19 273  	     where RETIREMENT_UNIT_ID = L_LS_PEND_TRANS.RETIREMENT_UNIT_ID;
18:20:19 274  
18:20:19 275  	    L_MSG   := 'Finding depr group';
18:20:19 276  	    L_DG_ID := PP_DEPR_PKG.F_FIND_DEPR_GROUP(L_LS_PEND_TRANS.COMPANY_ID,
18:20:19 277  						     L_GL_ACCT_ID,
18:20:19 278  						     L_MAJOR_LOC,
18:20:19 279  						     L_LS_PEND_TRANS.UTILITY_ACCOUNT_ID,
18:20:19 280  						     L_LS_PEND_TRANS.BUS_SEGMENT_ID,
18:20:19 281  						     L_LS_PEND_TRANS.SUB_ACCOUNT_ID,
18:20:19 282  						     -100, --SUBLEDGER_TYPE_ID
18:20:19 283  						     TO_NUMBER(TO_CHAR(NVL(L_LS_PEND_TRANS.IN_SERVICE_DATE,
18:20:19 284  									   L_MONTH),
18:20:19 285  								       'YYYY')),
18:20:19 286  						     L_LS_PEND_TRANS.ASSET_LOCATION_ID,
18:20:19 287  						     L_LOC_TYPE,
18:20:19 288  						     L_LS_PEND_TRANS.RETIREMENT_UNIT_ID,
18:20:19 289  						     L_PROP_UNIT,
18:20:19 290  						     -1, --A_CLASS_CODE_ID
18:20:19 291  						     'NO CLASS CODE'); --A_CC_VALUE
18:20:19 292  	    if L_DG_ID in (-1, -9) then
18:20:19 293  	       -- we canot save... set error_message on ls_pend_transactions
18:20:19 294  	       return 'ERROR: Finding Depreciation Group (' || TO_CHAR(NVL(L_LS_PEND_TRANS.COMPANY_ID,
18:20:19 295  									   '')) || ' : ' || TO_CHAR(NVL(L_GL_ACCT_ID,
18:20:19 296  													'')) || ' : ' || TO_CHAR(NVL(L_MAJOR_LOC,
18:20:19 297  																     '')) || ' : ' || TO_CHAR(NVL(L_LS_PEND_TRANS.UTILITY_ACCOUNT_ID,
18:20:19 298  																				  '')) || ' : ' || TO_CHAR(NVL(L_LS_PEND_TRANS.BUS_SEGMENT_ID,
18:20:19 299  																							       '')) || ' : ' || TO_CHAR(NVL(L_LS_PEND_TRANS.SUB_ACCOUNT_ID,
18:20:19 300  																											    '')) || ' : -100 : ' || TO_CHAR(NVL(TO_CHAR(NVL(L_LS_PEND_TRANS.IN_SERVICE_DATE,
18:20:19 301  																																	    L_MONTH),
18:20:19 302  																																	'YYYY'),
18:20:19 303  																																'')) || ' : ' || TO_CHAR(NVL(L_LS_PEND_TRANS.ASSET_LOCATION_ID,
18:20:19 304  																																			     '')) || ' : ' || TO_CHAR(NVL(L_LOC_TYPE,
18:20:19 305  																																							  '')) || ' : ' || TO_CHAR(NVL(L_LS_PEND_TRANS.RETIREMENT_UNIT_ID,
18:20:19 306  																																										       '')) || ' : ' || TO_CHAR(NVL(L_PROP_UNIT,
18:20:19 307  																																														    ''));
18:20:19 308  	    end if;
18:20:19 309  
18:20:19 310  	    -- check to make sure the depr group has subledger_type_id = -100
18:20:19 311  	    L_CHECK := 0;
18:20:19 312  	    select count(1)
18:20:19 313  	      into L_CHECK
18:20:19 314  	      from DEPR_GROUP
18:20:19 315  	     where DEPR_GROUP_ID = L_DG_ID
18:20:19 316  	       and SUBLEDGER_TYPE_ID = -100;
18:20:19 317  
18:20:19 318  	    if L_CHECK <> 1 then
18:20:19 319  	       return 'ERROR: Depreciation Group is not a lease depreciation group.  Fix the depreciation group control tree: ' || TO_CHAR(L_DG_ID);
18:20:19 320  	    end if;
18:20:19 321  
18:20:19 322  	    L_MSG	   := 'Get the next activity id';
18:20:19 323  	    L_ASSET_ACT_ID := PP_CPR_PKG.F_GET_ASSET_ACTIVITY_ID(L_ASSET_ID, L_DG_ID);
18:20:19 324  
18:20:19 325  	    select UPPER(trim(MID_PERIOD_METHOD))
18:20:19 326  	    into L_MID_PERIOD_METHOD
18:20:19 327  	    from DEPR_GROUP
18:20:19 328  	    where DEPR_GROUP_ID = L_DG_ID;
18:20:19 329  
18:20:19 330  	    for L_SOBS in (select PB.SET_OF_BOOKS_ID as SET_OF_BOOKS_ID, PB.POSTING_AMOUNT as AMOUNT
18:20:19 331  			     from LS_PEND_SET_OF_BOOKS PB
18:20:19 332  			    where PB.LS_PEND_TRANS_ID = L_LS_PEND_TRANS.LS_PEND_TRANS_ID)
18:20:19 333  	    loop
18:20:19 334  	       --get the asset_schedule for the first month
18:20:19 335  	       select AA.*
18:20:19 336  		 into L_ASSET_SCHEDULE
18:20:19 337  		 from LS_ASSET_SCHEDULE AA,
18:20:19 338  		      (select A.*,
18:20:19 339  			      ROW_NUMBER() OVER(partition by A.LS_ASSET_ID, A.SET_OF_BOOKS_ID, A.REVISION order by month) as THE_ROW
18:20:19 340  			 from LS_ASSET_SCHEDULE A
18:20:19 341  			where A.LS_ASSET_ID = A_LS_ASSET_ID
18:20:19 342  			  and A.REVISION = L_LS_PEND_TRANS.REVISION
18:20:19 343  			  and A.SET_OF_BOOKS_ID = L_SOBS.SET_OF_BOOKS_ID) B
18:20:19 344  		where B.THE_ROW = 1
18:20:19 345  		  and AA.LS_ASSET_ID = B.LS_ASSET_ID
18:20:19 346  		  and AA.REVISION = B.REVISION
18:20:19 347  		  and AA.SET_OF_BOOKS_ID = B.SET_OF_BOOKS_ID
18:20:19 348  		  and aa."MONTH" = b."MONTH";
18:20:19 349  
18:20:19 350  	    if L_MID_PERIOD_METHOD = 'SLE' then
18:20:19 351  	    -- load SLE table for depreciation
18:20:19 352  	       P_DEPR_SLE( A_LS_ASSET_ID, L_LS_PEND_TRANS.REVISION, L_ASSET_ID, L_SOBS.SET_OF_BOOKS_ID, L_MONTH, L_MSG );
18:20:19 353  	       if L_MSG <> 'OK' then
18:20:19 354  		  return L_MSG;
18:20:19 355  	    end if;
18:20:19 356  	    elsif L_MID_PERIOD_METHOD = 'FERC' then
18:20:19 357  	       P_DEPR_FERC( A_LS_ASSET_ID, L_LS_PEND_TRANS.REVISION, L_ASSET_ID, L_SOBS.SET_OF_BOOKS_ID, L_MONTH, L_MSG );
18:20:19 358  	       if L_MSG <> 'OK' then
18:20:19 359  		  return L_MSG;
18:20:19 360  	       end if;
18:20:19 361  	    end if;
18:20:19 362  
18:20:19 363  	       if L_ADJ = 1 then
18:20:19 364  		  -- this is an ADJUSTMENT
18:20:19 365  		  -- figure out the adjustment amounts.
18:20:19 366  		  L_MSG := F_ADJUST_ASSET(L_LS_ASSET,
18:20:19 367  					  L_LS_PEND_TRANS.REVISION,
18:20:19 368  					  L_SOBS.SET_OF_BOOKS_ID,
18:20:19 369  					  L_OBL_ADJ,
18:20:19 370  					  L_LT_OBL_ADJ,
18:20:19 371  					  L_ASSET_ID);
18:20:19 372  		  if L_MSG <> 'OK' then
18:20:19 373  		     return L_MSG;
18:20:19 374  		  end if;
18:20:19 375  
18:20:19 376  --	    L_ASSET_SCHEDULE.BEG_OBLIGATION    := L_OBL_ADJ;
18:20:19 377  --	    L_ASSET_SCHEDULE.BEG_LT_OBLIGATION := L_LT_OBL_ADJ;
18:20:19 378  		  L_ASSET_SCHEDULE.BEG_OBLIGATION     := L_SOBS.AMOUNT;
18:20:19 379  		  L_ASSET_SCHEDULE.BEG_LT_OBLIGATION  := 0;
18:20:19 380  	       end if;
18:20:19 381  
18:20:19 382  	       -- Process by set of books
18:20:19 383  	       -- process JEs 3001, 3002, and 3003
18:20:19 384  	       L_MSG := 'Creating Journal (Leased Asset Addition Debit)';
18:20:19 385  	       if L_SOBS.AMOUNT <> 0 and G_SEND_JES then
18:20:19 386  		  L_RTN := PKG_LEASE_COMMON.F_BOOKJE(A_LS_ASSET_ID,
18:20:19 387  						     3001,
18:20:19 388  						     L_SOBS.AMOUNT,
18:20:19 389  						     L_ASSET_ACT_ID,
18:20:19 390  						     L_DG_ID,
18:20:19 391  						     L_LS_PEND_TRANS.WORK_ORDER_ID,
18:20:19 392  						     L_GL_ACCT_ID,
18:20:19 393  						     0,
18:20:19 394  						     L_LS_PEND_TRANS.LS_PEND_TRANS_ID,
18:20:19 395  						     L_LS_PEND_TRANS.COMPANY_ID,
18:20:19 396  						     L_MONTH,
18:20:19 397  						     1,
18:20:19 398  						     L_LS_PEND_TRANS.GL_JE_CODE,
18:20:19 399  						     L_SOBS.SET_OF_BOOKS_ID,
18:20:19 400  						     L_MSG);
18:20:19 401  		  if L_RTN = -1 then
18:20:19 402  		     return L_MSG;
18:20:19 403  		  end if;
18:20:19 404  
18:20:19 405  		  L_MSG := 'Creating Journal (Leased Asset Addition ST Obligation Credit)';
18:20:19 406  		  if L_ASSET_SCHEDULE.BEG_OBLIGATION - NVL(L_ASSET_SCHEDULE.BEG_LT_OBLIGATION, 0) <> 0 then
18:20:19 407  		     L_RTN := PKG_LEASE_COMMON.F_BOOKJE(A_LS_ASSET_ID,
18:20:19 408  							3002,
18:20:19 409  							L_ASSET_SCHEDULE.BEG_OBLIGATION -
18:20:19 410  							NVL(L_ASSET_SCHEDULE.BEG_LT_OBLIGATION, 0),
18:20:19 411  							L_ASSET_ACT_ID,
18:20:19 412  							L_DG_ID,
18:20:19 413  							L_LS_PEND_TRANS.WORK_ORDER_ID,
18:20:19 414  							L_ST_ACCT_ID,
18:20:19 415  							0,
18:20:19 416  							L_LS_PEND_TRANS.LS_PEND_TRANS_ID,
18:20:19 417  							L_LS_PEND_TRANS.COMPANY_ID,
18:20:19 418  							L_MONTH,
18:20:19 419  							0,
18:20:19 420  							L_LS_PEND_TRANS.GL_JE_CODE,
18:20:19 421  							L_SOBS.SET_OF_BOOKS_ID,
18:20:19 422  							L_MSG);
18:20:19 423  		     if L_RTN = -1 then
18:20:19 424  			return L_MSG;
18:20:19 425  		     end if;
18:20:19 426  		  end if; -- short term JE
18:20:19 427  
18:20:19 428  		  L_MSG := 'Creating Journal (Leased Asset Addition LT Obligation Credit)';
18:20:19 429  		  if NVL(L_ASSET_SCHEDULE.BEG_LT_OBLIGATION, 0) <> 0 then
18:20:19 430  		     L_RTN := PKG_LEASE_COMMON.F_BOOKJE(A_LS_ASSET_ID,
18:20:19 431  							3003,
18:20:19 432  							NVL(L_ASSET_SCHEDULE.BEG_LT_OBLIGATION, 0),
18:20:19 433  							L_ASSET_ACT_ID,
18:20:19 434  							L_DG_ID,
18:20:19 435  							L_LS_PEND_TRANS.WORK_ORDER_ID,
18:20:19 436  							L_LT_ACCT_ID,
18:20:19 437  							0,
18:20:19 438  							L_LS_PEND_TRANS.LS_PEND_TRANS_ID,
18:20:19 439  							L_LS_PEND_TRANS.COMPANY_ID,
18:20:19 440  							L_MONTH,
18:20:19 441  							0,
18:20:19 442  							L_LS_PEND_TRANS.GL_JE_CODE,
18:20:19 443  							L_SOBS.SET_OF_BOOKS_ID,
18:20:19 444  							L_MSG);
18:20:19 445  		     if L_RTN = -1 then
18:20:19 446  			return L_MSG;
18:20:19 447  		     end if;
18:20:19 448  		  end if; -- long term JE
18:20:19 449  	       end if; -- process JEs for this SOB
18:20:19 450  	    end loop; -- END Process by set of books
18:20:19 451  
18:20:19 452  	    L_SECOND_COST := 0;
18:20:19 453  
18:20:19 454  	    select count(*) into L_SECOND_COST from SET_OF_BOOKS S where S.SECOND_SET_OF_BOOKS_IND = 1;
18:20:19 455  
18:20:19 456  	    if L_SECOND_COST > 0 then
18:20:19 457  	       L_MSG := 'Retrieving second cost';
18:20:19 458  	       select POSTING_AMOUNT
18:20:19 459  		 into L_SECOND_COST
18:20:19 460  		 from SET_OF_BOOKS S, LS_PEND_SET_OF_BOOKS PB
18:20:19 461  		where S.SECOND_SET_OF_BOOKS_IND = 1
18:20:19 462  		  and PB.LS_PEND_TRANS_ID = L_LS_PEND_TRANS.LS_PEND_TRANS_ID
18:20:19 463  		  and S.SET_OF_BOOKS_ID = PB.SET_OF_BOOKS_ID;
18:20:19 464  	    end if;
18:20:19 465  
18:20:19 466  	    -- if it's on pend transaction, take it from there
18:20:19 467  	    L_MSG := 'Adding asset to CPR Ledger';
18:20:19 468  	    merge into CPR_LEDGER A
18:20:19 469  	    using (select L_ASSET_ID as ASSET_ID,
18:20:19 470  			  L_LS_PEND_TRANS.PROPERTY_GROUP_ID as PROPERTY_GROUP_ID,
18:20:19 471  			  L_DG_ID as DEPR_GROUP_ID,
18:20:19 472  			  L_LS_PEND_TRANS.RETIREMENT_UNIT_ID as RETIREMENT_UNIT_ID,
18:20:19 473  			  L_LS_PEND_TRANS.BUS_SEGMENT_ID as BUS_SEGMENT_ID,
18:20:19 474  			  L_LS_PEND_TRANS.COMPANY_ID as COMPANY_ID,
18:20:19 475  			  L_LS_PEND_TRANS.FUNC_CLASS_ID as FUNC_CLASS_ID,
18:20:19 476  			  L_LS_PEND_TRANS.UTILITY_ACCOUNT_ID as UTILITY_ACCOUNT_ID,
18:20:19 477  			  L_GL_ACCT_ID as GL_ACCOUNT_ID,
18:20:19 478  			  L_LS_PEND_TRANS.ASSET_LOCATION_ID as ASSET_LOCATION_ID,
18:20:19 479  			  L_LS_PEND_TRANS.SUB_ACCOUNT_ID as SUB_ACCOUNT_ID,
18:20:19 480  			  WOC.WORK_ORDER_NUMBER as WORK_ORDER_NUMBER,
18:20:19 481  			  NVL(L_LS_PEND_TRANS.IN_SERVICE_DATE, L_MONTH) as IN_SERVICE_DATE,
18:20:19 482  			  L_LS_PEND_TRANS.POSTING_QUANTITY as POSTING_QUANTITY,
18:20:19 483  			  L_LS_PEND_TRANS.POSTING_AMOUNT as POSTING_AMOUNT,
18:20:19 484  			  L_LS_ASSET.DESCRIPTION as DESCRIPTION,
18:20:19 485  			  L_LS_ASSET.LONG_DESCRIPTION as LONG_DESCRIPTION,
18:20:19 486  			  L_LS_PEND_TRANS.SERIAL_NUMBER as SERIAL_NUMBER,
18:20:19 487  			  case
18:20:19 488  			     when L_SECOND_COST > 0 then
18:20:19 489  			      L_LS_PEND_TRANS.POSTING_AMOUNT
18:20:19 490  			     else
18:20:19 491  			      0
18:20:19 492  			  end as SECOND_COST
18:20:19 493  		     from WORK_ORDER_CONTROL WOC
18:20:19 494  		    where WOC.WORK_ORDER_ID = L_LS_PEND_TRANS.WORK_ORDER_ID) B
18:20:19 495  	    on (A.ASSET_ID = B.ASSET_ID)
18:20:19 496  	    when matched then
18:20:19 497  	       update
18:20:19 498  		  set A.ACCUM_QUANTITY = A.ACCUM_QUANTITY + B.POSTING_QUANTITY,
18:20:19 499  		      A.ACCUM_COST = A.ACCUM_COST + B.POSTING_AMOUNT,
18:20:19 500  		      A.SECOND_FINANCIAL_COST = A.SECOND_FINANCIAL_COST + B.SECOND_COST
18:20:19 501  	    when not matched then
18:20:19 502  	       insert
18:20:19 503  		  (ASSET_ID, PROPERTY_GROUP_ID, DEPR_GROUP_ID, BOOKS_SCHEMA_ID, RETIREMENT_UNIT_ID,
18:20:19 504  		   BUS_SEGMENT_ID, COMPANY_ID, FUNC_CLASS_ID, UTILITY_ACCOUNT_ID, GL_ACCOUNT_ID,
18:20:19 505  		   ASSET_LOCATION_ID, SUB_ACCOUNT_ID, WORK_ORDER_NUMBER, LEDGER_STATUS, IN_SERVICE_YEAR,
18:20:19 506  		   ACCUM_QUANTITY, ACCUM_COST, SUBLEDGER_INDICATOR, DESCRIPTION, LONG_DESCRIPTION,
18:20:19 507  		   ENG_IN_SERVICE_YEAR, SERIAL_NUMBER, ACCUM_COST_2, SECOND_FINANCIAL_COST)
18:20:19 508  	       values
18:20:19 509  		  (B.ASSET_ID, B.PROPERTY_GROUP_ID, B.DEPR_GROUP_ID, 1, B.RETIREMENT_UNIT_ID,
18:20:19 510  		   B.BUS_SEGMENT_ID, B.COMPANY_ID, B.FUNC_CLASS_ID, B.UTILITY_ACCOUNT_ID, B.GL_ACCOUNT_ID,
18:20:19 511  		   B.ASSET_LOCATION_ID, B.SUB_ACCOUNT_ID, B.WORK_ORDER_NUMBER, 1, B.IN_SERVICE_DATE,
18:20:19 512  		   B.POSTING_QUANTITY, B.POSTING_AMOUNT, -100, B.DESCRIPTION, B.LONG_DESCRIPTION,
18:20:19 513  		   B.IN_SERVICE_DATE, B.SERIAL_NUMBER, 0, B.SECOND_COST);
18:20:19 514  
18:20:19 515  	    L_MSG := 'Adding CPR Activity';
18:20:19 516  	    insert into CPR_ACTIVITY
18:20:19 517  	       (ASSET_ID, ASSET_ACTIVITY_ID, GL_POSTING_MO_YR, CPR_POSTING_MO_YR, WORK_ORDER_NUMBER,
18:20:19 518  		GL_JE_CODE, DESCRIPTION, LONG_DESCRIPTION, ACTIVITY_CODE, ACTIVITY_STATUS,
18:20:19 519  		ACTIVITY_QUANTITY, ACTIVITY_COST, FERC_ACTIVITY_CODE, MONTH_NUMBER, ACTIVITY_COST_2,
18:20:19 520  		ACT_SECOND_FINANCIAL_COST)
18:20:19 521  	       select L_ASSET_ID,
18:20:19 522  		      L_ASSET_ACT_ID,
18:20:19 523  		      L_MONTH, --gl_posting_mo_yr
18:20:19 524  		      L_MONTH, --cpr_posting_mo_yr
18:20:19 525  		      WOC.WORK_ORDER_NUMBER,
18:20:19 526  		      L_LS_PEND_TRANS.GL_JE_CODE,
18:20:19 527  		      L_LS_ASSET.DESCRIPTION,
18:20:19 528  		      L_LS_ASSET.LONG_DESCRIPTION,
18:20:19 529  		      L_ACT_CODE, --Activity Code
18:20:19 530  		      L_LS_PEND_TRANS.LS_PEND_TRANS_ID, --activity_status (this is the pend_trans_id)
18:20:19 531  		      L_LS_PEND_TRANS.POSTING_QUANTITY,
18:20:19 532  		      L_LS_PEND_TRANS.POSTING_AMOUNT,
18:20:19 533  		      L_FERC_ACT_CODE, --ferc_activity_code (addition)
18:20:19 534  		      TO_NUMBER(TO_CHAR(L_MONTH, 'yyyymm')), --month_number
18:20:19 535  		      0,
18:20:19 536  		      case
18:20:19 537  			 when L_SECOND_COST > 0 then
18:20:19 538  			  L_LS_PEND_TRANS.POSTING_AMOUNT
18:20:19 539  			 else
18:20:19 540  			  0
18:20:19 541  		      end
18:20:19 542  		 from WORK_ORDER_CONTROL WOC
18:20:19 543  		where WOC.WORK_ORDER_ID = L_LS_PEND_TRANS.WORK_ORDER_ID;
18:20:19 544  
18:20:19 545  	    L_MSG := 'Adding to activity basis table';
18:20:19 546  	    insert into CPR_ACT_BASIS
18:20:19 547  	       (ASSET_ID, ASSET_ACTIVITY_ID, BASIS_1, BASIS_2, BASIS_3, BASIS_4, BASIS_5, BASIS_6,
18:20:19 548  		BASIS_7, BASIS_8, BASIS_9, BASIS_10, BASIS_11, BASIS_12, BASIS_13, BASIS_14, BASIS_15,
18:20:19 549  		BASIS_16, BASIS_17, BASIS_18, BASIS_19, BASIS_20, BASIS_21, BASIS_22, BASIS_23, BASIS_24,
18:20:19 550  		BASIS_25, BASIS_26, BASIS_27, BASIS_28, BASIS_29, BASIS_30, BASIS_31, BASIS_32, BASIS_33,
18:20:19 551  		BASIS_34, BASIS_35, BASIS_36, BASIS_37, BASIS_38, BASIS_39, BASIS_40, BASIS_41, BASIS_42,
18:20:19 552  		BASIS_43, BASIS_44, BASIS_45, BASIS_46, BASIS_47, BASIS_48, BASIS_49, BASIS_50, BASIS_51,
18:20:19 553  		BASIS_52, BASIS_53, BASIS_54, BASIS_55, BASIS_56, BASIS_57, BASIS_58, BASIS_59, BASIS_60,
18:20:19 554  		BASIS_61, BASIS_62, BASIS_63, BASIS_64, BASIS_65, BASIS_66, BASIS_67, BASIS_68, BASIS_69,
18:20:19 555  		BASIS_70)
18:20:19 556  	       select L_ASSET_ID,
18:20:19 557  		      L_ASSET_ACT_ID,
18:20:19 558  		      BASIS_1,
18:20:19 559  		      BASIS_2,
18:20:19 560  		      BASIS_3,
18:20:19 561  		      BASIS_4,
18:20:19 562  		      BASIS_5,
18:20:19 563  		      BASIS_6,
18:20:19 564  		      BASIS_7,
18:20:19 565  		      BASIS_8,
18:20:19 566  		      BASIS_9,
18:20:19 567  		      BASIS_10,
18:20:19 568  		      BASIS_11,
18:20:19 569  		      BASIS_12,
18:20:19 570  		      BASIS_13,
18:20:19 571  		      BASIS_14,
18:20:19 572  		      BASIS_15,
18:20:19 573  		      BASIS_16,
18:20:19 574  		      BASIS_17,
18:20:19 575  		      BASIS_18,
18:20:19 576  		      BASIS_19,
18:20:19 577  		      BASIS_20,
18:20:19 578  		      BASIS_21,
18:20:19 579  		      BASIS_22,
18:20:19 580  		      BASIS_23,
18:20:19 581  		      BASIS_24,
18:20:19 582  		      BASIS_25,
18:20:19 583  		      BASIS_26,
18:20:19 584  		      BASIS_27,
18:20:19 585  		      BASIS_28,
18:20:19 586  		      BASIS_29,
18:20:19 587  		      BASIS_30,
18:20:19 588  		      BASIS_31,
18:20:19 589  		      BASIS_32,
18:20:19 590  		      BASIS_33,
18:20:19 591  		      BASIS_34,
18:20:19 592  		      BASIS_35,
18:20:19 593  		      BASIS_36,
18:20:19 594  		      BASIS_37,
18:20:19 595  		      BASIS_38,
18:20:19 596  		      BASIS_39,
18:20:19 597  		      BASIS_40,
18:20:19 598  		      BASIS_41,
18:20:19 599  		      BASIS_42,
18:20:19 600  		      BASIS_43,
18:20:19 601  		      BASIS_44,
18:20:19 602  		      BASIS_45,
18:20:19 603  		      BASIS_46,
18:20:19 604  		      BASIS_47,
18:20:19 605  		      BASIS_48,
18:20:19 606  		      BASIS_49,
18:20:19 607  		      BASIS_50,
18:20:19 608  		      BASIS_51,
18:20:19 609  		      BASIS_52,
18:20:19 610  		      BASIS_53,
18:20:19 611  		      BASIS_54,
18:20:19 612  		      BASIS_55,
18:20:19 613  		      BASIS_56,
18:20:19 614  		      BASIS_57,
18:20:19 615  		      BASIS_58,
18:20:19 616  		      BASIS_59,
18:20:19 617  		      BASIS_60,
18:20:19 618  		      BASIS_61,
18:20:19 619  		      BASIS_62,
18:20:19 620  		      BASIS_63,
18:20:19 621  		      BASIS_64,
18:20:19 622  		      BASIS_65,
18:20:19 623  		      BASIS_66,
18:20:19 624  		      BASIS_67,
18:20:19 625  		      BASIS_68,
18:20:19 626  		      BASIS_69,
18:20:19 627  		      BASIS_70
18:20:19 628  		 from LS_PEND_BASIS
18:20:19 629  		where LS_PEND_TRANS_ID = L_LS_PEND_TRANS.LS_PEND_TRANS_ID;
18:20:19 630  
18:20:19 631  	    L_MSG := 'Adding to ledger basis table';
18:20:19 632  	    merge into CPR_LDG_BASIS A
18:20:19 633  	    using (select L_ASSET_ID as ASSET_ID,
18:20:19 634  			  BASIS_1,
18:20:19 635  			  BASIS_2,
18:20:19 636  			  BASIS_3,
18:20:19 637  			  BASIS_4,
18:20:19 638  			  BASIS_5,
18:20:19 639  			  BASIS_6,
18:20:19 640  			  BASIS_7,
18:20:19 641  			  BASIS_8,
18:20:19 642  			  BASIS_9,
18:20:19 643  			  BASIS_10,
18:20:19 644  			  BASIS_11,
18:20:19 645  			  BASIS_12,
18:20:19 646  			  BASIS_13,
18:20:19 647  			  BASIS_14,
18:20:19 648  			  BASIS_15,
18:20:19 649  			  BASIS_16,
18:20:19 650  			  BASIS_17,
18:20:19 651  			  BASIS_18,
18:20:19 652  			  BASIS_19,
18:20:19 653  			  BASIS_20,
18:20:19 654  			  BASIS_21,
18:20:19 655  			  BASIS_22,
18:20:19 656  			  BASIS_23,
18:20:19 657  			  BASIS_24,
18:20:19 658  			  BASIS_25,
18:20:19 659  			  BASIS_26,
18:20:19 660  			  BASIS_27,
18:20:19 661  			  BASIS_28,
18:20:19 662  			  BASIS_29,
18:20:19 663  			  BASIS_30,
18:20:19 664  			  BASIS_31,
18:20:19 665  			  BASIS_32,
18:20:19 666  			  BASIS_33,
18:20:19 667  			  BASIS_34,
18:20:19 668  			  BASIS_35,
18:20:19 669  			  BASIS_36,
18:20:19 670  			  BASIS_37,
18:20:19 671  			  BASIS_38,
18:20:19 672  			  BASIS_39,
18:20:19 673  			  BASIS_40,
18:20:19 674  			  BASIS_41,
18:20:19 675  			  BASIS_42,
18:20:19 676  			  BASIS_43,
18:20:19 677  			  BASIS_44,
18:20:19 678  			  BASIS_45,
18:20:19 679  			  BASIS_46,
18:20:19 680  			  BASIS_47,
18:20:19 681  			  BASIS_48,
18:20:19 682  			  BASIS_49,
18:20:19 683  			  BASIS_50,
18:20:19 684  			  BASIS_51,
18:20:19 685  			  BASIS_52,
18:20:19 686  			  BASIS_53,
18:20:19 687  			  BASIS_54,
18:20:19 688  			  BASIS_55,
18:20:19 689  			  BASIS_56,
18:20:19 690  			  BASIS_57,
18:20:19 691  			  BASIS_58,
18:20:19 692  			  BASIS_59,
18:20:19 693  			  BASIS_60,
18:20:19 694  			  BASIS_61,
18:20:19 695  			  BASIS_62,
18:20:19 696  			  BASIS_63,
18:20:19 697  			  BASIS_64,
18:20:19 698  			  BASIS_65,
18:20:19 699  			  BASIS_66,
18:20:19 700  			  BASIS_67,
18:20:19 701  			  BASIS_68,
18:20:19 702  			  BASIS_69,
18:20:19 703  			  BASIS_70
18:20:19 704  		     from LS_PEND_BASIS
18:20:19 705  		    where LS_PEND_TRANS_ID = L_LS_PEND_TRANS.LS_PEND_TRANS_ID) B
18:20:19 706  	    on (A.ASSET_ID = B.ASSET_ID)
18:20:19 707  	    when matched then
18:20:19 708  	       update
18:20:19 709  		  set A.BASIS_1 = A.BASIS_1 + B.BASIS_1, A.BASIS_2 = A.BASIS_2 + B.BASIS_2,
18:20:19 710  		      A.BASIS_3 = A.BASIS_3 + B.BASIS_3, A.BASIS_4 = A.BASIS_4 + B.BASIS_4,
18:20:19 711  		      A.BASIS_5 = A.BASIS_5 + B.BASIS_5, A.BASIS_6 = A.BASIS_6 + B.BASIS_6,
18:20:19 712  		      A.BASIS_7 = A.BASIS_7 + B.BASIS_7, A.BASIS_8 = A.BASIS_8 + B.BASIS_8,
18:20:19 713  		      A.BASIS_9 = A.BASIS_9 + B.BASIS_9, A.BASIS_10 = A.BASIS_10 + B.BASIS_10,
18:20:19 714  		      A.BASIS_11 = A.BASIS_11 + B.BASIS_11, A.BASIS_12 = A.BASIS_12 + B.BASIS_12,
18:20:19 715  		      A.BASIS_13 = A.BASIS_13 + B.BASIS_13, A.BASIS_14 = A.BASIS_14 + B.BASIS_14,
18:20:19 716  		      A.BASIS_15 = A.BASIS_15 + B.BASIS_15, A.BASIS_16 = A.BASIS_16 + B.BASIS_16,
18:20:19 717  		      A.BASIS_17 = A.BASIS_17 + B.BASIS_17, A.BASIS_18 = A.BASIS_18 + B.BASIS_18,
18:20:19 718  		      A.BASIS_19 = A.BASIS_19 + B.BASIS_19, A.BASIS_20 = A.BASIS_20 + B.BASIS_20,
18:20:19 719  		      A.BASIS_21 = A.BASIS_21 + B.BASIS_21, A.BASIS_22 = A.BASIS_22 + B.BASIS_22,
18:20:19 720  		      A.BASIS_23 = A.BASIS_23 + B.BASIS_23, A.BASIS_24 = A.BASIS_24 + B.BASIS_24,
18:20:19 721  		      A.BASIS_25 = A.BASIS_25 + B.BASIS_25, A.BASIS_26 = A.BASIS_26 + B.BASIS_26,
18:20:19 722  		      A.BASIS_27 = A.BASIS_27 + B.BASIS_27, A.BASIS_28 = A.BASIS_28 + B.BASIS_28,
18:20:19 723  		      A.BASIS_29 = A.BASIS_29 + B.BASIS_29, A.BASIS_30 = A.BASIS_30 + B.BASIS_30,
18:20:19 724  		      A.BASIS_31 = A.BASIS_31 + B.BASIS_31, A.BASIS_32 = A.BASIS_32 + B.BASIS_32,
18:20:19 725  		      A.BASIS_33 = A.BASIS_33 + B.BASIS_33, A.BASIS_34 = A.BASIS_34 + B.BASIS_34,
18:20:19 726  		      A.BASIS_35 = A.BASIS_35 + B.BASIS_35, A.BASIS_36 = A.BASIS_36 + B.BASIS_36,
18:20:19 727  		      A.BASIS_37 = A.BASIS_37 + B.BASIS_37, A.BASIS_38 = A.BASIS_38 + B.BASIS_38,
18:20:19 728  		      A.BASIS_39 = A.BASIS_39 + B.BASIS_39, A.BASIS_40 = A.BASIS_40 + B.BASIS_40,
18:20:19 729  		      A.BASIS_41 = A.BASIS_41 + B.BASIS_41, A.BASIS_42 = A.BASIS_42 + B.BASIS_42,
18:20:19 730  		      A.BASIS_43 = A.BASIS_43 + B.BASIS_43, A.BASIS_44 = A.BASIS_44 + B.BASIS_44,
18:20:19 731  		      A.BASIS_45 = A.BASIS_45 + B.BASIS_45, A.BASIS_46 = A.BASIS_46 + B.BASIS_46,
18:20:19 732  		      A.BASIS_47 = A.BASIS_47 + B.BASIS_47, A.BASIS_48 = A.BASIS_48 + B.BASIS_48,
18:20:19 733  		      A.BASIS_49 = A.BASIS_49 + B.BASIS_49, A.BASIS_50 = A.BASIS_50 + B.BASIS_50,
18:20:19 734  		      A.BASIS_51 = A.BASIS_51 + B.BASIS_51, A.BASIS_52 = A.BASIS_52 + B.BASIS_52,
18:20:19 735  		      A.BASIS_53 = A.BASIS_53 + B.BASIS_53, A.BASIS_54 = A.BASIS_54 + B.BASIS_54,
18:20:19 736  		      A.BASIS_55 = A.BASIS_55 + B.BASIS_55, A.BASIS_56 = A.BASIS_56 + B.BASIS_56,
18:20:19 737  		      A.BASIS_57 = A.BASIS_57 + B.BASIS_57, A.BASIS_58 = A.BASIS_58 + B.BASIS_58,
18:20:19 738  		      A.BASIS_59 = A.BASIS_59 + B.BASIS_59, A.BASIS_60 = A.BASIS_60 + B.BASIS_60,
18:20:19 739  		      A.BASIS_61 = A.BASIS_61 + B.BASIS_61, A.BASIS_62 = A.BASIS_62 + B.BASIS_62,
18:20:19 740  		      A.BASIS_63 = A.BASIS_63 + B.BASIS_63, A.BASIS_64 = A.BASIS_64 + B.BASIS_64,
18:20:19 741  		      A.BASIS_65 = A.BASIS_65 + B.BASIS_65, A.BASIS_66 = A.BASIS_66 + B.BASIS_66,
18:20:19 742  		      A.BASIS_67 = A.BASIS_67 + B.BASIS_67, A.BASIS_68 = A.BASIS_68 + B.BASIS_68,
18:20:19 743  		      A.BASIS_69 = A.BASIS_69 + B.BASIS_69, A.BASIS_70 = A.BASIS_70 + B.BASIS_70
18:20:19 744  	    when not matched then
18:20:19 745  	       insert
18:20:19 746  		  (ASSET_ID, BASIS_1, BASIS_2, BASIS_3, BASIS_4, BASIS_5, BASIS_6, BASIS_7, BASIS_8,
18:20:19 747  		   BASIS_9, BASIS_10, BASIS_11, BASIS_12, BASIS_13, BASIS_14, BASIS_15, BASIS_16, BASIS_17,
18:20:19 748  		   BASIS_18, BASIS_19, BASIS_20, BASIS_21, BASIS_22, BASIS_23, BASIS_24, BASIS_25,
18:20:19 749  		   BASIS_26, BASIS_27, BASIS_28, BASIS_29, BASIS_30, BASIS_31, BASIS_32, BASIS_33,
18:20:19 750  		   BASIS_34, BASIS_35, BASIS_36, BASIS_37, BASIS_38, BASIS_39, BASIS_40, BASIS_41,
18:20:19 751  		   BASIS_42, BASIS_43, BASIS_44, BASIS_45, BASIS_46, BASIS_47, BASIS_48, BASIS_49,
18:20:19 752  		   BASIS_50, BASIS_51, BASIS_52, BASIS_53, BASIS_54, BASIS_55, BASIS_56, BASIS_57,
18:20:19 753  		   BASIS_58, BASIS_59, BASIS_60, BASIS_61, BASIS_62, BASIS_63, BASIS_64, BASIS_65,
18:20:19 754  		   BASIS_66, BASIS_67, BASIS_68, BASIS_69, BASIS_70)
18:20:19 755  	       values
18:20:19 756  		  (B.ASSET_ID, B.BASIS_1, B.BASIS_2, B.BASIS_3, B.BASIS_4, B.BASIS_5, B.BASIS_6,
18:20:19 757  		   B.BASIS_7, B.BASIS_8, B.BASIS_9, B.BASIS_10, B.BASIS_11, B.BASIS_12, B.BASIS_13,
18:20:19 758  		   B.BASIS_14, B.BASIS_15, B.BASIS_16, B.BASIS_17, B.BASIS_18, B.BASIS_19, B.BASIS_20,
18:20:19 759  		   B.BASIS_21, B.BASIS_22, B.BASIS_23, B.BASIS_24, B.BASIS_25, B.BASIS_26, B.BASIS_27,
18:20:19 760  		   B.BASIS_28, B.BASIS_29, B.BASIS_30, B.BASIS_31, B.BASIS_32, B.BASIS_33, B.BASIS_34,
18:20:19 761  		   B.BASIS_35, B.BASIS_36, B.BASIS_37, B.BASIS_38, B.BASIS_39, B.BASIS_40, B.BASIS_41,
18:20:19 762  		   B.BASIS_42, B.BASIS_43, B.BASIS_44, B.BASIS_45, B.BASIS_46, B.BASIS_47, B.BASIS_48,
18:20:19 763  		   B.BASIS_49, B.BASIS_50, B.BASIS_51, B.BASIS_52, B.BASIS_53, B.BASIS_54, B.BASIS_55,
18:20:19 764  		   B.BASIS_56, B.BASIS_57, B.BASIS_58, B.BASIS_59, B.BASIS_60, B.BASIS_61, B.BASIS_62,
18:20:19 765  		   B.BASIS_63, B.BASIS_64, B.BASIS_65, B.BASIS_66, B.BASIS_67, B.BASIS_68, B.BASIS_69,
18:20:19 766  		   B.BASIS_70);
18:20:19 767  
18:20:19 768  	    L_MSG := 'Loading cpr_depr';
18:20:19 769  	    merge into CPR_DEPR A
18:20:19 770  	    using (select L_ASSET_ID as ASSET_ID,
18:20:19 771  			  PB.SET_OF_BOOKS_ID as SET_OF_BOOKS_ID,
18:20:19 772  			  L_LS_ASSET.EXPECTED_LIFE as EXPECTED_LIFE,
18:20:19 773  			  PB.POSTING_AMOUNT as AMOUNT,
18:20:19 774  			  DMR.RATE / 12 as MONTH_RATE,
18:20:19 775  			  L_LS_PEND_TRANS.COMPANY_ID as COMPANY_ID,
18:20:19 776  			  DG.MID_PERIOD_METHOD as MID_PERIOD_METHOD,
18:20:19 777  			  DG.MID_PERIOD_CONV as MID_PERIOD_CONV,
18:20:19 778  			  L_DG_ID as DEPR_GROUP_ID,
18:20:19 779  			  DMR.DEPR_METHOD_ID as DEPR_METHOD_ID,
18:20:19 780  			  DG.TRUE_UP_CPR_DEPR as TRUE_UP_CPR_DEPR,
18:20:19 781  			  L_MONTH as GL_POSTING_MO_YR
18:20:19 782  		     from DEPR_GROUP DG,
18:20:19 783  			  LS_PEND_SET_OF_BOOKS PB,
18:20:19 784  			  (select DDD.DEPR_METHOD_ID,
18:20:19 785  				  DDD.RATE,
18:20:19 786  				  DDD.SET_OF_BOOKS_ID,
18:20:19 787  				  DDD.EXPECTED_AVERAGE_LIFE,
18:20:19 788  				  ROW_NUMBER() OVER(partition by DDD.DEPR_METHOD_ID, DDD.SET_OF_BOOKS_ID order by DDD.EFFECTIVE_DATE desc) as THE_ROW
18:20:19 789  			     from DEPR_METHOD_RATES DDD) DMR
18:20:19 790  		    where DG.DEPR_GROUP_ID = L_DG_ID
18:20:19 791  		      and DMR.DEPR_METHOD_ID = DG.DEPR_METHOD_ID
18:20:19 792  		      and PB.SET_OF_BOOKS_ID = DMR.SET_OF_BOOKS_ID
18:20:19 793  		      and PB.LS_PEND_TRANS_ID = L_LS_PEND_TRANS.LS_PEND_TRANS_ID
18:20:19 794  		      and DMR.THE_ROW = 1) B
18:20:19 795  	    on (A.ASSET_ID = B.ASSET_ID and A.SET_OF_BOOKS_ID = B.SET_OF_BOOKS_ID and A.GL_POSTING_MO_YR = B.GL_POSTING_MO_YR and A.DEPR_GROUP_ID = B.DEPR_GROUP_ID)
18:20:19 796  	    when matched then
18:20:19 797  	       update
18:20:19 798  		  set NET_ADDS_AND_ADJUST = NET_ADDS_AND_ADJUST + B.AMOUNT,
18:20:19 799  		      ASSET_DOLLARS = ASSET_DOLLARS + B.AMOUNT
18:20:19 800  	    when not matched then
18:20:19 801  	       insert
18:20:19 802  		  (ASSET_ID, SET_OF_BOOKS_ID, GL_POSTING_MO_YR, INIT_LIFE, REMAINING_LIFE,
18:20:19 803  		   ESTIMATED_SALVAGE, BEG_ASSET_DOLLARS, NET_ADDS_AND_ADJUST, RETIREMENTS, TRANSFERS_IN,
18:20:19 804  		   TRANSFERS_OUT, ASSET_DOLLARS, BEG_RESERVE_MONTH, SALVAGE_DOLLARS, RESERVE_ADJUSTMENT,
18:20:19 805  		   COST_OF_REMOVAL, RESERVE_TRANS_IN, RESERVE_TRANS_OUT, DEPR_EXP_ADJUST,
18:20:19 806  		   OTHER_CREDITS_AND_ADJUST, GAIN_LOSS, DEPRECIATION_BASE, CURR_DEPR_EXPENSE, DEPR_RESERVE,
18:20:19 807  		   BEG_RESERVE_YEAR, YTD_DEPR_EXPENSE, YTD_DEPR_EXP_ADJUST, PRIOR_YTD_DEPR_EXPENSE,
18:20:19 808  		   PRIOR_YTD_DEPR_EXP_ADJUST, ACCT_DISTRIB, MONTH_RATE, COMPANY_ID, MID_PERIOD_METHOD,
18:20:19 809  		   MID_PERIOD_CONV, DEPR_GROUP_ID, DEPR_EXP_ALLOC_ADJUST, DEPR_METHOD_ID, TRUE_UP_CPR_DEPR,
18:20:19 810  		   SALVAGE_EXPENSE, SALVAGE_EXP_ADJUST, SALVAGE_EXP_ALLOC_ADJUST, IMPAIRMENT_ASSET_AMOUNT,
18:20:19 811  		   IMPAIRMENT_EXPENSE_AMOUNT, IMPAIRMENT_ASSET_ACTIVITY_SALV,
18:20:19 812  		   IMPAIRMENT_ASSET_BEGIN_BALANCE)
18:20:19 813  	       values
18:20:19 814  		  (B.ASSET_ID, B.SET_OF_BOOKS_ID, B.GL_POSTING_MO_YR, B.EXPECTED_LIFE, B.EXPECTED_LIFE, 0,
18:20:19 815  		   0, B.AMOUNT, 0, 0, 0, B.AMOUNT, 0, 0, 0, 0, 0, 0, 0, 0, 0, 0, 0, 0, 0, 0, 0, 0, 0, 0,
18:20:19 816  		   B.MONTH_RATE, B.COMPANY_ID, B.MID_PERIOD_METHOD, B.MID_PERIOD_CONV, B.DEPR_GROUP_ID, 0,
18:20:19 817  		   B.DEPR_METHOD_ID, B.TRUE_UP_CPR_DEPR, 0, 0, 0, 0, 0, 0, 0);
18:20:19 818  
18:20:19 819  	    L_MSG := 'Updating Account Summary';
18:20:19 820  	    merge into ACCOUNT_SUMMARY A
18:20:19 821  	    using (select L_LS_PEND_TRANS.COMPANY_ID as COMPANY,
18:20:19 822  			  PB.SET_OF_BOOKS_ID as SET_OF_BOOKS,
18:20:19 823  			  L_GL_ACCT_ID as ACCOUNT,
18:20:19 824  			  L_LS_PEND_TRANS.BUS_SEGMENT_ID as BUSINESS_SEGMENT,
18:20:19 825  			  L_LS_PEND_TRANS.SUB_ACCOUNT_ID as SUB_ACCOUNT,
18:20:19 826  			  L_LS_PEND_TRANS.UTILITY_ACCOUNT_ID as UTILITY_ACCOUNT,
18:20:19 827  			  L_MAJOR_LOC as MAJOR_LOCATION,
18:20:19 828  			  L_MONTH as GL_POSTING_MO_YR, --GL_POSTING_MO_YR
18:20:19 829  			  (1 - L_ADJ) * PB.POSTING_AMOUNT as ADDITION,
18:20:19 830  			  L_ADJ * PB.POSTING_AMOUNT as ADJUSTMENTS
18:20:19 831  		     from LS_PEND_SET_OF_BOOKS PB
18:20:19 832  		    where PB.LS_PEND_TRANS_ID = L_LS_PEND_TRANS.LS_PEND_TRANS_ID) B
18:20:19 833  	    on (A.COMPANY_ID = B.COMPANY and A.SET_OF_BOOKS_ID = B.SET_OF_BOOKS and A.GL_ACCOUNT_ID = B.ACCOUNT and A.BUS_SEGMENT_ID = B.BUSINESS_SEGMENT and A.SUB_ACCOUNT_ID = B.SUB_ACCOUNT and A.UTILITY_ACCOUNT_ID = B.UTILITY_ACCOUNT and A.MAJOR_LOCATION_ID = B.MAJOR_LOCATION and A.GL_POSTING_MO_YR = B.GL_POSTING_MO_YR)
18:20:19 834  	    when matched then
18:20:19 835  	       update
18:20:19 836  		  set A.ENDING_BALANCE = A.ENDING_BALANCE + B.ADDITION + B.ADJUSTMENTS,
18:20:19 837  		      A.ADDITIONS = A.ADDITIONS + B.ADDITION,
18:20:19 838  		      A.ADJUSTMENTS = A.ADJUSTMENTS + B.ADJUSTMENTS
18:20:19 839  	    when not matched then
18:20:19 840  	       insert
18:20:19 841  		  (SET_OF_BOOKS_ID, COMPANY_ID, GL_ACCOUNT_ID, BUS_SEGMENT_ID, SUB_ACCOUNT_ID,
18:20:19 842  		   UTILITY_ACCOUNT_ID, MAJOR_LOCATION_ID, GL_POSTING_MO_YR, BEGINNING_BALANCE,
18:20:19 843  		   ACCT_SUMM_STATUS, RETIREMENTS, ADDITIONS, TRANSFERS_IN, TRANSFERS_OUT, ADJUSTMENTS,
18:20:19 844  		   ENDING_BALANCE)
18:20:19 845  	       values
18:20:19 846  		  (B.SET_OF_BOOKS, B.COMPANY, B.ACCOUNT, B.BUSINESS_SEGMENT, B.SUB_ACCOUNT,
18:20:19 847  		   B.UTILITY_ACCOUNT, B.MAJOR_LOCATION, B.GL_POSTING_MO_YR, 0, 1, 0, B.ADDITION,
18:20:19 848  		   0, 0, B.ADJUSTMENTS, B.ADDITION + B.ADJUSTMENTS);
18:20:19 849  
18:20:19 850  	    L_MSG := 'Updating Depr Ledger';
18:20:19 851  	    merge into DEPR_LEDGER A
18:20:19 852  	    using (select DG2.DEPR_GROUP_ID as DEPR_GROUP,
18:20:19 853  			  PB.SET_OF_BOOKS_ID as SET_OF_BOOKS,
18:20:19 854  			  L_MONTH as GL_POSTING_MO_YR, --GL_POSTING_MO_YR
18:20:19 855  			  (1 - L_ADJ) * PB.POSTING_AMOUNT as ADDITION,
18:20:19 856  			  L_ADJ * PB.POSTING_AMOUNT as ADJUSTMENTS
18:20:19 857  		     from LS_PEND_SET_OF_BOOKS PB,
18:20:19 858  			  (select DG.DEPR_GROUP_ID,
18:20:19 859  				  DG.COMPANY_ID,
18:20:19 860  				  DMR.SET_OF_BOOKS_ID,
18:20:19 861  				  ROW_NUMBER() OVER(partition by DMR.SET_OF_BOOKS_ID, DMR.DEPR_METHOD_ID order by DMR.EFFECTIVE_DATE desc) as THE_ROW
18:20:19 862  			     from DEPR_METHOD_RATES DMR, DEPR_GROUP DG
18:20:19 863  			    where DMR.DEPR_METHOD_ID = DG.DEPR_METHOD_ID
18:20:19 864  			      and DG.DEPR_GROUP_ID = L_DG_ID) DG2
18:20:19 865  		    where DG2.THE_ROW = 1
18:20:19 866  		      and PB.SET_OF_BOOKS_ID = DG2.SET_OF_BOOKS_ID
18:20:19 867  		      and PB.LS_PEND_TRANS_ID = L_LS_PEND_TRANS.LS_PEND_TRANS_ID) B
18:20:19 868  	    on (A.DEPR_GROUP_ID = B.DEPR_GROUP and A.GL_POST_MO_YR = B.GL_POSTING_MO_YR and A.SET_OF_BOOKS_ID = B.SET_OF_BOOKS)
18:20:19 869  	    when matched then
18:20:19 870  	       update
18:20:19 871  		  set A.END_BALANCE = A.END_BALANCE + B.ADDITION + B.ADJUSTMENTS,
18:20:19 872  		      A.ADDITIONS = A.ADDITIONS + B.ADDITION,
18:20:19 873  		      A.ADJUSTMENTS = A.ADJUSTMENTS + B.ADJUSTMENTS;
18:20:19 874  
18:20:19 875  	    -- set the approved revision
18:20:19 876  	    update LS_ASSET
18:20:19 877  	       set APPROVED_REVISION = L_LS_PEND_TRANS.REVISION,
18:20:19 878  		   IN_SERVICE_DATE = NVL(L_LS_PEND_TRANS.IN_SERVICE_DATE, L_MONTH), LS_ASSET_STATUS_ID = 3
18:20:19 879  	     where LS_ASSET_ID = A_LS_ASSET_ID;
18:20:19 880  
18:20:19 881  	    -- only do the below on initial adds
18:20:19 882  	    if L_ADJ = 0 then
18:20:19 883  	       L_MSG := 'Adding class codes';
18:20:19 884  	       insert into CLASS_CODE_CPR_LEDGER
18:20:19 885  		  (CLASS_CODE_ID, ASSET_ID, value)
18:20:19 886  		  select CLASS_CODE_ID, L_ASSET_ID, value
18:20:19 887  		    from LS_PEND_CLASS_CODE
18:20:19 888  		   where LS_PEND_TRANS_ID = L_LS_PEND_TRANS.LS_PEND_TRANS_ID;
18:20:19 889  
18:20:19 890  	       --* Link the LS_ASSET to the CPR
18:20:19 891  	       L_MSG := 'Connecting leased asset to CPR';
18:20:19 892  	       insert into LS_CPR_ASSET_MAP
18:20:19 893  		  (LS_ASSET_ID, ASSET_ID, EFFECTIVE_DATE)
18:20:19 894  	       values
18:20:19 895  		  (L_LS_PEND_TRANS.LS_ASSET_ID, L_ASSET_ID, L_MONTH);
18:20:19 896  
18:20:19 897  	       L_MSG := 'Connecting activity and depr group';
18:20:19 898  	       insert into CPR_ACT_DEPR_GROUP
18:20:19 899  		  (ASSET_ID, GL_POSTING_MO_YR, DEPR_GROUP_ID)
18:20:19 900  	       values
18:20:19 901  		  (L_ASSET_ID, L_MONTH, L_DG_ID);
18:20:19 902  	    end if; -- adjustment
18:20:19 903  
18:20:19 904  	    L_MSG := 'OK';
18:20:19 905  	    return L_MSG;
18:20:19 906  	 exception
18:20:19 907  	    when others then
18:20:19 908  	       L_MSG := SUBSTR(L_MSG || ': ' || sqlerrm, 1, 2000);
18:20:19 909  	       return L_MSG;
18:20:19 910  	 end F_ADD_ASSET;
18:20:19 911  
18:20:19 912  	 -- Function to perform specific Leased Asset retirement
18:20:19 913  	 -- return 1 on success, 0 on failure.	a_msg is an out param for messaging
18:20:19 914  	 function F_RETIRE_ASSET(A_CPR_ASSET_ID        number,
18:20:19 915  				 A_ACCT_MONTH	       date,
18:20:19 916  				 A_MONTH	       date,
18:20:19 917  				 A_RETIREMENT_AMOUNT   number,
18:20:19 918  				 A_RETIREMENT_QUANTITY number,
18:20:19 919  				 A_GAIN_LOSS_AMOUNT    number,
18:20:19 920  				 A_DG_ID	       number,
18:20:19 921  				 A_PT_ID	       number,
18:20:19 922  				 A_MSG		       out varchar2) return number is
18:20:19 923  	    L_LS_ASSET	   LS_ASSET%rowtype;
18:20:19 924  	    L_LS_ASSET_SCH LS_ASSET_SCHEDULE%rowtype;
18:20:19 925  	    L_GL_ACCT_ID     GL_ACCOUNT.GL_ACCOUNT_ID%type;
18:20:19 926  	    L_ST_ACCT_ID    GL_ACCOUNT.GL_ACCOUNT_ID%type;
18:20:19 927  	    L_LT_ACCT_ID    GL_ACCOUNT.GL_ACCOUNT_ID%type;
18:20:19 928  	    L_AMT_OBL	   number(22, 2);
18:20:19 929  	    L_PCT	   number(22, 12);
18:20:19 930  	    L_RTN	   number;
18:20:19 931  	    L_GL_JE_CODE   varchar2(35);
18:20:19 932  	    L_ILR_ID	   number;
18:20:19 933  	    L_STATUS	   varchar2(4000);
18:20:19 934  	    L_SQLS	   varchar2(2000);
18:20:19 935  	   L_ASSET_IDS	 PKG_LEASE_CALC.NUM_ARRAY;
18:20:19 936  	 begin
18:20:19 937  	    PKG_PP_LOG.P_START_LOG(P_PROCESS_ID => PKG_LEASE_COMMON.F_GETPROCESS());
18:20:19 938  	    A_MSG := 'Starting to retire the leased asset for month: ' || TO_CHAR(A_MONTH, 'yyyymm');
18:20:19 939  	    PKG_PP_LOG.P_WRITE_MESSAGE(A_MSG);
18:20:19 940  	    A_MSG := '	 Accounting Month: ' || TO_CHAR(A_ACCT_MONTH, 'yyyymm');
18:20:19 941  	    PKG_PP_LOG.P_WRITE_MESSAGE(A_MSG);
18:20:19 942  	    A_MSG := '	 Quantity: ' || TO_CHAR(A_RETIREMENT_QUANTITY);
18:20:19 943  	    PKG_PP_LOG.P_WRITE_MESSAGE(A_MSG);
18:20:19 944  	    A_MSG := '	 Amount: ' || TO_CHAR(A_RETIREMENT_AMOUNT);
18:20:19 945  	    PKG_PP_LOG.P_WRITE_MESSAGE(A_MSG);
18:20:19 946  	    A_MSG := '	 Gain / Loss: ' || TO_CHAR(A_GAIN_LOSS_AMOUNT);
18:20:19 947  	    PKG_PP_LOG.P_WRITE_MESSAGE(A_MSG);
18:20:19 948  	    A_MSG := '	 Associated Pending Transaction: ' || TO_CHAR(A_PT_ID);
18:20:19 949  	    PKG_PP_LOG.P_WRITE_MESSAGE(A_MSG);
18:20:19 950  	    --Get our LS_ASSET
18:20:19 951  	    A_MSG := 'Get the leased asset record';
18:20:19 952  	    PKG_PP_LOG.P_WRITE_MESSAGE(A_MSG);
18:20:19 953  
18:20:19 954  	    select A.*
18:20:19 955  	      into L_LS_ASSET
18:20:19 956  	      from LS_ASSET A, LS_CPR_ASSET_MAP C
18:20:19 957  	     where C.ASSET_ID = A_CPR_ASSET_ID
18:20:19 958  	       and C.LS_ASSET_ID = A.LS_ASSET_ID;
18:20:19 959  
18:20:19 960  	    select IA.CAP_ASSET_ACCOUNT_ID, IA.ST_OBLIG_ACCOUNT_ID, IA.LT_OBLIG_ACCOUNT_ID
18:20:19 961  	      into L_GL_ACCT_ID, L_ST_ACCT_ID, L_LT_ACCT_ID
18:20:19 962  	      from LS_ILR_ACCOUNT IA, LS_ASSET LA
18:20:19 963  	     where LA.ILR_ID = IA.ILR_ID
18:20:19 964  	       and LA.LS_ASSET_ID = L_LS_ASSET.LS_ASSET_ID;
18:20:19 965  
18:20:19 966  	    -- is this asset fully retired?
18:20:19 967  	    if L_LS_ASSET.QUANTITY + A_RETIREMENT_QUANTITY = 0 then
18:20:19 968  	       -- fully retired
18:20:19 969  	       -- set the status to say retired
18:20:19 970  	       L_LS_ASSET.LS_ASSET_STATUS_ID := 4;
18:20:19 971  	    end if;
18:20:19 972  
18:20:19 973  	    L_PCT := -1 * A_RETIREMENT_QUANTITY / L_LS_ASSET.QUANTITY;
18:20:19 974  
18:20:19 975  	    A_MSG := 'Updating LS ASSET';
18:20:19 976  	    PKG_PP_LOG.P_WRITE_MESSAGE(A_MSG);
18:20:19 977  	    -- update the capital cost and the quantity based on the retirement amount
18:20:19 978  	    update LS_ASSET
18:20:19 979  	       set CAPITALIZED_COST = CAPITALIZED_COST + L_LS_ASSET.CAPITALIZED_COST,
18:20:19 980  		   QUANTITY = QUANTITY + A_RETIREMENT_QUANTITY,
18:20:19 981  		   LS_ASSET_STATUS_ID = L_LS_ASSET.LS_ASSET_STATUS_ID, RETIREMENT_DATE = A_MONTH
18:20:19 982  	     where LS_ASSET_ID = L_LS_ASSET.LS_ASSET_ID;
18:20:19 983  
18:20:19 984  	    -- normal asset retirement transactions are handled by POST
18:20:19 985  	    -- ie 3025 and 3026.
18:20:19 986  	    -- in this function only handle the lease specific entries (termination_penalty_amount: 3036 and 3037)
18:20:19 987  
18:20:19 988  	    select NVL(E.EXTERNAL_JE_CODE, E.GL_JE_CODE)
18:20:19 989  	      into L_GL_JE_CODE
18:20:19 990  	      from GL_JE_CONTROL G, STANDARD_JOURNAL_ENTRIES E
18:20:19 991  	     where E.JE_ID = G.JE_ID
18:20:19 992  	       and G.PROCESS_ID = 'LAM RETIREMENTS';
18:20:19 993  
18:20:19 994  	    -- loop over the set of books eligible for this asset
18:20:19 995  	    A_MSG := 'Looping over set of books';
18:20:19 996  	    PKG_PP_LOG.P_WRITE_MESSAGE(A_MSG);
18:20:19 997  	    for L_SOB in (select CS.SET_OF_BOOKS_ID as SET_OF_BOOKS_ID, LCT.BOOK_SUMMARY_ID as BS_ID
18:20:19 998  			    from COMPANY_SET_OF_BOOKS CS,
18:20:19 999  				 SET_OF_BOOKS	      S,
18:20:19 1000  				  LS_ILR_OPTIONS       ILR,
18:20:19 1001  				  LS_LEASE_CAP_TYPE    LCT
18:20:19 1002  			    where CS.COMPANY_ID = L_LS_ASSET.COMPANY_ID
18:20:19 1003  			      and CS.SET_OF_BOOKS_ID = S.SET_OF_BOOKS_ID
18:20:19 1004  			      and ILR.ILR_ID = L_LS_ASSET.ILR_ID
18:20:19 1005  			      and ILR.REVISION = L_LS_ASSET.APPROVED_REVISION
18:20:19 1006  			      and LCT.LS_LEASE_CAP_TYPE_ID = ILR.LEASE_CAP_TYPE_ID)
18:20:19 1007  	     loop
18:20:19 1008  		A_MSG := '   Set of Books: ' || TO_CHAR(L_SOB.SET_OF_BOOKS_ID);
18:20:19 1009  		PKG_PP_LOG.P_WRITE_MESSAGE(A_MSG);
18:20:19 1010  		-- get the current month's row for the schedule for the current revision
18:20:19 1011  		A_MSG := 'Get the current month schedule for leased asset id: ' ||
18:20:19 1012  			 TO_CHAR(L_LS_ASSET.LS_ASSET_ID);
18:20:19 1013  		PKG_PP_LOG.P_WRITE_MESSAGE(A_MSG);
18:20:19 1014  		select S.*
18:20:19 1015  		  into L_LS_ASSET_SCH
18:20:19 1016  		  from LS_ASSET_SCHEDULE S
18:20:19 1017  		 where S.MONTH = A_MONTH
18:20:19 1018  		   and S.REVISION = L_LS_ASSET.APPROVED_REVISION
18:20:19 1019  		   and S.LS_ASSET_ID = L_LS_ASSET.LS_ASSET_ID
18:20:19 1020  		   and S.SET_OF_BOOKS_ID = L_SOB.SET_OF_BOOKS_ID;
18:20:19 1021  
18:20:19 1022  		-- is there a termination penalty
18:20:19 1023  
18:20:19 1024  		A_MSG := A_MSG || '   Original Termination Amount: ' ||
18:20:19 1025  			 TO_CHAR(L_LS_ASSET.TERMINATION_PENALTY_AMOUNT);
18:20:19 1026  		PKG_PP_LOG.P_WRITE_MESSAGE(A_MSG);
18:20:19 1027  		A_MSG := A_MSG || '   Actual Termination Amount: ' ||
18:20:19 1028  			 TO_CHAR(L_LS_ASSET.ACTUAL_TERMINATION_AMOUNT);
18:20:19 1029  		PKG_PP_LOG.P_WRITE_MESSAGE(A_MSG);
18:20:19 1030  		if L_LS_ASSET.ACTUAL_TERMINATION_AMOUNT - L_LS_ASSET.TERMINATION_PENALTY_AMOUNT <> 0 then
18:20:19 1031  		   L_RTN := PKG_LEASE_COMMON.F_BOOKJE(L_LS_ASSET.LS_ASSET_ID,
18:20:19 1032  						      3036,
18:20:19 1033  						      L_LS_ASSET.ACTUAL_TERMINATION_AMOUNT - L_LS_ASSET.TERMINATION_PENALTY_AMOUNT,
18:20:19 1034  						      0,
18:20:19 1035  						      A_DG_ID,
18:20:19 1036  						      L_LS_ASSET.WORK_ORDER_ID,
18:20:19 1037  						      0,
18:20:19 1038  						      1,
18:20:19 1039  						      A_PT_ID,
18:20:19 1040  						      L_LS_ASSET.COMPANY_ID,
18:20:19 1041  						      A_ACCT_MONTH,
18:20:19 1042  						      1,
18:20:19 1043  						      L_GL_JE_CODE,
18:20:19 1044  						      L_SOB.SET_OF_BOOKS_ID,
18:20:19 1045  						      A_MSG);
18:20:19 1046  		   if L_RTN = -1 then
18:20:19 1047  
18:20:19 1048  		      return 0;
18:20:19 1049  		   end if;
18:20:19 1050  
18:20:19 1051  		   L_RTN := PKG_LEASE_COMMON.F_BOOKJE(L_LS_ASSET.LS_ASSET_ID,
18:20:19 1052  						      3037,
18:20:19 1053  						      L_LS_ASSET.ACTUAL_TERMINATION_AMOUNT - L_LS_ASSET.TERMINATION_PENALTY_AMOUNT,
18:20:19 1054  						      0,
18:20:19 1055  						      A_DG_ID,
18:20:19 1056  						      L_LS_ASSET.WORK_ORDER_ID,
18:20:19 1057  						      0,
18:20:19 1058  						      1,
18:20:19 1059  						      A_PT_ID,
18:20:19 1060  						      L_LS_ASSET.COMPANY_ID,
18:20:19 1061  						      A_ACCT_MONTH,
18:20:19 1062  						      0,
18:20:19 1063  						      L_GL_JE_CODE,
18:20:19 1064  						      L_SOB.SET_OF_BOOKS_ID,
18:20:19 1065  						      A_MSG);
18:20:19 1066  		   if L_RTN = -1 then
18:20:19 1067  
18:20:19 1068  		      return 0;
18:20:19 1069  		   end if;
18:20:19 1070  		end if; -- termination penalty
18:20:19 1071  
18:20:19 1072  		-- check to see if the ilr is capital for this set of books
18:20:19 1073  		L_SQLS := 'select to_char(basis_' || TO_CHAR(L_SOB.BS_ID) ||
18:20:19 1074  			  '_indicator) from set_of_books s where set_of_books_id = ' ||
18:20:19 1075  			  TO_CHAR(L_SOB.SET_OF_BOOKS_ID);
18:20:19 1076  
18:20:19 1077  		A_MSG := '   Set of Books (Cap or O&M): ' || L_SQLS;
18:20:19 1078  		PKG_PP_LOG.P_WRITE_MESSAGE(A_MSG);
18:20:19 1079  
18:20:19 1080  		L_RTN := TO_NUMBER(PP_MISC_PKG.DYNAMIC_SELECT(L_SQLS));
18:20:19 1081  		PKG_PP_LOG.P_WRITE_MESSAGE('	  RETURN: ' || TO_CHAR(L_RTN));
18:20:19 1082  
18:20:19 1083  		-- plus additional g/l for the st / lt obligation clearing (3027 G/L CR, 3028 ST DR, 2029 LT DR)
18:20:19 1084  		if L_RTN = 1 and L_LS_ASSET.IS_EARLY_RET = 1 then
18:20:19 1085  		   A_MSG := '	  CAPITAL and Early Retirement: ' || L_SQLS;
18:20:19 1086  		   PKG_PP_LOG.P_WRITE_MESSAGE(A_MSG);
18:20:19 1087  		   -- this is an early retirement
18:20:19 1088  		   -- so calc additional G/L by clearing out the obligations
18:20:19 1089  		   L_AMT_OBL := L_PCT *
18:20:19 1090  				(L_LS_ASSET_SCH.BEG_OBLIGATION - NVL(L_LS_ASSET_SCH.BEG_LT_OBLIGATION, 0));
18:20:19 1091  
18:20:19 1092  		   if L_AMT_OBL <> 0 then
18:20:19 1093  		      -- book the G/L/ credit
18:20:19 1094  		      L_RTN := PKG_LEASE_COMMON.F_BOOKJE(L_LS_ASSET.LS_ASSET_ID,
18:20:19 1095  							 3027,
18:20:19 1096  							 L_AMT_OBL,
18:20:19 1097  							 0,
18:20:19 1098  							 A_DG_ID,
18:20:19 1099  							 L_LS_ASSET.WORK_ORDER_ID,
18:20:19 1100  							 0,
18:20:19 1101  							 1,
18:20:19 1102  							 A_PT_ID,
18:20:19 1103  							 L_LS_ASSET.COMPANY_ID,
18:20:19 1104  							 A_ACCT_MONTH,
18:20:19 1105  							 0,
18:20:19 1106  							 L_GL_JE_CODE,
18:20:19 1107  							 L_SOB.SET_OF_BOOKS_ID,
18:20:19 1108  							 A_MSG);
18:20:19 1109  		      if L_RTN = -1 then
18:20:19 1110  
18:20:19 1111  			 return 0;
18:20:19 1112  		      end if;
18:20:19 1113  
18:20:19 1114  		      -- book the ST CLEAR DR
18:20:19 1115  		      L_RTN := PKG_LEASE_COMMON.F_BOOKJE(L_LS_ASSET.LS_ASSET_ID,
18:20:19 1116  							 3028,
18:20:19 1117  							 L_AMT_OBL,
18:20:19 1118  							 0,
18:20:19 1119  							 A_DG_ID,
18:20:19 1120  							 L_LS_ASSET.WORK_ORDER_ID,
18:20:19 1121  							 L_ST_ACCT_ID,
18:20:19 1122  							 1,
18:20:19 1123  							 A_PT_ID,
18:20:19 1124  							 L_LS_ASSET.COMPANY_ID,
18:20:19 1125  							 A_ACCT_MONTH,
18:20:19 1126  							 1,
18:20:19 1127  							 L_GL_JE_CODE,
18:20:19 1128  							 L_SOB.SET_OF_BOOKS_ID,
18:20:19 1129  							 A_MSG);
18:20:19 1130  		      if L_RTN = -1 then
18:20:19 1131  
18:20:19 1132  			 return 0;
18:20:19 1133  		      end if;
18:20:19 1134  		   end if; -- end clearing out short term obligation
18:20:19 1135  
18:20:19 1136  		   L_AMT_OBL := L_PCT * L_LS_ASSET_SCH.BEG_LT_OBLIGATION;
18:20:19 1137  
18:20:19 1138  		   if NVL(L_AMT_OBL, 0) <> 0 then
18:20:19 1139  		      -- book the G/L/ credit
18:20:19 1140  		      L_RTN := PKG_LEASE_COMMON.F_BOOKJE(L_LS_ASSET.LS_ASSET_ID,
18:20:19 1141  							 3027,
18:20:19 1142  							 L_AMT_OBL,
18:20:19 1143  							 0,
18:20:19 1144  							 A_DG_ID,
18:20:19 1145  							 L_LS_ASSET.WORK_ORDER_ID,
18:20:19 1146  							 0,
18:20:19 1147  							 1,
18:20:19 1148  							 A_PT_ID,
18:20:19 1149  							 L_LS_ASSET.COMPANY_ID,
18:20:19 1150  							 A_ACCT_MONTH,
18:20:19 1151  							 0,
18:20:19 1152  							 L_GL_JE_CODE,
18:20:19 1153  							 L_SOB.SET_OF_BOOKS_ID,
18:20:19 1154  							 A_MSG);
18:20:19 1155  		      if L_RTN = -1 then
18:20:19 1156  
18:20:19 1157  			 return 0;
18:20:19 1158  		      end if;
18:20:19 1159  
18:20:19 1160  		      -- book the LT CLEAR DR
18:20:19 1161  		      L_RTN := PKG_LEASE_COMMON.F_BOOKJE(L_LS_ASSET.LS_ASSET_ID,
18:20:19 1162  							 3029,
18:20:19 1163  							 L_AMT_OBL,
18:20:19 1164  							 0,
18:20:19 1165  							 A_DG_ID,
18:20:19 1166  							 L_LS_ASSET.WORK_ORDER_ID,
18:20:19 1167  							 L_LT_ACCT_ID,
18:20:19 1168  							 1,
18:20:19 1169  							 A_PT_ID,
18:20:19 1170  							 L_LS_ASSET.COMPANY_ID,
18:20:19 1171  							 A_ACCT_MONTH,
18:20:19 1172  							 1,
18:20:19 1173  							 L_GL_JE_CODE,
18:20:19 1174  							 L_SOB.SET_OF_BOOKS_ID,
18:20:19 1175  							 A_MSG);
18:20:19 1176  		      if L_RTN = -1 then
18:20:19 1177  
18:20:19 1178  			 return 0;
18:20:19 1179  		      end if;
18:20:19 1180  		   end if; -- end clearing out long term obligation
18:20:19 1181  		end if; -- end if capital and early retirement (to calc additional gain loss)
18:20:19 1182  	     end loop; -- loop over set of books
18:20:19 1183  
18:20:19 1184  	     if L_LS_ASSET.LS_ASSET_STATUS_ID = 4 then
18:20:19 1185  		A_MSG := 'Fully retired, REMOVING asset from association to ILR';
18:20:19 1186  		PKG_PP_LOG.P_WRITE_MESSAGE(A_MSG);
18:20:19 1187  		delete from LS_ILR_ASSET_MAP
18:20:19 1188  		 where LS_ASSET_ID = L_LS_ASSET.LS_ASSET_ID
18:20:19 1189  		   and REVISION =
18:20:19 1190  		       (select ILR.CURRENT_REVISION from LS_ILR ILR where ILR_ID = L_LS_ASSET.ILR_ID);
18:20:19 1191  
18:20:19 1192  	     if L_LS_ASSET.ACTUAL_RESIDUAL_AMOUNT <> 0 then
18:20:19 1193  		A_MSG := 'Processing actual residual amount';
18:20:19 1194  		PKG_PP_LOG.P_WRITE_MESSAGE(A_MSG);
18:20:19 1195  		L_ASSET_IDS(1) := L_LS_ASSET.LS_ASSET_ID;
18:20:19 1196  
18:20:19 1197  		A_MSG := PKG_LEASE_CALC.F_PROCESS_RESIDUAL(A_LS_ASSET_IDS => L_ASSET_IDS, A_END_LOG => 0);
18:20:19 1198  		if A_MSG <> 'OK' then
18:20:19 1199  		   PKG_PP_LOG.P_WRITE_MESSAGE(A_MSG);
18:20:19 1200  		   return 0;
18:20:19 1201  		end if;
18:20:19 1202  	     end if;
18:20:19 1203  
18:20:19 1204  	     end if;
18:20:19 1205  
18:20:19 1206  	     -- Handle ILR Status changes if all assets under the ILR are retired
18:20:19 1207  	     L_RTN := 0;
18:20:19 1208  	     select count(1)
18:20:19 1209  	       into L_RTN
18:20:19 1210  	       from LS_ASSET
18:20:19 1211  	      where ILR_ID = L_LS_ASSET.ILR_ID
18:20:19 1212  		and LS_ASSET_STATUS_ID <> 4;
18:20:19 1213  
18:20:19 1214  	     if L_RTN = 0 then
18:20:19 1215  		A_MSG := 'Retiring the ILR';
18:20:19 1216  		PKG_PP_LOG.P_WRITE_MESSAGE(A_MSG);
18:20:19 1217  		update LS_ILR set ILR_STATUS_ID = 3 where ILR_ID = L_LS_ASSET.ILR_ID;
18:20:19 1218  	     else
18:20:19 1219  		L_RTN := 0;
18:20:19 1220  		-- this is the current pending revision for the ilr
18:20:19 1221  		A_MSG := 'Finding the pending revision for the ILR';
18:20:19 1222  		PKG_PP_LOG.P_WRITE_MESSAGE(A_MSG);
18:20:19 1223  		select L.REVISION
18:20:19 1224  		  into L_RTN
18:20:19 1225  		  from LS_ILR_APPROVAL L
18:20:19 1226  		 where L.ILR_ID = L_LS_ASSET.ILR_ID
18:20:19 1227  		   and L.APPROVAL_STATUS_ID = 2;
18:20:19 1228  
18:20:19 1229  		A_MSG := 'Approving ILR';
18:20:19 1230  		PKG_PP_LOG.P_WRITE_MESSAGE(A_MSG);
18:20:19 1231  		L_RTN := PKG_LEASE_CALC.F_APPROVE_ILR_NO_COMMIT(L_LS_ASSET.ILR_ID, L_RTN, L_STATUS);
18:20:19 1232  		if L_RTN <> 1 then
18:20:19 1233  
18:20:19 1234  		   return 0;
18:20:19 1235  		end if;
18:20:19 1236  	     end if;
18:20:19 1237  	     --POST.exe needs to be checking for a return value of 1.
18:20:19 1238  
18:20:19 1239  	     return 1;
18:20:19 1240  	  exception
18:20:19 1241  	     when others then
18:20:19 1242  		A_MSG := SUBSTR(A_MSG || ': ' || sqlerrm, 1, 2000);
18:20:19 1243  		PKG_PP_LOG.P_WRITE_MESSAGE('ERROR: ' || A_MSG);
18:20:19 1244  
18:20:19 1245  		return 0;
18:20:19 1246  	  end F_RETIRE_ASSET;
18:20:19 1247  
18:20:19 1248  	  -- Function to perform specific Leased Asset transfer from
18:20:19 1249  	  function F_TRANSFER_ASSET_FROM(A_CPR_ASSET_ID number,
18:20:19 1250  					 A_AMOUNT	number,
18:20:19 1251  					 A_QUANTITY	number,
18:20:19 1252  					 A_PT_ID	number,
18:20:19 1253  					 A_MSG		out varchar2) return number is
18:20:19 1254  	     L_LS_ASSET_ID number;
18:20:19 1255  	     OLD_QUANTITY  number;
18:20:19 1256  	     L_REVISION    number;
18:20:19 1257  	     L_ILR_ID	   number;
18:20:19 1258  	     L_STATUS	   varchar2(4000);
18:20:19 1259  	     L_RTN	   number;
18:20:19 1260  
18:20:19 1261  	  begin
18:20:19 1262  	     /*      PKG_PP_LOG.P_START_LOG(P_PROCESS_ID => PKG_LEASE_COMMON.F_GETPROCESS());
18:20:19 1263  
18:20:19 1264  		   A_MSG := 'Starting to transfer asset from';
18:20:19 1265  		   PKG_PP_LOG.P_WRITE_MESSAGE(A_MSG);
18:20:19 1266  		   A_MSG := '	Quantity: ' || TO_CHAR(A_QUANTITY);
18:20:19 1267  		   PKG_PP_LOG.P_WRITE_MESSAGE(A_MSG);
18:20:19 1268  		   A_MSG := '	Amount: ' || TO_CHAR(A_AMOUNT);
18:20:19 1269  		   PKG_PP_LOG.P_WRITE_MESSAGE(A_MSG);
18:20:19 1270  		   A_MSG := '	CPR Asset ID: ' || TO_CHAR(A_CPR_ASSET_ID);
18:20:19 1271  		   PKG_PP_LOG.P_WRITE_MESSAGE(A_MSG);
18:20:19 1272  		   A_MSG := '	Associated Pending Transaction: ' || TO_CHAR(A_PT_ID);
18:20:19 1273  		   PKG_PP_LOG.P_WRITE_MESSAGE(A_MSG);
18:20:19 1274  
18:20:19 1275  		 -- NO MAJOR PROCESSING HERE...
18:20:19 1276  		 -- all processing happens on the TO side
18:20:19 1277  
18:20:19 1278  		   A_MSG := 'DONE';
18:20:19 1279  		   PKG_PP_LOG.P_WRITE_MESSAGE(A_MSG);
18:20:19 1280  
18:20:19 1281  
18:20:19 1282  		   --Handle rounding... somehow...
18:20:19 1283  	     */
18:20:19 1284  	     A_MSG := 'DONE';
18:20:19 1285  	     return 1;
18:20:19 1286  	  exception
18:20:19 1287  	     when others then
18:20:19 1288  		A_MSG := SUBSTR(A_MSG || ': ' || sqlerrm, 1, 2000);
18:20:19 1289  		PKG_PP_LOG.P_WRITE_MESSAGE('ERROR: ' || A_MSG);
18:20:19 1290  
18:20:19 1291  		return -1;
18:20:19 1292  	  end F_TRANSFER_ASSET_FROM;
18:20:19 1293  
18:20:19 1294  	  -- Function to perform specific Leased Asset transfer to
18:20:19 1295  	  function F_TRANSFER_ASSET_TO(A_CPR_ASSET_ID	    number,
18:20:19 1296  				       A_AMOUNT 	    number,
18:20:19 1297  				       A_QUANTITY	    number,
18:20:19 1298  				       A_COMPANY_ID	    number,
18:20:19 1299  				       A_BUS_SEGMENT_ID     number,
18:20:19 1300  				       A_UTILITY_ACCOUNT_ID number,
18:20:19 1301  				       A_SUB_ACCOUNT_ID     number,
18:20:19 1302  				       A_FUNC_CLASS_ID	    number,
18:20:19 1303  				       A_PROPERTY_GROUP_ID  number,
18:20:19 1304  				       A_RETIREMENT_UNIT_ID number,
18:20:19 1305  				       A_ASSET_LOCATION_ID  number,
18:20:19 1306  				       A_DG_ID		    number,
18:20:19 1307  				       A_PT_ID		    number,
18:20:19 1308  				       A_MSG		    out varchar2) return number is
18:20:19 1309  	     L_LS_ASSET_ID_FROM      number;
18:20:19 1310  	     L_LS_ASSET_ID_TO	     number;
18:20:19 1311  	     L_REVISION_FROM	     number;
18:20:19 1312  	     L_REVISION_TO	     number;
18:20:19 1313  	     L_CURRENT_REVISION_FROM number;
18:20:19 1314  	     L_TO_ILR_ID	     number;
18:20:19 1315  	     L_FROM_ILR_ID	     number;
18:20:19 1316  	     L_WO_ID		     number;
18:20:19 1317  	     L_STATUS		     varchar2(4000);
18:20:19 1318  	     L_RTN		     number;
18:20:19 1319  	     L_PCT		     number(22, 8);
18:20:19 1320  	     L_PEND_TRANS_TO	     PEND_TRANSACTION%rowtype;
18:20:19 1321  	     L_PEND_TRANS_FROM	     PEND_TRANSACTION%rowtype;
18:20:19 1322  	     L_MONTH		     date;
18:20:19 1323  	  begin
18:20:19 1324  	     --Update the lessee tables to the new CPR attributes
18:20:19 1325  	     PKG_PP_LOG.P_START_LOG(P_PROCESS_ID => PKG_LEASE_COMMON.F_GETPROCESS());
18:20:19 1326  	     A_MSG := 'Starting to transfer asset to';
18:20:19 1327  	     PKG_PP_LOG.P_WRITE_MESSAGE(A_MSG);
18:20:19 1328  	     A_MSG := '   Quantity: ' || TO_CHAR(A_QUANTITY);
18:20:19 1329  	     PKG_PP_LOG.P_WRITE_MESSAGE(A_MSG);
18:20:19 1330  	     A_MSG := '   Amount: ' || TO_CHAR(A_AMOUNT);
18:20:19 1331  	     PKG_PP_LOG.P_WRITE_MESSAGE(A_MSG);
18:20:19 1332  	     A_MSG := '   CPR Asset ID: ' || TO_CHAR(A_CPR_ASSET_ID);
18:20:19 1333  	     PKG_PP_LOG.P_WRITE_MESSAGE(A_MSG);
18:20:19 1334  	     A_MSG := '   TO Company ID: ' || TO_CHAR(A_COMPANY_ID);
18:20:19 1335  	     PKG_PP_LOG.P_WRITE_MESSAGE(A_MSG);
18:20:19 1336  	     A_MSG := '   Associated Pending Transaction: ' || TO_CHAR(A_PT_ID);
18:20:19 1337  	     PKG_PP_LOG.P_WRITE_MESSAGE(A_MSG);
18:20:19 1338  
18:20:19 1339  	     -- the ldg_asset_id is the to side transaction
18:20:19 1340  	     A_MSG := 'GET to pending transaction';
18:20:19 1341  	     select * into L_PEND_TRANS_TO from PEND_TRANSACTION where LDG_ASSET_ID = A_PT_ID;
18:20:19 1342  
18:20:19 1343  	     -- the pend_trans_id is the from side transaction
18:20:19 1344  	     A_MSG := 'GET from pending transaction';
18:20:19 1345  	     select * into L_PEND_TRANS_FROM from PEND_TRANSACTION where PEND_TRANS_ID = A_PT_ID;
18:20:19 1346  
18:20:19 1347  	     -- THE FROM SIDE
18:20:19 1348  	     A_MSG := 'GET from leased asset';
18:20:19 1349  	     select LS_ASSET_ID
18:20:19 1350  	       into L_LS_ASSET_ID_FROM
18:20:19 1351  	       from LS_CPR_ASSET_MAP
18:20:19 1352  	      where ASSET_ID = L_PEND_TRANS_FROM.LDG_ASSET_ID;
18:20:19 1353  
18:20:19 1354  	     A_MSG := 'GET percent transferred';
18:20:19 1355  
18:20:19 1356  	     select A_QUANTITY / F.QUANTITY, F.ILR_ID, F.APPROVED_REVISION
18:20:19 1357  	       into L_PCT, L_FROM_ILR_ID, L_CURRENT_REVISION_FROM
18:20:19 1358  	       from LS_ASSET F
18:20:19 1359  	      where F.LS_ASSET_ID = L_LS_ASSET_ID_FROM;
18:20:19 1360  
18:20:19 1361  	     A_MSG := 'FROM Leased Asset: ' || TO_CHAR(L_LS_ASSET_ID_FROM);
18:20:19 1362  	     PKG_PP_LOG.P_WRITE_MESSAGE(A_MSG);
18:20:19 1363  	     A_MSG := 'PERCENT Transferred: ' || TO_CHAR(L_PCT);
18:20:19 1364  	     PKG_PP_LOG.P_WRITE_MESSAGE(A_MSG);
18:20:19 1365  
18:20:19 1366  	     A_MSG	      := 'COPY from asset';
18:20:19 1367  	     L_LS_ASSET_ID_TO := PKG_LEASE_ILR.F_COPYASSET(L_LS_ASSET_ID_FROM, L_PCT, A_QUANTITY);
18:20:19 1368  	     if L_LS_ASSET_ID_TO = -1 then
18:20:19 1369  		return -1;
18:20:19 1370  	     end if;
18:20:19 1371  
18:20:19 1372  	     A_MSG := 'TO Leased Asset: ' || TO_CHAR(L_LS_ASSET_ID_TO);
18:20:19 1373  	     PKG_PP_LOG.P_WRITE_MESSAGE(A_MSG);
18:20:19 1374  
18:20:19 1375  	     A_MSG := 'LOAD LS_CPR_ASSET_MAP';
18:20:19 1376  	     insert into LS_CPR_ASSET_MAP
18:20:19 1377  		(LS_ASSET_ID, ASSET_ID, EFFECTIVE_DATE)
18:20:19 1378  	     values
18:20:19 1379  		(L_LS_ASSET_ID_TO, A_CPR_ASSET_ID, L_PEND_TRANS_TO.GL_POSTING_MO_YR);
18:20:19 1380  
18:20:19 1381  	     -- create the new from revision
18:20:19 1382  	     L_REVISION_FROM := PKG_LEASE_ILR.F_NEWREVISION(L_FROM_ILR_ID);
18:20:19 1383  	     if L_REVISION_FROM = -1 then
18:20:19 1384  		return -1;
18:20:19 1385  	     end if;
18:20:19 1386  
18:20:19 1387  	     --  if from company <> to company
18:20:19 1388  	     --  CREATE NEW ILR
18:20:19 1389  	     --  Set the new assets ilr
18:20:19 1390  	     --  Associate new asset to ILR / revision
18:20:19 1391  	     if L_PEND_TRANS_TO.COMPANY_ID <> L_PEND_TRANS_FROM.COMPANY_ID then
18:20:19 1392  		L_TO_ILR_ID := PKG_LEASE_ILR.F_COPYILR(L_FROM_ILR_ID, L_PCT);
18:20:19 1393  		if L_TO_ILR_ID = -1 then
18:20:19 1394  		   return -1;
18:20:19 1395  		end if;
18:20:19 1396  		L_REVISION_TO := 1;
18:20:19 1397  
18:20:19 1398  		--
18:20:19 1399  		A_MSG := 'SET company on new ILR';
18:20:19 1400  		update LS_ILR set COMPANY_ID = A_COMPANY_ID where ILR_ID = L_TO_ILR_ID;
18:20:19 1401  
18:20:19 1402  		-- update from ILR Payment TERMS if company not the same
18:20:19 1403  		A_MSG := 'UPDATE from ILRs payment terms';
18:20:19 1404  		update LS_ILR_PAYMENT_TERM LA
18:20:19 1405  		   set (EST_EXECUTORY_COST,
18:20:19 1406  			 PAID_AMOUNT,
18:20:19 1407  			 CONTINGENT_AMOUNT,
18:20:19 1408  			 C_BUCKET_1,
18:20:19 1409  			 C_BUCKET_2,
18:20:19 1410  			 C_BUCKET_3,
18:20:19 1411  			 C_BUCKET_4,
18:20:19 1412  			 C_BUCKET_5,
18:20:19 1413  			 C_BUCKET_6,
18:20:19 1414  			 C_BUCKET_7,
18:20:19 1415  			 C_BUCKET_8,
18:20:19 1416  			 C_BUCKET_9,
18:20:19 1417  			 C_BUCKET_10,
18:20:19 1418  			 E_BUCKET_1,
18:20:19 1419  			 E_BUCKET_2,
18:20:19 1420  			 E_BUCKET_3,
18:20:19 1421  			 E_BUCKET_4,
18:20:19 1422  			 E_BUCKET_5,
18:20:19 1423  			 E_BUCKET_6,
18:20:19 1424  			 E_BUCKET_7,
18:20:19 1425  			 E_BUCKET_8,
18:20:19 1426  			 E_BUCKET_9,
18:20:19 1427  			 E_BUCKET_10) =
18:20:19 1428  			(select LA.EST_EXECUTORY_COST - LT.EST_EXECUTORY_COST,
18:20:19 1429  				LA.PAID_AMOUNT - LT.PAID_AMOUNT,
18:20:19 1430  				LA.CONTINGENT_AMOUNT - LT.CONTINGENT_AMOUNT,
18:20:19 1431  				LA.C_BUCKET_1 - LT.C_BUCKET_1,
18:20:19 1432  				LA.C_BUCKET_2 - LT.C_BUCKET_2,
18:20:19 1433  				LA.C_BUCKET_3 - LT.C_BUCKET_3,
18:20:19 1434  				LA.C_BUCKET_4 - LT.C_BUCKET_4,
18:20:19 1435  				LA.C_BUCKET_5 - LT.C_BUCKET_5,
18:20:19 1436  				LA.C_BUCKET_6 - LT.C_BUCKET_6,
18:20:19 1437  				LA.C_BUCKET_7 - LT.C_BUCKET_7,
18:20:19 1438  				LA.C_BUCKET_8 - LT.C_BUCKET_8,
18:20:19 1439  				LA.C_BUCKET_9 - LT.C_BUCKET_9,
18:20:19 1440  				LA.C_BUCKET_10 - LT.C_BUCKET_10,
18:20:19 1441  				LA.E_BUCKET_1 - LT.E_BUCKET_1,
18:20:19 1442  				LA.E_BUCKET_2 - LT.E_BUCKET_2,
18:20:19 1443  				LA.E_BUCKET_3 - LT.E_BUCKET_3,
18:20:19 1444  				LA.E_BUCKET_4 - LT.E_BUCKET_4,
18:20:19 1445  				LA.E_BUCKET_5 - LT.E_BUCKET_5,
18:20:19 1446  				LA.E_BUCKET_6 - LT.E_BUCKET_6,
18:20:19 1447  				LA.E_BUCKET_7 - LT.E_BUCKET_7,
18:20:19 1448  				LA.E_BUCKET_8 - LT.E_BUCKET_8,
18:20:19 1449  				LA.E_BUCKET_9 - LT.E_BUCKET_9,
18:20:19 1450  				LA.E_BUCKET_10 - LT.E_BUCKET_10
18:20:19 1451  			   from LS_ILR_PAYMENT_TERM LT
18:20:19 1452  			  where LT.ILR_ID = L_TO_ILR_ID
18:20:19 1453  			    and LT.REVISION = 1)
18:20:19 1454  		 where LA.ILR_ID = L_FROM_ILR_ID
18:20:19 1455  		   and LA.REVISION = L_REVISION_FROM;
18:20:19 1456  
18:20:19 1457  		A_MSG := 'UPDATE from ILRs amounts by set of book';
18:20:19 1458  		update LS_ILR_AMOUNTS_SET_OF_BOOKS LA
18:20:19 1459  		   set (NET_PRESENT_VALUE, CAPITAL_COST, CURRENT_LEASE_COST) =
18:20:19 1460  			(select LA.NET_PRESENT_VALUE - LT.NET_PRESENT_VALUE,
18:20:19 1461  				LA.CAPITAL_COST - LT.CAPITAL_COST,
18:20:19 1462  				LA.CURRENT_LEASE_COST - LT.CURRENT_LEASE_COST
18:20:19 1463  			   from LS_ILR_AMOUNTS_SET_OF_BOOKS LT
18:20:19 1464  			  where LT.ILR_ID = L_TO_ILR_ID
18:20:19 1465  			    and LT.REVISION = 1
18:20:19 1466  			    and LA.SET_OF_BOOKS_ID = LT.SET_OF_BOOKS_ID)
18:20:19 1467  		 where LA.ILR_ID = L_FROM_ILR_ID
18:20:19 1468  		   and LA.REVISION = L_REVISION_FROM;
18:20:19 1469  
18:20:19 1470  		A_MSG := 'UPDATE from ILRs options';
18:20:19 1471  		update LS_ILR_OPTIONS LA
18:20:19 1472  		   set (PURCHASE_OPTION_AMT, TERMINATION_AMT) =
18:20:19 1473  			(select LA.PURCHASE_OPTION_AMT - LT.PURCHASE_OPTION_AMT,
18:20:19 1474  				LA.TERMINATION_AMT - LT.TERMINATION_AMT
18:20:19 1475  			   from LS_ILR_OPTIONS LT
18:20:19 1476  			  where LT.ILR_ID = L_TO_ILR_ID
18:20:19 1477  			    and LT.REVISION = 1)
18:20:19 1478  		 where LA.ILR_ID = L_FROM_ILR_ID
18:20:19 1479  		   and LA.REVISION = L_REVISION_FROM;
18:20:19 1480  	     else
18:20:19 1481  		L_TO_ILR_ID   := L_FROM_ILR_ID;
18:20:19 1482  		L_REVISION_TO := L_REVISION_FROM;
18:20:19 1483  	     end if;
18:20:19 1484  
18:20:19 1485  	     A_MSG := 'ASSOCIATE new asset to the ILR / Revision';
18:20:19 1486  	     insert into LS_ILR_ASSET_MAP
18:20:19 1487  		(ILR_ID, LS_ASSET_ID, REVISION)
18:20:19 1488  	     values
18:20:19 1489  		(L_TO_ILR_ID, L_LS_ASSET_ID_TO, L_REVISION_TO);
18:20:19 1490  
18:20:19 1491  	     A_MSG := 'UPDATE asset ILR';
18:20:19 1492  	     update LS_ASSET
18:20:19 1493  		set ILR_ID = L_TO_ILR_ID, APPROVED_REVISION = L_REVISION_TO
18:20:19 1494  	      where LS_ASSET_ID = L_LS_ASSET_ID_TO;
18:20:19 1495  
18:20:19 1496  	     -- UPDATE FROM ASSET's values
18:20:19 1497  	     A_MSG := 'UPDATE from assets values';
18:20:19 1498  	     update LS_ASSET LA
18:20:19 1499  		set (FMV,
18:20:19 1500  		      TERMINATION_PENALTY_AMOUNT,
18:20:19 1501  		      GUARANTEED_RESIDUAL_AMOUNT,
18:20:19 1502  		      ACTUAL_RESIDUAL_AMOUNT,
18:20:19 1503  		      QUANTITY) =
18:20:19 1504  		     (select LA.FMV - LT.FMV,
18:20:19 1505  			     LA.TERMINATION_PENALTY_AMOUNT - LT.TERMINATION_PENALTY_AMOUNT,
18:20:19 1506  			     LA.GUARANTEED_RESIDUAL_AMOUNT - LT.GUARANTEED_RESIDUAL_AMOUNT,
18:20:19 1507  			     LA.ACTUAL_RESIDUAL_AMOUNT - LT.ACTUAL_RESIDUAL_AMOUNT,
18:20:19 1508  			     LA.QUANTITY - LT.QUANTITY
18:20:19 1509  			from LS_ASSET LT
18:20:19 1510  		       where LT.LS_ASSET_ID = L_LS_ASSET_ID_TO)
18:20:19 1511  	      where LA.LS_ASSET_ID = L_LS_ASSET_ID_FROM;
18:20:19 1512  
18:20:19 1513  	     A_MSG := 'Retire fully transferred asset';
18:20:19 1514  	     update LS_ASSET LA
18:20:19 1515  		set LS_ASSET_STATUS_ID = 4
18:20:19 1516  	      where LA.LS_ASSET_ID = L_LS_ASSET_ID_FROM
18:20:19 1517  		and LA.FMV = 0
18:20:19 1518  		and LA.QUANTITY = 0;
18:20:19 1519  
18:20:19 1520  	     A_MSG := 'GET work order id';
18:20:19 1521  	     L_RTN := 0;
18:20:19 1522  	     select count(1)
18:20:19 1523  	       into L_RTN
18:20:19 1524  	       from WORK_ORDER_CONTROL
18:20:19 1525  	      where COMPANY_ID = A_COMPANY_ID
18:20:19 1526  		and FUNDING_WO_INDICATOR = 0
18:20:19 1527  		and WORK_ORDER_NUMBER = replace(L_PEND_TRANS_FROM.MISC_DESCRIPTION, 'wo:', '');
18:20:19 1528  
18:20:19 1529  	     if L_RTN = 1 then
18:20:19 1530  		A_MSG := '   TO work order number: ' ||
18:20:19 1531  			 replace(L_PEND_TRANS_FROM.MISC_DESCRIPTION, 'wo:', '');
18:20:19 1532  		PKG_PP_LOG.P_WRITE_MESSAGE(A_MSG);
18:20:19 1533  
18:20:19 1534  		select WORK_ORDER_ID
18:20:19 1535  		  into L_WO_ID
18:20:19 1536  		  from WORK_ORDER_CONTROL
18:20:19 1537  		 where COMPANY_ID = A_COMPANY_ID
18:20:19 1538  		   and FUNDING_WO_INDICATOR = 0
18:20:19 1539  		   and WORK_ORDER_NUMBER = replace(L_PEND_TRANS_FROM.MISC_DESCRIPTION, 'wo:', '');
18:20:19 1540  	     else
18:20:19 1541  		A_MSG := '   TO work order number: ' || L_PEND_TRANS_TO.WORK_ORDER_NUMBER;
18:20:19 1542  		PKG_PP_LOG.P_WRITE_MESSAGE(A_MSG);
18:20:19 1543  
18:20:19 1544  		select WORK_ORDER_ID
18:20:19 1545  		  into L_WO_ID
18:20:19 1546  		  from WORK_ORDER_CONTROL
18:20:19 1547  		 where COMPANY_ID = A_COMPANY_ID
18:20:19 1548  		   and FUNDING_WO_INDICATOR = 0
18:20:19 1549  		   and WORK_ORDER_NUMBER = L_PEND_TRANS_TO.WORK_ORDER_NUMBER;
18:20:19 1550  	     end if;
18:20:19 1551  
18:20:19 1552  	     --
18:20:19 1553  	     A_MSG := 'SET the cpr attributes on the NEW Asset';
18:20:19 1554  	     update LS_ASSET
18:20:19 1555  		set UTILITY_ACCOUNT_ID = A_UTILITY_ACCOUNT_ID, COMPANY_ID = A_COMPANY_ID,
18:20:19 1556  		    BUS_SEGMENT_ID = A_BUS_SEGMENT_ID, RETIREMENT_UNIT_ID = A_RETIREMENT_UNIT_ID,
18:20:19 1557  		    SUB_ACCOUNT_ID = A_SUB_ACCOUNT_ID, PROPERTY_GROUP_ID = A_PROPERTY_GROUP_ID,
18:20:19 1558  		    ASSET_LOCATION_ID = A_ASSET_LOCATION_ID, FUNC_CLASS_ID = A_FUNC_CLASS_ID,
18:20:19 1559  		    WORK_ORDER_ID = L_WO_ID, ILR_ID = L_TO_ILR_ID, TAX_ASSET_LOCATION_ID = A_ASSET_LOCATION_ID
18:20:19 1560  	      where LS_ASSET_ID = L_LS_ASSET_ID_TO;
18:20:19 1561  
18:20:19 1562  	     -- call function to build the schedules for the new asset and the old asset
18:20:19 1563  	     A_MSG := PKG_LEASE_SCHEDULE.F_PROCESS_ASSET_TRF(L_LS_ASSET_ID_FROM,
18:20:19 1564  							     L_LS_ASSET_ID_TO,
18:20:19 1565  							     L_CURRENT_REVISION_FROM,
18:20:19 1566  							     L_REVISION_FROM,
18:20:19 1567  							     L_PCT,
18:20:19 1568  							     L_FROM_ILR_ID,
18:20:19 1569  							     L_TO_ILR_ID);
18:20:19 1570  	     if A_MSG <> 'OK' then
18:20:19 1571  		return -1;
18:20:19 1572  	     end if;
18:20:19 1573  
18:20:19 1574  	     A_MSG := 'Sending the new schedule and asset adjustments for approval';
18:20:19 1575  	     PKG_PP_LOG.P_WRITE_MESSAGE(A_MSG);
18:20:19 1576  	     -- the "to" asset
18:20:19 1577  	     L_RTN := PKG_LEASE_CALC.F_SEND_ILR_NO_COMMIT(L_TO_ILR_ID, L_REVISION_TO, L_STATUS);
18:20:19 1578  	     if L_RTN <> 1 then
18:20:19 1579  		PKG_PP_LOG.P_WRITE_MESSAGE(L_STATUS);
18:20:19 1580  
18:20:19 1581  		return -1;
18:20:19 1582  	     end if;
18:20:19 1583  
18:20:19 1584  	     --Rebuild the ILR and asset schedules. I guess this works? It's done in the retirements above
18:20:19 1585  	     --Not sure how you can just approve it before sending it
18:20:19 1586  	     A_MSG := 'Approving the new schedule and asset adjustments';
18:20:19 1587  	     PKG_PP_LOG.P_WRITE_MESSAGE(A_MSG);
18:20:19 1588  	     L_RTN := PKG_LEASE_CALC.F_APPROVE_ILR_NO_COMMIT(L_TO_ILR_ID, L_REVISION_TO, L_STATUS);
18:20:19 1589  	     if L_RTN <> 1 then
18:20:19 1590  		PKG_PP_LOG.P_WRITE_MESSAGE(L_STATUS);
18:20:19 1591  
18:20:19 1592  		return -1;
18:20:19 1593  	     end if;
18:20:19 1594  
18:20:19 1595  	     -- only send the from if the comapnys are different and we created a new to side
18:20:19 1596  	     if L_PEND_TRANS_TO.COMPANY_ID <> L_PEND_TRANS_FROM.COMPANY_ID then
18:20:19 1597  		A_MSG := '(FROM) Sending the new schedule and asset adjustments for approval';
18:20:19 1598  		PKG_PP_LOG.P_WRITE_MESSAGE(A_MSG);
18:20:19 1599  		L_RTN := PKG_LEASE_CALC.F_SEND_ILR_NO_COMMIT(L_FROM_ILR_ID, L_REVISION_FROM, L_STATUS);
18:20:19 1600  		if L_RTN <> 1 then
18:20:19 1601  		   PKG_PP_LOG.P_WRITE_MESSAGE(L_STATUS);
18:20:19 1602  
18:20:19 1603  		   return -1;
18:20:19 1604  		end if;
18:20:19 1605  
18:20:19 1606  		--Rebuild the ILR and asset schedules. I guess this works? It's done in the retirements above
18:20:19 1607  		--Not sure how you can just approve it before sending it
18:20:19 1608  		A_MSG := '(FROM) Approving the new schedule and asset adjustments';
18:20:19 1609  		PKG_PP_LOG.P_WRITE_MESSAGE(A_MSG);
18:20:19 1610  		L_RTN := PKG_LEASE_CALC.F_APPROVE_ILR_NO_COMMIT(L_FROM_ILR_ID, L_REVISION_FROM, L_STATUS);
18:20:19 1611  		if L_RTN <> 1 then
18:20:19 1612  		   PKG_PP_LOG.P_WRITE_MESSAGE(L_STATUS);
18:20:19 1613  
18:20:19 1614  		   return -1;
18:20:19 1615  		end if;
18:20:19 1616  	     end if;
18:20:19 1617  
18:20:19 1618  
18:20:19 1619  	     --Get taxes on the transferred Assets
18:20:19 1620  	     L_STATUS := PKG_LEASE_ILR.F_GETTAXES(L_TO_ILR_ID);
18:20:19 1621  	     if L_STATUS <> 'OK' then
18:20:19 1622  		   PKG_PP_LOG.P_WRITE_MESSAGE(L_STATUS);
18:20:19 1623  		   return -1;
18:20:19 1624  		end if;
18:20:19 1625  
18:20:19 1626  	     PKG_PP_LOG.P_WRITE_MESSAGE('DONE');
18:20:19 1627  
18:20:19 1628  	     return 1;
18:20:19 1629  	  exception
18:20:19 1630  	     when others then
18:20:19 1631  		A_MSG := SUBSTR(A_MSG || ': ' || sqlerrm, 1, 2000);
18:20:19 1632  		PKG_PP_LOG.P_WRITE_MESSAGE('ERROR: ' || A_MSG);
18:20:19 1633  
18:20:19 1634  		return -1;
18:20:19 1635  	  end F_TRANSFER_ASSET_TO;
18:20:19 1636  
18:20:19 1637  	  --**************************************************************************
18:20:19 1638  	  --				GET_ILR_ID
18:20:19 1639  	  --**************************************************************************
18:20:19 1640  
18:20:19 1641  	  function F_GET_ILR_ID return number is
18:20:19 1642  
18:20:19 1643  	  begin
18:20:19 1644  	     return L_ILR_ID;
18:20:19 1645  	  end F_GET_ILR_ID;
18:20:19 1646  
18:20:19 1647  --**************************************************************************
18:20:19 1648  --			     Initialize Package
18:20:19 1649  --**************************************************************************
18:20:19 1650  
18:20:19 1651  begin
18:20:19 1652  	  L_ILR_ID := 0;
18:20:19 1653  
18:20:19 1654  end PKG_LEASE_ASSET_POST;
18:20:19 1655  /

Package body created.

18:20:19 hopplant> 
18:20:19 hopplant> --**************************
18:20:19 hopplant> -- Log the run of the script
18:20:19 hopplant> --**************************
18:20:19 hopplant> 
18:20:19 hopplant> insert into PP_SCHEMA_CHANGE_LOG
18:20:19   2  	 (ID, SKIPPED, MAJOR_VERSION, MINOR_VERSION, POINT_VERSION, PATCH_VERSION, MAINT_NUM, SCRIPT_PATH,
18:20:19   3  	  SCRIPT_NAME, SCRIPT_REVISION, DATE_APPLIED, OS_USER, TERMINAL, SERVICE_NAME)
18:20:19   4  values
18:20:19   5  	 (1054, 0, 10, 4, 2, 0, 37099, 'C:\PlasticWks\powerplant\sql\maint_scripts', '10.4.2.0_maint_037099_lease_PKG_LEASE_ASSET_POST.sql', 1,
18:20:19   6  	  SYSTIMESTAMP, SYS_CONTEXT('USERENV', 'OS_USER'), SYS_CONTEXT('USERENV', 'TERMINAL'),
18:20:19   7  	  SYS_CONTEXT('USERENV', 'SERVICE_NAME'));

1 row created.

18:20:19 hopplant> commit;

Commit complete.

18:20:19 hopplant> 
18:20:19 hopplant> SET DEFINE ON
18:20:19 hopplant> SPOOL OFF
