18:19:41 hopplant> @&&PP_SCRIPT_PATH.maint_scripts\10.4.2.0_maint_036408_reg_ledger_adj_mgmt.sql
18:19:41 hopplant> /*
18:19:41 hopplant> ||============================================================================
18:19:41 hopplant> || Application: PowerPlant
18:19:41 hopplant> || File Name:   maint_036408_reg_ledger_adj_mgmt.sql
18:19:41 hopplant> ||============================================================================
18:19:41 hopplant> || Copyright (C) 2014 by PowerPlan Consultants, Inc. All Rights Reserved.
18:19:41 hopplant> ||============================================================================
18:19:41 hopplant> || Version  Date	  Revised By	      Reason for Change
18:19:41 hopplant> || -------- ---------- ------------------- -----------------------------------
18:19:41 hopplant> || 10.4.2.0 02/24/2014 Shane Ward
18:19:41 hopplant> ||============================================================================
18:19:41 hopplant> */
18:19:41 hopplant> 
18:19:41 hopplant> --Add Adjustment Mgmt Workspaces
18:19:41 hopplant> INSERT INTO ppbase_workspace
18:19:41   2  	 (MODULE, workspace_identifier, time_stamp, user_id, label, workspace_uo_name, minihelp)
18:19:41   3  VALUES
18:19:41   4  	 ('REG', 'uo_reg_ledger_adjust_manage_ws_hist', NULL, NULL, 'Ledger Adjustments', 'uo_reg_ledger_adjust_manage_ws', 'Historic Ledger Adjustment Management');

1 row created.

18:19:41 hopplant> INSERT INTO ppbase_workspace
18:19:41   2  	 (MODULE, workspace_identifier, time_stamp, user_id, label, workspace_uo_name, minihelp)
18:19:41   3  VALUES
18:19:41   4  	 ('REG', 'uo_reg_ledger_adjust_manage_ws_fore', NULL, NULL, 'Ledger Adjustments', 'uo_reg_ledger_adjust_manage_ws', 'Forecast Ledger Adjustment Management');

1 row created.

18:19:41 hopplant> 
18:19:41 hopplant> insert into PPBASE_MENU_ITEMS
18:19:41   2  	 (MODULE, MENU_IDENTIFIER, TIME_STAMP, USER_ID, MENU_LEVEL, ITEM_ORDER, LABEL, MINIHELP,
18:19:41   3  	  PARENT_MENU_IDENTIFIER, WORKSPACE_IDENTIFIER, ENABLE_YN)
18:19:41   4  values
18:19:41   5  	 ('REG', 'HIST_ADJUST_MANAGE', null, null, 3, 10, 'Ledger Adjustments',
18:19:41   6  	  'History Ledger Adjustments', 'HIST_INTEGRATION', 'uo_reg_ledger_adjust_manage_ws_hist', 1);

1 row created.

18:19:41 hopplant> 
18:19:41 hopplant> insert into PPBASE_MENU_ITEMS
18:19:41   2  	 (MODULE, MENU_IDENTIFIER, TIME_STAMP, USER_ID, MENU_LEVEL, ITEM_ORDER, LABEL, MINIHELP,
18:19:41   3  	  PARENT_MENU_IDENTIFIER, WORKSPACE_IDENTIFIER, ENABLE_YN)
18:19:41   4  values
18:19:41   5  	 ('REG', 'FORE_ADJUST_MANAGE', null, null, 3, 8, 'Ledger Adjustments',
18:19:41   6  	  'Forecast Ledger Adjustments', 'FORE_INTEGRATION', 'uo_reg_ledger_adjust_manage_ws_fore', 1);

1 row created.

18:19:41 hopplant> 
18:19:41 hopplant> --Add Parent_adjust_id columns to identify child and parent records
18:19:41 hopplant> alter table REG_HISTORY_LEDGER_ADJUST  add PARENT_ADJUST_ID number(22, 0);

Table altered.

18:19:41 hopplant> comment on column reg_history_ledger_adjust.parent_adjust_id is 'Identifier of parent adjustment. If adjustment is parent adjustment, parent_adjust_id is null.';

Comment created.

18:19:41 hopplant> alter table REG_FORECAST_LEDGER_ADJUST add PARENT_ADJUST_ID number(22, 0);

Table altered.

18:19:41 hopplant> comment on column reg_forecast_ledger_adjust.parent_adjust_id is 'Identifier of parent adjustment. If adjustment is parent adjustment, parent_adjust_id is null.';

Comment created.

18:19:41 hopplant> 
18:19:41 hopplant> --**************************
18:19:41 hopplant> -- Log the run of the script
18:19:41 hopplant> --**************************
18:19:41 hopplant> 
18:19:41 hopplant> insert into PP_SCHEMA_CHANGE_LOG
18:19:41   2  	 (ID, SKIPPED, MAJOR_VERSION, MINOR_VERSION, POINT_VERSION, PATCH_VERSION, MAINT_NUM, SCRIPT_PATH,
18:19:41   3  	  SCRIPT_NAME, SCRIPT_REVISION, DATE_APPLIED, OS_USER, TERMINAL, SERVICE_NAME)
18:19:41   4  values
18:19:41   5  	 (989, 0, 10, 4, 2, 0, 36408, 'C:\PlasticWks\powerplant\sql\maint_scripts', '10.4.2.0_maint_036408_reg_ledger_adj_mgmt.sql', 1,
18:19:41   6  	  SYSTIMESTAMP, SYS_CONTEXT('USERENV', 'OS_USER'), SYS_CONTEXT('USERENV', 'TERMINAL'),
18:19:41   7  	  SYS_CONTEXT('USERENV', 'SERVICE_NAME'));

1 row created.

18:19:41 hopplant> commit;

Commit complete.

18:19:41 hopplant> SPOOL OFF
