18:12:17 hopplant> @&&PP_SCRIPT_PATH.maint_scripts\10.4.2.0_maint_034406_depr_fcst_calc.sql
18:12:17 hopplant> /*
18:12:17 hopplant> ||============================================================================
18:12:17 hopplant> || Application: PowerPlant
18:12:17 hopplant> || Object Name: maint_034406_depr_fcst_calc.sql
18:12:17 hopplant> || Description:
18:12:17 hopplant> ||============================================================================
18:12:17 hopplant> || Copyright (C) 2013 by PowerPlan Consultants, Inc. All Rights Reserved.
18:12:17 hopplant> ||============================================================================
18:12:17 hopplant> || Version	 Date	    Revised By	   Reason for Change
18:12:17 hopplant> || ---------- ---------- -------------- --------------------------------------
18:12:17 hopplant> || 10.4.2.0	 12/10/2013 Ryan Oliveria  Need to keep track of fcst version id
18:12:17 hopplant> ||					   in depr calc
18:12:17 hopplant> ||============================================================================
18:12:17 hopplant> */
18:12:17 hopplant> 
18:12:17 hopplant> alter table DEPR_CALC_STG
18:12:17   2  	 add FCST_DEPR_VERSION_ID number(22,0);

Table altered.

18:12:17 hopplant> 
18:12:17 hopplant> comment on column DEPR_CALC_STG.FCST_DEPR_VERSION_ID is 'The forecast depr version being calculated.';

Comment created.

18:12:17 hopplant> 
18:12:17 hopplant> --**************************
18:12:17 hopplant> -- Log the run of the script
18:12:17 hopplant> --**************************
18:12:17 hopplant> 
18:12:17 hopplant> insert into PP_SCHEMA_CHANGE_LOG
18:12:17   2  	 (ID, SKIPPED, MAJOR_VERSION, MINOR_VERSION, POINT_VERSION, PATCH_VERSION, MAINT_NUM, SCRIPT_PATH,
18:12:17   3  	  SCRIPT_NAME, SCRIPT_REVISION, DATE_APPLIED, OS_USER, TERMINAL, SERVICE_NAME)
18:12:17   4  values
18:12:17   5  	 (811, 0, 10, 4, 2, 0, 34406, 'C:\PlasticWks\powerplant\sql\maint_scripts', '10.4.2.0_maint_034406_depr_fcst_calc.sql', 1,
18:12:17   6  	  SYSTIMESTAMP, SYS_CONTEXT('USERENV', 'OS_USER'), SYS_CONTEXT('USERENV', 'TERMINAL'),
18:12:17   7  	  SYS_CONTEXT('USERENV', 'SERVICE_NAME'));

1 row created.

18:12:17 hopplant> commit;

Commit complete.

18:12:17 hopplant> SPOOL OFF
