19:30:05 hopplant> @&&PP_SCRIPT_PATH.maint_scripts\10.4.3.5_maint_044701_version-updates_dml.sql
19:30:05 hopplant> /*
19:30:05 hopplant> ||============================================================================
19:30:05 hopplant> || Application: PowerPlan
19:30:05 hopplant> || File Name:   maint_044701_version-updates_dml.sql
19:30:05 hopplant> ||============================================================================
19:30:05 hopplant> || Copyright (C) 2015 by PowerPlan, Inc. All Rights Reserved.
19:30:05 hopplant> ||============================================================================
19:30:05 hopplant> || Version  Date	  Revised By	   Reason for Change
19:30:05 hopplant> || -------- ---------- ---------------- --------------------------------------
19:30:05 hopplant> || 10.4.3.5 8/25/2015  Luke Warren	   Patch Release
19:30:05 hopplant> ||============================================================================
19:30:05 hopplant> */
19:30:05 hopplant> 
19:30:05 hopplant> update PP_VERSION
19:30:05   2  	 set PP_VERSION = 'Version 10.4.3.0',
19:30:05   3  	     PP_PATCH	= 'Patch: 10.4.3.5',
19:30:05   4  	     POST_VERSION = 'Version 10.4.3.d August 21, 2015',
19:30:05   5  	     POWERTAX_VERSION = '10.4.3.5',
19:30:05   6  	     PROVISION_VERSION = '10.4.3.5',
19:30:05   7  	     PROP_TAX_VERSION = '10.4.3.5',
19:30:05   8  	     LEASE_VERSION = '10.4.3.5',
19:30:05   9  	     BUDGET_VERSION = '10.4.3.5',
19:30:05  10  	     DATE_INSTALLED = sysdate
19:30:05  11  where PP_VERSION_ID = 1;

1 row updated.

19:30:05 hopplant> 
19:30:05 hopplant> update PP_PROCESSES
19:30:05   2  	 set VERSION = '10.4.3.5'
19:30:05   3   where trim(LOWER(EXECUTABLE_FILE)) in ('automatedreview.exe',
19:30:05   4  					      'batreporter.exe',
19:30:05   5  					      'budget_allocations.exe',
19:30:05   6  					      'cpm.exe',
19:30:05   7  					      'cr_allocations.exe',
19:30:05   8  					      'cr_balances.exe',
19:30:05   9  					      'cr_balances_bdg.exe',
19:30:05  10  					      'cr_batch_derivation.exe',
19:30:05  11  					      'cr_batch_derivation_bdg.exe',
19:30:05  12  					      'cr_budget_entry_calc_all.exe',
19:30:05  13  					      'cr_build_combos.exe',
19:30:05  14  					      'cr_build_deriver.exe',
19:30:05  15  					      'cr_delete_budget_allocations.exe',
19:30:05  16  					      'cr_financial_reports_build.exe',
19:30:05  17  					      'cr_flatten_structures.exe',
19:30:05  18  					      'cr_man_jrnl_reversals.exe',
19:30:05  19  					      'cr_posting.exe',
19:30:05  20  					      'cr_posting_bdg.exe',
19:30:05  21  					      'cr_sap_trueup.exe', -- Next version cr_sap_trueup.exe will be renamed to cr_derivation_trueup.exe
19:30:05  22  					      'cr_sum.exe',
19:30:05  23  					      'cr_sum_ab.exe',
19:30:05  24  					      'cr_to_commitments.exe',
19:30:05  25  					      'cwip_charge.exe',
19:30:05  26  					      'populate_matlrec.exe',
19:30:05  27  					      'ppmetricbatch.exe',
19:30:05  28  					      'pptocr.exe',
19:30:05  29  					      'ppverify.exe',
19:30:05  30  					      'pp_integration.exe',
19:30:05  31  					      'ssp_aro_approve.exe',
19:30:05  32  					      'ssp_aro_calc.exe',
19:30:05  33  					      'ssp_budget.exe',
19:30:05  34  					      'ssp_cpr_close_month.exe',
19:30:05  35  					      'ssp_cpr_new_month.exe',
19:30:05  36  					      'ssp_depr_calc.exe'
19:30:05  37  					      );

25 rows updated.

19:30:05 hopplant> 
19:30:05 hopplant> 
19:30:05 hopplant> update PP_MODULES
19:30:05   2  	 set VERSION = '10.4.3.5'
19:30:05   3   where trim(LOWER(MODULE_ID)) in (1, -- Depreciation Studies
19:30:05   4  				2, -- Cost Repository
19:30:05   5  				3, -- Property Tax
19:30:05   6  				4, -- Asset Management
19:30:05   7  				5, -- Project Management
19:30:05   8  				6, -- Budget
19:30:05   9  				7, -- Property Unit
19:30:05  10  				8, -- Administration
19:30:05  11  				9, -- Depreciation
19:30:05  12  				10, -- PowerTax
19:30:05  13  				11, -- Tables
19:30:05  14  				12, -- PowerTax Provision
19:30:05  15  				13, -- OM Budget
19:30:05  16  				14, -- Tax Repairs
19:30:05  17  				15 -- Regulatory
19:30:05  18  					);

15 rows updated.

19:30:05 hopplant> 
19:30:05 hopplant> 
19:30:05 hopplant> insert into PP_VERSION_EXES
19:30:05   2  	 (PP_VERSION, EXECUTABLE_FILE, EXECUTABLE_VERSION)
19:30:05   3  		select '10.4.3.5', 'automatedreview.exe',		'10.4.3.5' from dual
19:30:05   4  union all select '10.4.3.5', 'batreporter.exe',			'10.4.3.5' from dual
19:30:05   5  union all select '10.4.3.5', 'budget_allocations.exe',		'10.4.3.5' from dual
19:30:05   6  union all select '10.4.3.5', 'cpm.exe',				'10.4.3.5' from dual
19:30:05   7  union all select '10.4.3.5', 'cr_allocations.exe',		'10.4.3.5' from dual
19:30:05   8  union all select '10.4.3.5', 'cr_balances.exe',			'10.4.3.5' from dual
19:30:05   9  union all select '10.4.3.5', 'cr_balances_bdg.exe',		'10.4.3.5' from dual
19:30:05  10  union all select '10.4.3.5', 'cr_batch_derivation.exe',		'10.4.3.5' from dual
19:30:05  11  union all select '10.4.3.5', 'cr_batch_derivation_bdg.exe',	'10.4.3.5' from dual
19:30:05  12  union all select '10.4.3.5', 'cr_budget_entry_calc_all.exe',	'10.4.3.5' from dual
19:30:05  13  union all select '10.4.3.5', 'cr_build_combos.exe',		'10.4.3.5' from dual
19:30:05  14  union all select '10.4.3.5', 'cr_build_deriver.exe',		'10.4.3.5' from dual
19:30:05  15  union all select '10.4.3.5', 'cr_delete_budget_allocations.exe',	'10.4.3.5' from dual
19:30:05  16  union all select '10.4.3.5', 'cr_financial_reports_build.exe',	'10.4.3.5' from dual
19:30:05  17  union all select '10.4.3.5', 'cr_flatten_structures.exe', 	'10.4.3.5' from dual
19:30:05  18  union all select '10.4.3.5', 'cr_man_jrnl_reversals.exe', 	'10.4.3.5' from dual
19:30:05  19  union all select '10.4.3.5', 'cr_posting.exe',			'10.4.3.5' from dual
19:30:05  20  union all select '10.4.3.5', 'cr_posting_bdg.exe',		'10.4.3.5' from dual
19:30:05  21  union all select '10.4.3.5', 'cr_sap_trueup.exe', 		'10.4.3.5' from dual
19:30:05  22  union all select '10.4.3.5', 'cr_sum.exe',			'10.4.3.5' from dual
19:30:05  23  union all select '10.4.3.5', 'cr_sum_ab.exe',			'10.4.3.5' from dual
19:30:05  24  union all select '10.4.3.5', 'cr_to_commitments.exe',		'10.4.3.5' from dual
19:30:05  25  union all select '10.4.3.5', 'cwip_charge.exe',			'10.4.3.5' from dual
19:30:05  26  union all select '10.4.3.5', 'populate_matlrec.exe',		'10.4.3.5' from dual
19:30:05  27  union all select '10.4.3.5', 'ppmetricbatch.exe', 		'10.4.3.5' from dual
19:30:05  28  union all select '10.4.3.5', 'pptocr.exe',			'10.4.3.5' from dual
19:30:05  29  union all select '10.4.3.5', 'ppverify.exe',			'10.4.3.5' from dual
19:30:05  30  union all select '10.4.3.5', 'pp_integration.exe',		'10.4.3.5' from dual
19:30:05  31  union all select '10.4.3.5', 'ssp_aro_approve.exe',		'10.4.3.5' from dual
19:30:05  32  union all select '10.4.3.5', 'ssp_aro_calc.exe',			'10.4.3.5' from dual
19:30:05  33  union all select '10.4.3.5', 'ssp_budget.exe',			'10.4.3.5' from dual
19:30:05  34  union all select '10.4.3.5', 'ssp_cpr_close_month.exe',		'10.4.3.5' from dual
19:30:05  35  union all select '10.4.3.5', 'ssp_cpr_new_month.exe',		'10.4.3.5' from dual
19:30:05  36  union all select '10.4.3.5', 'ssp_depr_calc.exe', 		'10.4.3.5' from dual
19:30:05  37  minus select PP_VERSION, EXECUTABLE_FILE, EXECUTABLE_VERSION from PP_VERSION_EXES;

34 rows created.

19:30:05 hopplant> 
19:30:05 hopplant> 
19:30:05 hopplant> --****************************************************
19:30:05 hopplant> --Log the run of the script to local PP_SCHEMA_LOG
19:30:05 hopplant> --****************************************************
19:30:05 hopplant> INSERT INTO PP_SCHEMA_CHANGE_LOG
19:30:05   2  	      (ID, SKIPPED, MAJOR_VERSION, MINOR_VERSION, POINT_VERSION, PATCH_VERSION, MAINT_NUM, SCRIPT_PATH,
19:30:05   3  	      SCRIPT_NAME, SCRIPT_REVISION, DATE_APPLIED, OS_USER, TERMINAL, SERVICE_NAME)
19:30:05   4  VALUES
19:30:05   5  	      (2828, 0, 10, 4, 3, 5, 044701, 'C:\PlasticWks\powerplant\sql\maint_scripts', '10.4.3.5_maint_044701_version-updates_dml.sql', 1,
19:30:05   6  	      SYSTIMESTAMP, SYS_CONTEXT('USERENV', 'OS_USER'), SYS_CONTEXT('USERENV', 'TERMINAL'),
19:30:05   7  	      SYS_CONTEXT('USERENV', 'SERVICE_NAME'));

1 row created.

19:30:05 hopplant> COMMIT;

Commit complete.

19:30:05 hopplant> SPOOL OFF
