18:46:59 hopplant> @&&PP_SCRIPT_PATH.maint_scripts\10.4.3.0_maint_037859_lease_PKG_LEASE_ASSET_POST.sql
18:46:59 hopplant> /*
18:46:59 hopplant> ||============================================================================
18:46:59 hopplant> || Application: PowerPlant
18:46:59 hopplant> || File Name:   maint_037859_lease_PKG_LEASE_ASSET_POST.sql
18:46:59 hopplant> ||============================================================================
18:46:59 hopplant> || Copyright (C) 2014 by PowerPlan, Inc. All Rights Reserved.
18:46:59 hopplant> ||============================================================================
18:46:59 hopplant> || Version  Date	  Revised By	   Reason for Change
18:46:59 hopplant> || -------- ---------- ---------------- --------------------------------------
18:46:59 hopplant> || 10.4.3.0 04/14/2014 Ryan Oliveria    Added F_DELETE_ASSETS
18:46:59 hopplant> ||============================================================================
18:46:59 hopplant> */
18:46:59 hopplant> 
18:46:59 hopplant> create or replace package PKG_LEASE_ASSET_POST as
18:46:59   2  	 /*
18:46:59   3  	 ||============================================================================
18:46:59   4  	 || Application: PowerPlant
18:46:59   5  	 || Object Name: PKG_LEASE_ASSET_POST
18:46:59   6  	 || Description:
18:46:59   7  	 ||============================================================================
18:46:59   8  	 || Copyright (C) 2013 by PowerPlan Consultants, Inc. All Rights Reserved.
18:46:59   9  	 ||============================================================================
18:46:59  10  	 || Version  Date	Revised By     Reason for Change
18:46:59  11  	 || -------- ---------- -------------- ----------------------------------------
18:46:59  12  	 || 10.4.0.1 05/07/2013 B.Beck	       Original Version
18:46:59  13  	 ||============================================================================
18:46:59  14  	 */
18:46:59  15  	 G_SEND_JES boolean NOT NULL := true;
18:46:59  16  
18:46:59  17  	 procedure P_SET_ILR_ID(A_ILR_ID number);
18:46:59  18  
18:46:59  19  	 -- Function to perform specific Leased Asset addition
18:46:59  20  	 function F_ADD_ASSET(A_LS_ASSET_ID number) return varchar2;
18:46:59  21  
18:46:59  22  	 -- Function to perform specific Leased Asset retirements
18:46:59  23  	 function F_RETIRE_ASSET(A_CPR_ASSET_ID        number,
18:46:59  24  				 A_ACCT_MONTH	       date,
18:46:59  25  				 A_MONTH	       date,
18:46:59  26  				 A_RETIREMENT_AMOUNT   number,
18:46:59  27  				 A_RETIREMENT_QUANTITY number,
18:46:59  28  				 A_GAIN_LOSS_AMOUNT    number,
18:46:59  29  				 A_DG_ID	       number,
18:46:59  30  				 A_PT_ID	       number,
18:46:59  31  				 A_MSG		       out varchar2) return number;
18:46:59  32  
18:46:59  33  	 -- Function to perform specific Leased Asset transfer from
18:46:59  34  	 function F_TRANSFER_ASSET_FROM(A_CPR_ASSET_ID number,
18:46:59  35  					A_AMOUNT       number,
18:46:59  36  					A_QUANTITY     number,
18:46:59  37  					A_PT_ID        number,
18:46:59  38  					A_MSG	       out varchar2) return number;
18:46:59  39  
18:46:59  40  	 -- Function to perform specific Leased Asset transfer to
18:46:59  41  	 -- takes in the asset attributes to handle a transfer.
18:46:59  42  	 -- out parameter for message.	Returns a number
18:46:59  43  	 -- 1 for success, 0 for failure
18:46:59  44  	 function F_TRANSFER_ASSET_TO(A_CPR_ASSET_ID	   number,
18:46:59  45  				      A_AMOUNT		   number,
18:46:59  46  				      A_QUANTITY	   number,
18:46:59  47  				      A_COMPANY_ID	   number,
18:46:59  48  				      A_BUS_SEGMENT_ID	   number,
18:46:59  49  				      A_UTILITY_ACCOUNT_ID number,
18:46:59  50  				      A_SUB_ACCOUNT_ID	   number,
18:46:59  51  				      A_FUNC_CLASS_ID	   number,
18:46:59  52  				      A_PROPERTY_GROUP_ID  number,
18:46:59  53  				      A_RETIREMENT_UNIT_ID number,
18:46:59  54  				      A_ASSET_LOCATION_ID  number,
18:46:59  55  				      A_DG_ID		   number,
18:46:59  56  				      A_PT_ID		   number,
18:46:59  57  				      A_MSG		   out varchar2) return number;
18:46:59  58  
18:46:59  59  	      -- Function to delete assets and all dependant tables
18:46:59  60  	      function F_DELETE_ASSETS(A_ASSET_IDS in PKG_LEASE_CALC.NUM_ARRAY) return varchar2;
18:46:59  61  
18:46:59  62  	 function F_GET_ILR_ID return number;
18:46:59  63  end PKG_LEASE_ASSET_POST;
18:46:59  64  /

Package created.

18:46:59 hopplant> 
18:46:59 hopplant> 
18:46:59 hopplant> create or replace package body PKG_LEASE_ASSET_POST as
18:46:59   2  	 /*
18:46:59   3  	 ||============================================================================
18:46:59   4  	 || Application: PowerPlant
18:46:59   5  	 || Object Name: PKG_LEASE_ASSET_POST
18:46:59   6  	 || Description:
18:46:59   7  	 ||============================================================================
18:46:59   8  	 || Copyright (C) 2013 by PowerPlan Consultants, Inc. All Rights Reserved.
18:46:59   9  	 ||============================================================================
18:46:59  10  	 || Version  Date	Revised By     Reason for Change
18:46:59  11  	 || -------- ---------- -------------- ----------------------------------------
18:46:59  12  	 || 10.4.0.1 05/07/2013 B.Beck	       Original Version
18:46:59  13  	 ||============================================================================
18:46:59  14  	 */
18:46:59  15  
18:46:59  16  	 L_ILR_ID number;
18:46:59  17  
18:46:59  18  	 --**************************************************************************
18:46:59  19  	 --			       Start Body
18:46:59  20  	 --**************************************************************************
18:46:59  21  	 --**************************************************************************
18:46:59  22  	 --			       PROCEDURES
18:46:59  23  	 --**************************************************************************
18:46:59  24  	 procedure P_DEPR_SLE( A_LS_ASSET_ID in number, A_REVISION in number,
18:46:59  25  			A_ASSET_ID in number, A_SOB_ID in number,
18:46:59  26  			A_MONTH date, A_LIFE number, A_MSG out varchar2)
18:46:59  27  	 is
18:46:59  28  	    L_MONTHLY_OBL number(22,2);
18:46:59  29  	    L_TOTAL_OBL number(22,2);
18:46:59  30  	    L_TOTAL_CHECK number(22, 2);
18:46:59  31  	    L_NUM_MONTHS number(22,0);
18:46:59  32  	    L_ROUND number(22,2);
18:46:59  33  	  L_MAX_MONTH  LS_ASSET_SCHEDULE."MONTH"%type;
18:46:59  34  	  L_CUR_MONTH  LS_ASSET_SCHEDULE."MONTH"%type;
18:46:59  35  	  L_START_MONTH  LS_ASSET_SCHEDULE."MONTH"%type;
18:46:59  36  	  L_MONTHLOOP number;
18:46:59  37  	 begin
18:46:59  38  	    A_MSG := 'DELETING from depr_method_sle for current month through end of lease';
18:46:59  39  	    delete from DEPR_METHOD_SLE
18:46:59  40  	    where ASSET_ID = A_ASSET_ID
18:46:59  41  	    and SET_OF_BOOKS_ID = A_SOB_ID
18:46:59  42  	    ;
18:46:59  43  
18:46:59  44  	    a_msg := 'GET number of months';
18:46:59  45  	    select min("MONTH"), add_months( min("MONTH"), A_LIFE), count(1), sum(PRINCIPAL_PAID) + sum(INTEREST_PAID)
18:46:59  46  	    into L_START_MONTH, L_MAX_MONTH, L_NUM_MONTHS, L_TOTAL_OBL
18:46:59  47  	    from LS_ASSET_SCHEDULE
18:46:59  48  	    where LS_ASSET_ID = A_LS_ASSET_ID
18:46:59  49  	    and REVISION = A_REVISION
18:46:59  50  	    and SET_OF_BOOKS_ID = A_SOB_ID;
18:46:59  51  
18:46:59  52  	    if A_LIFE > 0 then
18:46:59  53  	       L_MONTHLY_OBL := round( L_TOTAL_OBL / A_LIFE, 2);
18:46:59  54  	       L_TOTAL_CHECK := A_LIFE * L_MONTHLY_OBL;
18:46:59  55  	       L_ROUND := L_TOTAL_OBL - L_TOTAL_CHECK;
18:46:59  56  
18:46:59  57  	       A_MSG := 'INSERTING depreciation expense for SLE Method';
18:46:59  58  	       insert into DEPR_METHOD_SLE
18:46:59  59  	       (ASSET_ID, SET_OF_BOOKS_ID, GL_POSTING_MO_YR, DEPR_EXPENSE)
18:46:59  60  	       select A_ASSET_ID, A_SOB_ID, LAS."MONTH",
18:46:59  61  		     case when LAS."MONTH" <> L_MAX_MONTH then L_MONTHLY_OBL - LAS.INTEREST_ACCRUAL
18:46:59  62  		     else L_MONTHLY_OBL - LAS.INTEREST_ACCRUAL + L_ROUND
18:46:59  63  		     end
18:46:59  64  	       from LS_ASSET_SCHEDULE LAS
18:46:59  65  	       where LAS.LS_ASSET_ID = A_LS_ASSET_ID
18:46:59  66  	       and LAS.REVISION = A_REVISION
18:46:59  67  	       and LAS.SET_OF_BOOKS_ID = A_SOB_ID
18:46:59  68  	       ;
18:46:59  69  
18:46:59  70  	     -- add extra months if A_LIFE > L_NUM_MONTHS.  This is the portion after the lease term
18:46:59  71  	     -- and when the asset is "an owned asset"
18:46:59  72  	     if A_LIFE > L_NUM_MONTHS then
18:46:59  73  	      for L_MONTHLOOP in L_NUM_MONTHS .. (A_LIFE - 1) loop
18:46:59  74  	       L_CUR_MONTH := add_months( L_START_MONTH, L_MONTHLOOP );
18:46:59  75  
18:46:59  76  	       insert into DEPR_METHOD_SLE
18:46:59  77  	       (ASSET_ID, SET_OF_BOOKS_ID, GL_POSTING_MO_YR, DEPR_EXPENSE)
18:46:59  78  	       values (A_ASSET_ID, A_SOB_ID, L_CUR_MONTH,
18:46:59  79  		 CASE WHEN L_MONTHLOOP <> (A_LIFE - 1) then L_MONTHLY_OBL else L_MONTHLY_OBL + L_ROUND end);
18:46:59  80  	      end loop;
18:46:59  81  	     end if;
18:46:59  82  
18:46:59  83  	    end if;
18:46:59  84  
18:46:59  85  	    A_MSG := 'OK';
18:46:59  86  	 end P_DEPR_SLE;
18:46:59  87  
18:46:59  88  	 procedure P_DEPR_FERC( A_LS_ASSET_ID in number, A_REVISION in number,
18:46:59  89  			A_ASSET_ID in number, A_SOB_ID in number,
18:46:59  90  			A_MONTH date, A_MSG out varchar2)
18:46:59  91  	 is
18:46:59  92  	 begin
18:46:59  93  	    A_MSG := 'DELETING from depr_method_sle for current month through end of lease';
18:46:59  94  	    delete from DEPR_METHOD_SLE
18:46:59  95  	    where ASSET_ID = A_ASSET_ID
18:46:59  96  	    and SET_OF_BOOKS_ID = A_SOB_ID;
18:46:59  97  
18:46:59  98  	  A_MSG := 'INSERTING depreciation expense for FERC Method';
18:46:59  99  	  insert into DEPR_METHOD_SLE
18:46:59 100  	    (ASSET_ID, SET_OF_BOOKS_ID, GL_POSTING_MO_YR, DEPR_EXPENSE)
18:46:59 101  	    select A_ASSET_ID, A_SOB_ID, LAS."MONTH", LAS.PRINCIPAL_ACCRUAL
18:46:59 102  	     from LS_ASSET_SCHEDULE LAS
18:46:59 103  	    where LAS.LS_ASSET_ID = A_LS_ASSET_ID
18:46:59 104  	      and LAS.REVISION = A_REVISION
18:46:59 105  	      and LAS.SET_OF_BOOKS_ID = A_SOB_ID;
18:46:59 106  
18:46:59 107  
18:46:59 108  	    A_MSG := 'OK';
18:46:59 109  	 end P_DEPR_FERC;
18:46:59 110  
18:46:59 111  	 --**************************************************************************
18:46:59 112  	 --			       SET_ILR_ID
18:46:59 113  	 --**************************************************************************
18:46:59 114  
18:46:59 115  	 procedure P_SET_ILR_ID(A_ILR_ID number) is
18:46:59 116  	 begin
18:46:59 117  	    L_ILR_ID := A_ILR_ID;
18:46:59 118  	 end P_SET_ILR_ID;
18:46:59 119  
18:46:59 120  	 --**************************************************************************
18:46:59 121  	 --			       FUNCTIONS
18:46:59 122  	 --**************************************************************************
18:46:59 123  	 -- Function to perform specific Leased Asset Adjustment
18:46:59 124  	 function F_ADJUST_ASSET(A_LS_ASSET   in LS_ASSET%rowtype,
18:46:59 125  				 A_REVISION   in number,
18:46:59 126  				 A_SOB	      in number,
18:46:59 127  				 A_OBL_ADJ    out number,
18:46:59 128  				 A_LT_OBL_ADJ out number,
18:46:59 129  				 A_ASSET_ID   out number) return varchar2 is
18:46:59 130  	    L_MSG		      varchar2(2000);
18:46:59 131  	    L_ASSET_SCHEDULE_MONTH    LS_ASSET_SCHEDULE%rowtype;
18:46:59 132  	    L_ASSET_SCHEDULE_APPROVED LS_ASSET_SCHEDULE%rowtype;
18:46:59 133  	    L_MONTH		      date;
18:46:59 134  	 begin
18:46:59 135  	    L_MSG := 'Getting the current open month for lessee';
18:46:59 136  	    select min(GL_POSTING_MO_YR)
18:46:59 137  	      into L_MONTH
18:46:59 138  	      from LS_PROCESS_CONTROL
18:46:59 139  	     where LAM_CLOSED is null
18:46:59 140  	       and COMPANY_ID = A_LS_ASSET.COMPANY_ID;
18:46:59 141  
18:46:59 142  	    L_MSG := 'Starting to retrieve leased asset schedule for the month';
18:46:59 143  	    --get the asset_schedule for the first month
18:46:59 144  	    select AA.*
18:46:59 145  	      into L_ASSET_SCHEDULE_MONTH
18:46:59 146  	      from LS_ASSET_SCHEDULE AA
18:46:59 147  	     where AA.LS_ASSET_ID = A_LS_ASSET.LS_ASSET_ID
18:46:59 148  	       and AA.REVISION = A_REVISION
18:46:59 149  	       and AA.SET_OF_BOOKS_ID = A_SOB
18:46:59 150  	       and aa."MONTH" = L_MONTH;
18:46:59 151  
18:46:59 152  	    L_MSG := 'Starting to retrieve leased asset schedule for the approved revision';
18:46:59 153  	    --get the asset_schedule for the first month
18:46:59 154  	    select AA.*
18:46:59 155  	      into L_ASSET_SCHEDULE_APPROVED
18:46:59 156  	      from LS_ASSET_SCHEDULE AA
18:46:59 157  	     where AA.LS_ASSET_ID = A_LS_ASSET.LS_ASSET_ID
18:46:59 158  	       and AA.REVISION = A_LS_ASSET.APPROVED_REVISION
18:46:59 159  	       and AA.SET_OF_BOOKS_ID = A_SOB
18:46:59 160  	       and aa."MONTH" = L_MONTH;
18:46:59 161  
18:46:59 162  	    A_OBL_ADJ	 := L_ASSET_SCHEDULE_MONTH.BEG_OBLIGATION -
18:47:07 163  			    L_ASSET_SCHEDULE_APPROVED.BEG_OBLIGATION;
18:47:07 164  	    A_LT_OBL_ADJ := L_ASSET_SCHEDULE_MONTH.BEG_LT_OBLIGATION -
18:47:07 165  			    L_ASSET_SCHEDULE_APPROVED.BEG_LT_OBLIGATION;
18:47:07 166  
18:47:07 167  	    L_MSG := 'Get the asset id';
18:47:07 168  	    select A.ASSET_ID
18:47:07 169  	      into A_ASSET_ID
18:47:07 170  	      from (select ASSET_ID,
18:47:07 171  			   ROW_NUMBER() OVER(partition by LS_ASSET_ID order by EFFECTIVE_DATE desc) as THE_ROW
18:47:07 172  		      from LS_CPR_ASSET_MAP
18:47:07 173  		     where LS_ASSET_ID = A_LS_ASSET.LS_ASSET_ID) A
18:47:07 174  	     where A.THE_ROW = 1;
18:47:07 175  
18:47:07 176  	    return 'OK';
18:47:07 177  	 exception
18:47:07 178  	    when others then
18:47:07 179  	       L_MSG := SUBSTR(L_MSG || ': ' || sqlerrm, 1, 2000);
18:47:07 180  	       return L_MSG;
18:47:07 181  	 end F_ADJUST_ASSET;
18:47:07 182  
18:47:07 183  
18:47:07 184  	 function F_GET_INIT_LIFE
18:47:07 185  	 (
18:47:07 186  	  A_LS_ASSET_ID LS_ASSET.LS_ASSET_ID%type,
18:47:07 187  	  A_REVISION number,
18:47:07 188  	  A_ILR_ID LS_ILR.ILR_ID%type,
18:47:07 189  	  A_ECONOMIC_LIFE number
18:47:07 190  	 ) return number
18:47:07 191  	 is
18:47:07 192  	  L_INIT_LIFE	 number;
18:47:07 193  	  L_OWNER_TRF	 number;
18:47:07 194  	 begin
18:47:07 195  	   -- get the initial life (all set of books have the same remaining life
18:47:07 196  	  select the_count
18:47:07 197  	  into L_INIT_LIFE
18:47:07 198  	  from
18:47:07 199  	  (
18:47:07 200  	    select count(1) the_count, set_of_books_id
18:47:07 201  	    from ls_asset_schedule
18:47:07 202  	    where ls_asset_id = a_ls_asset_id
18:47:07 203  	    and revision = A_REVISION
18:47:07 204  	    group by set_of_books_id
18:47:07 205  	  )
18:47:07 206  	  where rownum = 1
18:47:07 207  	  ;
18:47:07 208  
18:47:07 209  	  select case when purchase_option_type_id = 1 then 0 else 1 end
18:47:07 210  	  into L_OWNER_TRF
18:47:07 211  	  from ls_ilr_options
18:47:07 212  	  where ilr_id = a_ilr_id
18:47:07 213  	  and revision = a_revision
18:47:07 214  	  ;
18:47:07 215  
18:47:07 216  	  -- if there is an ownership transfer, the init life (depreciable life)
18:47:07 217  	  -- should be based on the economic life of the asset and not the lease term length
18:47:07 218  	  if L_OWNER_TRF = 1 then
18:47:07 219  	    L_INIT_LIFE := A_ECONOMIC_LIFE;
18:47:07 220  	  end if;
18:47:07 221  
18:47:07 222  	  return L_INIT_LIFE;
18:47:07 223  	 end F_GET_INIT_LIFE;
18:47:07 224  
18:47:07 225  	 -- Function to perform specific Leased Asset addition
18:47:07 226  	 function F_ADD_ASSET(A_LS_ASSET_ID number) return varchar2 is
18:47:07 227  
18:47:07 228  	    L_MSG	     varchar2(2000);
18:47:07 229  	    L_DG_ID	     DEPR_GROUP.DEPR_GROUP_ID%type;
18:47:07 230  	    L_LS_ASSET	     LS_ASSET%rowtype;
18:47:07 231  	    L_LS_PEND_TRANS  LS_PEND_TRANSACTION%rowtype;
18:47:07 232  	    L_ASSET_SCHEDULE LS_ASSET_SCHEDULE%rowtype;
18:47:07 233  	    L_MAJOR_LOC      MAJOR_LOCATION.MAJOR_LOCATION_ID%type;
18:47:07 234  	    L_PROP_UNIT      PROPERTY_UNIT.PROPERTY_UNIT_ID%type;
18:47:07 235  	    L_LOC_TYPE	     LOCATION_TYPE.LOCATION_TYPE_ID%type;
18:47:07 236  	    L_ASSET_ID	     CPR_LEDGER.ASSET_ID%type;
18:47:07 237  	    L_SECOND_COST    CPR_LEDGER.SECOND_FINANCIAL_COST%type;
18:47:07 238  	    L_GL_ACCT_ID     GL_ACCOUNT.GL_ACCOUNT_ID%type;
18:47:07 239  	    L_ST_ACCT_ID    GL_ACCOUNT.GL_ACCOUNT_ID%type;
18:47:07 240  	    L_LT_ACCT_ID    GL_ACCOUNT.GL_ACCOUNT_ID%type;
18:47:07 241  	    L_ASSET_ACT_ID   number;
18:47:07 242  	    L_ACT_CODE	     CPR_ACTIVITY.ACTIVITY_CODE%type;
18:47:07 243  	    L_FERC_ACT_CODE  CPR_ACTIVITY.FERC_ACTIVITY_CODE%type;
18:47:07 244  	    L_CHECK	     number;
18:47:07 245  	    L_ADJ	     number;
18:47:07 246  	    L_RTN	     number;
18:47:07 247  	    L_OBL_ADJ	     number;
18:47:07 248  	    L_LT_OBL_ADJ     number;
18:47:07 249  	  L_INIT_LIFE	 number;
18:47:07 250  	    L_MONTH	     date;
18:47:07 251  	    L_MID_PERIOD_METHOD varchar2(50);
18:47:07 252  	 begin
18:47:07 253  	    L_MSG := 'Starting to add leased asset';
18:47:07 254  
18:47:07 255  	    -- ls_asset
18:47:07 256  	    select * into L_LS_ASSET from LS_ASSET where LS_ASSET_ID = A_LS_ASSET_ID;
18:47:07 257  
18:47:07 258  	    L_MSG := 'Getting the current open month for lessee';
18:47:07 259  	    select min(GL_POSTING_MO_YR)
18:47:07 260  	      into L_MONTH
18:47:07 261  	      from LS_PROCESS_CONTROL
18:47:07 262  	     where LAM_CLOSED is null
18:47:07 263  	       and COMPANY_ID = L_LS_ASSET.COMPANY_ID;
18:47:07 264  
18:47:07 265  	    -- ls_pend_transaction
18:47:07 266  	    select * into L_LS_PEND_TRANS from LS_PEND_TRANSACTION where LS_ASSET_ID = A_LS_ASSET_ID;
18:47:07 267  
18:47:07 268  
18:47:07 269  
18:47:07 270  	  l_init_life := F_GET_INIT_LIFE(A_LS_ASSET_ID, L_LS_PEND_TRANS.revision,
18:47:07 271  			  L_LS_ASSET.ilr_id, L_LS_ASSET.economic_life);
18:47:07 272  
18:47:07 273  	    -- adding an asset if the count returns 0 (meaning it exists in the CPR) and there is an approved revision
18:47:07 274  	    if L_LS_PEND_TRANS.ACTIVITY_CODE = 11 then
18:47:07 275  	       L_ACT_CODE      := 'UADJ';
18:47:07 276  	       L_ADJ	       := 1;
18:47:07 277  	       L_FERC_ACT_CODE := 3;
18:47:07 278  
18:47:07 279  	       -- this is an ADJUSTMENT
18:47:07 280  	       -- figure out the adjustment amounts.
18:47:07 281  	       L_MSG := F_ADJUST_ASSET(L_LS_ASSET,
18:47:07 282  				       L_LS_PEND_TRANS.REVISION,
18:47:07 283  				       1,
18:47:07 284  				       L_OBL_ADJ,
18:47:07 285  				       L_LT_OBL_ADJ,
18:47:07 286  				       L_ASSET_ID);
18:47:07 287  	       if L_MSG <> 'OK' then
18:47:07 288  		  return L_MSG;
18:47:07 289  	       end if;
18:47:07 290  
18:47:07 291  	       L_LS_PEND_TRANS.POSTING_QUANTITY := 0;
18:47:07 292  	    else
18:47:07 293  	       --Generate asset id
18:47:07 294  	       --Hopefully use something marginally better than pwrplant1
18:47:07 295  	       select PWRPLANT1.NEXTVAL into L_ASSET_ID from DUAL;
18:47:07 296  
18:47:07 297  	       L_ACT_CODE      := 'UADD';
18:47:07 298  	       L_ADJ	       := 0;
18:47:07 299  	       L_FERC_ACT_CODE := 1;
18:47:07 300  	       L_ASSET_ACT_ID  := 1;
18:47:07 301  	    end if;
18:47:07 302  
18:47:07 303  	    -- gl_account
18:47:07 304  	    select IA.CAP_ASSET_ACCOUNT_ID, IA.ST_OBLIG_ACCOUNT_ID, IA.LT_OBLIG_ACCOUNT_ID
18:47:07 305  	      into L_GL_ACCT_ID, L_ST_ACCT_ID, L_LT_ACCT_ID
18:47:07 306  	      from LS_ILR_ACCOUNT IA, LS_ASSET LA
18:47:07 307  	     where LA.ILR_ID = IA.ILR_ID
18:47:07 308  	       and LA.LS_ASSET_ID = A_LS_ASSET_ID;
18:47:07 309  
18:47:07 310  	    -- major_location
18:47:07 311  	    select MAJOR_LOCATION_ID
18:47:07 312  	      into L_MAJOR_LOC
18:47:07 313  	      from ASSET_LOCATION
18:47:07 314  	     where ASSET_LOCATION_ID = L_LS_ASSET.ASSET_LOCATION_ID;
18:47:07 315  
18:47:07 316  	    -- location_type
18:47:07 317  	    select LOCATION_TYPE_ID
18:47:07 318  	      into L_LOC_TYPE
18:47:07 319  	      from MAJOR_LOCATION
18:47:07 320  	     where MAJOR_LOCATION_ID = L_MAJOR_LOC;
18:47:07 321  
18:47:07 322  	    -- property_unit
18:47:07 323  	    select PROPERTY_UNIT_ID
18:47:07 324  	      into L_PROP_UNIT
18:47:07 325  	      from RETIREMENT_UNIT
18:47:07 326  	     where RETIREMENT_UNIT_ID = L_LS_PEND_TRANS.RETIREMENT_UNIT_ID;
18:47:07 327  
18:47:07 328  	    L_MSG   := 'Finding depr group';
18:47:07 329  	    L_DG_ID := PP_DEPR_PKG.F_FIND_DEPR_GROUP(L_LS_PEND_TRANS.COMPANY_ID,
18:47:07 330  						     L_GL_ACCT_ID,
18:47:07 331  						     L_MAJOR_LOC,
18:47:07 332  						     L_LS_PEND_TRANS.UTILITY_ACCOUNT_ID,
18:47:07 333  						     L_LS_PEND_TRANS.BUS_SEGMENT_ID,
18:47:07 334  						     L_LS_PEND_TRANS.SUB_ACCOUNT_ID,
18:47:07 335  						     -100, --SUBLEDGER_TYPE_ID
18:47:07 336  						     TO_NUMBER(TO_CHAR(NVL(L_LS_PEND_TRANS.IN_SERVICE_DATE,
18:47:07 337  									   L_MONTH),
18:47:07 338  								       'YYYY')),
18:47:07 339  						     L_LS_PEND_TRANS.ASSET_LOCATION_ID,
18:47:07 340  						     L_LOC_TYPE,
18:47:07 341  						     L_LS_PEND_TRANS.RETIREMENT_UNIT_ID,
18:47:07 342  						     L_PROP_UNIT,
18:47:07 343  						     -1, --A_CLASS_CODE_ID
18:47:07 344  						     'NO CLASS CODE'); --A_CC_VALUE
18:47:07 345  	    if L_DG_ID in (-1, -9) then
18:47:07 346  	       -- we canot save... set error_message on ls_pend_transactions
18:47:07 347  	       return 'ERROR: Finding Depreciation Group (' || TO_CHAR(NVL(L_LS_PEND_TRANS.COMPANY_ID,
18:47:07 348  									   '')) || ' : ' || TO_CHAR(NVL(L_GL_ACCT_ID,
18:47:07 349  													'')) || ' : ' || TO_CHAR(NVL(L_MAJOR_LOC,
18:47:07 350  																     '')) || ' : ' || TO_CHAR(NVL(L_LS_PEND_TRANS.UTILITY_ACCOUNT_ID,
18:47:07 351  																				  '')) || ' : ' || TO_CHAR(NVL(L_LS_PEND_TRANS.BUS_SEGMENT_ID,
18:47:07 352  																							       '')) || ' : ' || TO_CHAR(NVL(L_LS_PEND_TRANS.SUB_ACCOUNT_ID,
18:47:07 353  																											    '')) || ' : -100 : ' || TO_CHAR(NVL(TO_CHAR(NVL(L_LS_PEND_TRANS.IN_SERVICE_DATE,
18:47:07 354  																																	    L_MONTH),
18:47:07 355  																																	'YYYY'),
18:47:07 356  																																'')) || ' : ' || TO_CHAR(NVL(L_LS_PEND_TRANS.ASSET_LOCATION_ID,
18:47:07 357  																																			     '')) || ' : ' || TO_CHAR(NVL(L_LOC_TYPE,
18:47:07 358  																																							  '')) || ' : ' || TO_CHAR(NVL(L_LS_PEND_TRANS.RETIREMENT_UNIT_ID,
18:47:07 359  																																										       '')) || ' : ' || TO_CHAR(NVL(L_PROP_UNIT,
18:47:07 360  																																														    ''));
18:47:07 361  	    end if;
18:47:07 362  
18:47:07 363  	    -- check to make sure the depr group has subledger_type_id = -100
18:47:07 364  	    L_CHECK := 0;
18:47:07 365  	    select count(1)
18:47:07 366  	      into L_CHECK
18:47:07 367  	      from DEPR_GROUP
18:47:07 368  	     where DEPR_GROUP_ID = L_DG_ID
18:47:07 369  	       and SUBLEDGER_TYPE_ID = -100;
18:47:07 370  
18:47:07 371  	    if L_CHECK <> 1 then
18:47:07 372  	       return 'ERROR: Depreciation Group is not a lease depreciation group.  Fix the depreciation group control tree: ' || TO_CHAR(L_DG_ID);
18:47:07 373  	    end if;
18:47:07 374  
18:47:07 375  	    L_MSG	   := 'Get the next activity id';
18:47:07 376  	    L_ASSET_ACT_ID := PP_CPR_PKG.F_GET_ASSET_ACTIVITY_ID(L_ASSET_ID, L_DG_ID);
18:47:07 377  
18:47:07 378  	    select UPPER(trim(MID_PERIOD_METHOD))
18:47:07 379  	    into L_MID_PERIOD_METHOD
18:47:07 380  	    from DEPR_GROUP
18:47:07 381  	    where DEPR_GROUP_ID = L_DG_ID;
18:47:07 382  
18:47:07 383  	    for L_SOBS in (select PB.SET_OF_BOOKS_ID as SET_OF_BOOKS_ID, PB.POSTING_AMOUNT as AMOUNT
18:47:07 384  			     from LS_PEND_SET_OF_BOOKS PB
18:47:07 385  			    where PB.LS_PEND_TRANS_ID = L_LS_PEND_TRANS.LS_PEND_TRANS_ID)
18:47:07 386  	    loop
18:47:07 387  	       --get the asset_schedule for the first month
18:47:07 388  	       select AA.*
18:47:07 389  		 into L_ASSET_SCHEDULE
18:47:07 390  		 from LS_ASSET_SCHEDULE AA,
18:47:07 391  		      (select A.*,
18:47:07 392  			      ROW_NUMBER() OVER(partition by A.LS_ASSET_ID, A.SET_OF_BOOKS_ID, A.REVISION order by month) as THE_ROW
18:47:07 393  			 from LS_ASSET_SCHEDULE A
18:47:07 394  			where A.LS_ASSET_ID = A_LS_ASSET_ID
18:47:07 395  			  and A.REVISION = L_LS_PEND_TRANS.REVISION
18:47:07 396  			  and A.SET_OF_BOOKS_ID = L_SOBS.SET_OF_BOOKS_ID) B
18:47:07 397  		where B.THE_ROW = 1
18:47:07 398  		  and AA.LS_ASSET_ID = B.LS_ASSET_ID
18:47:07 399  		  and AA.REVISION = B.REVISION
18:47:07 400  		  and AA.SET_OF_BOOKS_ID = B.SET_OF_BOOKS_ID
18:47:07 401  		  and aa."MONTH" = b."MONTH";
18:47:07 402  
18:47:07 403  	    if L_MID_PERIOD_METHOD = 'SLE' then
18:47:07 404  	    -- load SLE table for depreciation
18:47:07 405  	       P_DEPR_SLE( A_LS_ASSET_ID, L_LS_PEND_TRANS.REVISION, L_ASSET_ID, L_SOBS.SET_OF_BOOKS_ID,
18:47:07 406  		L_MONTH, l_init_life, L_MSG );
18:47:07 407  	       if L_MSG <> 'OK' then
18:47:07 408  		  return L_MSG;
18:47:07 409  	    end if;
18:47:07 410  	    elsif L_MID_PERIOD_METHOD = 'FERC' then
18:47:07 411  	       P_DEPR_FERC( A_LS_ASSET_ID, L_LS_PEND_TRANS.REVISION, L_ASSET_ID, L_SOBS.SET_OF_BOOKS_ID,
18:47:07 412  		L_MONTH, L_MSG );
18:47:07 413  	       if L_MSG <> 'OK' then
18:47:07 414  		  return L_MSG;
18:47:07 415  	       end if;
18:47:07 416  	    end if;
18:47:07 417  
18:47:07 418  	       if L_ADJ = 1 then
18:47:07 419  		  -- this is an ADJUSTMENT
18:47:07 420  		  -- figure out the adjustment amounts.
18:47:07 421  		  L_MSG := F_ADJUST_ASSET(L_LS_ASSET,
18:47:07 422  					  L_LS_PEND_TRANS.REVISION,
18:47:07 423  					  L_SOBS.SET_OF_BOOKS_ID,
18:47:07 424  					  L_OBL_ADJ,
18:47:07 425  					  L_LT_OBL_ADJ,
18:47:07 426  					  L_ASSET_ID);
18:47:07 427  		  if L_MSG <> 'OK' then
18:47:07 428  		     return L_MSG;
18:47:07 429  		  end if;
18:47:07 430  
18:47:07 431  --	    L_ASSET_SCHEDULE.BEG_OBLIGATION    := L_OBL_ADJ;
18:47:07 432  --	    L_ASSET_SCHEDULE.BEG_LT_OBLIGATION := L_LT_OBL_ADJ;
18:47:07 433  		  L_ASSET_SCHEDULE.BEG_OBLIGATION     := L_SOBS.AMOUNT;
18:47:07 434  		  L_ASSET_SCHEDULE.BEG_LT_OBLIGATION  := 0;
18:47:07 435  	       end if;
18:47:07 436  
18:47:07 437  	       -- Process by set of books
18:47:07 438  	       -- process JEs 3001, 3002, and 3003
18:47:07 439  	       L_MSG := 'Creating Journal (Leased Asset Addition Debit)';
18:47:07 440  	       if L_SOBS.AMOUNT <> 0 and G_SEND_JES then
18:47:07 441  		  L_RTN := PKG_LEASE_COMMON.F_BOOKJE(A_LS_ASSET_ID,
18:47:07 442  						     3001,
18:47:07 443  						     L_SOBS.AMOUNT,
18:47:07 444  						     L_ASSET_ACT_ID,
18:47:07 445  						     L_DG_ID,
18:47:07 446  						     L_LS_PEND_TRANS.WORK_ORDER_ID,
18:47:07 447  						     L_GL_ACCT_ID,
18:47:07 448  						     0,
18:47:07 449  						     L_LS_PEND_TRANS.LS_PEND_TRANS_ID,
18:47:07 450  						     L_LS_PEND_TRANS.COMPANY_ID,
18:47:07 451  						     L_MONTH,
18:47:07 452  						     1,
18:47:07 453  						     L_LS_PEND_TRANS.GL_JE_CODE,
18:47:07 454  						     L_SOBS.SET_OF_BOOKS_ID,
18:47:07 455  						     L_MSG);
18:47:07 456  		  if L_RTN = -1 then
18:47:07 457  		     return L_MSG;
18:47:07 458  		  end if;
18:47:07 459  
18:47:07 460  		  L_MSG := 'Creating Journal (Leased Asset Addition ST Obligation Credit)';
18:47:07 461  		  if L_ASSET_SCHEDULE.BEG_OBLIGATION - NVL(L_ASSET_SCHEDULE.BEG_LT_OBLIGATION, 0) <> 0 then
18:47:07 462  		     L_RTN := PKG_LEASE_COMMON.F_BOOKJE(A_LS_ASSET_ID,
18:47:07 463  							3002,
18:47:07 464  							L_ASSET_SCHEDULE.BEG_OBLIGATION -
18:47:07 465  							NVL(L_ASSET_SCHEDULE.BEG_LT_OBLIGATION, 0),
18:47:07 466  							L_ASSET_ACT_ID,
18:47:07 467  							L_DG_ID,
18:47:07 468  							L_LS_PEND_TRANS.WORK_ORDER_ID,
18:47:07 469  							L_ST_ACCT_ID,
18:47:07 470  							0,
18:47:07 471  							L_LS_PEND_TRANS.LS_PEND_TRANS_ID,
18:47:07 472  							L_LS_PEND_TRANS.COMPANY_ID,
18:47:07 473  							L_MONTH,
18:47:07 474  							0,
18:47:07 475  							L_LS_PEND_TRANS.GL_JE_CODE,
18:47:07 476  							L_SOBS.SET_OF_BOOKS_ID,
18:47:07 477  							L_MSG);
18:47:07 478  		     if L_RTN = -1 then
18:47:07 479  			return L_MSG;
18:47:07 480  		     end if;
18:47:07 481  		  end if; -- short term JE
18:47:07 482  
18:47:07 483  		  L_MSG := 'Creating Journal (Leased Asset Addition LT Obligation Credit)';
18:47:07 484  		  if NVL(L_ASSET_SCHEDULE.BEG_LT_OBLIGATION, 0) <> 0 then
18:47:07 485  		     L_RTN := PKG_LEASE_COMMON.F_BOOKJE(A_LS_ASSET_ID,
18:47:07 486  							3003,
18:47:07 487  							NVL(L_ASSET_SCHEDULE.BEG_LT_OBLIGATION, 0),
18:47:07 488  							L_ASSET_ACT_ID,
18:47:07 489  							L_DG_ID,
18:47:07 490  							L_LS_PEND_TRANS.WORK_ORDER_ID,
18:47:07 491  							L_LT_ACCT_ID,
18:47:07 492  							0,
18:47:07 493  							L_LS_PEND_TRANS.LS_PEND_TRANS_ID,
18:47:07 494  							L_LS_PEND_TRANS.COMPANY_ID,
18:47:07 495  							L_MONTH,
18:47:07 496  							0,
18:47:07 497  							L_LS_PEND_TRANS.GL_JE_CODE,
18:47:07 498  							L_SOBS.SET_OF_BOOKS_ID,
18:47:07 499  							L_MSG);
18:47:07 500  		     if L_RTN = -1 then
18:47:07 501  			return L_MSG;
18:47:07 502  		     end if;
18:47:07 503  		  end if; -- long term JE
18:47:07 504  	       end if; -- process JEs for this SOB
18:47:07 505  	    end loop; -- END Process by set of books
18:47:07 506  
18:47:07 507  	    L_SECOND_COST := 0;
18:47:07 508  
18:47:07 509  	    select count(*) into L_SECOND_COST from SET_OF_BOOKS S where S.SECOND_SET_OF_BOOKS_IND = 1;
18:47:07 510  
18:47:07 511  	    if L_SECOND_COST > 0 then
18:47:07 512  	       L_MSG := 'Retrieving second cost';
18:47:07 513  	       select POSTING_AMOUNT
18:47:07 514  		 into L_SECOND_COST
18:47:07 515  		 from SET_OF_BOOKS S, LS_PEND_SET_OF_BOOKS PB
18:47:07 516  		where S.SECOND_SET_OF_BOOKS_IND = 1
18:47:07 517  		  and PB.LS_PEND_TRANS_ID = L_LS_PEND_TRANS.LS_PEND_TRANS_ID
18:47:07 518  		  and S.SET_OF_BOOKS_ID = PB.SET_OF_BOOKS_ID;
18:47:07 519  	    end if;
18:47:07 520  
18:47:07 521  	    -- if it's on pend transaction, take it from there
18:47:07 522  	    L_MSG := 'Adding asset to CPR Ledger';
18:47:07 523  	    merge into CPR_LEDGER A
18:47:07 524  	    using (select L_ASSET_ID as ASSET_ID,
18:47:07 525  			  L_LS_PEND_TRANS.PROPERTY_GROUP_ID as PROPERTY_GROUP_ID,
18:47:07 526  			  L_DG_ID as DEPR_GROUP_ID,
18:47:07 527  			  L_LS_PEND_TRANS.RETIREMENT_UNIT_ID as RETIREMENT_UNIT_ID,
18:47:07 528  			  L_LS_PEND_TRANS.BUS_SEGMENT_ID as BUS_SEGMENT_ID,
18:47:07 529  			  L_LS_PEND_TRANS.COMPANY_ID as COMPANY_ID,
18:47:07 530  			  L_LS_PEND_TRANS.FUNC_CLASS_ID as FUNC_CLASS_ID,
18:47:07 531  			  L_LS_PEND_TRANS.UTILITY_ACCOUNT_ID as UTILITY_ACCOUNT_ID,
18:47:07 532  			  L_GL_ACCT_ID as GL_ACCOUNT_ID,
18:47:07 533  			  L_LS_PEND_TRANS.ASSET_LOCATION_ID as ASSET_LOCATION_ID,
18:47:07 534  			  L_LS_PEND_TRANS.SUB_ACCOUNT_ID as SUB_ACCOUNT_ID,
18:47:07 535  			  WOC.WORK_ORDER_NUMBER as WORK_ORDER_NUMBER,
18:47:07 536  			  NVL(L_LS_PEND_TRANS.IN_SERVICE_DATE, L_MONTH) as IN_SERVICE_DATE,
18:47:07 537  			  L_LS_PEND_TRANS.POSTING_QUANTITY as POSTING_QUANTITY,
18:47:07 538  			  L_LS_PEND_TRANS.POSTING_AMOUNT as POSTING_AMOUNT,
18:47:07 539  			  L_LS_ASSET.DESCRIPTION as DESCRIPTION,
18:47:07 540  			  L_LS_ASSET.LONG_DESCRIPTION as LONG_DESCRIPTION,
18:47:07 541  			  L_LS_PEND_TRANS.SERIAL_NUMBER as SERIAL_NUMBER,
18:47:07 542  			  case
18:47:07 543  			     when L_SECOND_COST > 0 then
18:47:07 544  			      L_LS_PEND_TRANS.POSTING_AMOUNT
18:47:07 545  			     else
18:47:07 546  			      0
18:47:07 547  			  end as SECOND_COST
18:47:07 548  		     from WORK_ORDER_CONTROL WOC
18:47:07 549  		    where WOC.WORK_ORDER_ID = L_LS_PEND_TRANS.WORK_ORDER_ID) B
18:47:07 550  	    on (A.ASSET_ID = B.ASSET_ID)
18:47:07 551  	    when matched then
18:47:07 552  	       update
18:47:07 553  		  set A.ACCUM_QUANTITY = A.ACCUM_QUANTITY + B.POSTING_QUANTITY,
18:47:07 554  		      A.ACCUM_COST = A.ACCUM_COST + B.POSTING_AMOUNT,
18:47:07 555  		      A.SECOND_FINANCIAL_COST = A.SECOND_FINANCIAL_COST + B.SECOND_COST
18:47:07 556  	    when not matched then
18:47:07 557  	       insert
18:47:07 558  		  (ASSET_ID, PROPERTY_GROUP_ID, DEPR_GROUP_ID, BOOKS_SCHEMA_ID, RETIREMENT_UNIT_ID,
18:47:07 559  		   BUS_SEGMENT_ID, COMPANY_ID, FUNC_CLASS_ID, UTILITY_ACCOUNT_ID, GL_ACCOUNT_ID,
18:47:07 560  		   ASSET_LOCATION_ID, SUB_ACCOUNT_ID, WORK_ORDER_NUMBER, LEDGER_STATUS, IN_SERVICE_YEAR,
18:47:07 561  		   ACCUM_QUANTITY, ACCUM_COST, SUBLEDGER_INDICATOR, DESCRIPTION, LONG_DESCRIPTION,
18:47:07 562  		   ENG_IN_SERVICE_YEAR, SERIAL_NUMBER, ACCUM_COST_2, SECOND_FINANCIAL_COST)
18:47:07 563  	       values
18:47:07 564  		  (B.ASSET_ID, B.PROPERTY_GROUP_ID, B.DEPR_GROUP_ID, 1, B.RETIREMENT_UNIT_ID,
18:47:07 565  		   B.BUS_SEGMENT_ID, B.COMPANY_ID, B.FUNC_CLASS_ID, B.UTILITY_ACCOUNT_ID, B.GL_ACCOUNT_ID,
18:47:07 566  		   B.ASSET_LOCATION_ID, B.SUB_ACCOUNT_ID, B.WORK_ORDER_NUMBER, 1, B.IN_SERVICE_DATE,
18:47:07 567  		   B.POSTING_QUANTITY, B.POSTING_AMOUNT, -100, B.DESCRIPTION, B.LONG_DESCRIPTION,
18:47:07 568  		   B.IN_SERVICE_DATE, B.SERIAL_NUMBER, 0, B.SECOND_COST);
18:47:07 569  
18:47:07 570  	    L_MSG := 'Adding CPR Activity';
18:47:07 571  	    insert into CPR_ACTIVITY
18:47:07 572  	       (ASSET_ID, ASSET_ACTIVITY_ID, GL_POSTING_MO_YR, CPR_POSTING_MO_YR, WORK_ORDER_NUMBER,
18:47:07 573  		GL_JE_CODE, DESCRIPTION, LONG_DESCRIPTION, ACTIVITY_CODE, ACTIVITY_STATUS,
18:47:07 574  		ACTIVITY_QUANTITY, ACTIVITY_COST, FERC_ACTIVITY_CODE, MONTH_NUMBER, ACTIVITY_COST_2,
18:47:07 575  		ACT_SECOND_FINANCIAL_COST)
18:47:07 576  	       select L_ASSET_ID,
18:47:07 577  		      L_ASSET_ACT_ID,
18:47:07 578  		      L_MONTH, --gl_posting_mo_yr
18:47:07 579  		      L_MONTH, --cpr_posting_mo_yr
18:47:07 580  		      WOC.WORK_ORDER_NUMBER,
18:47:07 581  		      L_LS_PEND_TRANS.GL_JE_CODE,
18:47:07 582  		      L_LS_ASSET.DESCRIPTION,
18:47:07 583  		      L_LS_ASSET.LONG_DESCRIPTION,
18:47:07 584  		      L_ACT_CODE, --Activity Code
18:47:07 585  		      L_LS_PEND_TRANS.LS_PEND_TRANS_ID, --activity_status (this is the pend_trans_id)
18:47:07 586  		      L_LS_PEND_TRANS.POSTING_QUANTITY,
18:47:07 587  		      L_LS_PEND_TRANS.POSTING_AMOUNT,
18:47:07 588  		      L_FERC_ACT_CODE, --ferc_activity_code (addition)
18:47:07 589  		      TO_NUMBER(TO_CHAR(L_MONTH, 'yyyymm')), --month_number
18:47:07 590  		      0,
18:47:07 591  		      case
18:47:07 592  			 when L_SECOND_COST > 0 then
18:47:07 593  			  L_LS_PEND_TRANS.POSTING_AMOUNT
18:47:07 594  			 else
18:47:07 595  			  0
18:47:07 596  		      end
18:47:07 597  		 from WORK_ORDER_CONTROL WOC
18:47:07 598  		where WOC.WORK_ORDER_ID = L_LS_PEND_TRANS.WORK_ORDER_ID;
18:47:07 599  
18:47:07 600  	    L_MSG := 'Adding to activity basis table';
18:47:07 601  	    insert into CPR_ACT_BASIS
18:47:07 602  	       (ASSET_ID, ASSET_ACTIVITY_ID, BASIS_1, BASIS_2, BASIS_3, BASIS_4, BASIS_5, BASIS_6,
18:47:07 603  		BASIS_7, BASIS_8, BASIS_9, BASIS_10, BASIS_11, BASIS_12, BASIS_13, BASIS_14, BASIS_15,
18:47:07 604  		BASIS_16, BASIS_17, BASIS_18, BASIS_19, BASIS_20, BASIS_21, BASIS_22, BASIS_23, BASIS_24,
18:47:07 605  		BASIS_25, BASIS_26, BASIS_27, BASIS_28, BASIS_29, BASIS_30, BASIS_31, BASIS_32, BASIS_33,
18:47:07 606  		BASIS_34, BASIS_35, BASIS_36, BASIS_37, BASIS_38, BASIS_39, BASIS_40, BASIS_41, BASIS_42,
18:47:07 607  		BASIS_43, BASIS_44, BASIS_45, BASIS_46, BASIS_47, BASIS_48, BASIS_49, BASIS_50, BASIS_51,
18:47:07 608  		BASIS_52, BASIS_53, BASIS_54, BASIS_55, BASIS_56, BASIS_57, BASIS_58, BASIS_59, BASIS_60,
18:47:07 609  		BASIS_61, BASIS_62, BASIS_63, BASIS_64, BASIS_65, BASIS_66, BASIS_67, BASIS_68, BASIS_69,
18:47:07 610  		BASIS_70)
18:47:07 611  	       select L_ASSET_ID,
18:47:07 612  		      L_ASSET_ACT_ID,
18:47:07 613  		      BASIS_1,
18:47:07 614  		      BASIS_2,
18:47:07 615  		      BASIS_3,
18:47:07 616  		      BASIS_4,
18:47:07 617  		      BASIS_5,
18:47:07 618  		      BASIS_6,
18:47:07 619  		      BASIS_7,
18:47:07 620  		      BASIS_8,
18:47:07 621  		      BASIS_9,
18:47:07 622  		      BASIS_10,
18:47:07 623  		      BASIS_11,
18:47:07 624  		      BASIS_12,
18:47:07 625  		      BASIS_13,
18:47:07 626  		      BASIS_14,
18:47:07 627  		      BASIS_15,
18:47:07 628  		      BASIS_16,
18:47:07 629  		      BASIS_17,
18:47:07 630  		      BASIS_18,
18:47:07 631  		      BASIS_19,
18:47:07 632  		      BASIS_20,
18:47:07 633  		      BASIS_21,
18:47:07 634  		      BASIS_22,
18:47:07 635  		      BASIS_23,
18:47:07 636  		      BASIS_24,
18:47:07 637  		      BASIS_25,
18:47:07 638  		      BASIS_26,
18:47:07 639  		      BASIS_27,
18:47:07 640  		      BASIS_28,
18:47:07 641  		      BASIS_29,
18:47:07 642  		      BASIS_30,
18:47:07 643  		      BASIS_31,
18:47:07 644  		      BASIS_32,
18:47:07 645  		      BASIS_33,
18:47:07 646  		      BASIS_34,
18:47:07 647  		      BASIS_35,
18:47:07 648  		      BASIS_36,
18:47:07 649  		      BASIS_37,
18:47:07 650  		      BASIS_38,
18:47:07 651  		      BASIS_39,
18:47:07 652  		      BASIS_40,
18:47:07 653  		      BASIS_41,
18:47:07 654  		      BASIS_42,
18:47:07 655  		      BASIS_43,
18:47:07 656  		      BASIS_44,
18:47:07 657  		      BASIS_45,
18:47:07 658  		      BASIS_46,
18:47:07 659  		      BASIS_47,
18:47:07 660  		      BASIS_48,
18:47:07 661  		      BASIS_49,
18:47:07 662  		      BASIS_50,
18:47:07 663  		      BASIS_51,
18:47:08 664  		      BASIS_52,
18:47:08 665  		      BASIS_53,
18:47:08 666  		      BASIS_54,
18:47:08 667  		      BASIS_55,
18:47:08 668  		      BASIS_56,
18:47:08 669  		      BASIS_57,
18:47:08 670  		      BASIS_58,
18:47:08 671  		      BASIS_59,
18:47:08 672  		      BASIS_60,
18:47:08 673  		      BASIS_61,
18:47:08 674  		      BASIS_62,
18:47:08 675  		      BASIS_63,
18:47:08 676  		      BASIS_64,
18:47:08 677  		      BASIS_65,
18:47:08 678  		      BASIS_66,
18:47:08 679  		      BASIS_67,
18:47:08 680  		      BASIS_68,
18:47:08 681  		      BASIS_69,
18:47:08 682  		      BASIS_70
18:47:08 683  		 from LS_PEND_BASIS
18:47:08 684  		where LS_PEND_TRANS_ID = L_LS_PEND_TRANS.LS_PEND_TRANS_ID;
18:47:08 685  
18:47:08 686  	    L_MSG := 'Adding to ledger basis table';
18:47:08 687  	    merge into CPR_LDG_BASIS A
18:47:08 688  	    using (select L_ASSET_ID as ASSET_ID,
18:47:08 689  			  BASIS_1,
18:47:08 690  			  BASIS_2,
18:47:08 691  			  BASIS_3,
18:47:08 692  			  BASIS_4,
18:47:08 693  			  BASIS_5,
18:47:08 694  			  BASIS_6,
18:47:08 695  			  BASIS_7,
18:47:08 696  			  BASIS_8,
18:47:08 697  			  BASIS_9,
18:47:08 698  			  BASIS_10,
18:47:08 699  			  BASIS_11,
18:47:08 700  			  BASIS_12,
18:47:08 701  			  BASIS_13,
18:47:08 702  			  BASIS_14,
18:47:08 703  			  BASIS_15,
18:47:08 704  			  BASIS_16,
18:47:08 705  			  BASIS_17,
18:47:08 706  			  BASIS_18,
18:47:08 707  			  BASIS_19,
18:47:08 708  			  BASIS_20,
18:47:08 709  			  BASIS_21,
18:47:08 710  			  BASIS_22,
18:47:08 711  			  BASIS_23,
18:47:08 712  			  BASIS_24,
18:47:08 713  			  BASIS_25,
18:47:08 714  			  BASIS_26,
18:47:08 715  			  BASIS_27,
18:47:08 716  			  BASIS_28,
18:47:08 717  			  BASIS_29,
18:47:08 718  			  BASIS_30,
18:47:08 719  			  BASIS_31,
18:47:08 720  			  BASIS_32,
18:47:08 721  			  BASIS_33,
18:47:08 722  			  BASIS_34,
18:47:08 723  			  BASIS_35,
18:47:08 724  			  BASIS_36,
18:47:08 725  			  BASIS_37,
18:47:08 726  			  BASIS_38,
18:47:08 727  			  BASIS_39,
18:47:08 728  			  BASIS_40,
18:47:08 729  			  BASIS_41,
18:47:08 730  			  BASIS_42,
18:47:08 731  			  BASIS_43,
18:47:08 732  			  BASIS_44,
18:47:08 733  			  BASIS_45,
18:47:08 734  			  BASIS_46,
18:47:08 735  			  BASIS_47,
18:47:08 736  			  BASIS_48,
18:47:08 737  			  BASIS_49,
18:47:08 738  			  BASIS_50,
18:47:08 739  			  BASIS_51,
18:47:08 740  			  BASIS_52,
18:47:08 741  			  BASIS_53,
18:47:08 742  			  BASIS_54,
18:47:08 743  			  BASIS_55,
18:47:08 744  			  BASIS_56,
18:47:08 745  			  BASIS_57,
18:47:08 746  			  BASIS_58,
18:47:08 747  			  BASIS_59,
18:47:08 748  			  BASIS_60,
18:47:08 749  			  BASIS_61,
18:47:08 750  			  BASIS_62,
18:47:08 751  			  BASIS_63,
18:47:08 752  			  BASIS_64,
18:47:08 753  			  BASIS_65,
18:47:08 754  			  BASIS_66,
18:47:08 755  			  BASIS_67,
18:47:08 756  			  BASIS_68,
18:47:08 757  			  BASIS_69,
18:47:08 758  			  BASIS_70
18:47:08 759  		     from LS_PEND_BASIS
18:47:08 760  		    where LS_PEND_TRANS_ID = L_LS_PEND_TRANS.LS_PEND_TRANS_ID) B
18:47:08 761  	    on (A.ASSET_ID = B.ASSET_ID)
18:47:08 762  	    when matched then
18:47:08 763  	       update
18:47:08 764  		  set A.BASIS_1 = A.BASIS_1 + B.BASIS_1, A.BASIS_2 = A.BASIS_2 + B.BASIS_2,
18:47:08 765  		      A.BASIS_3 = A.BASIS_3 + B.BASIS_3, A.BASIS_4 = A.BASIS_4 + B.BASIS_4,
18:47:08 766  		      A.BASIS_5 = A.BASIS_5 + B.BASIS_5, A.BASIS_6 = A.BASIS_6 + B.BASIS_6,
18:47:08 767  		      A.BASIS_7 = A.BASIS_7 + B.BASIS_7, A.BASIS_8 = A.BASIS_8 + B.BASIS_8,
18:47:08 768  		      A.BASIS_9 = A.BASIS_9 + B.BASIS_9, A.BASIS_10 = A.BASIS_10 + B.BASIS_10,
18:47:08 769  		      A.BASIS_11 = A.BASIS_11 + B.BASIS_11, A.BASIS_12 = A.BASIS_12 + B.BASIS_12,
18:47:08 770  		      A.BASIS_13 = A.BASIS_13 + B.BASIS_13, A.BASIS_14 = A.BASIS_14 + B.BASIS_14,
18:47:08 771  		      A.BASIS_15 = A.BASIS_15 + B.BASIS_15, A.BASIS_16 = A.BASIS_16 + B.BASIS_16,
18:47:08 772  		      A.BASIS_17 = A.BASIS_17 + B.BASIS_17, A.BASIS_18 = A.BASIS_18 + B.BASIS_18,
18:47:08 773  		      A.BASIS_19 = A.BASIS_19 + B.BASIS_19, A.BASIS_20 = A.BASIS_20 + B.BASIS_20,
18:47:08 774  		      A.BASIS_21 = A.BASIS_21 + B.BASIS_21, A.BASIS_22 = A.BASIS_22 + B.BASIS_22,
18:47:08 775  		      A.BASIS_23 = A.BASIS_23 + B.BASIS_23, A.BASIS_24 = A.BASIS_24 + B.BASIS_24,
18:47:08 776  		      A.BASIS_25 = A.BASIS_25 + B.BASIS_25, A.BASIS_26 = A.BASIS_26 + B.BASIS_26,
18:47:08 777  		      A.BASIS_27 = A.BASIS_27 + B.BASIS_27, A.BASIS_28 = A.BASIS_28 + B.BASIS_28,
18:47:08 778  		      A.BASIS_29 = A.BASIS_29 + B.BASIS_29, A.BASIS_30 = A.BASIS_30 + B.BASIS_30,
18:47:08 779  		      A.BASIS_31 = A.BASIS_31 + B.BASIS_31, A.BASIS_32 = A.BASIS_32 + B.BASIS_32,
18:47:08 780  		      A.BASIS_33 = A.BASIS_33 + B.BASIS_33, A.BASIS_34 = A.BASIS_34 + B.BASIS_34,
18:47:08 781  		      A.BASIS_35 = A.BASIS_35 + B.BASIS_35, A.BASIS_36 = A.BASIS_36 + B.BASIS_36,
18:47:08 782  		      A.BASIS_37 = A.BASIS_37 + B.BASIS_37, A.BASIS_38 = A.BASIS_38 + B.BASIS_38,
18:47:08 783  		      A.BASIS_39 = A.BASIS_39 + B.BASIS_39, A.BASIS_40 = A.BASIS_40 + B.BASIS_40,
18:47:08 784  		      A.BASIS_41 = A.BASIS_41 + B.BASIS_41, A.BASIS_42 = A.BASIS_42 + B.BASIS_42,
18:47:08 785  		      A.BASIS_43 = A.BASIS_43 + B.BASIS_43, A.BASIS_44 = A.BASIS_44 + B.BASIS_44,
18:47:08 786  		      A.BASIS_45 = A.BASIS_45 + B.BASIS_45, A.BASIS_46 = A.BASIS_46 + B.BASIS_46,
18:47:08 787  		      A.BASIS_47 = A.BASIS_47 + B.BASIS_47, A.BASIS_48 = A.BASIS_48 + B.BASIS_48,
18:47:08 788  		      A.BASIS_49 = A.BASIS_49 + B.BASIS_49, A.BASIS_50 = A.BASIS_50 + B.BASIS_50,
18:47:08 789  		      A.BASIS_51 = A.BASIS_51 + B.BASIS_51, A.BASIS_52 = A.BASIS_52 + B.BASIS_52,
18:47:08 790  		      A.BASIS_53 = A.BASIS_53 + B.BASIS_53, A.BASIS_54 = A.BASIS_54 + B.BASIS_54,
18:47:08 791  		      A.BASIS_55 = A.BASIS_55 + B.BASIS_55, A.BASIS_56 = A.BASIS_56 + B.BASIS_56,
18:47:08 792  		      A.BASIS_57 = A.BASIS_57 + B.BASIS_57, A.BASIS_58 = A.BASIS_58 + B.BASIS_58,
18:47:08 793  		      A.BASIS_59 = A.BASIS_59 + B.BASIS_59, A.BASIS_60 = A.BASIS_60 + B.BASIS_60,
18:47:08 794  		      A.BASIS_61 = A.BASIS_61 + B.BASIS_61, A.BASIS_62 = A.BASIS_62 + B.BASIS_62,
18:47:08 795  		      A.BASIS_63 = A.BASIS_63 + B.BASIS_63, A.BASIS_64 = A.BASIS_64 + B.BASIS_64,
18:47:08 796  		      A.BASIS_65 = A.BASIS_65 + B.BASIS_65, A.BASIS_66 = A.BASIS_66 + B.BASIS_66,
18:47:08 797  		      A.BASIS_67 = A.BASIS_67 + B.BASIS_67, A.BASIS_68 = A.BASIS_68 + B.BASIS_68,
18:47:08 798  		      A.BASIS_69 = A.BASIS_69 + B.BASIS_69, A.BASIS_70 = A.BASIS_70 + B.BASIS_70
18:47:08 799  	    when not matched then
18:47:08 800  	       insert
18:47:08 801  		  (ASSET_ID, BASIS_1, BASIS_2, BASIS_3, BASIS_4, BASIS_5, BASIS_6, BASIS_7, BASIS_8,
18:47:08 802  		   BASIS_9, BASIS_10, BASIS_11, BASIS_12, BASIS_13, BASIS_14, BASIS_15, BASIS_16, BASIS_17,
18:47:08 803  		   BASIS_18, BASIS_19, BASIS_20, BASIS_21, BASIS_22, BASIS_23, BASIS_24, BASIS_25,
18:47:08 804  		   BASIS_26, BASIS_27, BASIS_28, BASIS_29, BASIS_30, BASIS_31, BASIS_32, BASIS_33,
18:47:08 805  		   BASIS_34, BASIS_35, BASIS_36, BASIS_37, BASIS_38, BASIS_39, BASIS_40, BASIS_41,
18:47:08 806  		   BASIS_42, BASIS_43, BASIS_44, BASIS_45, BASIS_46, BASIS_47, BASIS_48, BASIS_49,
18:47:08 807  		   BASIS_50, BASIS_51, BASIS_52, BASIS_53, BASIS_54, BASIS_55, BASIS_56, BASIS_57,
18:47:08 808  		   BASIS_58, BASIS_59, BASIS_60, BASIS_61, BASIS_62, BASIS_63, BASIS_64, BASIS_65,
18:47:08 809  		   BASIS_66, BASIS_67, BASIS_68, BASIS_69, BASIS_70)
18:47:08 810  	       values
18:47:08 811  		  (B.ASSET_ID, B.BASIS_1, B.BASIS_2, B.BASIS_3, B.BASIS_4, B.BASIS_5, B.BASIS_6,
18:47:08 812  		   B.BASIS_7, B.BASIS_8, B.BASIS_9, B.BASIS_10, B.BASIS_11, B.BASIS_12, B.BASIS_13,
18:47:08 813  		   B.BASIS_14, B.BASIS_15, B.BASIS_16, B.BASIS_17, B.BASIS_18, B.BASIS_19, B.BASIS_20,
18:47:08 814  		   B.BASIS_21, B.BASIS_22, B.BASIS_23, B.BASIS_24, B.BASIS_25, B.BASIS_26, B.BASIS_27,
18:47:08 815  		   B.BASIS_28, B.BASIS_29, B.BASIS_30, B.BASIS_31, B.BASIS_32, B.BASIS_33, B.BASIS_34,
18:47:08 816  		   B.BASIS_35, B.BASIS_36, B.BASIS_37, B.BASIS_38, B.BASIS_39, B.BASIS_40, B.BASIS_41,
18:47:08 817  		   B.BASIS_42, B.BASIS_43, B.BASIS_44, B.BASIS_45, B.BASIS_46, B.BASIS_47, B.BASIS_48,
18:47:08 818  		   B.BASIS_49, B.BASIS_50, B.BASIS_51, B.BASIS_52, B.BASIS_53, B.BASIS_54, B.BASIS_55,
18:47:08 819  		   B.BASIS_56, B.BASIS_57, B.BASIS_58, B.BASIS_59, B.BASIS_60, B.BASIS_61, B.BASIS_62,
18:47:08 820  		   B.BASIS_63, B.BASIS_64, B.BASIS_65, B.BASIS_66, B.BASIS_67, B.BASIS_68, B.BASIS_69,
18:47:08 821  		   B.BASIS_70);
18:47:08 822  
18:47:08 823  	    L_MSG := 'Loading cpr_depr';
18:47:08 824  	    merge into CPR_DEPR A
18:47:08 825  	    using (select L_ASSET_ID as ASSET_ID,
18:47:08 826  			  PB.SET_OF_BOOKS_ID as SET_OF_BOOKS_ID,
18:47:08 827  			  l_init_life as EXPECTED_LIFE,
18:47:08 828  			  PB.POSTING_AMOUNT as AMOUNT,
18:47:08 829  			  DMR.RATE / 12 as MONTH_RATE,
18:47:08 830  			  L_LS_PEND_TRANS.COMPANY_ID as COMPANY_ID,
18:47:08 831  			  DG.MID_PERIOD_METHOD as MID_PERIOD_METHOD,
18:47:08 832  			  DG.MID_PERIOD_CONV as MID_PERIOD_CONV,
18:47:08 833  			  L_DG_ID as DEPR_GROUP_ID,
18:47:08 834  			  DMR.DEPR_METHOD_ID as DEPR_METHOD_ID,
18:47:08 835  			  DG.TRUE_UP_CPR_DEPR as TRUE_UP_CPR_DEPR,
18:47:08 836  			  L_MONTH as GL_POSTING_MO_YR
18:47:08 837  		     from DEPR_GROUP DG,
18:47:08 838  			  LS_PEND_SET_OF_BOOKS PB,
18:47:08 839  			  (select DDD.DEPR_METHOD_ID,
18:47:08 840  				  DDD.RATE,
18:47:08 841  				  DDD.SET_OF_BOOKS_ID,
18:47:08 842  				  DDD.EXPECTED_AVERAGE_LIFE,
18:47:08 843  				  ROW_NUMBER() OVER(partition by DDD.DEPR_METHOD_ID, DDD.SET_OF_BOOKS_ID order by DDD.EFFECTIVE_DATE desc) as THE_ROW
18:47:08 844  			     from DEPR_METHOD_RATES DDD) DMR
18:47:08 845  		    where DG.DEPR_GROUP_ID = L_DG_ID
18:47:08 846  		      and DMR.DEPR_METHOD_ID = DG.DEPR_METHOD_ID
18:47:08 847  		      and PB.SET_OF_BOOKS_ID = DMR.SET_OF_BOOKS_ID
18:47:08 848  		      and PB.LS_PEND_TRANS_ID = L_LS_PEND_TRANS.LS_PEND_TRANS_ID
18:47:08 849  		      and DMR.THE_ROW = 1) B
18:47:08 850  	    on (A.ASSET_ID = B.ASSET_ID and A.SET_OF_BOOKS_ID = B.SET_OF_BOOKS_ID and A.GL_POSTING_MO_YR = B.GL_POSTING_MO_YR and A.DEPR_GROUP_ID = B.DEPR_GROUP_ID)
18:47:08 851  	    when matched then
18:47:08 852  	       update
18:47:08 853  		  set NET_ADDS_AND_ADJUST = NET_ADDS_AND_ADJUST + B.AMOUNT,
18:47:08 854  		      ASSET_DOLLARS = ASSET_DOLLARS + B.AMOUNT
18:47:08 855  	    when not matched then
18:47:08 856  	       insert
18:47:08 857  		  (ASSET_ID, SET_OF_BOOKS_ID, GL_POSTING_MO_YR, INIT_LIFE, REMAINING_LIFE,
18:47:08 858  		   ESTIMATED_SALVAGE, BEG_ASSET_DOLLARS, NET_ADDS_AND_ADJUST, RETIREMENTS, TRANSFERS_IN,
18:47:08 859  		   TRANSFERS_OUT, ASSET_DOLLARS, BEG_RESERVE_MONTH, SALVAGE_DOLLARS, RESERVE_ADJUSTMENT,
18:47:08 860  		   COST_OF_REMOVAL, RESERVE_TRANS_IN, RESERVE_TRANS_OUT, DEPR_EXP_ADJUST,
18:47:08 861  		   OTHER_CREDITS_AND_ADJUST, GAIN_LOSS, DEPRECIATION_BASE, CURR_DEPR_EXPENSE, DEPR_RESERVE,
18:47:08 862  		   BEG_RESERVE_YEAR, YTD_DEPR_EXPENSE, YTD_DEPR_EXP_ADJUST, PRIOR_YTD_DEPR_EXPENSE,
18:47:08 863  		   PRIOR_YTD_DEPR_EXP_ADJUST, ACCT_DISTRIB, MONTH_RATE, COMPANY_ID, MID_PERIOD_METHOD,
18:47:08 864  		   MID_PERIOD_CONV, DEPR_GROUP_ID, DEPR_EXP_ALLOC_ADJUST, DEPR_METHOD_ID, TRUE_UP_CPR_DEPR,
18:47:08 865  		   SALVAGE_EXPENSE, SALVAGE_EXP_ADJUST, SALVAGE_EXP_ALLOC_ADJUST, IMPAIRMENT_ASSET_AMOUNT,
18:47:08 866  		   IMPAIRMENT_EXPENSE_AMOUNT, IMPAIRMENT_ASSET_ACTIVITY_SALV,
18:47:08 867  		   IMPAIRMENT_ASSET_BEGIN_BALANCE)
18:47:08 868  	       values
18:47:08 869  		  (B.ASSET_ID, B.SET_OF_BOOKS_ID, B.GL_POSTING_MO_YR, B.EXPECTED_LIFE, B.EXPECTED_LIFE, 0,
18:47:08 870  		   0, B.AMOUNT, 0, 0, 0, B.AMOUNT, 0, 0, 0, 0, 0, 0, 0, 0, 0, 0, 0, 0, 0, 0, 0, 0, 0, 0,
18:47:08 871  		   B.MONTH_RATE, B.COMPANY_ID, B.MID_PERIOD_METHOD, B.MID_PERIOD_CONV, B.DEPR_GROUP_ID, 0,
18:47:08 872  		   B.DEPR_METHOD_ID, B.TRUE_UP_CPR_DEPR, 0, 0, 0, 0, 0, 0, 0);
18:47:08 873  
18:47:08 874  	    L_MSG := 'Updating Account Summary';
18:47:08 875  	    merge into ACCOUNT_SUMMARY A
18:47:08 876  	    using (select L_LS_PEND_TRANS.COMPANY_ID as COMPANY,
18:47:08 877  			  PB.SET_OF_BOOKS_ID as SET_OF_BOOKS,
18:47:08 878  			  L_GL_ACCT_ID as ACCOUNT,
18:47:08 879  			  L_LS_PEND_TRANS.BUS_SEGMENT_ID as BUSINESS_SEGMENT,
18:47:08 880  			  L_LS_PEND_TRANS.SUB_ACCOUNT_ID as SUB_ACCOUNT,
18:47:08 881  			  L_LS_PEND_TRANS.UTILITY_ACCOUNT_ID as UTILITY_ACCOUNT,
18:47:08 882  			  L_MAJOR_LOC as MAJOR_LOCATION,
18:47:08 883  			  L_MONTH as GL_POSTING_MO_YR, --GL_POSTING_MO_YR
18:47:08 884  			  (1 - L_ADJ) * PB.POSTING_AMOUNT as ADDITION,
18:47:08 885  			  L_ADJ * PB.POSTING_AMOUNT as ADJUSTMENTS
18:47:08 886  		     from LS_PEND_SET_OF_BOOKS PB
18:47:08 887  		    where PB.LS_PEND_TRANS_ID = L_LS_PEND_TRANS.LS_PEND_TRANS_ID) B
18:47:08 888  	    on (A.COMPANY_ID = B.COMPANY and A.SET_OF_BOOKS_ID = B.SET_OF_BOOKS and A.GL_ACCOUNT_ID = B.ACCOUNT and A.BUS_SEGMENT_ID = B.BUSINESS_SEGMENT and A.SUB_ACCOUNT_ID = B.SUB_ACCOUNT and A.UTILITY_ACCOUNT_ID = B.UTILITY_ACCOUNT and A.MAJOR_LOCATION_ID = B.MAJOR_LOCATION and A.GL_POSTING_MO_YR = B.GL_POSTING_MO_YR)
18:47:08 889  	    when matched then
18:47:08 890  	       update
18:47:08 891  		  set A.ENDING_BALANCE = A.ENDING_BALANCE + B.ADDITION + B.ADJUSTMENTS,
18:47:08 892  		      A.ADDITIONS = A.ADDITIONS + B.ADDITION,
18:47:08 893  		      A.ADJUSTMENTS = A.ADJUSTMENTS + B.ADJUSTMENTS
18:47:08 894  	    when not matched then
18:47:08 895  	       insert
18:47:08 896  		  (SET_OF_BOOKS_ID, COMPANY_ID, GL_ACCOUNT_ID, BUS_SEGMENT_ID, SUB_ACCOUNT_ID,
18:47:08 897  		   UTILITY_ACCOUNT_ID, MAJOR_LOCATION_ID, GL_POSTING_MO_YR, BEGINNING_BALANCE,
18:47:08 898  		   ACCT_SUMM_STATUS, RETIREMENTS, ADDITIONS, TRANSFERS_IN, TRANSFERS_OUT, ADJUSTMENTS,
18:47:08 899  		   ENDING_BALANCE)
18:47:08 900  	       values
18:47:08 901  		  (B.SET_OF_BOOKS, B.COMPANY, B.ACCOUNT, B.BUSINESS_SEGMENT, B.SUB_ACCOUNT,
18:47:08 902  		   B.UTILITY_ACCOUNT, B.MAJOR_LOCATION, B.GL_POSTING_MO_YR, 0, 1, 0, B.ADDITION,
18:47:08 903  		   0, 0, B.ADJUSTMENTS, B.ADDITION + B.ADJUSTMENTS);
18:47:08 904  
18:47:08 905  	    L_MSG := 'Updating Depr Ledger';
18:47:08 906  	    merge into DEPR_LEDGER A
18:47:08 907  	    using (select DG2.DEPR_GROUP_ID as DEPR_GROUP,
18:47:08 908  			  PB.SET_OF_BOOKS_ID as SET_OF_BOOKS,
18:47:08 909  			  L_MONTH as GL_POSTING_MO_YR, --GL_POSTING_MO_YR
18:47:08 910  			  (1 - L_ADJ) * PB.POSTING_AMOUNT as ADDITION,
18:47:08 911  			  L_ADJ * PB.POSTING_AMOUNT as ADJUSTMENTS
18:47:08 912  		     from LS_PEND_SET_OF_BOOKS PB,
18:47:08 913  			  (select DG.DEPR_GROUP_ID,
18:47:08 914  				  DG.COMPANY_ID,
18:47:08 915  				  DMR.SET_OF_BOOKS_ID,
18:47:08 916  				  ROW_NUMBER() OVER(partition by DMR.SET_OF_BOOKS_ID, DMR.DEPR_METHOD_ID order by DMR.EFFECTIVE_DATE desc) as THE_ROW
18:47:08 917  			     from DEPR_METHOD_RATES DMR, DEPR_GROUP DG
18:47:08 918  			    where DMR.DEPR_METHOD_ID = DG.DEPR_METHOD_ID
18:47:08 919  			      and DG.DEPR_GROUP_ID = L_DG_ID) DG2
18:47:08 920  		    where DG2.THE_ROW = 1
18:47:08 921  		      and PB.SET_OF_BOOKS_ID = DG2.SET_OF_BOOKS_ID
18:47:08 922  		      and PB.LS_PEND_TRANS_ID = L_LS_PEND_TRANS.LS_PEND_TRANS_ID) B
18:47:08 923  	    on (A.DEPR_GROUP_ID = B.DEPR_GROUP and A.GL_POST_MO_YR = B.GL_POSTING_MO_YR and A.SET_OF_BOOKS_ID = B.SET_OF_BOOKS)
18:47:08 924  	    when matched then
18:47:08 925  	       update
18:47:08 926  		  set A.END_BALANCE = A.END_BALANCE + B.ADDITION + B.ADJUSTMENTS,
18:47:08 927  		      A.ADDITIONS = A.ADDITIONS + B.ADDITION,
18:47:08 928  		      A.ADJUSTMENTS = A.ADJUSTMENTS + B.ADJUSTMENTS;
18:47:08 929  
18:47:08 930  	    -- set the approved revision
18:47:08 931  	    update LS_ASSET
18:47:08 932  	       set APPROVED_REVISION = L_LS_PEND_TRANS.REVISION,
18:47:08 933  		   IN_SERVICE_DATE = NVL(L_LS_PEND_TRANS.IN_SERVICE_DATE, L_MONTH), LS_ASSET_STATUS_ID = 3,
18:47:08 934  		EXPECTED_LIFE = L_INIT_LIFE
18:47:08 935  	     where LS_ASSET_ID = A_LS_ASSET_ID;
18:47:08 936  
18:47:08 937  	    -- only do the below on initial adds
18:47:08 938  	    if L_ADJ = 0 then
18:47:08 939  	       L_MSG := 'Adding class codes';
18:47:08 940  	       insert into CLASS_CODE_CPR_LEDGER
18:47:08 941  		  (CLASS_CODE_ID, ASSET_ID, value)
18:47:08 942  		  select CLASS_CODE_ID, L_ASSET_ID, value
18:47:08 943  		    from LS_PEND_CLASS_CODE
18:47:08 944  		   where LS_PEND_TRANS_ID = L_LS_PEND_TRANS.LS_PEND_TRANS_ID;
18:47:08 945  
18:47:08 946  	       --* Link the LS_ASSET to the CPR
18:47:08 947  	       L_MSG := 'Connecting leased asset to CPR';
18:47:08 948  	       insert into LS_CPR_ASSET_MAP
18:47:08 949  		  (LS_ASSET_ID, ASSET_ID, EFFECTIVE_DATE)
18:47:08 950  	       values
18:47:08 951  		  (L_LS_PEND_TRANS.LS_ASSET_ID, L_ASSET_ID, L_MONTH);
18:47:08 952  
18:47:08 953  	       L_MSG := 'Connecting activity and depr group';
18:47:08 954  	       insert into CPR_ACT_DEPR_GROUP
18:47:08 955  		  (ASSET_ID, GL_POSTING_MO_YR, DEPR_GROUP_ID)
18:47:08 956  	       values
18:47:08 957  		  (L_ASSET_ID, L_MONTH, L_DG_ID);
18:47:08 958  	    end if; -- adjustment
18:47:08 959  
18:47:08 960  	    L_MSG := 'OK';
18:47:08 961  	    return L_MSG;
18:47:08 962  	 exception
18:47:08 963  	    when others then
18:47:08 964  	       L_MSG := SUBSTR(L_MSG || ': ' || sqlerrm, 1, 2000);
18:47:08 965  	       return L_MSG;
18:47:08 966  	 end F_ADD_ASSET;
18:47:08 967  
18:47:08 968  	 -- Function to perform specific Leased Asset retirement
18:47:08 969  	 -- return 1 on success, 0 on failure.	a_msg is an out param for messaging
18:47:08 970  	 function F_RETIRE_ASSET(A_CPR_ASSET_ID        number,
18:47:08 971  				 A_ACCT_MONTH	       date,
18:47:08 972  				 A_MONTH	       date,
18:47:08 973  				 A_RETIREMENT_AMOUNT   number,
18:47:08 974  				 A_RETIREMENT_QUANTITY number,
18:47:08 975  				 A_GAIN_LOSS_AMOUNT    number,
18:47:08 976  				 A_DG_ID	       number,
18:47:08 977  				 A_PT_ID	       number,
18:47:08 978  				 A_MSG		       out varchar2) return number is
18:47:08 979  	    L_LS_ASSET	   LS_ASSET%rowtype;
18:47:08 980  	    L_LS_ASSET_SCH LS_ASSET_SCHEDULE%rowtype;
18:47:08 981  	    L_GL_ACCT_ID     GL_ACCOUNT.GL_ACCOUNT_ID%type;
18:47:08 982  	    L_ST_ACCT_ID    GL_ACCOUNT.GL_ACCOUNT_ID%type;
18:47:08 983  	    L_LT_ACCT_ID    GL_ACCOUNT.GL_ACCOUNT_ID%type;
18:47:08 984  	    L_AMT_OBL	   number(22, 2);
18:47:08 985  	    L_PCT	   number(22, 12);
18:47:08 986  	    L_RTN	   number;
18:47:08 987  	    L_GL_JE_CODE   varchar2(35);
18:47:08 988  	    L_ILR_ID	   number;
18:47:08 989  	    L_STATUS	   varchar2(4000);
18:47:08 990  	    L_SQLS	   varchar2(2000);
18:47:08 991  		L_SCH_MONTH   date;
18:47:08 992  	  L_ASSET_IDS	PKG_LEASE_CALC.NUM_ARRAY;
18:47:08 993  	 begin
18:47:08 994  	    PKG_PP_LOG.P_START_LOG(P_PROCESS_ID => PKG_LEASE_COMMON.F_GETPROCESS());
18:47:08 995  	    A_MSG := 'Starting to retire the leased asset for month: ' || TO_CHAR(A_MONTH, 'yyyymm');
18:47:08 996  	    PKG_PP_LOG.P_WRITE_MESSAGE(A_MSG);
18:47:08 997  	    A_MSG := '	 Accounting Month: ' || TO_CHAR(A_ACCT_MONTH, 'yyyymm');
18:47:08 998  	    PKG_PP_LOG.P_WRITE_MESSAGE(A_MSG);
18:47:08 999  	    A_MSG := '	 Quantity: ' || TO_CHAR(A_RETIREMENT_QUANTITY);
18:47:08 1000  	     PKG_PP_LOG.P_WRITE_MESSAGE(A_MSG);
18:47:08 1001  	     A_MSG := '   Amount: ' || TO_CHAR(A_RETIREMENT_AMOUNT);
18:47:08 1002  	     PKG_PP_LOG.P_WRITE_MESSAGE(A_MSG);
18:47:08 1003  	     A_MSG := '   Gain / Loss: ' || TO_CHAR(A_GAIN_LOSS_AMOUNT);
18:47:08 1004  	     PKG_PP_LOG.P_WRITE_MESSAGE(A_MSG);
18:47:08 1005  	     A_MSG := '   Associated Pending Transaction: ' || TO_CHAR(A_PT_ID);
18:47:08 1006  	     PKG_PP_LOG.P_WRITE_MESSAGE(A_MSG);
18:47:08 1007  	     --Get our LS_ASSET
18:47:08 1008  	     A_MSG := 'Get the leased asset record';
18:47:08 1009  	     PKG_PP_LOG.P_WRITE_MESSAGE(A_MSG);
18:47:08 1010  
18:47:08 1011  	     select A.*
18:47:08 1012  	       into L_LS_ASSET
18:47:08 1013  	       from LS_ASSET A, LS_CPR_ASSET_MAP C
18:47:08 1014  	      where C.ASSET_ID = A_CPR_ASSET_ID
18:47:08 1015  		and C.LS_ASSET_ID = A.LS_ASSET_ID;
18:47:08 1016  
18:47:08 1017  	     select IA.CAP_ASSET_ACCOUNT_ID, IA.ST_OBLIG_ACCOUNT_ID, IA.LT_OBLIG_ACCOUNT_ID
18:47:08 1018  	       into L_GL_ACCT_ID, L_ST_ACCT_ID, L_LT_ACCT_ID
18:47:08 1019  	       from LS_ILR_ACCOUNT IA, LS_ASSET LA
18:47:08 1020  	      where LA.ILR_ID = IA.ILR_ID
18:47:08 1021  		and LA.LS_ASSET_ID = L_LS_ASSET.LS_ASSET_ID;
18:47:08 1022  
18:47:08 1023  	     -- is this asset fully retired?
18:47:08 1024  	     if L_LS_ASSET.QUANTITY + A_RETIREMENT_QUANTITY = 0 then
18:47:08 1025  		-- fully retired
18:47:08 1026  		-- set the status to say retired
18:47:08 1027  		L_LS_ASSET.LS_ASSET_STATUS_ID := 4;
18:47:08 1028  	     end if;
18:47:08 1029  
18:47:08 1030  	     L_PCT := -1 * A_RETIREMENT_QUANTITY / L_LS_ASSET.QUANTITY;
18:47:08 1031  
18:47:08 1032  	     A_MSG := 'Updating LS ASSET';
18:47:08 1033  	     PKG_PP_LOG.P_WRITE_MESSAGE(A_MSG);
18:47:08 1034  	     -- update the capital cost and the quantity based on the retirement amount
18:47:08 1035  	     update LS_ASSET
18:47:08 1036  		set CAPITALIZED_COST = CAPITALIZED_COST + L_LS_ASSET.CAPITALIZED_COST,
18:47:08 1037  		    QUANTITY = QUANTITY + A_RETIREMENT_QUANTITY,
18:47:08 1038  		    LS_ASSET_STATUS_ID = L_LS_ASSET.LS_ASSET_STATUS_ID, RETIREMENT_DATE = A_MONTH
18:47:08 1039  	      where LS_ASSET_ID = L_LS_ASSET.LS_ASSET_ID;
18:47:08 1040  
18:47:08 1041  	     -- normal asset retirement transactions are handled by POST
18:47:08 1042  	     -- ie 3025 and 3026.
18:47:08 1043  	     -- in this function only handle the lease specific entries (termination_penalty_amount: 3036 and 3037)
18:47:08 1044  
18:47:08 1045  	     select NVL(E.EXTERNAL_JE_CODE, E.GL_JE_CODE)
18:47:08 1046  	       into L_GL_JE_CODE
18:47:08 1047  	       from GL_JE_CONTROL G, STANDARD_JOURNAL_ENTRIES E
18:47:08 1048  	      where E.JE_ID = G.JE_ID
18:47:08 1049  		and G.PROCESS_ID = 'LAM RETIREMENTS';
18:47:08 1050  
18:47:08 1051  	     -- loop over the set of books eligible for this asset
18:47:08 1052  	     A_MSG := 'Looping over set of books';
18:47:08 1053  	     PKG_PP_LOG.P_WRITE_MESSAGE(A_MSG);
18:47:08 1054  	     for L_SOB in (select CS.SET_OF_BOOKS_ID as SET_OF_BOOKS_ID, LCT.BOOK_SUMMARY_ID as BS_ID
18:47:08 1055  			     from COMPANY_SET_OF_BOOKS CS,
18:47:08 1056  				  SET_OF_BOOKS	       S,
18:47:08 1057  				  LS_ILR_OPTIONS       ILR,
18:47:08 1058  				  LS_LEASE_CAP_TYPE    LCT
18:47:08 1059  			    where CS.COMPANY_ID = L_LS_ASSET.COMPANY_ID
18:47:08 1060  			      and CS.SET_OF_BOOKS_ID = S.SET_OF_BOOKS_ID
18:47:08 1061  			      and ILR.ILR_ID = L_LS_ASSET.ILR_ID
18:47:08 1062  			      and ILR.REVISION = L_LS_ASSET.APPROVED_REVISION
18:47:08 1063  			      and LCT.LS_LEASE_CAP_TYPE_ID = ILR.LEASE_CAP_TYPE_ID)
18:47:08 1064  	     loop
18:47:08 1065  		A_MSG := '   Set of Books: ' || TO_CHAR(L_SOB.SET_OF_BOOKS_ID);
18:47:08 1066  		PKG_PP_LOG.P_WRITE_MESSAGE(A_MSG);
18:47:08 1067  		-- get the current month's row for the schedule for the current revision
18:47:08 1068  		A_MSG := 'Get the current month schedule for leased asset id: ' ||
18:47:08 1069  			 TO_CHAR(L_LS_ASSET.LS_ASSET_ID);
18:47:08 1070  		PKG_PP_LOG.P_WRITE_MESSAGE(A_MSG);
18:47:08 1071  
18:47:08 1072  			select max(s.month)
18:47:08 1073  		  into L_SCH_MONTH
18:47:08 1074  		  from LS_ASSET_SCHEDULE S
18:47:08 1075  		 where S.MONTH <= A_MONTH
18:47:08 1076  		   and S.REVISION = L_LS_ASSET.APPROVED_REVISION
18:47:08 1077  		   and S.LS_ASSET_ID = L_LS_ASSET.LS_ASSET_ID
18:47:08 1078  		   and S.SET_OF_BOOKS_ID = L_SOB.SET_OF_BOOKS_ID;
18:47:08 1079  
18:47:08 1080  		select S.*
18:47:08 1081  		  into L_LS_ASSET_SCH
18:47:08 1082  		  from LS_ASSET_SCHEDULE S
18:47:08 1083  		 where S.MONTH = L_SCH_MONTH
18:47:08 1084  		   and S.REVISION = L_LS_ASSET.APPROVED_REVISION
18:47:08 1085  		   and S.LS_ASSET_ID = L_LS_ASSET.LS_ASSET_ID
18:47:08 1086  		   and S.SET_OF_BOOKS_ID = L_SOB.SET_OF_BOOKS_ID;
18:47:08 1087  
18:47:08 1088  		-- is there a termination penalty
18:47:08 1089  
18:47:08 1090  		A_MSG := A_MSG || '   Original Termination Amount: ' ||
18:47:08 1091  			 TO_CHAR(L_LS_ASSET.TERMINATION_PENALTY_AMOUNT);
18:47:08 1092  		PKG_PP_LOG.P_WRITE_MESSAGE(A_MSG);
18:47:08 1093  		A_MSG := A_MSG || '   Actual Termination Amount: ' ||
18:47:08 1094  			 TO_CHAR(L_LS_ASSET.ACTUAL_TERMINATION_AMOUNT);
18:47:08 1095  		PKG_PP_LOG.P_WRITE_MESSAGE(A_MSG);
18:47:08 1096  		if L_LS_ASSET.ACTUAL_TERMINATION_AMOUNT - L_LS_ASSET.TERMINATION_PENALTY_AMOUNT <> 0 then
18:47:08 1097  		   L_RTN := PKG_LEASE_COMMON.F_BOOKJE(L_LS_ASSET.LS_ASSET_ID,
18:47:08 1098  						      3036,
18:47:08 1099  						      L_LS_ASSET.ACTUAL_TERMINATION_AMOUNT - L_LS_ASSET.TERMINATION_PENALTY_AMOUNT,
18:47:08 1100  						      0,
18:47:08 1101  						      A_DG_ID,
18:47:08 1102  						      L_LS_ASSET.WORK_ORDER_ID,
18:47:08 1103  						      0,
18:47:08 1104  						      1,
18:47:08 1105  						      A_PT_ID,
18:47:08 1106  						      L_LS_ASSET.COMPANY_ID,
18:47:08 1107  						      A_ACCT_MONTH,
18:47:08 1108  						      1,
18:47:08 1109  						      L_GL_JE_CODE,
18:47:08 1110  						      L_SOB.SET_OF_BOOKS_ID,
18:47:08 1111  						      A_MSG);
18:47:08 1112  		   if L_RTN = -1 then
18:47:08 1113  
18:47:08 1114  		      return 0;
18:47:08 1115  		   end if;
18:47:08 1116  
18:47:08 1117  		   L_RTN := PKG_LEASE_COMMON.F_BOOKJE(L_LS_ASSET.LS_ASSET_ID,
18:47:08 1118  						      3037,
18:47:08 1119  						      L_LS_ASSET.ACTUAL_TERMINATION_AMOUNT - L_LS_ASSET.TERMINATION_PENALTY_AMOUNT,
18:47:08 1120  						      0,
18:47:08 1121  						      A_DG_ID,
18:47:08 1122  						      L_LS_ASSET.WORK_ORDER_ID,
18:47:08 1123  						      0,
18:47:08 1124  						      1,
18:47:08 1125  						      A_PT_ID,
18:47:08 1126  						      L_LS_ASSET.COMPANY_ID,
18:47:08 1127  						      A_ACCT_MONTH,
18:47:08 1128  						      0,
18:47:08 1129  						      L_GL_JE_CODE,
18:47:08 1130  						      L_SOB.SET_OF_BOOKS_ID,
18:47:08 1131  						      A_MSG);
18:47:08 1132  		   if L_RTN = -1 then
18:47:08 1133  
18:47:08 1134  		      return 0;
18:47:08 1135  		   end if;
18:47:08 1136  		end if; -- termination penalty
18:47:08 1137  
18:47:08 1138  		-- check to see if the ilr is capital for this set of books
18:47:08 1139  		L_SQLS := 'select to_char(basis_' || TO_CHAR(L_SOB.BS_ID) ||
18:47:08 1140  			  '_indicator) from set_of_books s where set_of_books_id = ' ||
18:47:08 1141  			  TO_CHAR(L_SOB.SET_OF_BOOKS_ID);
18:47:08 1142  
18:47:08 1143  		A_MSG := '   Set of Books (Cap or Operating): ' || L_SQLS;
18:47:08 1144  		PKG_PP_LOG.P_WRITE_MESSAGE(A_MSG);
18:47:08 1145  
18:47:08 1146  		L_RTN := TO_NUMBER(PP_MISC_PKG.DYNAMIC_SELECT(L_SQLS));
18:47:08 1147  		PKG_PP_LOG.P_WRITE_MESSAGE('	  RETURN: ' || TO_CHAR(L_RTN));
18:47:08 1148  
18:47:08 1149  		-- plus additional g/l for the st / lt obligation clearing (3027 G/L CR, 3028 ST DR, 2029 LT DR)
18:47:08 1150  		if L_RTN = 1 and L_LS_ASSET.IS_EARLY_RET = 1 then
18:47:08 1151  		   A_MSG := '	  CAPITAL and Early Retirement: ' || L_SQLS;
18:47:08 1152  		   PKG_PP_LOG.P_WRITE_MESSAGE(A_MSG);
18:47:08 1153  		   -- this is an early retirement
18:47:08 1154  		   -- so calc additional G/L by clearing out the obligations
18:47:08 1155  		   L_AMT_OBL := L_PCT *
18:47:08 1156  				(L_LS_ASSET_SCH.BEG_OBLIGATION - NVL(L_LS_ASSET_SCH.BEG_LT_OBLIGATION, 0));
18:47:08 1157  
18:47:08 1158  		   if L_AMT_OBL <> 0 then
18:47:08 1159  		      -- book the G/L/ credit
18:47:08 1160  		      L_RTN := PKG_LEASE_COMMON.F_BOOKJE(L_LS_ASSET.LS_ASSET_ID,
18:47:08 1161  							 3027,
18:47:08 1162  							 L_AMT_OBL,
18:47:08 1163  							 0,
18:47:08 1164  							 A_DG_ID,
18:47:08 1165  							 L_LS_ASSET.WORK_ORDER_ID,
18:47:08 1166  							 0,
18:47:08 1167  							 1,
18:47:08 1168  							 A_PT_ID,
18:47:08 1169  							 L_LS_ASSET.COMPANY_ID,
18:47:08 1170  							 A_ACCT_MONTH,
18:47:08 1171  							 0,
18:47:08 1172  							 L_GL_JE_CODE,
18:47:08 1173  							 L_SOB.SET_OF_BOOKS_ID,
18:47:08 1174  							 A_MSG);
18:47:08 1175  		      if L_RTN = -1 then
18:47:08 1176  
18:47:08 1177  			 return 0;
18:47:08 1178  		      end if;
18:47:08 1179  
18:47:08 1180  		      -- book the ST CLEAR DR
18:47:08 1181  		      L_RTN := PKG_LEASE_COMMON.F_BOOKJE(L_LS_ASSET.LS_ASSET_ID,
18:47:08 1182  							 3028,
18:47:08 1183  							 L_AMT_OBL,
18:47:08 1184  							 0,
18:47:08 1185  							 A_DG_ID,
18:47:08 1186  							 L_LS_ASSET.WORK_ORDER_ID,
18:47:08 1187  							 L_ST_ACCT_ID,
18:47:08 1188  							 1,
18:47:08 1189  							 A_PT_ID,
18:47:08 1190  							 L_LS_ASSET.COMPANY_ID,
18:47:08 1191  							 A_ACCT_MONTH,
18:47:08 1192  							 1,
18:47:08 1193  							 L_GL_JE_CODE,
18:47:08 1194  							 L_SOB.SET_OF_BOOKS_ID,
18:47:08 1195  							 A_MSG);
18:47:08 1196  		      if L_RTN = -1 then
18:47:08 1197  
18:47:08 1198  			 return 0;
18:47:08 1199  		      end if;
18:47:08 1200  		   end if; -- end clearing out short term obligation
18:47:08 1201  
18:47:08 1202  		   L_AMT_OBL := L_PCT * L_LS_ASSET_SCH.BEG_LT_OBLIGATION;
18:47:08 1203  
18:47:08 1204  		   if NVL(L_AMT_OBL, 0) <> 0 then
18:47:08 1205  		      -- book the G/L/ credit
18:47:08 1206  		      L_RTN := PKG_LEASE_COMMON.F_BOOKJE(L_LS_ASSET.LS_ASSET_ID,
18:47:08 1207  							 3027,
18:47:08 1208  							 L_AMT_OBL,
18:47:08 1209  							 0,
18:47:08 1210  							 A_DG_ID,
18:47:08 1211  							 L_LS_ASSET.WORK_ORDER_ID,
18:47:08 1212  							 0,
18:47:08 1213  							 1,
18:47:08 1214  							 A_PT_ID,
18:47:08 1215  							 L_LS_ASSET.COMPANY_ID,
18:47:08 1216  							 A_ACCT_MONTH,
18:47:08 1217  							 0,
18:47:08 1218  							 L_GL_JE_CODE,
18:47:08 1219  							 L_SOB.SET_OF_BOOKS_ID,
18:47:08 1220  							 A_MSG);
18:47:08 1221  		      if L_RTN = -1 then
18:47:08 1222  
18:47:08 1223  			 return 0;
18:47:08 1224  		      end if;
18:47:08 1225  
18:47:08 1226  		      -- book the LT CLEAR DR
18:47:08 1227  		      L_RTN := PKG_LEASE_COMMON.F_BOOKJE(L_LS_ASSET.LS_ASSET_ID,
18:47:08 1228  							 3029,
18:47:08 1229  							 L_AMT_OBL,
18:47:08 1230  							 0,
18:47:08 1231  							 A_DG_ID,
18:47:08 1232  							 L_LS_ASSET.WORK_ORDER_ID,
18:47:08 1233  							 L_LT_ACCT_ID,
18:47:08 1234  							 1,
18:47:08 1235  							 A_PT_ID,
18:47:08 1236  							 L_LS_ASSET.COMPANY_ID,
18:47:08 1237  							 A_ACCT_MONTH,
18:47:08 1238  							 1,
18:47:08 1239  							 L_GL_JE_CODE,
18:47:08 1240  							 L_SOB.SET_OF_BOOKS_ID,
18:47:08 1241  							 A_MSG);
18:47:08 1242  		      if L_RTN = -1 then
18:47:08 1243  
18:47:08 1244  			 return 0;
18:47:08 1245  		      end if;
18:47:08 1246  		   end if; -- end clearing out long term obligation
18:47:08 1247  		end if; -- end if capital and early retirement (to calc additional gain loss)
18:47:08 1248  	     end loop; -- loop over set of books
18:47:08 1249  
18:47:08 1250  	     if L_LS_ASSET.LS_ASSET_STATUS_ID = 4 then
18:47:08 1251  		A_MSG := 'Fully retired, REMOVING asset from association to ILR';
18:47:08 1252  		PKG_PP_LOG.P_WRITE_MESSAGE(A_MSG);
18:47:08 1253  		delete from LS_ILR_ASSET_MAP
18:47:08 1254  		 where LS_ASSET_ID = L_LS_ASSET.LS_ASSET_ID
18:47:08 1255  		   and REVISION =
18:47:08 1256  		       (select ILR.CURRENT_REVISION from LS_ILR ILR where ILR_ID = L_LS_ASSET.ILR_ID);
18:47:08 1257  
18:47:08 1258  	   if L_LS_ASSET.ACTUAL_RESIDUAL_AMOUNT <> 0 then
18:47:08 1259  	     A_MSG := 'Processing actual residual amount';
18:47:08 1260  	     PKG_PP_LOG.P_WRITE_MESSAGE(A_MSG);
18:47:08 1261  	     L_ASSET_IDS(1) := L_LS_ASSET.LS_ASSET_ID;
18:47:08 1262  
18:47:08 1263  	     A_MSG := PKG_LEASE_CALC.F_PROCESS_RESIDUAL(A_LS_ASSET_IDS => L_ASSET_IDS, A_END_LOG => 0);
18:47:08 1264  	     if A_MSG <> 'OK' then
18:47:08 1265  	       PKG_PP_LOG.P_WRITE_MESSAGE(A_MSG);
18:47:08 1266  	       return 0;
18:47:08 1267  	     end if;
18:47:08 1268  	   end if;
18:47:08 1269  
18:47:08 1270  	     end if;
18:47:08 1271  
18:47:08 1272  	     -- Handle ILR Status changes if all assets under the ILR are retired
18:47:08 1273  	     L_RTN := 0;
18:47:08 1274  	     select count(1)
18:47:08 1275  	       into L_RTN
18:47:08 1276  	       from LS_ASSET
18:47:08 1277  	      where ILR_ID = L_LS_ASSET.ILR_ID
18:47:08 1278  		and LS_ASSET_STATUS_ID <> 4;
18:47:08 1279  
18:47:08 1280  	     if L_RTN = 0 then
18:47:08 1281  		A_MSG := 'Retiring the ILR';
18:47:08 1282  		PKG_PP_LOG.P_WRITE_MESSAGE(A_MSG);
18:47:08 1283  		update LS_ILR set ILR_STATUS_ID = 3 where ILR_ID = L_LS_ASSET.ILR_ID;
18:47:08 1284  	     else
18:47:08 1285  		L_RTN := 0;
18:47:08 1286  		-- this is the current pending revision for the ilr
18:47:08 1287  		A_MSG := 'Finding the pending revision for the ILR';
18:47:08 1288  		PKG_PP_LOG.P_WRITE_MESSAGE(A_MSG);
18:47:08 1289  		select L.REVISION
18:47:08 1290  		  into L_RTN
18:47:08 1291  		  from LS_ILR_APPROVAL L
18:47:08 1292  		 where L.ILR_ID = L_LS_ASSET.ILR_ID
18:47:08 1293  		   and L.APPROVAL_STATUS_ID = 2;
18:47:08 1294  
18:47:08 1295  		A_MSG := 'Approving ILR';
18:47:08 1296  		PKG_PP_LOG.P_WRITE_MESSAGE(A_MSG);
18:47:08 1297  		L_RTN := PKG_LEASE_CALC.F_APPROVE_ILR_NO_COMMIT(L_LS_ASSET.ILR_ID, L_RTN, L_STATUS);
18:47:08 1298  		if L_RTN <> 1 then
18:47:08 1299  
18:47:08 1300  		   return 0;
18:47:08 1301  		end if;
18:47:08 1302  	     end if;
18:47:08 1303  	     --POST.exe needs to be checking for a return value of 1.
18:47:08 1304  
18:47:08 1305  	     return 1;
18:47:08 1306  	  exception
18:47:08 1307  	     when others then
18:47:08 1308  		A_MSG := SUBSTR(A_MSG || ': ' || sqlerrm, 1, 2000);
18:47:08 1309  		PKG_PP_LOG.P_WRITE_MESSAGE('ERROR: ' || A_MSG);
18:47:08 1310  
18:47:08 1311  		return 0;
18:47:08 1312  	  end F_RETIRE_ASSET;
18:47:08 1313  
18:47:08 1314  	  -- Function to perform specific Leased Asset transfer from
18:47:08 1315  	  function F_TRANSFER_ASSET_FROM(A_CPR_ASSET_ID number,
18:47:08 1316  					 A_AMOUNT	number,
18:47:08 1317  					 A_QUANTITY	number,
18:47:08 1318  					 A_PT_ID	number,
18:47:08 1319  					 A_MSG		out varchar2) return number is
18:47:08 1320  	     L_LS_ASSET_ID number;
18:47:08 1321  	     OLD_QUANTITY  number;
18:47:08 1322  	     L_REVISION    number;
18:47:08 1323  	     L_ILR_ID	   number;
18:47:08 1324  	     L_STATUS	   varchar2(4000);
18:47:08 1325  	     L_RTN	   number;
18:47:08 1326  
18:47:08 1327  	  begin
18:47:08 1328  	     /*      PKG_PP_LOG.P_START_LOG(P_PROCESS_ID => PKG_LEASE_COMMON.F_GETPROCESS());
18:47:08 1329  
18:47:08 1330  		   A_MSG := 'Starting to transfer asset from';
18:47:08 1331  		   PKG_PP_LOG.P_WRITE_MESSAGE(A_MSG);
18:47:08 1332  		   A_MSG := '	Quantity: ' || TO_CHAR(A_QUANTITY);
18:47:08 1333  		   PKG_PP_LOG.P_WRITE_MESSAGE(A_MSG);
18:47:08 1334  		   A_MSG := '	Amount: ' || TO_CHAR(A_AMOUNT);
18:47:08 1335  		   PKG_PP_LOG.P_WRITE_MESSAGE(A_MSG);
18:47:08 1336  		   A_MSG := '	CPR Asset ID: ' || TO_CHAR(A_CPR_ASSET_ID);
18:47:08 1337  		   PKG_PP_LOG.P_WRITE_MESSAGE(A_MSG);
18:47:08 1338  		   A_MSG := '	Associated Pending Transaction: ' || TO_CHAR(A_PT_ID);
18:47:08 1339  		   PKG_PP_LOG.P_WRITE_MESSAGE(A_MSG);
18:47:08 1340  
18:47:08 1341  		 -- NO MAJOR PROCESSING HERE...
18:47:08 1342  		 -- all processing happens on the TO side
18:47:08 1343  
18:47:08 1344  		   A_MSG := 'DONE';
18:47:08 1345  		   PKG_PP_LOG.P_WRITE_MESSAGE(A_MSG);
18:47:08 1346  
18:47:08 1347  
18:47:08 1348  		   --Handle rounding... somehow...
18:47:08 1349  	     */
18:47:08 1350  	     A_MSG := 'DONE';
18:47:08 1351  	     return 1;
18:47:08 1352  	  exception
18:47:08 1353  	     when others then
18:47:08 1354  		A_MSG := SUBSTR(A_MSG || ': ' || sqlerrm, 1, 2000);
18:47:08 1355  		PKG_PP_LOG.P_WRITE_MESSAGE('ERROR: ' || A_MSG);
18:47:08 1356  
18:47:08 1357  		return -1;
18:47:08 1358  	  end F_TRANSFER_ASSET_FROM;
18:47:08 1359  
18:47:08 1360  	  -- Function to perform specific Leased Asset transfer to
18:47:08 1361  	  function F_TRANSFER_ASSET_TO(A_CPR_ASSET_ID	    number,
18:47:08 1362  				       A_AMOUNT 	    number,
18:47:08 1363  				       A_QUANTITY	    number,
18:47:08 1364  				       A_COMPANY_ID	    number,
18:47:08 1365  				       A_BUS_SEGMENT_ID     number,
18:47:08 1366  				       A_UTILITY_ACCOUNT_ID number,
18:47:08 1367  				       A_SUB_ACCOUNT_ID     number,
18:47:08 1368  				       A_FUNC_CLASS_ID	    number,
18:47:08 1369  				       A_PROPERTY_GROUP_ID  number,
18:47:08 1370  				       A_RETIREMENT_UNIT_ID number,
18:47:08 1371  				       A_ASSET_LOCATION_ID  number,
18:47:08 1372  				       A_DG_ID		    number,
18:47:08 1373  				       A_PT_ID		    number,
18:47:08 1374  				       A_MSG		    out varchar2) return number is
18:47:08 1375  	     L_LS_ASSET_ID_FROM      number;
18:47:08 1376  	     L_LS_ASSET_ID_TO	     number;
18:47:08 1377  	     L_REVISION_FROM	     number;
18:47:08 1378  	     L_REVISION_TO	     number;
18:47:08 1379  	     L_CURRENT_REVISION_FROM number;
18:47:08 1380  	     L_TO_ILR_ID	     number;
18:47:08 1381  	     L_FROM_ILR_ID	     number;
18:47:08 1382  	     L_WO_ID		     number;
18:47:08 1383  	     L_STATUS		     varchar2(4000);
18:47:08 1384  	     L_RTN		     number;
18:47:08 1385  	     L_PCT		     number(22, 8);
18:47:08 1386  	     L_PEND_TRANS_TO	     PEND_TRANSACTION%rowtype;
18:47:08 1387  	     L_PEND_TRANS_FROM	     PEND_TRANSACTION%rowtype;
18:47:08 1388  	     L_MONTH		     date;
18:47:08 1389  	  begin
18:47:08 1390  	     --Update the lessee tables to the new CPR attributes
18:47:08 1391  	     PKG_PP_LOG.P_START_LOG(P_PROCESS_ID => PKG_LEASE_COMMON.F_GETPROCESS());
18:47:08 1392  	     A_MSG := 'Starting to transfer asset to';
18:47:08 1393  	     PKG_PP_LOG.P_WRITE_MESSAGE(A_MSG);
18:47:08 1394  	     A_MSG := '   Quantity: ' || TO_CHAR(A_QUANTITY);
18:47:08 1395  	     PKG_PP_LOG.P_WRITE_MESSAGE(A_MSG);
18:47:08 1396  	     A_MSG := '   Amount: ' || TO_CHAR(A_AMOUNT);
18:47:08 1397  	     PKG_PP_LOG.P_WRITE_MESSAGE(A_MSG);
18:47:08 1398  	     A_MSG := '   CPR Asset ID: ' || TO_CHAR(A_CPR_ASSET_ID);
18:47:08 1399  	     PKG_PP_LOG.P_WRITE_MESSAGE(A_MSG);
18:47:08 1400  	     A_MSG := '   TO Company ID: ' || TO_CHAR(A_COMPANY_ID);
18:47:08 1401  	     PKG_PP_LOG.P_WRITE_MESSAGE(A_MSG);
18:47:08 1402  	     A_MSG := '   Associated Pending Transaction: ' || TO_CHAR(A_PT_ID);
18:47:08 1403  	     PKG_PP_LOG.P_WRITE_MESSAGE(A_MSG);
18:47:08 1404  
18:47:08 1405  	     -- the ldg_asset_id is the to side transaction
18:47:08 1406  	     A_MSG := 'GET to pending transaction';
18:47:08 1407  	     select * into L_PEND_TRANS_TO from PEND_TRANSACTION where LDG_ASSET_ID = A_PT_ID;
18:47:08 1408  
18:47:08 1409  	     -- the pend_trans_id is the from side transaction
18:47:08 1410  	     A_MSG := 'GET from pending transaction';
18:47:08 1411  	     select * into L_PEND_TRANS_FROM from PEND_TRANSACTION where PEND_TRANS_ID = A_PT_ID;
18:47:08 1412  
18:47:08 1413  	     -- THE FROM SIDE
18:47:08 1414  	     A_MSG := 'GET from leased asset';
18:47:08 1415  	     select LS_ASSET_ID
18:47:08 1416  	       into L_LS_ASSET_ID_FROM
18:47:08 1417  	       from LS_CPR_ASSET_MAP
18:47:08 1418  	      where ASSET_ID = L_PEND_TRANS_FROM.LDG_ASSET_ID;
18:47:08 1419  
18:47:08 1420  	     A_MSG := 'GET percent transferred';
18:47:08 1421  
18:47:08 1422  	     select A_QUANTITY / F.QUANTITY, F.ILR_ID, F.APPROVED_REVISION
18:47:08 1423  	       into L_PCT, L_FROM_ILR_ID, L_CURRENT_REVISION_FROM
18:47:08 1424  	       from LS_ASSET F
18:47:08 1425  	      where F.LS_ASSET_ID = L_LS_ASSET_ID_FROM;
18:47:08 1426  
18:47:08 1427  	     A_MSG := 'FROM Leased Asset: ' || TO_CHAR(L_LS_ASSET_ID_FROM);
18:47:08 1428  	     PKG_PP_LOG.P_WRITE_MESSAGE(A_MSG);
18:47:08 1429  	     A_MSG := 'PERCENT Transferred: ' || TO_CHAR(L_PCT);
18:47:08 1430  	     PKG_PP_LOG.P_WRITE_MESSAGE(A_MSG);
18:47:08 1431  
18:47:08 1432  	     A_MSG	      := 'COPY from asset';
18:47:08 1433  	     L_LS_ASSET_ID_TO := PKG_LEASE_ILR.F_COPYASSET(L_LS_ASSET_ID_FROM, L_PCT, A_QUANTITY);
18:47:08 1434  	     if L_LS_ASSET_ID_TO = -1 then
18:47:08 1435  		return -1;
18:47:08 1436  	     end if;
18:47:08 1437  
18:47:08 1438  	     A_MSG := 'TO Leased Asset: ' || TO_CHAR(L_LS_ASSET_ID_TO);
18:47:08 1439  	     PKG_PP_LOG.P_WRITE_MESSAGE(A_MSG);
18:47:08 1440  
18:47:08 1441  	     A_MSG := 'LOAD LS_CPR_ASSET_MAP';
18:47:08 1442  	     insert into LS_CPR_ASSET_MAP
18:47:08 1443  		(LS_ASSET_ID, ASSET_ID, EFFECTIVE_DATE)
18:47:08 1444  	     values
18:47:08 1445  		(L_LS_ASSET_ID_TO, A_CPR_ASSET_ID, L_PEND_TRANS_TO.GL_POSTING_MO_YR);
18:47:08 1446  
18:47:08 1447  	     -- create the new from revision
18:47:08 1448  	     L_REVISION_FROM := PKG_LEASE_ILR.F_NEWREVISION(L_FROM_ILR_ID);
18:47:08 1449  	     if L_REVISION_FROM = -1 then
18:47:08 1450  		return -1;
18:47:08 1451  	     end if;
18:47:08 1452  
18:47:08 1453  	     --  if from company <> to company
18:47:08 1454  	     --  CREATE NEW ILR
18:47:08 1455  	     --  Set the new assets ilr
18:47:08 1456  	     --  Associate new asset to ILR / revision
18:47:08 1457  	     if L_PEND_TRANS_TO.COMPANY_ID <> L_PEND_TRANS_FROM.COMPANY_ID then
18:47:08 1458  		L_TO_ILR_ID := PKG_LEASE_ILR.F_COPYILR(L_FROM_ILR_ID, L_PCT);
18:47:08 1459  		if L_TO_ILR_ID = -1 then
18:47:08 1460  		   return -1;
18:47:08 1461  		end if;
18:47:08 1462  		L_REVISION_TO := 1;
18:47:08 1463  
18:47:08 1464  		--
18:47:08 1465  		A_MSG := 'SET company on new ILR';
18:47:08 1466  		update LS_ILR set COMPANY_ID = A_COMPANY_ID where ILR_ID = L_TO_ILR_ID;
18:47:08 1467  
18:47:08 1468  		-- update from ILR Payment TERMS if company not the same
18:47:08 1469  		A_MSG := 'UPDATE from ILRs payment terms';
18:47:08 1470  		update LS_ILR_PAYMENT_TERM LA
18:47:08 1471  		   set (EST_EXECUTORY_COST,
18:47:08 1472  			 PAID_AMOUNT,
18:47:08 1473  			 CONTINGENT_AMOUNT,
18:47:08 1474  			 C_BUCKET_1,
18:47:08 1475  			 C_BUCKET_2,
18:47:08 1476  			 C_BUCKET_3,
18:47:08 1477  			 C_BUCKET_4,
18:47:08 1478  			 C_BUCKET_5,
18:47:08 1479  			 C_BUCKET_6,
18:47:08 1480  			 C_BUCKET_7,
18:47:08 1481  			 C_BUCKET_8,
18:47:08 1482  			 C_BUCKET_9,
18:47:08 1483  			 C_BUCKET_10,
18:47:08 1484  			 E_BUCKET_1,
18:47:08 1485  			 E_BUCKET_2,
18:47:08 1486  			 E_BUCKET_3,
18:47:08 1487  			 E_BUCKET_4,
18:47:08 1488  			 E_BUCKET_5,
18:47:08 1489  			 E_BUCKET_6,
18:47:08 1490  			 E_BUCKET_7,
18:47:08 1491  			 E_BUCKET_8,
18:47:08 1492  			 E_BUCKET_9,
18:47:08 1493  			 E_BUCKET_10) =
18:47:08 1494  			(select LA.EST_EXECUTORY_COST - LT.EST_EXECUTORY_COST,
18:47:08 1495  				LA.PAID_AMOUNT - LT.PAID_AMOUNT,
18:47:08 1496  				LA.CONTINGENT_AMOUNT - LT.CONTINGENT_AMOUNT,
18:47:08 1497  				LA.C_BUCKET_1 - LT.C_BUCKET_1,
18:47:08 1498  				LA.C_BUCKET_2 - LT.C_BUCKET_2,
18:47:08 1499  				LA.C_BUCKET_3 - LT.C_BUCKET_3,
18:47:08 1500  				LA.C_BUCKET_4 - LT.C_BUCKET_4,
18:47:08 1501  				LA.C_BUCKET_5 - LT.C_BUCKET_5,
18:47:08 1502  				LA.C_BUCKET_6 - LT.C_BUCKET_6,
18:47:08 1503  				LA.C_BUCKET_7 - LT.C_BUCKET_7,
18:47:08 1504  				LA.C_BUCKET_8 - LT.C_BUCKET_8,
18:47:08 1505  				LA.C_BUCKET_9 - LT.C_BUCKET_9,
18:47:08 1506  				LA.C_BUCKET_10 - LT.C_BUCKET_10,
18:47:08 1507  				LA.E_BUCKET_1 - LT.E_BUCKET_1,
18:47:08 1508  				LA.E_BUCKET_2 - LT.E_BUCKET_2,
18:47:08 1509  				LA.E_BUCKET_3 - LT.E_BUCKET_3,
18:47:08 1510  				LA.E_BUCKET_4 - LT.E_BUCKET_4,
18:47:08 1511  				LA.E_BUCKET_5 - LT.E_BUCKET_5,
18:47:08 1512  				LA.E_BUCKET_6 - LT.E_BUCKET_6,
18:47:08 1513  				LA.E_BUCKET_7 - LT.E_BUCKET_7,
18:47:08 1514  				LA.E_BUCKET_8 - LT.E_BUCKET_8,
18:47:08 1515  				LA.E_BUCKET_9 - LT.E_BUCKET_9,
18:47:08 1516  				LA.E_BUCKET_10 - LT.E_BUCKET_10
18:47:08 1517  			   from LS_ILR_PAYMENT_TERM LT
18:47:08 1518  			  where LT.ILR_ID = L_TO_ILR_ID
18:47:08 1519  			    and LT.REVISION = 1)
18:47:08 1520  		 where LA.ILR_ID = L_FROM_ILR_ID
18:47:08 1521  		   and LA.REVISION = L_REVISION_FROM;
18:47:08 1522  
18:47:08 1523  		A_MSG := 'UPDATE from ILRs amounts by set of book';
18:47:08 1524  		update LS_ILR_AMOUNTS_SET_OF_BOOKS LA
18:47:08 1525  		   set (NET_PRESENT_VALUE, CAPITAL_COST, CURRENT_LEASE_COST) =
18:47:08 1526  			(select LA.NET_PRESENT_VALUE - LT.NET_PRESENT_VALUE,
18:47:08 1527  				LA.CAPITAL_COST - LT.CAPITAL_COST,
18:47:08 1528  				LA.CURRENT_LEASE_COST - LT.CURRENT_LEASE_COST
18:47:08 1529  			   from LS_ILR_AMOUNTS_SET_OF_BOOKS LT
18:47:08 1530  			  where LT.ILR_ID = L_TO_ILR_ID
18:47:08 1531  			    and LT.REVISION = 1
18:47:08 1532  			    and LA.SET_OF_BOOKS_ID = LT.SET_OF_BOOKS_ID)
18:47:08 1533  		 where LA.ILR_ID = L_FROM_ILR_ID
18:47:08 1534  		   and LA.REVISION = L_REVISION_FROM;
18:47:08 1535  
18:47:08 1536  		A_MSG := 'UPDATE from ILRs options';
18:47:08 1537  		update LS_ILR_OPTIONS LA
18:47:08 1538  		   set (PURCHASE_OPTION_AMT, TERMINATION_AMT) =
18:47:08 1539  			(select LA.PURCHASE_OPTION_AMT - LT.PURCHASE_OPTION_AMT,
18:47:08 1540  				LA.TERMINATION_AMT - LT.TERMINATION_AMT
18:47:08 1541  			   from LS_ILR_OPTIONS LT
18:47:08 1542  			  where LT.ILR_ID = L_TO_ILR_ID
18:47:08 1543  			    and LT.REVISION = 1)
18:47:08 1544  		 where LA.ILR_ID = L_FROM_ILR_ID
18:47:08 1545  		   and LA.REVISION = L_REVISION_FROM;
18:47:08 1546  	     else
18:47:08 1547  		L_TO_ILR_ID   := L_FROM_ILR_ID;
18:47:08 1548  		L_REVISION_TO := L_REVISION_FROM;
18:47:08 1549  	     end if;
18:47:08 1550  
18:47:08 1551  	     A_MSG := 'ASSOCIATE new asset to the ILR / Revision';
18:47:08 1552  	     insert into LS_ILR_ASSET_MAP
18:47:08 1553  		(ILR_ID, LS_ASSET_ID, REVISION)
18:47:08 1554  	     values
18:47:08 1555  		(L_TO_ILR_ID, L_LS_ASSET_ID_TO, L_REVISION_TO);
18:47:08 1556  
18:47:08 1557  	     A_MSG := 'UPDATE asset ILR';
18:47:08 1558  	     update LS_ASSET
18:47:08 1559  		set ILR_ID = L_TO_ILR_ID, APPROVED_REVISION = L_REVISION_TO
18:47:08 1560  	      where LS_ASSET_ID = L_LS_ASSET_ID_TO;
18:47:08 1561  
18:47:20 1562  	     -- UPDATE FROM ASSET's values
18:47:20 1563  	     A_MSG := 'UPDATE from assets values';
18:47:20 1564  	     update LS_ASSET LA
18:47:20 1565  		set (FMV,
18:47:20 1566  		      TERMINATION_PENALTY_AMOUNT,
18:47:20 1567  		      GUARANTEED_RESIDUAL_AMOUNT,
18:47:20 1568  		      ACTUAL_RESIDUAL_AMOUNT,
18:47:20 1569  		      QUANTITY) =
18:47:20 1570  		     (select LA.FMV - LT.FMV,
18:47:20 1571  			     LA.TERMINATION_PENALTY_AMOUNT - LT.TERMINATION_PENALTY_AMOUNT,
18:47:20 1572  			     LA.GUARANTEED_RESIDUAL_AMOUNT - LT.GUARANTEED_RESIDUAL_AMOUNT,
18:47:20 1573  			     LA.ACTUAL_RESIDUAL_AMOUNT - LT.ACTUAL_RESIDUAL_AMOUNT,
18:47:20 1574  			     LA.QUANTITY - LT.QUANTITY
18:47:20 1575  			from LS_ASSET LT
18:47:20 1576  		       where LT.LS_ASSET_ID = L_LS_ASSET_ID_TO)
18:47:20 1577  	      where LA.LS_ASSET_ID = L_LS_ASSET_ID_FROM;
18:47:20 1578  
18:47:20 1579  	     A_MSG := 'Retire fully transferred asset';
18:47:20 1580  	     update LS_ASSET LA
18:47:20 1581  		set LS_ASSET_STATUS_ID = 4
18:47:20 1582  	      where LA.LS_ASSET_ID = L_LS_ASSET_ID_FROM
18:47:20 1583  		and LA.FMV = 0
18:47:20 1584  		and LA.QUANTITY = 0;
18:47:20 1585  
18:47:20 1586  	     A_MSG := 'GET work order id';
18:47:20 1587  	     L_RTN := 0;
18:47:20 1588  	     select count(1)
18:47:20 1589  	       into L_RTN
18:47:20 1590  	       from WORK_ORDER_CONTROL
18:47:20 1591  	      where COMPANY_ID = A_COMPANY_ID
18:47:20 1592  		and FUNDING_WO_INDICATOR = 0
18:47:20 1593  		and WORK_ORDER_NUMBER = replace(L_PEND_TRANS_FROM.MISC_DESCRIPTION, 'wo:', '');
18:47:20 1594  
18:47:20 1595  	     if L_RTN = 1 then
18:47:20 1596  		A_MSG := '   TO work order number: ' ||
18:47:20 1597  			 replace(L_PEND_TRANS_FROM.MISC_DESCRIPTION, 'wo:', '');
18:47:20 1598  		PKG_PP_LOG.P_WRITE_MESSAGE(A_MSG);
18:47:20 1599  
18:47:20 1600  		select WORK_ORDER_ID
18:47:20 1601  		  into L_WO_ID
18:47:20 1602  		  from WORK_ORDER_CONTROL
18:47:20 1603  		 where COMPANY_ID = A_COMPANY_ID
18:47:20 1604  		   and FUNDING_WO_INDICATOR = 0
18:47:20 1605  		   and WORK_ORDER_NUMBER = replace(L_PEND_TRANS_FROM.MISC_DESCRIPTION, 'wo:', '');
18:47:20 1606  	     else
18:47:20 1607  		A_MSG := '   TO work order number: ' || L_PEND_TRANS_TO.WORK_ORDER_NUMBER;
18:47:20 1608  		PKG_PP_LOG.P_WRITE_MESSAGE(A_MSG);
18:47:20 1609  
18:47:20 1610  		select WORK_ORDER_ID
18:47:20 1611  		  into L_WO_ID
18:47:20 1612  		  from WORK_ORDER_CONTROL
18:47:20 1613  		 where COMPANY_ID = A_COMPANY_ID
18:47:20 1614  		   and FUNDING_WO_INDICATOR = 0
18:47:20 1615  		   and WORK_ORDER_NUMBER = L_PEND_TRANS_TO.WORK_ORDER_NUMBER;
18:47:20 1616  	     end if;
18:47:20 1617  
18:47:20 1618  	     --
18:47:20 1619  	     A_MSG := 'SET the cpr attributes on the NEW Asset';
18:47:20 1620  	     update LS_ASSET
18:47:20 1621  		set UTILITY_ACCOUNT_ID = A_UTILITY_ACCOUNT_ID, COMPANY_ID = A_COMPANY_ID,
18:47:20 1622  		    BUS_SEGMENT_ID = A_BUS_SEGMENT_ID, RETIREMENT_UNIT_ID = A_RETIREMENT_UNIT_ID,
18:47:20 1623  		    SUB_ACCOUNT_ID = A_SUB_ACCOUNT_ID, PROPERTY_GROUP_ID = A_PROPERTY_GROUP_ID,
18:47:20 1624  		    ASSET_LOCATION_ID = A_ASSET_LOCATION_ID, FUNC_CLASS_ID = A_FUNC_CLASS_ID,
18:47:20 1625  		    WORK_ORDER_ID = L_WO_ID, ILR_ID = L_TO_ILR_ID, TAX_ASSET_LOCATION_ID = A_ASSET_LOCATION_ID
18:47:20 1626  	      where LS_ASSET_ID = L_LS_ASSET_ID_TO;
18:47:20 1627  
18:47:20 1628  	     -- call function to build the schedules for the new asset and the old asset
18:47:20 1629  	     A_MSG := PKG_LEASE_SCHEDULE.F_PROCESS_ASSET_TRF(L_LS_ASSET_ID_FROM,
18:47:20 1630  							     L_LS_ASSET_ID_TO,
18:47:20 1631  							     L_CURRENT_REVISION_FROM,
18:47:20 1632  							     L_REVISION_FROM,
18:47:20 1633  							     L_PCT,
18:47:20 1634  							     L_FROM_ILR_ID,
18:47:20 1635  							     L_TO_ILR_ID);
18:47:20 1636  	     if A_MSG <> 'OK' then
18:47:20 1637  		return -1;
18:47:20 1638  	     end if;
18:47:20 1639  
18:47:20 1640  	     A_MSG := 'Sending the new schedule and asset adjustments for approval';
18:47:20 1641  	     PKG_PP_LOG.P_WRITE_MESSAGE(A_MSG);
18:47:20 1642  	     -- the "to" asset
18:47:20 1643  	     L_RTN := PKG_LEASE_CALC.F_SEND_ILR_NO_COMMIT(L_TO_ILR_ID, L_REVISION_TO, L_STATUS);
18:47:20 1644  	     if L_RTN <> 1 then
18:47:20 1645  		PKG_PP_LOG.P_WRITE_MESSAGE(L_STATUS);
18:47:20 1646  
18:47:20 1647  		return -1;
18:47:20 1648  	     end if;
18:47:20 1649  
18:47:20 1650  	     --Rebuild the ILR and asset schedules. I guess this works? It's done in the retirements above
18:47:20 1651  	     --Not sure how you can just approve it before sending it
18:47:20 1652  	     A_MSG := 'Approving the new schedule and asset adjustments';
18:47:20 1653  	     PKG_PP_LOG.P_WRITE_MESSAGE(A_MSG);
18:47:20 1654  	     L_RTN := PKG_LEASE_CALC.F_APPROVE_ILR_NO_COMMIT(L_TO_ILR_ID, L_REVISION_TO, L_STATUS);
18:47:20 1655  	     if L_RTN <> 1 then
18:47:20 1656  		PKG_PP_LOG.P_WRITE_MESSAGE(L_STATUS);
18:47:20 1657  
18:47:20 1658  		return -1;
18:47:20 1659  	     end if;
18:47:20 1660  
18:47:20 1661  	     -- only send the from if the comapnys are different and we created a new to side
18:47:20 1662  	     if L_PEND_TRANS_TO.COMPANY_ID <> L_PEND_TRANS_FROM.COMPANY_ID then
18:47:20 1663  		A_MSG := '(FROM) Sending the new schedule and asset adjustments for approval';
18:47:20 1664  		PKG_PP_LOG.P_WRITE_MESSAGE(A_MSG);
18:47:20 1665  		L_RTN := PKG_LEASE_CALC.F_SEND_ILR_NO_COMMIT(L_FROM_ILR_ID, L_REVISION_FROM, L_STATUS);
18:47:20 1666  		if L_RTN <> 1 then
18:47:20 1667  		   PKG_PP_LOG.P_WRITE_MESSAGE(L_STATUS);
18:47:20 1668  
18:47:20 1669  		   return -1;
18:47:20 1670  		end if;
18:47:20 1671  
18:47:20 1672  		--Rebuild the ILR and asset schedules. I guess this works? It's done in the retirements above
18:47:20 1673  		--Not sure how you can just approve it before sending it
18:47:20 1674  		A_MSG := '(FROM) Approving the new schedule and asset adjustments';
18:47:20 1675  		PKG_PP_LOG.P_WRITE_MESSAGE(A_MSG);
18:47:20 1676  		L_RTN := PKG_LEASE_CALC.F_APPROVE_ILR_NO_COMMIT(L_FROM_ILR_ID, L_REVISION_FROM, L_STATUS);
18:47:20 1677  		if L_RTN <> 1 then
18:47:20 1678  		   PKG_PP_LOG.P_WRITE_MESSAGE(L_STATUS);
18:47:20 1679  
18:47:20 1680  		   return -1;
18:47:20 1681  		end if;
18:47:20 1682  	     end if;
18:47:20 1683  
18:47:20 1684  
18:47:20 1685  	     --Get taxes on the transferred Assets
18:47:20 1686  	     L_STATUS := PKG_LEASE_ILR.F_GETTAXES(L_TO_ILR_ID);
18:47:20 1687  	     if L_STATUS <> 'OK' then
18:47:20 1688  		   PKG_PP_LOG.P_WRITE_MESSAGE(L_STATUS);
18:47:20 1689  		   return -1;
18:47:20 1690  		end if;
18:47:20 1691  
18:47:20 1692  	     PKG_PP_LOG.P_WRITE_MESSAGE('DONE');
18:47:20 1693  
18:47:20 1694  	     return 1;
18:47:20 1695  	  exception
18:47:20 1696  	     when others then
18:47:20 1697  		A_MSG := SUBSTR(A_MSG || ': ' || sqlerrm, 1, 2000);
18:47:20 1698  		PKG_PP_LOG.P_WRITE_MESSAGE('ERROR: ' || A_MSG);
18:47:20 1699  
18:47:20 1700  		return -1;
18:47:20 1701  	  end F_TRANSFER_ASSET_TO;
18:47:20 1702  
18:47:20 1703  	  --**************************************************************************
18:47:20 1704  	  --				F_DELETE_ASSETS
18:47:20 1705  	  --**************************************************************************
18:47:20 1706  	       function F_DELETE_ASSETS(A_ASSET_IDS in PKG_LEASE_CALC.NUM_ARRAY) return varchar2 is
18:47:20 1707  		       L_STATUS varchar2(4000);
18:47:20 1708  		       ASSET_IDS T_NUM_ARRAY;
18:47:20 1709  	       begin
18:47:20 1710  		       PKG_PP_ERROR.SET_MODULE_NAME('PKG_LEASE_ASSET_POST.F_DELETE_ASSETS');
18:47:20 1711  		       PKG_PP_LOG.P_START_LOG(P_PROCESS_ID => PKG_LEASE_COMMON.F_GETPROCESS());
18:47:20 1712  		       PKG_PP_LOG.P_WRITE_MESSAGE('Preparing to delete ' || A_ASSET_IDS.COUNT || ' assets.');
18:47:20 1713  
18:47:20 1714  		       ASSET_IDS := T_NUM_ARRAY();
18:47:20 1715  		       for I in 1..A_ASSET_IDS.count
18:47:20 1716  		       loop
18:47:20 1717  			       PKG_PP_LOG.P_WRITE_MESSAGE('-- Asset ID: ' || to_char(A_ASSET_IDS(I)));
18:47:20 1718  			       ASSET_IDS.extend;
18:47:20 1719  			       ASSET_IDS(I) := A_ASSET_IDS(I);
18:47:20 1720  		       end loop;
18:47:20 1721  
18:47:20 1722  		       L_STATUS := 'Deleting class codes';
18:47:20 1723  		       PKG_PP_LOG.P_WRITE_MESSAGE(L_STATUS);
18:47:20 1724  		       delete from LS_ASSET_CLASS_CODE
18:47:20 1725  		       where LS_ASSET_ID in (select COLUMN_VALUE from table(ASSET_IDS));
18:47:20 1726  
18:47:20 1727  		       L_STATUS := 'Deleting asset components';
18:47:20 1728  		       PKG_PP_LOG.P_WRITE_MESSAGE(L_STATUS);
18:47:20 1729  		       delete from LS_ASSET_COMPONENT
18:47:20 1730  		       where LS_ASSET_ID in (select COLUMN_VALUE from table(ASSET_IDS));
18:47:20 1731  
18:47:20 1732  		       L_STATUS := 'Deleting documents';
18:47:20 1733  		       PKG_PP_LOG.P_WRITE_MESSAGE(L_STATUS);
18:47:20 1734  		       delete from LS_ASSET_DOCUMENT
18:47:20 1735  		       where LS_ASSET_ID in (select COLUMN_VALUE from table(ASSET_IDS));
18:47:20 1736  
18:47:20 1737  		       L_STATUS := 'Deleting tax maps';
18:47:20 1738  		       PKG_PP_LOG.P_WRITE_MESSAGE(L_STATUS);
18:47:20 1739  		       delete from LS_ASSET_TAX_MAP
18:47:20 1740  		       where LS_ASSET_ID in (select COLUMN_VALUE from table(ASSET_IDS));
18:47:20 1741  
18:47:20 1742  		       L_STATUS := 'Deleting local taxes';
18:47:20 1743  		       PKG_PP_LOG.P_WRITE_MESSAGE(L_STATUS);
18:47:20 1744  		       delete from LS_ASSET_LOCAL_TAX
18:47:20 1745  		       where LS_ASSET_ID in (select COLUMN_VALUE from table(ASSET_IDS));
18:47:20 1746  
18:47:20 1747  		       L_STATUS := 'Deleting leased assets';
18:47:20 1748  		       PKG_PP_LOG.P_WRITE_MESSAGE(L_STATUS);
18:47:20 1749  		       delete from LS_ASSET
18:47:20 1750  		       where LS_ASSET_ID in (select COLUMN_VALUE from table(ASSET_IDS));
18:47:20 1751  
18:47:20 1752  		       PKG_PP_LOG.P_WRITE_MESSAGE('Success');
18:47:20 1753  		       PKG_PP_LOG.P_END_LOG;
18:47:20 1754  		       PKG_PP_ERROR.REMOVE_MODULE_NAME;
18:47:20 1755  		       return 'OK';
18:47:20 1756  
18:47:20 1757  	       exception
18:47:20 1758  		       when others then
18:47:20 1759  			       PKG_PP_ERROR.RAISE_ERROR('ERROR','Failed Operation');
18:47:20 1760  	       end F_DELETE_ASSETS;
18:47:20 1761  
18:47:20 1762  	  --**************************************************************************
18:47:20 1763  	  --				GET_ILR_ID
18:47:20 1764  	  --**************************************************************************
18:47:20 1765  
18:47:20 1766  	  function F_GET_ILR_ID return number is
18:47:20 1767  
18:47:20 1768  	  begin
18:47:20 1769  	     return L_ILR_ID;
18:47:20 1770  	  end F_GET_ILR_ID;
18:47:20 1771  
18:47:20 1772  --**************************************************************************
18:47:20 1773  --			     Initialize Package
18:47:20 1774  --**************************************************************************
18:47:20 1775  
18:47:20 1776  begin
18:47:20 1777  	  L_ILR_ID := 0;
18:47:20 1778  
18:47:20 1779  end PKG_LEASE_ASSET_POST;
18:47:20 1780  /

Package body created.

18:47:20 hopplant> 
18:47:20 hopplant> --**************************
18:47:20 hopplant> -- Log the run of the script
18:47:20 hopplant> --**************************
18:47:20 hopplant> 
18:47:20 hopplant> insert into PP_SCHEMA_CHANGE_LOG
18:47:20   2  	 (ID, SKIPPED, MAJOR_VERSION, MINOR_VERSION, POINT_VERSION, PATCH_VERSION, MAINT_NUM, SCRIPT_PATH,
18:47:20   3  	  SCRIPT_NAME, SCRIPT_REVISION, DATE_APPLIED, OS_USER, TERMINAL, SERVICE_NAME)
18:47:20   4  values
18:47:20   5  	 (1128, 0, 10, 4, 3, 0, 37859, 'C:\PlasticWks\powerplant\sql\maint_scripts', '10.4.3.0_maint_037859_lease_PKG_LEASE_ASSET_POST.sql', 1,
18:47:20   6  	  SYSTIMESTAMP, SYS_CONTEXT('USERENV', 'OS_USER'), SYS_CONTEXT('USERENV', 'TERMINAL'),
18:47:20   7  	  SYS_CONTEXT('USERENV', 'SERVICE_NAME'));

1 row created.

18:47:20 hopplant> commit;

Commit complete.

18:47:20 hopplant> SPOOL OFF
