18:21:22 hopplant> @&&PP_SCRIPT_PATH.maint_scripts\10.4.2.3_maint_039693_lease_fix_trans_types.sql
18:21:22 hopplant> /*
18:21:22 hopplant> ||============================================================================
18:21:22 hopplant> || Application: PowerPlant
18:21:22 hopplant> || File Name:   maint_039693_lease_fix_trans_types.sql
18:21:22 hopplant> ||============================================================================
18:21:22 hopplant> || Copyright (C) 2014 by PowerPlan, Inc. All Rights Reserved.
18:21:22 hopplant> ||============================================================================
18:21:22 hopplant> || Version  Date	  Revised By	   Reason for Change
18:21:22 hopplant> || -------- ---------- ---------------- --------------------------------------
18:21:22 hopplant> || 10.4.2.3 07/23/2014 Charlie Shilling maint-39292
18:21:22 hopplant> ||============================================================================
18:21:22 hopplant> */
18:21:22 hopplant> 
18:21:22 hopplant> merge into JE_TRANS_TYPE JTT
18:21:22   2  using (select '3042' as TRANS_TYPE, 'Lease Backdated Obligation Credit' as DESCRIPTION
18:21:22   3  	       from DUAL
18:21:22   4  	     union
18:21:22   5  	     select '3043' as TRANS_TYPE, '3043 - Lease Transfercompany Tranfer Debit (POST)' as DESCRIPTION
18:21:22   6  	       from DUAL
18:21:22   7  	     union
18:21:22   8  	     select '3044' as TRANS_TYPE, '3044 - Lease Transfercompany Tranfer Credit (POST)' as DESCRIPTION
18:21:22   9  	       from DUAL) A
18:21:22  10  on (JTT.TRANS_TYPE = A.TRANS_TYPE)
18:21:22  11  when matched then
18:21:22  12  	 update set JTT.DESCRIPTION = A.DESCRIPTION
18:21:22  13  when not matched then
18:21:22  14  	 insert (TRANS_TYPE, DESCRIPTION) values (A.TRANS_TYPE, A.DESCRIPTION);

3 rows merged.

18:21:22 hopplant> 
18:21:22 hopplant> --**************************
18:21:22 hopplant> -- Log the run of the script
18:21:22 hopplant> --**************************
18:21:22 hopplant> 
18:21:22 hopplant> insert into PP_SCHEMA_CHANGE_LOG
18:21:22   2  	 (ID, SKIPPED, MAJOR_VERSION, MINOR_VERSION, POINT_VERSION, PATCH_VERSION, MAINT_NUM, SCRIPT_PATH,
18:21:22   3  	  SCRIPT_NAME, SCRIPT_REVISION, DATE_APPLIED, OS_USER, TERMINAL, SERVICE_NAME)
18:21:22   4  values
18:21:22   5  	 (1388, 0, 10, 4, 2, 3, 39693, 'C:\PlasticWks\powerplant\sql\maint_scripts', '10.4.2.3_maint_039693_lease_fix_trans_types.sql', 1,
18:21:22   6  	  SYSTIMESTAMP, SYS_CONTEXT('USERENV', 'OS_USER'), SYS_CONTEXT('USERENV', 'TERMINAL'),
18:21:22   7  	  SYS_CONTEXT('USERENV', 'SERVICE_NAME'));

1 row created.

18:21:22 hopplant> commit;

Commit complete.

18:21:22 hopplant> SPOOL OFF
