18:20:25 hopplant> @&&PP_SCRIPT_PATH.maint_scripts\10.4.2.0_maint_037260_pwrtax.sql
18:20:25 hopplant> /*
18:20:25 hopplant> ||============================================================================
18:20:25 hopplant> || Application: PowerPlant
18:20:25 hopplant> || File Name:   maint_037260_pwrtax.sql
18:20:25 hopplant> ||============================================================================
18:20:25 hopplant> || Copyright (C) 2014 by PowerPlan Inc. All Rights Reserved.
18:20:25 hopplant> ||============================================================================
18:20:25 hopplant> || Version  Date	       Revised By	   Reason for Change
18:20:25 hopplant> || -------- --------------- ------------------- ------------------------------
18:20:25 hopplant> || 10.4.2.0 03/19/2014      Andrew Scott	   Remove the ability to call the
18:20:25 hopplant> ||						   C versions of Run Fast.  They will
18:20:25 hopplant> ||						   not work with MLP 10.4.2.0 table
18:20:25 hopplant> ||						   structure.
18:20:25 hopplant> ||============================================================================
18:20:25 hopplant> */
18:20:25 hopplant> 
18:20:25 hopplant> delete from PP_SYSTEM_CONTROL_COMPANY where LOWER(CONTROL_NAME) like 'fast%tax%';

3 rows deleted.

18:20:25 hopplant> 
18:20:25 hopplant> --**************************
18:20:25 hopplant> -- Log the run of the script
18:20:25 hopplant> --**************************
18:20:25 hopplant> 
18:20:25 hopplant> insert into PP_SCHEMA_CHANGE_LOG
18:20:25   2  	 (ID, SKIPPED, MAJOR_VERSION, MINOR_VERSION, POINT_VERSION, PATCH_VERSION, MAINT_NUM, SCRIPT_PATH,
18:20:25   3  	  SCRIPT_NAME, SCRIPT_REVISION, DATE_APPLIED, OS_USER, TERMINAL, SERVICE_NAME)
18:20:25   4  values
18:20:25   5  	 (1065, 0, 10, 4, 2, 0, 37260, 'C:\PlasticWks\powerplant\sql\maint_scripts', '10.4.2.0_maint_037260_pwrtax.sql', 1,
18:20:25   6  	  SYSTIMESTAMP, SYS_CONTEXT('USERENV', 'OS_USER'), SYS_CONTEXT('USERENV', 'TERMINAL'),
18:20:25   7  	  SYS_CONTEXT('USERENV', 'SERVICE_NAME'));

1 row created.

18:20:25 hopplant> commit;

Commit complete.

18:20:25 hopplant> SPOOL OFF
