19:38:07 hopplant> @&&PP_SCRIPT_PATH.maint_scripts\2015.1.0.0_maint_042947_pcm_dynamic_filters_dml.sql
19:38:07 hopplant> /*
19:38:07 hopplant> ||============================================================================
19:38:07 hopplant> || Application: PowerPlan
19:38:07 hopplant> || File Name:   maint_042947_pcm_dynamic_filters_dml.sql
19:38:07 hopplant> ||============================================================================
19:38:07 hopplant> || Copyright (C) 2015 by PowerPlan, Inc. All Rights Reserved.
19:38:07 hopplant> ||============================================================================
19:38:07 hopplant> || Version	 Date	    Revised By	     Reason for Change
19:38:07 hopplant> || ---------- ---------- ---------------- ------------------------------------
19:38:07 hopplant> || 2015.1.0.0 03/03/2015 Daniel Motter    Add PCM project manager dynamic filter
19:38:07 hopplant> ||============================================================================
19:38:07 hopplant> */
19:38:07 hopplant> 
19:38:07 hopplant> --Delete old mapping
19:38:07 hopplant> delete from PP_DYNAMIC_FILTER_MAPPING where PP_REPORT_FILTER_ID = 89 and filter_id = 254;

0 rows deleted.

19:38:07 hopplant> 
19:38:07 hopplant> --Delete current mapping so no PK error is received if filter is already mapped
19:38:07 hopplant> delete from PP_DYNAMIC_FILTER_MAPPING where PP_REPORT_FILTER_ID = 89 and filter_id = 274;

0 rows deleted.

19:38:07 hopplant> 
19:38:07 hopplant> --Delete old filter so no PK error is received if it already exists
19:38:07 hopplant> delete from PP_DYNAMIC_FILTER where FILTER_ID = 274;

0 rows deleted.

19:38:07 hopplant> 
19:38:07 hopplant> --Insert new pcm project manager dynamic filter
19:38:07 hopplant> insert into PP_DYNAMIC_FILTER
19:38:07   2  	      (FILTER_ID, LABEL, INPUT_TYPE, SQLS_COLUMN_EXPRESSION, SQLS_WHERE_CLAUSE, DW, DW_ID, DW_DESCRIPTION, DW_ID_DATATYPE, USER_ID, TIME_STAMP)
19:38:07   3  values
19:38:07   4  	      (274, 'Project Manager', 'dw', 'upper(work_order_initiator.proj_mgr)',
19:38:07   5  	      'work_order_control.work_order_id in ( select distinct work_order_id from work_order_initiator where [selected_values] )',
19:38:07   6  	      'dw_pp_proj_mgr_filter', 'proj_mgr', 'description', 'C', user, sysdate);

1 row created.

19:38:08 hopplant> 
19:38:08 hopplant> --Insert new mapping
19:38:08 hopplant> insert into PP_DYNAMIC_FILTER_MAPPING
19:38:08   2  	      (PP_REPORT_FILTER_ID, FILTER_ID)
19:38:08   3  values
19:38:08   4  	      (89, 274);

1 row created.

19:38:08 hopplant> 
19:38:08 hopplant> --****************************************************
19:38:08 hopplant> --Log the run of the script to local PP_SCHEMA_LOG
19:38:08 hopplant> --****************************************************
19:38:08 hopplant> INSERT INTO PP_SCHEMA_CHANGE_LOG
19:38:08   2  	      (ID, SKIPPED, MAJOR_VERSION, MINOR_VERSION, POINT_VERSION, PATCH_VERSION, MAINT_NUM, SCRIPT_PATH,
19:38:08   3  	      SCRIPT_NAME, SCRIPT_REVISION, DATE_APPLIED, OS_USER, TERMINAL, SERVICE_NAME)
19:38:08   4  VALUES
19:38:08   5  	      (2337, 0, 2015, 1, 0, 0, 42947, 'C:\PlasticWks\powerplant\sql\maint_scripts', '2015.1.0.0_maint_042947_pcm_dynamic_filters_dml.sql', 1,
19:38:08   6  	      SYSTIMESTAMP, SYS_CONTEXT('USERENV', 'OS_USER'), SYS_CONTEXT('USERENV', 'TERMINAL'),
19:38:08   7  	      SYS_CONTEXT('USERENV', 'SERVICE_NAME'));

1 row created.

19:38:08 hopplant> COMMIT;

Commit complete.

19:38:08 hopplant> SPOOL OFF
