19:34:54 hopplant> @&&PP_SCRIPT_PATH.maint_scripts\2015.1.0.0_maint_041990_ds_import_ddl_3.sql
19:34:54 hopplant> /*
19:34:54 hopplant> ||============================================================================
19:34:54 hopplant> || Application: PowerPlan
19:34:54 hopplant> || File Name: maint_041990_ds_import_ddl_3.sql
19:34:54 hopplant> ||============================================================================
19:34:54 hopplant> || Copyright (C) 2014 by PowerPlan, Inc. All Rights Reserved.
19:34:54 hopplant> ||============================================================================
19:34:54 hopplant> || Version  Date	  Revised By	   Reason for Change
19:34:54 hopplant> || -------- ---------- --------------   ----------------------------------------
19:34:54 hopplant> || 2015.1   01/19/2015 A Scott	   Import tool setup for depr studies.
19:34:54 hopplant> ||					   Changes made based on QA, including
19:34:54 hopplant> ||					   missing creation activity.
19:34:54 hopplant> ||============================================================================
19:34:54 hopplant> */
19:34:54 hopplant> 
19:34:54 hopplant> alter table ds_import_reserve
19:34:54   2  add
19:34:54   3  (
19:34:54   4  	sum_factor		  NUMBER(22,8),
19:34:54   5  	final_amount		  NUMBER(22,2)
19:34:54   6  );

Table altered.

19:34:54 hopplant> 
19:34:54 hopplant> comment on column ds_import_reserve.sum_factor is 'Sum factor populated from the analysis transaction code.';

Comment created.

19:34:54 hopplant> comment on column ds_import_reserve.final_amount is 'Amount imported from file times the sum factor field from the corresponding analysis transaction code.';

Comment created.

19:34:54 hopplant> 
19:34:54 hopplant> 
19:34:54 hopplant> alter table ds_import_reserve_arc
19:34:54   2  add
19:34:54   3  (
19:34:54   4  	sum_factor		  NUMBER(22,8),
19:34:54   5  	final_amount		  NUMBER(22,2)
19:34:54   6  );

Table altered.

19:34:54 hopplant> 
19:34:54 hopplant> comment on column ds_import_reserve_arc.sum_factor is 'Sum factor populated from the analysis transaction code.';

Comment created.

19:34:54 hopplant> comment on column ds_import_reserve_arc.final_amount is 'Amount imported from file times the sum factor field from the corresponding analysis transaction code.';

Comment created.

19:34:54 hopplant> 
19:34:54 hopplant> --****************************************************
19:34:54 hopplant> --Log the run of the script to local PP_SCHEMA_LOG
19:34:54 hopplant> --****************************************************
19:34:54 hopplant> INSERT INTO PP_SCHEMA_CHANGE_LOG
19:34:54   2  	      (ID, SKIPPED, MAJOR_VERSION, MINOR_VERSION, POINT_VERSION, PATCH_VERSION, MAINT_NUM, SCRIPT_PATH,
19:34:54   3  	      SCRIPT_NAME, SCRIPT_REVISION, DATE_APPLIED, OS_USER, TERMINAL, SERVICE_NAME)
19:34:54   4  VALUES
19:34:54   5  	      (2198, 0, 2015, 1, 0, 0, 41990, 'C:\PlasticWks\powerplant\sql\maint_scripts', '2015.1.0.0_maint_041990_ds_import_ddl_3.sql', 1,
19:34:54   6  	      SYSTIMESTAMP, SYS_CONTEXT('USERENV', 'OS_USER'), SYS_CONTEXT('USERENV', 'TERMINAL'),
19:34:54   7  	      SYS_CONTEXT('USERENV', 'SERVICE_NAME'));

1 row created.

19:34:54 hopplant> COMMIT;

Commit complete.

19:34:54 hopplant> SPOOL OFF
