19:34:52 hopplant> @&&PP_SCRIPT_PATH.maint_scripts\2015.1.0.0_maint_042131_reg_ext_pull_type_dml.sql
19:34:52 hopplant>  /*
19:34:52 hopplant> ||============================================================================
19:34:52 hopplant> || Application: PowerPlant
19:34:52 hopplant> || Object Name: maint_042131_reg_ext_pull_type_dml.sql
19:34:52 hopplant> ||============================================================================
19:34:52 hopplant> || Copyright (C) 2014 by PowerPlan Consultants, Inc. All Rights Reserved.
19:34:52 hopplant> ||============================================================================
19:34:52 hopplant> || Version  Date	  Revised By	 Reason for Change
19:34:52 hopplant> || -------- ---------- -------------- ----------------------------------------
19:34:52 hopplant> || 2015.1	   01/13/2015 Shane Ward     Clarify Pull Types
19:34:52 hopplant> ||============================================================================
19:34:52 hopplant> */
19:34:52 hopplant> 
19:34:52 hopplant> UPDATE reg_ext_pull_type SET description = 'Load Amounts' ,long_description = 'Load Amounts as is' WHERE pull_type_id = 1;

1 row updated.

19:34:52 hopplant> UPDATE reg_ext_pull_type SET description = 'Build Balances' ,long_description = 'Build Balances from loaded amounts (activities)' WHERE pull_type_id = 2;

1 row updated.

19:34:52 hopplant> 
19:34:52 hopplant> 
19:34:52 hopplant> 
19:34:52 hopplant> --****************************************************
19:34:52 hopplant> --Log the run of the script to local PP_SCHEMA_LOG
19:34:52 hopplant> --****************************************************
19:34:52 hopplant> INSERT INTO PP_SCHEMA_CHANGE_LOG
19:34:52   2  	      (ID, SKIPPED, MAJOR_VERSION, MINOR_VERSION, POINT_VERSION, PATCH_VERSION, MAINT_NUM, SCRIPT_PATH,
19:34:52   3  	      SCRIPT_NAME, SCRIPT_REVISION, DATE_APPLIED, OS_USER, TERMINAL, SERVICE_NAME)
19:34:52   4  VALUES
19:34:52   5  	      (2164, 0, 2015, 1, 0, 0, 42131, 'C:\PlasticWks\powerplant\sql\maint_scripts', '2015.1.0.0_maint_042131_reg_ext_pull_type_dml.sql', 1,
19:34:52   6  	      SYSTIMESTAMP, SYS_CONTEXT('USERENV', 'OS_USER'), SYS_CONTEXT('USERENV', 'TERMINAL'),
19:34:52   7  	      SYS_CONTEXT('USERENV', 'SERVICE_NAME'));

1 row created.

19:34:52 hopplant> COMMIT;

Commit complete.

19:34:52 hopplant> SPOOL OFF
