19:39:33 hopplant> @&&PP_SCRIPT_PATH.maint_scripts\2015.1.0.0_maint_043308_cwip_ssp_wo_allow_concurrent_dml.sql
19:39:33 hopplant> /*
19:39:33 hopplant> ||============================================================================
19:39:33 hopplant> || Application: PowerPlan
19:39:33 hopplant> || File Name:   maint_043308_cwip_ssp_wo_allow_concurrent_dml.sql
19:39:33 hopplant> ||============================================================================
19:39:33 hopplant> || Copyright (C) 2015 by PowerPlan, Inc. All Rights Reserved.
19:39:33 hopplant> ||============================================================================
19:39:33 hopplant> || Version	 Date	    Revised By		 Reason for Change
19:39:33 hopplant> || ---------- ---------- ----------------	 ------------------------------------
19:39:33 hopplant> || 2015.1.0.0 03/24/2015 Khamchanh Sisouphanh Set ALLOW_CONCURRENT for Server Side Processes
19:39:33 hopplant> ||============================================================================
19:39:33 hopplant> */
19:39:33 hopplant> 
19:39:33 hopplant> -- Update Server Side Processes
19:39:33 hopplant> -- 13 records expected
19:39:33 hopplant> update pp_processes set ALLOW_CONCURRENT = 1 where executable_file in
19:39:33   2  ('ssp_wo_approve_accruals.exe',
19:39:33   3  'ssp_wo_close_charge_collection.exe',
19:39:33   4  'ssp_wo_gl_reconciliation.exe',
19:39:33   5  'ssp_wo_new_month.exe',
19:39:33   6  'ssp_wo_calc_oh_afudc_wip.exe',
19:39:33   7  'ssp_wo_appr_oh_afudc_wip.exe',
19:39:33   8  'ssp_wo_auto_nonunitize.exe non',
19:39:33   9  'ssp_wo_auto_unitization.exe',
19:39:33  10  'ssp_wo_calculate_accruals.exe',
19:39:33  11  'ssp_wo_close_month.exe',
19:39:33  12  'ssp_wo_retirements.exe',
19:39:33  13  'ssp_wo_auto_nonunitize.exe failed',
19:39:33  14  'ssp_release_je_wo.exe');

13 rows updated.

19:39:33 hopplant> 
19:39:33 hopplant> 
19:39:33 hopplant> 
19:39:33 hopplant> --****************************************************
19:39:33 hopplant> --Log the run of the script to local PP_SCHEMA_LOG
19:39:33 hopplant> --****************************************************
19:39:33 hopplant> INSERT INTO PP_SCHEMA_CHANGE_LOG
19:39:33   2  	      (ID, SKIPPED, MAJOR_VERSION, MINOR_VERSION, POINT_VERSION, PATCH_VERSION, MAINT_NUM, SCRIPT_PATH,
19:39:33   3  	      SCRIPT_NAME, SCRIPT_REVISION, DATE_APPLIED, OS_USER, TERMINAL, SERVICE_NAME)
19:39:33   4  VALUES
19:39:33   5  	      (2451, 0, 2015, 1, 0, 0, 043308, 'C:\PlasticWks\powerplant\sql\maint_scripts', '2015.1.0.0_maint_043308_cwip_ssp_wo_allow_concurrent_dml.sql', 1,
19:39:33   6  	      SYSTIMESTAMP, SYS_CONTEXT('USERENV', 'OS_USER'), SYS_CONTEXT('USERENV', 'TERMINAL'),
19:39:33   7  	      SYS_CONTEXT('USERENV', 'SERVICE_NAME'));

1 row created.

19:39:33 hopplant> COMMIT;

Commit complete.

19:39:33 hopplant> SPOOL OFF
