20:22:45 hopplant> @&&PP_SCRIPT_PATH.maint_scripts\2015.2.0.0_maint_044223_reg_add_layer_group_dml_2.sql
20:22:45 hopplant> /*
20:22:45 hopplant> ||============================================================================
20:22:45 hopplant> || Application: PowerPlan
20:22:45 hopplant> || Object Name: maint_044223_reg_add_layer_group_2_dml.sql
20:22:45 hopplant> ||============================================================================
20:22:45 hopplant> || Copyright (C) 2015 by PowerPlan, Inc. All Rights Reserved.
20:22:45 hopplant> ||============================================================================
20:22:45 hopplant> || Version	 Date	    Revised By	   Reason for Change
20:22:45 hopplant> || ---------- ---------- -------------- --------------------------------------
20:22:45 hopplant> || 2015.2.0.0 07/23/2015 Anand R	   Reg - update restrictions for layer group for reports
20:22:45 hopplant> ||============================================================================
20:22:45 hopplant> */
20:22:45 hopplant> 
20:22:45 hopplant> update pp_dynamic_filter_restrictions
20:22:45   2  set sqls_column_expression = 'reg_incremental_group.incremental_adj_type_id'
20:22:45   3  where restriction_id = 77;

1 row updated.

20:22:45 hopplant> 
20:22:45 hopplant> 
20:22:45 hopplant> --****************************************************
20:22:45 hopplant> --Log the run of the script to local PP_SCHEMA_LOG
20:22:45 hopplant> --****************************************************
20:22:45 hopplant> INSERT INTO PP_SCHEMA_CHANGE_LOG
20:22:45   2  	      (ID, SKIPPED, MAJOR_VERSION, MINOR_VERSION, POINT_VERSION, PATCH_VERSION, MAINT_NUM, SCRIPT_PATH,
20:22:45   3  	      SCRIPT_NAME, SCRIPT_REVISION, DATE_APPLIED, OS_USER, TERMINAL, SERVICE_NAME)
20:22:45   4  VALUES
20:22:45   5  	      (2709, 0, 2015, 2, 0, 0, 044223, 'C:\PlasticWks\powerplant\sql\maint_scripts', '2015.2.0.0_maint_044223_reg_add_layer_group_dml_2.sql', 1,
20:22:45   6  	      SYSTIMESTAMP, SYS_CONTEXT('USERENV', 'OS_USER'), SYS_CONTEXT('USERENV', 'TERMINAL'),
20:22:45   7  	      SYS_CONTEXT('USERENV', 'SERVICE_NAME'));

1 row created.

20:22:48 hopplant> COMMIT;

Commit complete.

20:22:48 hopplant> SPOOL OFF
