19:37:48 hopplant> @&&PP_SCRIPT_PATH.maint_scripts\2015.1.0.0_maint_042912_pcm_jt_search_link_dml.sql
19:37:48 hopplant> /*
19:37:48 hopplant> ||============================================================================
19:37:48 hopplant> || Application: PowerPlan
19:37:48 hopplant> || File Name:   maint_042912_pcm_jt_search_link_dml.sql
19:37:48 hopplant> ||============================================================================
19:37:48 hopplant> || Copyright (C) 2015 by PowerPlan, Inc. All Rights Reserved.
19:37:48 hopplant> ||============================================================================
19:37:48 hopplant> || Version	 Date	    Revised By	     Reason for Change
19:37:48 hopplant> || ---------- ---------- ---------------- ------------------------------------
19:37:48 hopplant> || 2015.1.0.0 02/16/2015 Sarah Byers      Open JT Search via Links
19:37:48 hopplant> ||============================================================================
19:37:48 hopplant> */
19:37:48 hopplant> -- Populate all existing records with 0
19:37:48 hopplant> update ppbase_workspace_links
19:37:48   2  	      set linked_window = 'w_task_select_tabs',
19:37:48   3  		       linked_window_label = 'Search (Tasks)',
19:37:48   4  		       linked_window_opensheet = 1,
19:37:48   5  		       linked_workspace_identifier = null
19:37:48   6   where module = 'pcm'
19:37:48   7  	      and linked_workspace_identifier in ('fp_maint_job_tasks', 'wo_maint_job_tasks');

16 rows updated.

19:37:48 hopplant> 
19:37:48 hopplant> --****************************************************
19:37:48 hopplant> --Log the run of the script to local PP_SCHEMA_LOG
19:37:48 hopplant> --****************************************************
19:37:48 hopplant> INSERT INTO PP_SCHEMA_CHANGE_LOG
19:37:48   2  	      (ID, SKIPPED, MAJOR_VERSION, MINOR_VERSION, POINT_VERSION, PATCH_VERSION, MAINT_NUM, SCRIPT_PATH,
19:37:48   3  	      SCRIPT_NAME, SCRIPT_REVISION, DATE_APPLIED, OS_USER, TERMINAL, SERVICE_NAME)
19:37:48   4  VALUES
19:37:48   5  	      (2301, 0, 2015, 1, 0, 0, 042912, 'C:\PlasticWks\powerplant\sql\maint_scripts', '2015.1.0.0_maint_042912_pcm_jt_search_link_dml.sql', 1,
19:37:48   6  	      SYSTIMESTAMP, SYS_CONTEXT('USERENV', 'OS_USER'), SYS_CONTEXT('USERENV', 'TERMINAL'),
19:37:48   7  	      SYS_CONTEXT('USERENV', 'SERVICE_NAME'));

1 row created.

19:37:48 hopplant> COMMIT;

Commit complete.

19:37:48 hopplant> SPOOL OFF
