19:36:01 hopplant> @&&PP_SCRIPT_PATH.maint_scripts\2015.1.0.0_maint_042213_proptax_mktvalcnty_dml.sql
19:36:01 hopplant> /*
19:36:01 hopplant> ||========================================================================================
19:36:01 hopplant> || Application: PowerPlan
19:36:01 hopplant> || File Name:   maint_042213_proptax_mktvalcnty_dml.sql
19:36:01 hopplant> ||========================================================================================
19:36:01 hopplant> || Copyright (C) 2014 by PowerPlan, Inc. All Rights Reserved.
19:36:01 hopplant> ||========================================================================================
19:36:01 hopplant> || Version  Date	  Revised By	      Reason for Change
19:36:01 hopplant> || -------- ---------- ------------------- -----------------------------------------------
19:36:01 hopplant> || 2015.1   01/27/2015 Andrew Scott	      market value rate county not working in table maint.
19:36:01 hopplant> ||========================================================================================
19:36:01 hopplant> */
19:36:01 hopplant> 
19:36:01 hopplant> update powerplant_dddw
19:36:01   2  set code_col = 'county_id'
19:36:01   3  where dropdown_name = 'pp_county_filter' and code_col = 'state_id_county_id';

1 row updated.

19:36:01 hopplant> 
19:36:01 hopplant> 
19:36:01 hopplant> --****************************************************
19:36:01 hopplant> --Log the run of the script to local PP_SCHEMA_LOG
19:36:01 hopplant> --****************************************************
19:36:01 hopplant> INSERT INTO PP_SCHEMA_CHANGE_LOG
19:36:01   2  	      (ID, SKIPPED, MAJOR_VERSION, MINOR_VERSION, POINT_VERSION, PATCH_VERSION, MAINT_NUM, SCRIPT_PATH,
19:36:01   3  	      SCRIPT_NAME, SCRIPT_REVISION, DATE_APPLIED, OS_USER, TERMINAL, SERVICE_NAME)
19:36:01   4  VALUES
19:36:01   5  	      (2220, 0, 2015, 1, 0, 0, 42213, 'C:\PlasticWks\powerplant\sql\maint_scripts', '2015.1.0.0_maint_042213_proptax_mktvalcnty_dml.sql', 1,
19:36:01   6  	      SYSTIMESTAMP, SYS_CONTEXT('USERENV', 'OS_USER'), SYS_CONTEXT('USERENV', 'TERMINAL'),
19:36:01   7  	      SYS_CONTEXT('USERENV', 'SERVICE_NAME'));

1 row created.

19:36:01 hopplant> COMMIT;

Commit complete.

19:36:01 hopplant> SPOOL OFF
