20:22:40 hopplant> @&&PP_SCRIPT_PATH.maint_scripts\2015.2.0.0_maint_044447_aro_liability_span_report_dml.sql
20:22:40 hopplant> /*
20:22:40 hopplant> ||============================================================================
20:22:40 hopplant> || Application: PowerPlan
20:22:40 hopplant> || File Name: maint_044447_aro_liability_span_report_dml.sql
20:22:40 hopplant> ||============================================================================
20:22:40 hopplant> || Copyright (C) 2015 by PowerPlan, Inc. All Rights Reserved.
20:22:40 hopplant> ||============================================================================
20:22:40 hopplant> || Version  Date	  Revised By	 Reason for Change
20:22:40 hopplant> || -------- ---------- -------------- ----------------------------------------
20:22:40 hopplant> || 2015.2 07/21/2015   Andrew Hill	 Initial commit
20:22:40 hopplant> ||============================================================================
20:22:40 hopplant> */
20:22:40 hopplant> 
20:22:40 hopplant> UPDATE pp_reports
20:22:40   2  SET input_window = 'dw_company_select,dw_set_of_books_select'
20:22:40   3  where report_number = 'ARO - 1000';

1 row updated.

20:22:40 hopplant> 
20:22:40 hopplant> 
20:22:40 hopplant> --****************************************************
20:22:40 hopplant> --Log the run of the script to local PP_SCHEMA_LOG
20:22:40 hopplant> --****************************************************
20:22:40 hopplant> INSERT INTO PP_SCHEMA_CHANGE_LOG
20:22:40   2  	      (ID, SKIPPED, MAJOR_VERSION, MINOR_VERSION, POINT_VERSION, PATCH_VERSION, MAINT_NUM, SCRIPT_PATH,
20:22:40   3  	      SCRIPT_NAME, SCRIPT_REVISION, DATE_APPLIED, OS_USER, TERMINAL, SERVICE_NAME)
20:22:40   4  VALUES
20:22:40   5  	      (2706, 0, 2015, 2, 0, 0, 044447, 'C:\PlasticWks\powerplant\sql\maint_scripts', '2015.2.0.0_maint_044447_aro_liability_span_report_dml.sql', 1,
20:22:40   6  	      SYSTIMESTAMP, SYS_CONTEXT('USERENV', 'OS_USER'), SYS_CONTEXT('USERENV', 'TERMINAL'),
20:22:40   7  	      SYS_CONTEXT('USERENV', 'SERVICE_NAME'));

1 row created.

20:22:40 hopplant> COMMIT;

Commit complete.

20:22:40 hopplant> SPOOL OFF
