20:28:11 hopplant> @&&PP_SCRIPT_PATH.maint_scripts\2015.2.0.0_maint_045081_fp_selection_grid_from_bud_version_dml.sql
20:28:11 hopplant> /*
20:28:11 hopplant>  ||============================================================================
20:28:11 hopplant>  || Application: PowerPlan
20:28:11 hopplant>  || File Name: maint_045081_fp_selection_grid_from_bud_version_dml.sql
20:28:11 hopplant>  ||============================================================================
20:28:11 hopplant>  || Copyright (C) 2015 by PowerPlan, Inc. All Rights Reserved.
20:28:11 hopplant>  ||============================================================================
20:28:11 hopplant>  || Version	Date	   Revised By	  Reason for Change
20:28:11 hopplant>  || -------- ---------- -------------- ----------------------------------------
20:28:11 hopplant>  || 2015.2.0 10/14/2015 Chris Mardis   Prime the FP Selection Grids when drilling from the BV Details screen to the same as the regular FP selection grids.
20:28:11 hopplant>  ||============================================================================
20:28:11 hopplant>  */
20:28:11 hopplant> 
20:28:11 hopplant> insert into select_tabs_grids (dw_name, subsystem, description)
20:28:11   2  select dw_name, 'fp_bv_filter' subsystem, description
20:28:11   3  from select_tabs_grids
20:28:11   4  where subsystem = 'funding_project';

3 rows created.

20:28:11 hopplant> 
20:28:11 hopplant> --****************************************************
20:28:11 hopplant> --Log the run of the script to local PP_SCHEMA_LOG
20:28:11 hopplant> --****************************************************
20:28:11 hopplant> INSERT INTO PP_SCHEMA_CHANGE_LOG
20:28:11   2  	 (ID, SKIPPED, MAJOR_VERSION, MINOR_VERSION, POINT_VERSION, PATCH_VERSION, MAINT_NUM, SCRIPT_PATH,
20:28:11   3  	 SCRIPT_NAME, SCRIPT_REVISION, DATE_APPLIED, OS_USER, TERMINAL, SERVICE_NAME)
20:28:11   4  VALUES
20:28:11   5  	 (2925, 0, 2015, 2, 0, 0, 45081, 'C:\PlasticWks\powerplant\sql\maint_scripts', '2015.2.0.0_maint_045081_fp_selection_grid_from_bud_version_dml.sql', 1,
20:28:11   6  	 SYSTIMESTAMP, SYS_CONTEXT('USERENV', 'OS_USER'), SYS_CONTEXT('USERENV', 'TERMINAL'),
20:28:11   7  	      SYS_CONTEXT('USERENV', 'SERVICE_NAME'));

1 row created.

20:28:11 hopplant> COMMIT;

Commit complete.

20:28:11 hopplant> SPOOL OFF
