19:40:33 hopplant> @&&PP_SCRIPT_PATH.maint_scripts\2015.1.0.0_maint_043309_cpr_ssp_cpr_allow_concurrent_dml.sql
19:40:33 hopplant> /*
19:40:33 hopplant> ||============================================================================
19:40:33 hopplant> || Application: PowerPlan
19:40:33 hopplant> || File Name:   maint_043309_cpr_ssp_cpr_allow_concurrent_dml.sql
19:40:33 hopplant> ||============================================================================
19:40:33 hopplant> || Copyright (C) 2015 by PowerPlan, Inc. All Rights Reserved.
19:40:33 hopplant> ||============================================================================
19:40:33 hopplant> || Version	 Date	    Revised By	     Reason for Change
19:40:33 hopplant> || ---------- ---------- ---------------- ------------------------------------
19:40:33 hopplant> || 2015.1.0.0 04/07/2015 Sarah Byers 	   Set ALLOW_CONCURRENT for Server Side Processes
19:40:33 hopplant> ||============================================================================
19:40:33 hopplant> */
19:40:33 hopplant> 
19:40:33 hopplant> update pp_processes
19:40:33   2  	      set ALLOW_CONCURRENT = 1
19:40:33   3   where lower(executable_file) in (
19:40:33   4  	      'ssp_cpr_new_month.exe',
19:40:33   5  	      'ssp_cpr_close_month.exe',
19:40:33   6  	      'ssp_aro_calc.exe',
19:40:33   7  	      'ssp_aro_approve.exe',
19:40:33   8  	      'ssp_depr_calc.exe',
19:40:33   9  	      'ssp_depr_approval.exe',
19:40:33  10  	      'ssp_release_je.exe',
19:40:33  11  	      'ssp_gl_recon.exe',
19:40:33  12  	      'ssp_close_powerplant.exe',
19:40:33  13  	      'ssp_cpr_balance_pp.exe');

10 rows updated.

19:40:33 hopplant> 
19:40:33 hopplant> 
19:40:33 hopplant> 
19:40:33 hopplant> 
19:40:33 hopplant> --****************************************************
19:40:33 hopplant> --Log the run of the script to local PP_SCHEMA_LOG
19:40:33 hopplant> --****************************************************
19:40:33 hopplant> INSERT INTO PP_SCHEMA_CHANGE_LOG
19:40:33   2  	      (ID, SKIPPED, MAJOR_VERSION, MINOR_VERSION, POINT_VERSION, PATCH_VERSION, MAINT_NUM, SCRIPT_PATH,
19:40:33   3  	      SCRIPT_NAME, SCRIPT_REVISION, DATE_APPLIED, OS_USER, TERMINAL, SERVICE_NAME)
19:40:33   4  VALUES
19:40:33   5  	      (2477, 0, 2015, 1, 0, 0, 043309, 'C:\PlasticWks\powerplant\sql\maint_scripts', '2015.1.0.0_maint_043309_cpr_ssp_cpr_allow_concurrent_dml.sql', 1,
19:40:33   6  	      SYSTIMESTAMP, SYS_CONTEXT('USERENV', 'OS_USER'), SYS_CONTEXT('USERENV', 'TERMINAL'),
19:40:33   7  	      SYS_CONTEXT('USERENV', 'SERVICE_NAME'));

1 row created.

19:40:33 hopplant> COMMIT;

Commit complete.

19:40:33 hopplant> SPOOL OFF
