20:22:49 hopplant> @&&PP_SCRIPT_PATH.maint_scripts\2015.2.0.0_maint_044500_sys_ctrl_woest_filter_al_by_ml_dml.sql
20:22:49 hopplant> /*
20:22:49 hopplant> ||============================================================================
20:22:49 hopplant> || Application: PowerPlant
20:22:49 hopplant> || File Name:   maint_044500_ctrl_woest_filter_al_by_ml_dml.sql
20:22:49 hopplant> ||============================================================================
20:22:49 hopplant> || Copyright (C) 2015 by PowerPlan, Inc. All Rights Reserved.
20:22:49 hopplant> ||============================================================================
20:22:49 hopplant> || Version  Date	  Revised By	   Reason for Change
20:22:49 hopplant> || -------- ---------- ---------------- --------------------------------------
20:22:49 hopplant> || 2015.2   07/23/2015  Andrew Hill	   Adding system control referenced in ticket
20:22:49 hopplant> ||============================================================================
20:22:49 hopplant> */
20:22:49 hopplant> INSERT INTO pp_system_control_company(control_id, control_name, control_value, description,
20:22:49   2  					      long_description, company_id)
20:22:49   3  SELECT (SELECT Max(control_id) + 1 from pp_system_control_company), 'WOEST - Filter AL by ML on open', 'YES', 'Filter AL by ML',
20:22:49   4  		'Filters Asset_Location dropdown on the Unit Estimates by Major_Location', -1
20:22:49   5  FROM dual;

1 row created.

20:22:49 hopplant> 
20:22:49 hopplant> 
20:22:49 hopplant> --****************************************************
20:22:49 hopplant> --Log the run of the script to local PP_SCHEMA_LOG
20:22:49 hopplant> --****************************************************
20:22:49 hopplant> INSERT INTO PP_SCHEMA_CHANGE_LOG
20:22:49   2  	      (ID, SKIPPED, MAJOR_VERSION, MINOR_VERSION, POINT_VERSION, PATCH_VERSION, MAINT_NUM, SCRIPT_PATH,
20:22:49   3  	      SCRIPT_NAME, SCRIPT_REVISION, DATE_APPLIED, OS_USER, TERMINAL, SERVICE_NAME)
20:22:49   4  VALUES
20:22:49   5  	      (2710, 0, 2015, 2, 0, 0, 044500, 'C:\PlasticWks\powerplant\sql\maint_scripts', '2015.2.0.0_maint_044500_sys_ctrl_woest_filter_al_by_ml_dml.sql', 1,
20:22:49   6  	      SYSTIMESTAMP, SYS_CONTEXT('USERENV', 'OS_USER'), SYS_CONTEXT('USERENV', 'TERMINAL'),
20:22:49   7  	      SYS_CONTEXT('USERENV', 'SERVICE_NAME'));

1 row created.

20:22:49 hopplant> COMMIT;

Commit complete.

20:22:49 hopplant> SPOOL OFF
