19:41:09 hopplant> @&&PP_SCRIPT_PATH.maint_scripts\2015.1.0.0_maint_043640_reg_default_sa.sql
19:41:09 hopplant> /*
19:41:09 hopplant> ||============================================================================
19:41:09 hopplant> || Application: PowerPlant
19:41:09 hopplant> || Object Name: maint_043640_reg_default_sa.sql
19:41:09 hopplant> || Description:
19:41:09 hopplant> ||============================================================================
19:41:09 hopplant> || Copyright (C) 2013 by PowerPlan Consultants, Inc. All Rights Reserved.
19:41:09 hopplant> ||============================================================================
19:41:09 hopplant> || Version	 Date	    Revised By	   Reason for Change
19:41:09 hopplant> || ---------- ---------- -------------- --------------------------------------
19:41:09 hopplant> || 2015.1   04/15/2015    Shane Ward       delivery default sub accounts
19:41:09 hopplant> ||============================================================================
19:41:09 hopplant> */
19:41:09 hopplant> 
19:41:09 hopplant> 
19:41:09 hopplant> CREATE OR REPLACE PROCEDURE p_create_default_reg_sa AS
19:41:09   2  	      sa_count NUMBER;
19:41:09   3  BEGIN
19:41:09   4  
19:41:09   5  	      SELECT Count(1)
19:41:09   6  		      INTO sa_count
19:41:09   7  		      FROM reg_sub_acct_type
19:41:09   8  	       WHERE reg_acct_type_id <> 11
19:41:09   9  		       AND sub_acct_type_id > 4;
19:41:09  10  
19:41:09  11  	      IF sa_count < 1 THEN
19:41:09  12  		      --Insert
19:41:09  13  		      INSERT INTO reg_sub_acct_type
19:41:09  14  			      (reg_acct_type_id,
19:41:09  15  			       sub_acct_type_id,
19:41:09  16  			       description,
19:41:09  17  			       long_description,
19:41:09  18  			       sort_order)
19:41:09  19  		      Values
19:41:09  20  			      (1, 1, 'Plant in Service', 'Plant in Service', 1);
19:41:09  21  		      INSERT INTO reg_sub_acct_type
19:41:09  22  			      (reg_acct_type_id,
19:41:09  23  			       sub_acct_type_id,
19:41:09  24  			       description,
19:41:09  25  			       long_description,
19:41:09  26  			       sort_order)
19:41:09  27  		      Values
19:41:09  28  			      (1,
19:41:09  29  			       2,
19:41:09  30  			       'Accumlated Reserve for Depr',
19:41:09  31  			       'Accumlated Reserve for Depr',
19:41:09  32  			       2);
19:41:09  33  		      INSERT INTO reg_sub_acct_type
19:41:09  34  			      (reg_acct_type_id,
19:41:09  35  			       sub_acct_type_id,
19:41:09  36  			       description,
19:41:09  37  			       long_description,
19:41:09  38  			       sort_order)
19:41:09  39  		      Values
19:41:09  40  			      (1, 3, 'CWIP', 'CWIP', 3);
19:41:09  41  		      INSERT INTO reg_sub_acct_type
19:41:09  42  			      (reg_acct_type_id,
19:41:09  43  			       sub_acct_type_id,
19:41:09  44  			       description,
19:41:09  45  			       long_description,
19:41:09  46  			       sort_order)
19:41:09  47  		      Values
19:41:09  48  			      (1, 4, 'Nuclear Fuel', 'Nuclear Fuel', 4);
19:41:09  49  		      INSERT INTO reg_sub_acct_type
19:41:09  50  			      (reg_acct_type_id,
19:41:09  51  			       sub_acct_type_id,
19:41:09  52  			       description,
19:41:09  53  			       long_description,
19:41:09  54  			       sort_order)
19:41:09  55  		      Values
19:41:09  56  			      (1, 5, 'Fuel Stock', 'Fuel Stock', 5);
19:41:09  57  		      INSERT INTO reg_sub_acct_type
19:41:09  58  			      (reg_acct_type_id,
19:41:09  59  			       sub_acct_type_id,
19:41:09  60  			       description,
19:41:09  61  			       long_description,
19:41:09  62  			       sort_order)
19:41:09  63  		      Values
19:41:09  64  			      (1, 6, 'Gas Stored Underground', 'Gas Stored Underground', 6);
19:41:09  65  		      INSERT INTO reg_sub_acct_type
19:41:09  66  			      (reg_acct_type_id,
19:41:09  67  			       sub_acct_type_id,
19:41:09  68  			       description,
19:41:09  69  			       long_description,
19:41:09  70  			       sort_order)
19:41:09  71  		      Values
19:41:09  72  			      (1, 7, 'Other Prop and Invest', 'Other Prop and Invest', 7);
19:41:09  73  		      INSERT INTO reg_sub_acct_type
19:41:09  74  			      (reg_acct_type_id,
19:41:09  75  			       sub_acct_type_id,
19:41:09  76  			       description,
19:41:09  77  			       long_description,
19:41:09  78  			       sort_order)
19:41:09  79  		      Values
19:41:09  80  			      (1, 8, 'Materials and Supplies', 'Materials and Supplies', 8);
19:41:09  81  		      INSERT INTO reg_sub_acct_type
19:41:09  82  			      (reg_acct_type_id,
19:41:09  83  			       sub_acct_type_id,
19:41:09  84  			       description,
19:41:09  85  			       long_description,
19:41:09  86  			       sort_order)
19:41:09  87  		      Values
19:41:09  88  			      (1, 9, 'Working Capital', 'Working Capital', 9);
19:41:09  89  		      INSERT INTO reg_sub_acct_type
19:41:09  90  			      (reg_acct_type_id,
19:41:09  91  			       sub_acct_type_id,
19:41:09  92  			       description,
19:41:09  93  			       long_description,
19:41:09  94  			       sort_order)
19:41:09  95  		      Values
19:41:09  96  			      (1, 10, 'Other Current Assets', 'Other Current Assets', 10);
19:41:09  97  		      INSERT INTO reg_sub_acct_type
19:41:09  98  			      (reg_acct_type_id,
19:41:09  99  			       sub_acct_type_id,
19:41:09 100  			       description,
19:41:09 101  			       long_description,
19:41:09 102  			       sort_order)
19:41:09 103  		      Values
19:41:09 104  			      (1, 11, 'Regulatory Assets', 'Regulatory Assets', 11);
19:41:09 105  		      INSERT INTO reg_sub_acct_type
19:41:09 106  			      (reg_acct_type_id,
19:41:09 107  			       sub_acct_type_id,
19:41:09 108  			       description,
19:41:09 109  			       long_description,
19:41:09 110  			       sort_order)
19:41:09 111  		      Values
19:41:09 112  			      (1, 12, 'Deferred Debits', 'Deferred Debits', 12);
19:41:09 113  		      INSERT INTO reg_sub_acct_type
19:41:09 114  			      (reg_acct_type_id,
19:41:09 115  			       sub_acct_type_id,
19:41:09 116  			       description,
19:41:09 117  			       long_description,
19:41:09 118  			       sort_order)
19:41:09 119  		      Values
19:41:09 120  			      (1, 13, 'ADIT - Ratebase', 'ADIT - Ratebase', 13);
19:41:09 121  		      INSERT INTO reg_sub_acct_type
19:41:09 122  			      (reg_acct_type_id,
19:41:09 123  			       sub_acct_type_id,
19:41:09 124  			       description,
19:41:09 125  			       long_description,
19:41:09 126  			       sort_order)
19:41:09 127  		      Values
19:41:09 128  			      (1, 14, 'Current Liabilities', 'Current Liabilities', 14);
19:41:09 129  		      INSERT INTO reg_sub_acct_type
19:41:09 130  			      (reg_acct_type_id,
19:41:09 131  			       sub_acct_type_id,
19:41:09 132  			       description,
19:41:09 133  			       long_description,
19:41:09 134  			       sort_order)
19:41:09 135  		      Values
19:41:09 136  			      (1, 15, 'Noncurrent Liabilities', 'Noncurrent Liabilities', 15);
19:41:09 137  		      INSERT INTO reg_sub_acct_type
19:41:09 138  			      (reg_acct_type_id,
19:41:09 139  			       sub_acct_type_id,
19:41:09 140  			       description,
19:41:09 141  			       long_description,
19:41:09 142  			       sort_order)
19:41:09 143  		      Values
19:41:09 144  			      (2,
19:41:09 145  			       1,
19:41:09 146  			       'Utility Assets Not in Ratebase',
19:41:09 147  			       'Utility Assets Not in Ratebase',
19:41:09 148  			       1);
19:41:09 149  		      INSERT INTO reg_sub_acct_type
19:41:09 150  			      (reg_acct_type_id,
19:41:09 151  			       sub_acct_type_id,
19:41:09 152  			       description,
19:41:09 153  			       long_description,
19:41:09 154  			       sort_order)
19:41:09 155  		      Values
19:41:09 156  			      (2,
19:41:09 157  			       2,
19:41:09 158  			       'Utility Liabilities Not in Ratebase',
19:41:09 159  			       'Utility Liabilities Not in Ratebase',
19:41:09 160  			       2);
19:41:09 161  		      INSERT INTO reg_sub_acct_type
19:41:09 162  			      (reg_acct_type_id,
19:41:09 163  			       sub_acct_type_id,
19:41:09 164  			       description,
19:41:09 165  			       long_description,
19:41:09 166  			       sort_order)
19:41:09 167  		      Values
19:41:09 168  			      (7, 1, 'Non Utility Property', 'Non Utility Property', 1);
19:41:09 169  		      INSERT INTO reg_sub_acct_type
19:41:09 170  			      (reg_acct_type_id,
19:41:09 171  			       sub_acct_type_id,
19:41:09 172  			       description,
19:41:09 173  			       long_description,
19:41:09 174  			       sort_order)
19:41:09 175  		      Values
19:41:09 176  			      (7,
19:41:09 177  			       2,
19:41:09 178  			       'Accum Reserve for Non-Util Prop',
19:41:09 179  			       'Accum Reserve for Non-Util Prop',
19:41:09 180  			       2);
19:41:09 181  		      INSERT INTO reg_sub_acct_type
19:41:09 182  			      (reg_acct_type_id,
19:41:09 183  			       sub_acct_type_id,
19:41:09 184  			       description,
19:41:09 185  			       long_description,
19:41:09 186  			       sort_order)
19:41:09 187  		      Values
19:41:09 188  			      (7, 3, 'Non Utility Liabilities', 'Non Utility Liabilities', 3);
19:41:09 189  		      INSERT INTO reg_sub_acct_type
19:41:09 190  			      (reg_acct_type_id,
19:41:09 191  			       sub_acct_type_id,
19:41:09 192  			       description,
19:41:09 193  			       long_description,
19:41:09 194  			       sort_order)
19:41:09 195  		      Values
19:41:09 196  			      (8, 1, 'Common Stock', 'Common Stock', 1);
19:41:09 197  		      INSERT INTO reg_sub_acct_type
19:41:09 198  			      (reg_acct_type_id,
19:41:09 199  			       sub_acct_type_id,
19:41:09 200  			       description,
19:41:09 201  			       long_description,
19:41:09 202  			       sort_order)
19:41:09 203  		      Values
19:41:09 204  			      (8, 2, 'Retained Earnings', 'Retained Earnings', 2);
19:41:09 205  		      INSERT INTO reg_sub_acct_type
19:41:09 206  			      (reg_acct_type_id,
19:41:09 207  			       sub_acct_type_id,
19:41:09 208  			       description,
19:41:09 209  			       long_description,
19:41:09 210  			       sort_order)
19:41:09 211  		      Values
19:41:09 212  			      (8, 3, 'Preferred Stock', 'Preferred Stock', 3);
19:41:09 213  		      INSERT INTO reg_sub_acct_type
19:41:09 214  			      (reg_acct_type_id,
19:41:09 215  			       sub_acct_type_id,
19:41:09 216  			       description,
19:41:09 217  			       long_description,
19:41:09 218  			       sort_order)
19:41:09 219  		      Values
19:41:09 220  			      (8, 4, 'Long Term Debt', 'Long Term Debt', 4);
19:41:09 221  		      INSERT INTO reg_sub_acct_type
19:41:09 222  			      (reg_acct_type_id,
19:41:09 223  			       sub_acct_type_id,
19:41:09 224  			       description,
19:41:09 225  			       long_description,
19:41:09 226  			       sort_order)
19:41:09 227  		      Values
19:41:09 228  			      (8, 5, 'ADIT - Capital Structure', 'ADIT - Capital Structure', 5);
19:41:09 229  		      INSERT INTO reg_sub_acct_type
19:41:09 230  			      (reg_acct_type_id,
19:41:09 231  			       sub_acct_type_id,
19:41:09 232  			       description,
19:41:09 233  			       long_description,
19:41:09 234  			       sort_order)
19:41:09 235  		      Values
19:41:09 236  			      (5, 1, 'Operating Revenues', 'Operating Revenues', 1);
19:41:09 237  		      INSERT INTO reg_sub_acct_type
19:41:09 238  			      (reg_acct_type_id,
19:41:09 239  			       sub_acct_type_id,
19:41:09 240  			       description,
19:41:09 241  			       long_description,
19:41:09 242  			       sort_order)
19:41:09 243  		      Values
19:41:09 244  			      (3, 1, 'Fuel', 'Fuel', 1);
19:41:09 245  		      INSERT INTO reg_sub_acct_type
19:41:09 246  			      (reg_acct_type_id,
19:41:09 247  			       sub_acct_type_id,
19:41:09 248  			       description,
19:41:09 249  			       long_description,
19:41:09 250  			       sort_order)
19:41:09 251  		      Values
19:41:09 252  			      (3, 2, 'Purchased Power', 'Purchased Power', 2);
19:41:09 253  		      INSERT INTO reg_sub_acct_type
19:41:09 254  			      (reg_acct_type_id,
19:41:09 255  			       sub_acct_type_id,
19:41:09 256  			       description,
19:41:09 257  			       long_description,
19:41:09 258  			       sort_order)
19:41:09 259  		      Values
19:41:09 260  			      (3, 3, 'Other Operations', 'Other Operations', 3);
19:41:09 261  		      INSERT INTO reg_sub_acct_type
19:41:09 262  			      (reg_acct_type_id,
19:41:09 263  			       sub_acct_type_id,
19:41:09 264  			       description,
19:41:09 265  			       long_description,
19:41:09 266  			       sort_order)
19:41:09 267  		      Values
19:41:09 268  			      (3,
19:41:09 269  			       4,
19:41:09 270  			       'Depreciation and Amortization',
19:41:09 271  			       'Depreciation and Amortization',
19:41:09 272  			       4);
19:41:09 273  		      INSERT INTO reg_sub_acct_type
19:41:09 274  			      (reg_acct_type_id,
19:41:09 275  			       sub_acct_type_id,
19:41:09 276  			       description,
19:41:09 277  			       long_description,
19:41:09 278  			       sort_order)
19:41:09 279  		      Values
19:41:09 280  			      (3,
19:41:09 281  			       5,
19:41:09 282  			       'Net Regulatory Debits (Credits)',
19:41:10 283  			       'Net Regulatory Debits (Credits)',
19:41:10 284  			       5);
19:41:10 285  		      INSERT INTO reg_sub_acct_type
19:41:10 286  			      (reg_acct_type_id,
19:41:10 287  			       sub_acct_type_id,
19:41:10 288  			       description,
19:41:10 289  			       long_description,
19:41:10 290  			       sort_order)
19:41:10 291  		      Values
19:41:10 292  			      (3, 6, 'Taxes other than income', 'Taxes other than income', 6);
19:41:10 293  		      INSERT INTO reg_sub_acct_type
19:41:10 294  			      (reg_acct_type_id,
19:41:10 295  			       sub_acct_type_id,
19:41:10 296  			       description,
19:41:10 297  			       long_description,
19:41:10 298  			       sort_order)
19:41:10 299  		      Values
19:41:10 300  			      (3, 7, 'Income taxes', 'Income taxes', 7);
19:41:10 301  		      INSERT INTO reg_sub_acct_type
19:41:10 302  			      (reg_acct_type_id,
19:41:10 303  			       sub_acct_type_id,
19:41:10 304  			       description,
19:41:10 305  			       long_description,
19:41:10 306  			       sort_order)
19:41:10 307  		      Values
19:41:10 308  			      (3,
19:41:10 309  			       8,
19:41:10 310  			       'Losses from disp of utility plant',
19:41:10 311  			       'Losses from disp of utility plant',
19:41:10 312  			       8);
19:41:10 313  		      INSERT INTO reg_sub_acct_type
19:41:10 314  			      (reg_acct_type_id,
19:41:10 315  			       sub_acct_type_id,
19:41:10 316  			       description,
19:41:10 317  			       long_description,
19:41:10 318  			       sort_order)
19:41:10 319  		      Values
19:41:10 320  			      (3,
19:41:10 321  			       9,
19:41:10 322  			       'Losses from disp of allowances',
19:41:10 323  			       'Losses from disp of allowances',
19:41:10 324  			       9);
19:41:10 325  		      INSERT INTO reg_sub_acct_type
19:41:10 326  			      (reg_acct_type_id,
19:41:10 327  			       sub_acct_type_id,
19:41:10 328  			       description,
19:41:10 329  			       long_description,
19:41:10 330  			       sort_order)
19:41:10 331  		      Values
19:41:10 332  			      (4, 1, 'AFUDC Equity', 'AFUDC Equity', 1);
19:41:10 333  		      INSERT INTO reg_sub_acct_type
19:41:10 334  			      (reg_acct_type_id,
19:41:10 335  			       sub_acct_type_id,
19:41:10 336  			       description,
19:41:10 337  			       long_description,
19:41:10 338  			       sort_order)
19:41:10 339  		      Values
19:41:10 340  			      (4, 2, 'Interest Income', 'Interest Income', 2);
19:41:10 341  		      INSERT INTO reg_sub_acct_type
19:41:10 342  			      (reg_acct_type_id,
19:41:10 343  			       sub_acct_type_id,
19:41:10 344  			       description,
19:41:10 345  			       long_description,
19:41:10 346  			       sort_order)
19:41:10 347  		      Values
19:41:10 348  			      (4, 3, 'Other income', 'Other income', 3);
19:41:10 349  		      INSERT INTO reg_sub_acct_type
19:41:10 350  			      (reg_acct_type_id,
19:41:10 351  			       sub_acct_type_id,
19:41:10 352  			       description,
19:41:10 353  			       long_description,
19:41:10 354  			       sort_order)
19:41:10 355  		      Values
19:41:10 356  			      (4, 4, 'Other deductions', 'Other deductions', 4);
19:41:10 357  		      INSERT INTO reg_sub_acct_type
19:41:10 358  			      (reg_acct_type_id,
19:41:10 359  			       sub_acct_type_id,
19:41:10 360  			       description,
19:41:10 361  			       long_description,
19:41:10 362  			       sort_order)
19:41:10 363  		      Values
19:41:10 364  			      (4,
19:41:10 365  			       5,
19:41:10 366  			       'Taxes other than income (BTL)',
19:41:10 367  			       'Taxes other than income (BTL)',
19:41:10 368  			       5);
19:41:10 369  		      INSERT INTO reg_sub_acct_type
19:41:10 370  			      (reg_acct_type_id,
19:41:10 371  			       sub_acct_type_id,
19:41:10 372  			       description,
19:41:10 373  			       long_description,
19:41:10 374  			       sort_order)
19:41:10 375  		      Values
19:41:10 376  			      (4, 6, 'Income taxes (BTL)', 'Income taxes (BTL)', 6);
19:41:10 377  		      INSERT INTO reg_sub_acct_type
19:41:10 378  			      (reg_acct_type_id,
19:41:10 379  			       sub_acct_type_id,
19:41:10 380  			       description,
19:41:10 381  			       long_description,
19:41:10 382  			       sort_order)
19:41:10 383  		      Values
19:41:10 384  			      (6, 1, 'Interest on long term debt', 'Interest on long term debt', 1);
19:41:10 385  		      INSERT INTO reg_sub_acct_type
19:41:10 386  			      (reg_acct_type_id,
19:41:10 387  			       sub_acct_type_id,
19:41:10 388  			       description,
19:41:10 389  			       long_description,
19:41:10 390  			       sort_order)
19:41:10 391  		      Values
19:41:10 392  			      (6, 2, 'AFUDC Debt', 'AFUDC Debt', 2);
19:41:10 393  		      INSERT INTO reg_sub_acct_type
19:41:10 394  			      (reg_acct_type_id,
19:41:10 395  			       sub_acct_type_id,
19:41:10 396  			       description,
19:41:10 397  			       long_description,
19:41:10 398  			       sort_order)
19:41:10 399  		      Values
19:41:10 400  			      (6,
19:41:10 401  			       3,
19:41:10 402  			       'Interest on short term debt',
19:41:10 403  			       'Interest on short term debt',
19:41:10 404  			       3);
19:41:10 405  		      INSERT INTO reg_sub_acct_type
19:41:10 406  			      (reg_acct_type_id,
19:41:10 407  			       sub_acct_type_id,
19:41:10 408  			       description,
19:41:10 409  			       long_description,
19:41:10 410  			       sort_order)
19:41:10 411  		      Values
19:41:10 412  			      (6, 4, 'Other interest expense', 'Other interest expense', 4);
19:41:10 413  
19:41:10 414  	      END IF;
19:41:10 415  
19:41:10 416  END;
19:41:10 417  /

Procedure created.

19:41:10 hopplant> 
19:41:10 hopplant> EXECUTE p_create_default_reg_sa;

PL/SQL procedure successfully completed.

19:41:10 hopplant> 
19:41:10 hopplant> DROP PROCEDURE p_create_default_reg_sa;

Procedure dropped.

19:41:10 hopplant> 
19:41:10 hopplant> UPDATE reg_acct_master SET reg_acct_type_default = 1 , sub_acct_type_id = 1 WHERE reg_acct_id = 0;

1 row updated.

19:41:10 hopplant> 
19:41:10 hopplant> 
19:41:10 hopplant> --****************************************************
19:41:10 hopplant> --Log the run of the script to local PP_SCHEMA_LOG
19:41:10 hopplant> --****************************************************
19:41:10 hopplant> INSERT INTO PP_SCHEMA_CHANGE_LOG
19:41:10   2  	      (ID, SKIPPED, MAJOR_VERSION, MINOR_VERSION, POINT_VERSION, PATCH_VERSION, MAINT_NUM, SCRIPT_PATH,
19:41:10   3  	      SCRIPT_NAME, SCRIPT_REVISION, DATE_APPLIED, OS_USER, TERMINAL, SERVICE_NAME)
19:41:10   4  VALUES
19:41:10   5  	      (2501, 0, 2015, 1, 0, 0, 43640, 'C:\PlasticWks\powerplant\sql\maint_scripts', '2015.1.0.0_maint_043640_reg_default_sa.sql', 1,
19:41:10   6  	      SYSTIMESTAMP, SYS_CONTEXT('USERENV', 'OS_USER'), SYS_CONTEXT('USERENV', 'TERMINAL'),
19:41:10   7  	      SYS_CONTEXT('USERENV', 'SERVICE_NAME'));

1 row created.

19:41:10 hopplant> COMMIT;

Commit complete.

19:41:10 hopplant> SPOOL OFF
