20:28:30 hopplant> @&&PP_SCRIPT_PATH.maint_scripts\2015.2.0.0_maint_045110_lease_edit_forecast_wksp_dml.sql
20:28:30 hopplant> /*
20:28:30 hopplant> ||============================================================================
20:28:30 hopplant> || Application: PowerPlan
20:28:30 hopplant> || File Name:   maint_045110_lease_edit_forecast_wksp_dml.sql
20:28:30 hopplant> || Copyright (C) 2015 by PowerPlan, Inc. All Rights Reserved.
20:28:30 hopplant> ||============================================================================
20:28:30 hopplant> || Version	 Date	    Revised By	   Reason for Change
20:28:30 hopplant> || --------	 ---------- -------------- --------------------------------------
20:28:30 hopplant> || 2015.2.0.0 10/22/2015 Ryan Oliveria  Edit Fcst Version workspace
20:28:30 hopplant> ||============================================================================
20:28:30 hopplant> */
20:28:30 hopplant> 
20:28:30 hopplant> insert into ppbase_workspace (
20:28:30   2  	      module, workspace_identifier, label, workspace_uo_name, object_type_id)
20:28:30   3  values (
20:28:30   4  	      'LESSEE', 'edit_forecast', 'Build / Modify Forecast', 'uo_ls_edit_fcst_wksp', 1);

1 row created.

20:28:30 hopplant> 
20:28:30 hopplant> insert into ppbase_menu_items (
20:28:30   2  	      module, menu_identifier, menu_level, item_order, label, parent_menu_identifier, workspace_identifier, enable_yn)
20:28:30   3  values (
20:28:30   4  	      'LESSEE', 'edit_forecast', 2, 2, 'Build / Modify Forecast', 'forecast', 'edit_forecast', 1);

1 row created.

20:28:30 hopplant> 
20:28:30 hopplant> --****************************************************
20:28:30 hopplant> --Log the run of the script to local PP_SCHEMA_LOG
20:28:30 hopplant> --****************************************************
20:28:30 hopplant> INSERT INTO PP_SCHEMA_CHANGE_LOG
20:28:30   2  	      (ID, SKIPPED, MAJOR_VERSION, MINOR_VERSION, POINT_VERSION, PATCH_VERSION, MAINT_NUM, SCRIPT_PATH,
20:28:30   3  	      SCRIPT_NAME, SCRIPT_REVISION, DATE_APPLIED, OS_USER, TERMINAL, SERVICE_NAME)
20:28:30   4  VALUES
20:28:30   5  	      (2936, 0, 2015, 2, 0, 0, 45110, 'C:\PlasticWks\powerplant\sql\maint_scripts', '2015.2.0.0_maint_045110_lease_edit_forecast_wksp_dml.sql', 1,
20:28:30   6  	      SYSTIMESTAMP, SYS_CONTEXT('USERENV', 'OS_USER'), SYS_CONTEXT('USERENV', 'TERMINAL'),
20:28:30   7  	      SYS_CONTEXT('USERENV', 'SERVICE_NAME'));

1 row created.

20:28:30 hopplant> COMMIT;

Commit complete.

20:28:30 hopplant> SPOOL OFF
