19:38:52 hopplant> @&&PP_SCRIPT_PATH.maint_scripts\2015.1.0.0_maint_042730_10_final_paid_table_dml.sql
19:38:52 hopplant> /*
19:38:52 hopplant> ||==========================================================================================
19:38:52 hopplant> || Application: PowerPlan
19:38:52 hopplant> || Module:		   LESSEE
19:38:52 hopplant> || File Name:   maint_042730_10_final_paid_table_dml.sql
19:38:52 hopplant> ||==========================================================================================
19:38:52 hopplant> || Copyright (C) 2015 by PowerPlan, Inc. All Rights Reserved.
19:38:52 hopplant> ||==========================================================================================
19:38:52 hopplant> || Version	 Date	    Revised By		Reason for Change
19:38:52 hopplant> || ---------- ---------- ------------------- -----------------------------------------------
19:38:52 hopplant> || [FROMPREF] 03/23/2015 [YOUR NAME] 	    [DESCRIPTION]
19:38:52 hopplant> ||==========================================================================================
19:38:52 hopplant> */
19:38:52 hopplant> 
19:38:52 hopplant> delete from ls_funding_status;

0 rows deleted.

19:38:52 hopplant> 
19:38:52 hopplant> insert into ls_funding_status
19:38:52   2  (funding_status_id, description, long_description)
19:38:52   3  select 0, 'New', 'No Invoices Allocated Yet Under ILR' from dual union
19:38:52   4  select 1, 'Interim Submit', 'At Least one Invoice is Associated but None are Posted' from dual union
19:38:52   5  select 2, 'Interim Paid', 'All Invoices on ILR are Posted' from dual union
19:38:52   6  select 3, 'Final Submit', 'There is at Least One Unposted Invoice Under this ILR' from dual union
19:38:52   7  select 4, 'Final Paid', 'All Invoices on this ILR are Posted and the ILR has Been Marked Final' from dual;

5 rows created.

19:38:52 hopplant> 
19:38:52 hopplant> update ls_ilr set funding_status_id = 0;

0 rows updated.

19:38:52 hopplant> 
19:38:52 hopplant> 
19:38:52 hopplant> 
19:38:52 hopplant> 
19:38:52 hopplant> update ls_ilr ilr set funding_status_id = 1
19:38:52   2  where ilr_status_id <3
19:38:52   3  	and funding_status_id <> 4
19:38:52   4  	and exists (select 1
19:38:52   5  		    from ls_component_charge cc, ls_component c, ls_asset la
19:38:52   6  		    where cc.component_id = c.component_id
19:38:52   7  		      and c.ls_asset_id = la.ls_asset_id
19:38:52   8  		      and la.ilr_id=ilr.ilr_id
19:38:52   9  		      and cc.interim_interest_start_date is null)
19:38:52  10  	and not exists (select 1
19:38:52  11  			from ls_component_charge cc, ls_component c, ls_asset la
19:38:52  12  		    where cc.component_id = c.component_id
19:38:52  13  		      and c.ls_asset_id = la.ls_asset_id
19:38:52  14  		      and la.ilr_id=ilr.ilr_id
19:38:52  15  		      and cc.interim_interest_start_date is not null);

0 rows updated.

19:38:52 hopplant> 
19:38:52 hopplant> update ls_ilr ilr set funding_status_id = 2
19:38:52   2  where ilr_status_id <3
19:38:52   3  	and funding_status_id <> 4
19:38:52   4  	and exists (select 1
19:38:52   5  		    from ls_component_charge cc, ls_component c, ls_asset la
19:38:52   6  		    where cc.component_id = c.component_id
19:38:52   7  		      and c.ls_asset_id = la.ls_asset_id
19:38:52   8  		      and la.ilr_id=ilr.ilr_id
19:38:52   9  		      and cc.interim_interest_start_date is not null)
19:38:52  10  	and not exists (select 1
19:38:52  11  			from ls_component_charge cc, ls_component c, ls_asset la
19:38:52  12  		    where cc.component_id = c.component_id
19:38:52  13  		      and c.ls_asset_id = la.ls_asset_id
19:38:52  14  		      and la.ilr_id=ilr.ilr_id
19:38:52  15  		      and cc.interim_interest_start_date is null);

0 rows updated.

19:38:52 hopplant> 
19:38:52 hopplant> update ls_ilr ilr set funding_status_id = 3
19:38:52   2  where ilr_status_id <3
19:38:52   3  	and funding_status_id <> 4
19:38:52   4  	and exists (select 1
19:38:52   5  		    from ls_component_charge cc, ls_component c, ls_asset la
19:38:52   6  		    where cc.component_id = c.component_id
19:38:52   7  		      and c.ls_asset_id = la.ls_asset_id
19:38:52   8  		      and la.ilr_id=ilr.ilr_id
19:38:52   9  		      and cc.interim_interest_start_date is not null)
19:38:52  10  	and exists (select 1
19:38:52  11  			from ls_component_charge cc, ls_component c, ls_asset la
19:38:52  12  		    where cc.component_id = c.component_id
19:38:52  13  		      and c.ls_asset_id = la.ls_asset_id
19:38:52  14  		      and la.ilr_id=ilr.ilr_id
19:38:52  15  		      and cc.interim_interest_start_date is null);

0 rows updated.

19:38:52 hopplant> 
19:38:52 hopplant> update ls_ilr set funding_status_id = 4
19:38:52   2  where ilr_status_id = 3;

0 rows updated.

19:38:52 hopplant> 
19:38:52 hopplant> commit;

Commit complete.

19:38:52 hopplant> 
19:38:52 hopplant> 
19:38:52 hopplant> 
19:38:52 hopplant> --****************************************************
19:38:52 hopplant> --Log the run of the script to local PP_SCHEMA_LOG
19:38:52 hopplant> --****************************************************
19:38:52 hopplant> INSERT INTO PP_SCHEMA_CHANGE_LOG
19:38:52   2  	      (ID, SKIPPED, MAJOR_VERSION, MINOR_VERSION, POINT_VERSION, PATCH_VERSION, MAINT_NUM, SCRIPT_PATH,
19:38:52   3  	      SCRIPT_NAME, SCRIPT_REVISION, DATE_APPLIED, OS_USER, TERMINAL, SERVICE_NAME)
19:38:52   4  VALUES
19:38:52   5  	      (2409, 0, 2015, 1, 0, 0, 042730, 'C:\PlasticWks\powerplant\sql\maint_scripts', '2015.1.0.0_maint_042730_10_final_paid_table_dml.sql', 1,
19:38:52   6  	      SYSTIMESTAMP, SYS_CONTEXT('USERENV', 'OS_USER'), SYS_CONTEXT('USERENV', 'TERMINAL'),
19:38:52   7  	      SYS_CONTEXT('USERENV', 'SERVICE_NAME'));

1 row created.

19:38:52 hopplant> COMMIT;

Commit complete.

19:38:52 hopplant> SPOOL OFF
