21:21:22 hopplant> @&&PP_SCRIPT_PATH.packages_released\2016.1.0.0_PKG_TBBS_SCHEMA.sql
21:21:22 hopplant> /*
21:21:22 hopplant> ||========================================================================================
21:21:22 hopplant> || Application: PowerPlant
21:21:22 hopplant> || File Name:   PKG_TBBS_SCHEMA.sql
21:21:22 hopplant> ||========================================================================================
21:21:22 hopplant> || Copyright (C) 2016 by PowerPlan, Inc. All Rights Reserved.
21:21:22 hopplant> ||========================================================================================
21:21:22 hopplant> || Version	 Date	    Revised By		 Reason for Change
21:21:22 hopplant> || ---------- ---------- -------------------- ----------------------------------------------
21:21:22 hopplant> || 2016.1.0.0 09/2/2016  Jared Watkins	 Harvest package into base
21:21:22 hopplant> ||========================================================================================
21:21:22 hopplant> */
21:21:22 hopplant> CREATE OR REPLACE PACKAGE pkg_tbbs_schema AS
21:21:22   2  	      function f_add_like_schema(source_id NUMBER, new_description varchar2) return number;
21:21:22   3  END pkg_tbbs_schema;
21:21:22   4  /

Package created.

21:21:22 hopplant> 
21:21:22 hopplant> CREATE OR REPLACE PACKAGE BODY pkg_tbbs_schema AS
21:21:22   2  --**************************************************************************
21:21:22   3  --       VARIABLES
21:21:22   4  --**************************************************************************
21:21:22   5  	g_process_id pp_processes.process_id%TYPE;
21:21:22   6  	G_MSG VARCHAR2(254);
21:21:22   7  --**************************************************************************
21:21:22   8  --       PROCEDURES
21:21:22   9  --**************************************************************************
21:21:22  10  	PROCEDURE p_setprocess IS
21:21:22  11  	  BEGIN
21:21:22  12  	  g_msg := 'Unable to find the Process ID for "TBBS - PROCESS SCHEMATA" in pp_processes';
21:21:22  13  	  SELECT process_id
21:21:22  14  	  INTO g_process_id
21:21:22  15  	  FROM pp_processes
21:21:22  16  	  WHERE UPPER(DESCRIPTION) = 'TBBS - MANAGE SCHEMATA';
21:21:22  17  
21:21:22  18  	  exception
21:21:22  19  	  WHEN others THEN
21:21:22  20  	    raise_application_error(-20000, g_msg || ': ' || sqlerrm);
21:21:22  21  	END P_SETPROCESS;
21:21:22  22  
21:21:22  23  --**************************************************************************
21:21:22  24  --       FUNCTIONS
21:21:22  25  --**************************************************************************
21:21:22  26  	FUNCTION f_add_like_schema(source_id NUMBER, new_description VARCHAR2) RETURN NUMBER AS
21:21:22  27  	BEGIN
21:21:22  28  	  PKG_TBBS_SCHEMA.P_SETPROCESS;
21:21:22  29  	  pkg_pp_error.set_module_name('PKG_TBBS_ACCOUNT.F_ADD_LIKE_SCHEMA');
21:21:22  30  
21:21:22  31  	  G_MSG := 'Inserting new schema into tbbs_schema';
21:21:22  32  
21:21:22  33  	  INSERT INTO tbbs_schema(schema_id, description)
21:21:22  34  	  SELECT tbbs_schema_seq.nextval, substr(new_description, 0, 50)
21:21:22  35  	  FROM dual;
21:21:22  36  
21:21:22  37  	  G_MSG := 'Inserting book assignments into tbbs_book_assign';
21:21:22  38  	  INSERT INTO tbbs_book_assign(schema_id, line_item_id, book_account_id)
21:21:22  39  	  SELECT tbbs_schema_seq.currval, line_item_id, book_account_id
21:21:22  40  	  FROM tbbs_book_assign
21:21:22  41  	  WHERE schema_id = source_id;
21:21:22  42  
21:21:22  43  	  G_MSG := 'Inserting tax assignments into tbbs_tax_assign';
21:21:22  44  	  INSERT INTO tbbs_tax_assign(schema_id, line_item_id, m_item_id)
21:21:22  45  	  SELECT tbbs_schema_seq.currval, line_item_id, m_item_id
21:21:22  46  	  FROM tbbs_tax_assign
21:21:22  47  	  WHERE schema_id = source_id;
21:21:22  48  
21:21:22  49  	  G_MSG := 'Inserting unused book accounts into tbbs_unused_book_account';
21:21:22  50  	  INSERT INTO tbbs_unused_book_account(schema_id, book_account_id)
21:21:22  51  	  SELECT tbbs_schema_seq.currval, book_account_id
21:21:22  52  	  FROM tbbs_unused_book_account
21:21:22  53  	  WHERE schema_id = source_id;
21:21:22  54  
21:21:22  55  	  G_MSG := 'Inserting unused M-Items into tbbs_unused_m_item';
21:21:22  56  	  INSERT INTO tbbs_unused_m_item(schema_id, m_item_id)
21:21:22  57  	  SELECT tbbs_schema_seq.currval, m_item_id
21:21:22  58  	  FROM tbbs_unused_m_item
21:21:22  59  	  WHERE schema_id = source_id;
21:21:22  60  
21:21:22  61  
21:21:22  62  		PKG_PP_ERROR.REMOVE_MODULE_NAME;
21:21:22  63  
21:21:22  64  	  RETURN tbbs_schema_seq.currval;
21:21:22  65  
21:21:23  66  	  exception
21:21:23  67  	  WHEN others THEN
21:21:23  68  	    raise_application_error(-20000, g_msg || ': ' || sqlerrm);
21:21:23  69  
21:21:23  70  	END f_add_like_schema;
21:21:23  71  END pkg_tbbs_schema;
21:21:23  72  /

Package body created.

21:21:23 hopplant> 
21:21:23 hopplant> 
21:21:23 hopplant> --**************************
21:21:23 hopplant> -- Log the run of the script
21:21:23 hopplant> --**************************
21:21:23 hopplant> 
21:21:23 hopplant> insert into PP_SCHEMA_CHANGE_LOG
21:21:23   2  	 (ID, SKIPPED, MAJOR_VERSION, MINOR_VERSION, POINT_VERSION, PATCH_VERSION, MAINT_NUM, SCRIPT_PATH,
21:21:23   3  	  SCRIPT_NAME, SCRIPT_REVISION, DATE_APPLIED, OS_USER, TERMINAL, SERVICE_NAME)
21:21:23   4  values
21:21:23   5  	 (3288, 0, 2016, 1, 0, 0, 0, 'C:\PlasticWks\Powerplant\sql\packages', '2016.1.0.0_PKG_TBBS_SCHEMA.sql', 1, SYSTIMESTAMP, SYS_CONTEXT('USERENV', 'OS_USER'), SYS_CONTEXT('USERENV', 'TERMINAL'), SYS_CONTEXT('USERENV', 'SERVICE_NAME'));

1 row created.

21:21:23 hopplant> commit;

Commit complete.

21:21:23 hopplant> SPOOL OFF
