21:17:35 hopplant> @&&PP_SCRIPT_PATH.maint_scripts\2016.1.0.0_maint_045519_pwrtax_plant_reconciliation_tables_1_ddl.sql
21:17:35 hopplant> /*
21:17:35 hopplant> ||============================================================================
21:17:35 hopplant> || Application: PowerPlan
21:17:35 hopplant> || File Name: maint_045519_pwrtax_plant_reconciliation_tables_1_ddl.sql
21:17:35 hopplant> ||============================================================================
21:17:35 hopplant> || Copyright (C) 2016 by PowerPlan, Inc. All Rights Reserved.
21:17:35 hopplant> ||============================================================================
21:17:35 hopplant> || Version	 Date	    Revised By		Reason for Change
21:17:35 hopplant> || --------	 ---------- ------------------	---------------------------------
21:17:35 hopplant> || 2016.1.0.0 03/21/2016 Anand R			    Change column name on a table
21:17:35 hopplant> ||						TAX_PLANT_RECON_ADJ
21:17:35 hopplant> ||============================================================================
21:17:35 hopplant> */
21:17:35 hopplant> 
21:17:35 hopplant> alter table TAX_PLANT_RECON_ADJ rename column DESCRITION to DESCRIPTION;

Table altered.

21:17:35 hopplant> 
21:17:35 hopplant> comment on column PWRPLANT.TAX_PLANT_RECON_ADJ.DESCRIPTION is 'Description of a tax plant reconciliation adjustment.';

Comment created.

21:17:35 hopplant> 
21:17:35 hopplant> --****************************************************
21:17:35 hopplant> --Log the run of the script to local PP_SCHEMA_LOG
21:17:35 hopplant> --****************************************************
21:17:35 hopplant> INSERT INTO PP_SCHEMA_CHANGE_LOG
21:17:35   2  	      (ID, SKIPPED, MAJOR_VERSION, MINOR_VERSION, POINT_VERSION, PATCH_VERSION, MAINT_NUM, SCRIPT_PATH,
21:17:35   3  	      SCRIPT_NAME, SCRIPT_REVISION, DATE_APPLIED, OS_USER, TERMINAL, SERVICE_NAME)
21:17:35   4  VALUES
21:17:35   5  	      (3113, 0, 2016, 1, 0, 0, 045519, 'C:\PlasticWks\powerplant\sql\maint_scripts', '2016.1.0.0_maint_045519_pwrtax_plant_reconciliation_tables_1_ddl.sql', 1,
21:17:35   6  	      SYSTIMESTAMP, SYS_CONTEXT('USERENV', 'OS_USER'), SYS_CONTEXT('USERENV', 'TERMINAL'),
21:17:35   7  	      SYS_CONTEXT('USERENV', 'SERVICE_NAME'));

1 row created.

21:17:35 hopplant> COMMIT;

Commit complete.

21:17:35 hopplant> SPOOL OFF
