21:21:23 hopplant> @&&PP_SCRIPT_PATH.maint_scripts\2016.1.0.0_maint_046232_prov_tbbs_column_close_descriptions_dml.sql
21:21:23 hopplant> /*
21:21:23 hopplant> ||============================================================================
21:21:23 hopplant> || Application: PowerPlan
21:21:23 hopplant> || File Name: maint_046232_prov_tbbs_column_close_descriptions_dml.sql
21:21:23 hopplant> ||============================================================================
21:21:23 hopplant> || Copyright (C) 2016 by PowerPlan, Inc. All Rights Reserved.
21:21:23 hopplant> ||============================================================================
21:21:23 hopplant> || Version	     Date	Revised By     Reason for Change
21:21:23 hopplant> || ---------- ---------- -------------- ----------------------------------------
21:21:23 hopplant> || 2016.1.0.0 09/12/2016 Jared Watkins  Add missing descriptions to tbbs_column_close
21:21:23 hopplant> ||============================================================================
21:21:23 hopplant> */
21:21:23 hopplant> 
21:21:23 hopplant> update tbbs_column_close set description =
21:21:23   2  	decode(column_name, 'book_amount', 'Book Amount',
21:21:23   3  	'book_rc', 'Book Reclass',
21:21:23   4  	'book_adj', 'Book Adjustments',
21:21:23   5  	'm_beg_bal_py', 'Prior Year M-Item Beginning Balance',
21:21:23   6  	'm_activity_py', 'Prior Year M-Item Activity',
21:21:23   7  	'm_adjust_py', 'Prior Year M-Item Adjustments',
21:21:23   8  	'm_variance_py', 'Prior Year Activity Variance',
21:21:23   9  	'm_beg_bal_cy', 'Current Year M-Item Beginning Balance',
21:21:23  10  	'm_activity_cy', 'Current Year M-Item Activity',
21:21:23  11  	'm_adjust_cy', 'Current Year M-Item Adjustments',
21:21:23  12  	'm_rta_cy', 'RTA Booked in Current Year',
21:21:23  13  	'm_variance_cy', 'Current Year Activity Variance',
21:21:23  14  	'm_m13_py', 'Prior Year M-Item Month 13',
21:21:23  15  	'm_unbooked_rta', 'Unbooked Prior Year RTA',
21:21:23  16  	'tax_m_rc', 'M-Item Reclasses',
21:21:23  17  	'tax_m_adj', 'Manual M-Item Adjustments',
21:21:23  18  	'm_def_tax_bal', 'M-Item Deferred Tax Balance',
21:21:23  19  	'm_def_tax_bal_reg', 'M-Item Deferred Tax Balance (Regulatory)',
21:21:23  20  	'tax_def_rc', 'Deferred Tax Balance Reclasses', '')
21:21:23  21  ;

19 rows updated.

21:21:23 hopplant> 
21:21:23 hopplant> --****************************************************
21:21:23 hopplant> --Log the run of the script to local PP_SCHEMA_LOG
21:21:23 hopplant> --****************************************************
21:21:23 hopplant> INSERT INTO PP_SCHEMA_CHANGE_LOG
21:21:23   2  	      (ID, SKIPPED, MAJOR_VERSION, MINOR_VERSION, POINT_VERSION, PATCH_VERSION, MAINT_NUM, SCRIPT_PATH,
21:21:23   3  	      SCRIPT_NAME, SCRIPT_REVISION, DATE_APPLIED, OS_USER, TERMINAL, SERVICE_NAME)
21:21:23   4  VALUES
21:21:23   5  	      (3289, 0, 2016, 1, 0, 0, 46232, 'C:\PlasticWks\powerplant\sql\maint_scripts', '2016.1.0.0_maint_046232_prov_tbbs_column_close_descriptions_dml.sql', 1,
21:21:23   6  	      SYSTIMESTAMP, SYS_CONTEXT('USERENV', 'OS_USER'), SYS_CONTEXT('USERENV', 'TERMINAL'),
21:21:23   7  	      SYS_CONTEXT('USERENV', 'SERVICE_NAME'));

1 row created.

21:21:23 hopplant> COMMIT;

Commit complete.

21:21:23 hopplant> SPOOL OFF
