21:26:59 hopplant> @&&PP_SCRIPT_PATH.maint_scripts\2016.1.0.0_maint_046727_pwrtax_plant_recon_jur_adj_unique2_ddl.sql
21:26:59 hopplant> /*
21:26:59 hopplant> ||============================================================================
21:26:59 hopplant> || Application: PowerPlan
21:26:59 hopplant> || File Name:   maint_046727_pwrtax_plant_recon_jur_adj_unique2_ddl.sql
21:26:59 hopplant> || Copyright (C) 2016 by PowerPlan, Inc. All Rights Reserved.
21:26:59 hopplant> ||============================================================================
21:26:59 hopplant> || Version	 Date	    Revised By	   Reason for Change
21:26:59 hopplant> || --------	 ---------- -------------- --------------------------------------
21:26:59 hopplant> || 2016.1.0.0 10/20/2016 Jared Watkins  Remove and read the jurisdiction/adjustments
21:26:59 hopplant> ||					   unique index so it can be seen by all users
21:26:59 hopplant> ||============================================================================
21:26:59 hopplant> */
21:26:59 hopplant> begin
21:26:59   2  	execute immediate 'ALTER TABLE tax_plant_recon_form_adj ' ||
21:26:59   3  	  'DROP CONSTRAINT tax_plant_recon_form_adj_ui';
21:26:59   4  
21:26:59   5  	DBMS_OUTPUT.PUT_LINE('Successfully dropped tax_plant_recon_form_adj_ui constraint.');
21:26:59   6  exception
21:26:59   7  	when others then
21:26:59   8  	    if sqlcode = -2443 then
21:26:59   9  	      --1418 is 'specified index does not exist', which means we have already removed the index, so do nothing
21:26:59  10  	      DBMS_OUTPUT.PUT_LINE('tax_plant_recon_form_adj_ui constraint was already removed. No action necessary.');
21:26:59  11  	    else
21:26:59  12  	      RAISE_APPLICATION_ERROR(-20000,
21:26:59  13  				      'Could not drop index tax_plant_recon_form_adj_ui. SQL Error: ' || sqlerrm);
21:26:59  14  	    end if;
21:26:59  15  end;
21:26:59  16  /
Successfully dropped tax_plant_recon_form_adj_ui constraint.                                                                                                                                            

PL/SQL procedure successfully completed.

21:26:59 hopplant> 
21:26:59 hopplant> begin
21:26:59   2  	execute immediate 'DROP INDEX tax_plant_recon_form_adj_ui';
21:26:59   3  	DBMS_OUTPUT.PUT_LINE('Successfully dropped index tax_plant_recon_form_adj_ui.');
21:26:59   4  exception
21:26:59   5  	when others then
21:26:59   6  	    if sqlcode = -1418 then
21:26:59   7  	      --1418 is 'specified index does not exist', which means we have already removed the index, so do nothing
21:26:59   8  	      DBMS_OUTPUT.PUT_LINE('Index tax_plant_recon_form_adj_ui was already removed. No action necessary.');
21:26:59   9  	    else
21:26:59  10  	      RAISE_APPLICATION_ERROR(-20000,
21:26:59  11  				      'Could not drop index tax_plant_recon_form_adj_ui. SQL Error: ' || sqlerrm);
21:26:59  12  	    end if;
21:26:59  13  end;
21:26:59  14  /
Index tax_plant_recon_form_adj_ui was already removed. No action necessary.                                                                                                                             

PL/SQL procedure successfully completed.

21:26:59 hopplant> 
21:26:59 hopplant> begin
21:26:59   2  	execute immediate 'ALTER TABLE tax_plant_recon_form_adj ' ||
21:26:59   3  	  'ADD CONSTRAINT tax_plant_recon_form_adj_ui UNIQUE ( ' ||
21:26:59   4  	  'tax_pr_form_id, ' ||
21:26:59   5  	  'jurisdiction_id, ' ||
21:26:59   6  	  'tax_pr_adj_id) ' ||
21:26:59   7  	      'INITIALLY IMMEDIATE DEFERRABLE '||
21:26:59   8  	'USING INDEX TABLESPACE pwrplant_idx';
21:26:59   9  
21:26:59  10  	DBMS_OUTPUT.PUT_LINE('Successfully added constraint tax_plant_recon_form_adj_ui.');
21:26:59  11  exception
21:26:59  12  when others then
21:26:59  13  	  if sqlcode = -2261 then
21:26:59  14  	    --2261 is 'such unique or primary key already exists', which means we have already removed the index, so do nothing
21:26:59  15  	    DBMS_OUTPUT.PUT_LINE('Index tax_plant_recon_form_adj_ui was already removed. No action necessary.');
21:26:59  16  	  else
21:26:59  17  	    RAISE_APPLICATION_ERROR(-20000,
21:26:59  18  				    'Could not drop index tax_plant_recon_form_adj_ui. SQL Error: ' || sqlerrm);
21:26:59  19  	  end if;
21:26:59  20  end;
21:26:59  21  /
Successfully added constraint tax_plant_recon_form_adj_ui.                                                                                                                                              

PL/SQL procedure successfully completed.

21:26:59 hopplant> 
21:26:59 hopplant> 
21:27:00 hopplant> --****************************************************
21:27:00 hopplant> --Log the run of the script to local PP_SCHEMA_LOG
21:27:00 hopplant> --****************************************************
21:27:00 hopplant> INSERT INTO PP_SCHEMA_CHANGE_LOG
21:27:00   2  	      (ID, SKIPPED, MAJOR_VERSION, MINOR_VERSION, POINT_VERSION, PATCH_VERSION, MAINT_NUM, SCRIPT_PATH,
21:27:00   3  	      SCRIPT_NAME, SCRIPT_REVISION, DATE_APPLIED, OS_USER, TERMINAL, SERVICE_NAME)
21:27:00   4  VALUES
21:27:00   5  	      (3328, 0, 2016, 1, 0, 0, 046727, 'C:\PlasticWks\powerplant\sql\maint_scripts', '2016.1.0.0_maint_046727_pwrtax_plant_recon_jur_adj_unique2_ddl.sql', 1,
21:27:00   6  	      SYSTIMESTAMP, SYS_CONTEXT('USERENV', 'OS_USER'), SYS_CONTEXT('USERENV', 'TERMINAL'),
21:27:00   7  	      SYS_CONTEXT('USERENV', 'SERVICE_NAME'));

1 row created.

21:27:00 hopplant> COMMIT;

Commit complete.

21:27:00 hopplant> SPOOL OFF
