21:20:24 hopplant> @&&PP_SCRIPT_PATH.maint_scripts\2016.1.0.0_maint_045985_budgetom_update_driver_compute_expression_dml.sql
21:20:24 hopplant> /*
21:20:24 hopplant> ||============================================================================
21:20:24 hopplant> || Application: PowerPlan
21:20:24 hopplant> || File Name:  maint_045985_budgetom_update_driver_compute_expression_dml.sql
21:20:24 hopplant> ||============================================================================
21:20:24 hopplant> || Copyright (C) 2016 by PowerPlan, Inc. All Rights Reserved.
21:20:24 hopplant> ||============================================================================
21:20:24 hopplant> || Version	 Date	    Revised By	     Reason for Change
21:20:24 hopplant> || ---------- ---------- ---------------- ------------------------------------
21:20:24 hopplant> || 2016.1.0.0 09/05/2016 Charlie Shilling update naming convention for computed fields on driver templates
21:20:24 hopplant> ||============================================================================
21:20:24 hopplant> */
21:20:24 hopplant> 
21:20:24 hopplant> UPDATE cr_budget_data_labor2_define
21:20:24   2  SET expression = REPLACE(Lower(expression), 'dw_compute_', 'computed_')
21:20:24   3  WHERE Lower(expression) LIKE '%dw_compute%'
21:20:24   4  ;

0 rows updated.

21:20:24 hopplant> 
21:20:24 hopplant> 
21:20:24 hopplant> --****************************************************
21:20:24 hopplant> --Log the run of the script to local PP_SCHEMA_LOG
21:20:24 hopplant> --****************************************************
21:20:24 hopplant> INSERT INTO PP_SCHEMA_CHANGE_LOG
21:20:24   2  	      (ID, SKIPPED, MAJOR_VERSION, MINOR_VERSION, POINT_VERSION, PATCH_VERSION, MAINT_NUM, SCRIPT_PATH,
21:20:24   3  	      SCRIPT_NAME, SCRIPT_REVISION, DATE_APPLIED, OS_USER, TERMINAL, SERVICE_NAME)
21:20:24   4  VALUES
21:20:24   5  	      (3273, 0, 2016, 1, 0, 0, 045985, 'C:\PlasticWks\powerplant\sql\maint_scripts', '2016.1.0.0_maint_045985_budgetom_update_driver_compute_expression_dml.sql', 1,
21:20:24   6  	      SYSTIMESTAMP, SYS_CONTEXT('USERENV', 'OS_USER'), SYS_CONTEXT('USERENV', 'TERMINAL'),
21:20:24   7  	      SYS_CONTEXT('USERENV', 'SERVICE_NAME'));

1 row created.

21:20:24 hopplant> COMMIT;

Commit complete.

21:20:24 hopplant> SPOOL OFF
