21:16:44 hopplant> @&&PP_SCRIPT_PATH.maint_scripts\2016.1.0.0_maint_045519_pwrtax_plant_reconciliation_tables_ddl.sql
21:16:44 hopplant> /*
21:16:44 hopplant> ||============================================================================
21:16:44 hopplant> || Application: PowerPlan
21:16:44 hopplant> || File Name: maint_045519_pwrtax_plant_recon_add_tables_ddl.sql
21:16:44 hopplant> ||============================================================================
21:16:44 hopplant> || Copyright (C) 2016 by PowerPlan, Inc. All Rights Reserved.
21:16:44 hopplant> ||============================================================================
21:16:44 hopplant> || Version	 Date	    Revised By		Reason for Change
21:16:44 hopplant> || --------	 ---------- ------------------	---------------------------------
21:16:44 hopplant> || 2016.1.0.0 03/03/2016 Anand R			    Add Tax Plant reconcilliation tables
21:16:44 hopplant> ||
21:16:44 hopplant> ||============================================================================
21:16:44 hopplant> */
21:16:44 hopplant> 
21:16:44 hopplant> --Create table TAX_PLANT_RECON_FORM
21:16:44 hopplant> --=================================
21:16:44 hopplant> 
21:16:44 hopplant> create table PWRPLANT.TAX_PLANT_RECON_FORM
21:16:44   2  (
21:16:44   3   TAX_PR_FORM_ID NUMBER(22,0) not null,
21:16:44   4   VERSION_ID     NUMBER(22,0) not null,
21:16:44   5   COMPANY_ID     NUMBER(22,0) not null,
21:16:44   6   TAX_YEAR_VERSION_ID NUMBER(22,0) not null,
21:16:44   7   TIME_STAMP    date,
21:16:44   8   USER_ID	     varchar2(18)
21:16:44   9  );

Table created.

21:16:44 hopplant> 
21:16:44 hopplant> comment on table PWRPLANT.TAX_PLANT_RECON_FORM  is 'The Tax Plant Recon Form Table stores the company, version, and tax year for a Plant Reconciliation Form.';

Comment created.

21:16:44 hopplant> comment on column PWRPLANT.TAX_PLANT_RECON_FORM.TAX_PR_FORM_ID is 'System assigned identifier for a tax plant reconciliation form.';

Comment created.

21:16:44 hopplant> comment on column PWRPLANT.TAX_PLANT_RECON_FORM.VERSION_ID is 'System assigned identifier for a tax case.';

Comment created.

21:16:45 hopplant> comment on column PWRPLANT.TAX_PLANT_RECON_FORM.COMPANY_ID is 'System assigned identifier for a company.';

Comment created.

21:16:45 hopplant> comment on column PWRPLANT.TAX_PLANT_RECON_FORM.TAX_YEAR_VERSION_ID is 'System assigned identifier for a tax year related to a tax case.';

Comment created.

21:16:45 hopplant> comment on column PWRPLANT.TAX_PLANT_RECON_FORM.TIME_STAMP is 'Standard system-assigned timestamp used for audit purposes.';

Comment created.

21:16:45 hopplant> comment on column PWRPLANT.TAX_PLANT_RECON_FORM.USER_ID is 'Standard system-assigned user id used for audit purposes.';

Comment created.

21:16:45 hopplant> 
21:16:45 hopplant> alter table PWRPLANT.TAX_PLANT_RECON_FORM
21:16:45   2  	 add constraint TAX_PLANT_RECON_FORM_PK
21:16:45   3  	     primary key (TAX_PR_FORM_ID)
21:16:45   4  	     using index tablespace PWRPLANT_IDX;

Table altered.

21:16:45 hopplant> 
21:16:45 hopplant> alter table PWRPLANT.TAX_PLANT_RECON_FORM
21:16:45   2  	 add constraint TAX_PLANT_RECON_FORM_FK1
21:16:45   3  	 foreign key (VERSION_ID)
21:16:45   4  	 references VERSION(VERSION_ID);

Table altered.

21:16:45 hopplant> 
21:16:45 hopplant> alter table PWRPLANT.TAX_PLANT_RECON_FORM
21:16:45   2  	 add constraint TAX_PLANT_RECON_FORM_FK2
21:16:45   3  	 foreign key (COMPANY_ID)
21:16:45   4  	 references COMPANY_SETUP(COMPANY_ID);

Table altered.

21:16:45 hopplant> 
21:16:45 hopplant> alter table PWRPLANT.TAX_PLANT_RECON_FORM
21:16:45   2  	 add constraint TAX_PLANT_RECON_FORM_FK3
21:16:45   3  	 foreign key (TAX_YEAR_VERSION_ID)
21:16:45   4  	 references TAX_YEAR_VERSION(TAX_YEAR_VERSION_ID);

Table altered.

21:16:45 hopplant> 
21:16:45 hopplant> --Create table TAX_PLANT_RECON_FORM_JUR
21:16:45 hopplant> --=====================================
21:16:45 hopplant> 
21:16:45 hopplant> create table PWRPLANT.TAX_PLANT_RECON_FORM_JUR
21:16:45   2  (
21:16:45   3   TAX_PR_FORM_ID	   NUMBER(22,0) not null,
21:16:45   4   JURISDICTION_ID	   NUMBER(22,0) not null,
21:16:45   5   TIME_STAMP	   date,
21:16:45   6   USER_ID		   varchar2(18)
21:16:45   7  );

Table created.

21:16:45 hopplant> 
21:16:45 hopplant> comment on table PWRPLANT.TAX_PLANT_RECON_FORM_JUR  is 'The Tax Plant Recon Form Jur Table stores the jurisdictions for a Plant Reconciliation Form.';

Comment created.

21:16:45 hopplant> 
21:16:45 hopplant> comment on column PWRPLANT.TAX_PLANT_RECON_FORM_JUR.TAX_PR_FORM_ID is 'System assigned identifier for a tax plant reconciliation form.';

Comment created.

21:16:53 hopplant> comment on column PWRPLANT.TAX_PLANT_RECON_FORM_JUR.JURISDICTION_ID is 'System assigned identifier for a tax jurisdiction.';

Comment created.

21:16:53 hopplant> comment on column PWRPLANT.TAX_PLANT_RECON_FORM.TIME_STAMP is 'Standard system-assigned timestamp used for audit purposes.';

Comment created.

21:16:53 hopplant> comment on column PWRPLANT.TAX_PLANT_RECON_FORM.USER_ID is 'Standard system-assigned user id used for audit purposes.';

Comment created.

21:16:53 hopplant> 
21:16:53 hopplant> alter table PWRPLANT.TAX_PLANT_RECON_FORM_JUR
21:16:53   2  	 add constraint TAX_PLANT_RECON_FORM_JUR_PK
21:16:53   3  	     primary key (TAX_PR_FORM_ID, JURISDICTION_ID)
21:16:53   4  	     using index tablespace PWRPLANT_IDX;

Table altered.

21:16:53 hopplant> 
21:16:53 hopplant> alter table PWRPLANT.TAX_PLANT_RECON_FORM_JUR
21:16:53   2  	 add constraint TAX_PLANT_RECON_FORM_JUR_FK1
21:16:53   3  	 foreign key (TAX_PR_FORM_ID)
21:16:53   4  	 references TAX_PLANT_RECON_FORM(TAX_PR_FORM_ID);

Table altered.

21:16:53 hopplant> 
21:16:53 hopplant> alter table PWRPLANT.TAX_PLANT_RECON_FORM_JUR
21:16:53   2  	 add constraint TAX_PLANT_RECON_FORM_JUR_FK2
21:16:53   3  	 foreign key (JURISDICTION_ID)
21:16:53   4  	 references JURISDICTION(JURISDICTION_ID);

Table altered.

21:16:53 hopplant> 
21:16:53 hopplant> --Create table TAX_PLANT_RECON_SECTION
21:16:53 hopplant> --====================================
21:16:53 hopplant> 
21:16:53 hopplant> create table PWRPLANT.TAX_PLANT_RECON_SECTION
21:16:53   2  (
21:16:53   3   TAX_PR_SECTION_ID      NUMBER(22,0) not null,
21:16:53   4   DESCRIPTION	      VARCHAR2(100) not null,
21:16:53   5   TIME_STAMP	      date,
21:16:53   6   USER_ID		      varchar2(18)
21:16:53   7  );

Table created.

21:16:53 hopplant> 
21:16:53 hopplant> comment on table PWRPLANT.TAX_PLANT_RECON_SECTION   is 'The Tax Plant Recon Section Table stores the description of each section of the Plant Reconciliation Form.';

Comment created.

21:16:54 hopplant> 
21:16:54 hopplant> comment on column PWRPLANT.TAX_PLANT_RECON_SECTION.TAX_PR_SECTION_ID is 'System assigned identifier for a tax plant reconciliation section.';

Comment created.

21:16:54 hopplant> comment on column PWRPLANT.TAX_PLANT_RECON_SECTION.DESCRIPTION is 'Description of a tax plant teconciliation section.';

Comment created.

21:16:54 hopplant> comment on column PWRPLANT.TAX_PLANT_RECON_SECTION.TIME_STAMP is 'Standard system-assigned timestamp used for audit purposes.';

Comment created.

21:16:54 hopplant> comment on column PWRPLANT.TAX_PLANT_RECON_SECTION.USER_ID is 'Standard system-assigned user id used for audit purposes.';

Comment created.

21:16:54 hopplant> 
21:16:54 hopplant> alter table PWRPLANT.TAX_PLANT_RECON_SECTION
21:16:54   2  	 add constraint TAX_PLANT_RECON_SECTION_PK
21:16:54   3  	     primary key (TAX_PR_SECTION_ID)
21:16:54   4  	     using index tablespace PWRPLANT_IDX;

Table altered.

21:16:54 hopplant> 
21:16:54 hopplant> --Create table TAX_PLANT_RECON_FORM_STATUS
21:16:54 hopplant> --========================================
21:16:54 hopplant> 
21:16:54 hopplant> 
21:16:54 hopplant> create table PWRPLANT.TAX_PLANT_RECON_FORM_STATUS
21:16:54   2  (
21:16:54   3   TAX_PR_FORM_ID	   NUMBER(22,0) not null,
21:16:54   4   TAX_PR_SECTION_ID   NUMBER(22,0) not null,
21:16:54   5   STATUS_ID	   NUMBER(22,0) not null,
21:16:54   6   MESSAGE		   VARCHAR(254),
21:16:54   7   TIME_STAMP	   date,
21:16:54   8   USER_ID		   varchar2(18)
21:16:54   9  );

Table created.

21:16:54 hopplant> 
21:16:54 hopplant> comment on table PWRPLANT.TAX_PLANT_RECON_FORM_STATUS is 'The Tax Plant Recon Form Status Table stores the calculation status for a Plant Reconciliation form.';

Comment created.

21:16:54 hopplant> 
21:16:54 hopplant> comment on column PWRPLANT.TAX_PLANT_RECON_FORM_STATUS.TAX_PR_FORM_ID is 'System assigned identifier for a tax plant reconciliation form.';

Comment created.

21:16:54 hopplant> comment on column PWRPLANT.TAX_PLANT_RECON_FORM_STATUS.TAX_PR_SECTION_ID is 'System assigned identifier for a tax plant reconciliation section.';

Comment created.

21:16:54 hopplant> comment on column PWRPLANT.TAX_PLANT_RECON_FORM_STATUS.STATUS_ID is '0 = No out of balance; 1 = out of balance condition exists.';

Comment created.

21:16:54 hopplant> comment on column PWRPLANT.TAX_PLANT_RECON_FORM_STATUS.MESSAGE is 'Message for the user related to the status.';

Comment created.

21:16:54 hopplant> comment on column PWRPLANT.TAX_PLANT_RECON_FORM_STATUS.TIME_STAMP is 'Standard system-assigned timestamp used for audit purposes.';

Comment created.

21:16:54 hopplant> comment on column PWRPLANT.TAX_PLANT_RECON_FORM_STATUS.USER_ID is 'Standard system-assigned user id used for audit purposes.';

Comment created.

21:16:54 hopplant> 
21:16:54 hopplant> alter table PWRPLANT.TAX_PLANT_RECON_FORM_STATUS
21:16:54   2  	 add constraint TAX_PLANT_RECON_FORM_STATUS_PK
21:16:54   3  	     primary key (TAX_PR_FORM_ID)
21:16:54   4  	     using index tablespace PWRPLANT_IDX;

Table altered.

21:16:54 hopplant> 
21:16:54 hopplant> alter table PWRPLANT.TAX_PLANT_RECON_FORM_STATUS
21:16:54   2  	 add constraint TAX_PLANT_RECON_FORM_STAT_FK1
21:16:54   3  	     foreign key (TAX_PR_FORM_ID)
21:16:54   4  	     references TAX_PLANT_RECON_FORM(TAX_PR_FORM_ID) ;

Table altered.

21:16:54 hopplant> 
21:16:54 hopplant> alter table PWRPLANT.TAX_PLANT_RECON_FORM_STATUS
21:16:54   2  	 add constraint TAX_PLANT_RECON_FORM_STAT_FK2
21:16:54   3  	     foreign key (TAX_PR_SECTION_ID)
21:16:54   4  	     references TAX_PLANT_RECON_SECTION(TAX_PR_SECTION_ID) ;

Table altered.

21:16:54 hopplant> 
21:16:54 hopplant> --Create table TAX_PLANT_RECON_FORM_RATES
21:16:54 hopplant> --=======================================
21:16:54 hopplant> create table PWRPLANT.TAX_PLANT_RECON_FORM_RATES
21:16:54   2  (
21:16:54   3   TAX_PR_FORM_ID		NUMBER(22,0) not null,
21:16:54   4   DEF_INCOME_TAX_RATE_ID	NUMBER(22,0) not null,
21:16:54   5   BEG_EFFECTIVE_DATE	date not null,
21:16:54   6   END_EFFECTIVE_DATE	date not null,
21:16:54   7   TIME_STAMP		date,
21:16:54   8   USER_ID			varchar2(18)
21:16:54   9  );

Table created.

21:16:54 hopplant> 
21:16:54 hopplant> comment on table PWRPLANT.TAX_PLANT_RECON_FORM_RATES    is 'The Tax Plant Recon Form Rates Table stores the beginning and ending deferred income tax rates used for a Plant Reconciliation form.';

Comment created.

21:16:54 hopplant> 
21:16:54 hopplant> comment on column PWRPLANT.TAX_PLANT_RECON_FORM_RATES.TAX_PR_FORM_ID is 'System assigned identifier for a tax plant reconciliation form.';

Comment created.

21:16:54 hopplant> comment on column PWRPLANT.TAX_PLANT_RECON_FORM_RATES.DEF_INCOME_TAX_RATE_ID is 'System assigned identifier for a deferred tax rate.';

Comment created.

21:16:54 hopplant> comment on column PWRPLANT.TAX_PLANT_RECON_FORM_RATES.BEG_EFFECTIVE_DATE is 'Effective date used to identify the beginning of year rate.';

Comment created.

21:16:54 hopplant> comment on column PWRPLANT.TAX_PLANT_RECON_FORM_RATES.END_EFFECTIVE_DATE is 'Effective date used to identify the end of year rate.';

Comment created.

21:16:54 hopplant> comment on column PWRPLANT.TAX_PLANT_RECON_FORM_RATES.TIME_STAMP is 'Standard system-assigned timestamp used for audit purposes.';

Comment created.

21:16:54 hopplant> comment on column PWRPLANT.TAX_PLANT_RECON_FORM_RATES.USER_ID is 'Standard system-assigned user id used for audit purposes.';

Comment created.

21:16:54 hopplant> 
21:16:54 hopplant> alter table PWRPLANT.TAX_PLANT_RECON_FORM_RATES
21:16:54   2  	 add constraint TAX_PLANT_RECON_FORM_RATES_PK
21:16:54   3  	     primary key (TAX_PR_FORM_ID)
21:16:54   4  	     using index tablespace PWRPLANT_IDX;

Table altered.

21:16:54 hopplant> 
21:16:54 hopplant> alter table PWRPLANT.TAX_PLANT_RECON_FORM_RATES
21:16:54   2  	 add constraint TAX_PLANT_RECON_FORM_RATES_FK1
21:16:54   3  	     foreign key (TAX_PR_FORM_ID)
21:16:54   4  	     references TAX_PLANT_RECON_FORM(TAX_PR_FORM_ID) ;

Table altered.

21:16:54 hopplant> 
21:16:54 hopplant> alter table PWRPLANT.TAX_PLANT_RECON_FORM_RATES
21:16:54   2  	 add constraint TAX_PLANT_RECON_FORM_RATES_FK2
21:16:54   3  	     foreign key (DEF_INCOME_TAX_RATE_ID)
21:16:54   4  	     references DEFERRED_RATES(DEF_INCOME_TAX_RATE_ID) ;

Table altered.

21:16:54 hopplant> 
21:16:54 hopplant> alter table PWRPLANT.TAX_PLANT_RECON_FORM_RATES
21:16:54   2  	 add constraint TAX_PLANT_RECON_FORM_RATES_FK3
21:16:54   3  	     foreign key (DEF_INCOME_TAX_RATE_ID, BEG_EFFECTIVE_DATE)
21:16:54   4  	     references DEFERRED_INCOME_TAX_RATES (DEF_INCOME_TAX_RATE_ID, EFFECTIVE_DATE) ;

Table altered.

21:16:54 hopplant> 
21:16:54 hopplant> alter table PWRPLANT.TAX_PLANT_RECON_FORM_RATES
21:16:54   2  	 add constraint TAX_PLANT_RECON_FORM_RATES_FK4
21:16:54   3  	     foreign key (DEF_INCOME_TAX_RATE_ID, END_EFFECTIVE_DATE)
21:16:54   4  	     references DEFERRED_INCOME_TAX_RATES (DEF_INCOME_TAX_RATE_ID, EFFECTIVE_DATE) ;

Table altered.

21:16:54 hopplant> 
21:16:54 hopplant> --Create table TAX_PLANT_RECON_GL_ACCOUNT
21:16:54 hopplant> --=======================================
21:16:54 hopplant> 
21:16:54 hopplant> create table PWRPLANT.TAX_PLANT_RECON_GL_ACCOUNT
21:16:54   2  (
21:16:54   3   TAX_PR_GL_ACCOUNT_ID   NUMBER(22,0) not null,
21:16:54   4   DESCRIPTION	      varchar2(100) not null,
21:16:54   5   TAX_ACCOUNT_TYPE       NUMBER(22,0) not null,
21:16:54   6   TIME_STAMP	      date,
21:16:54   7   USER_ID		      varchar2(18)
21:16:54   8  );

Table created.

21:16:55 hopplant> 
21:16:55 hopplant> comment on table PWRPLANT.TAX_PLANT_RECON_GL_ACCOUNT is 'The Tax Plant Recon GL Account Table stores the GL Accounts considered for Plant Reconciliation process.';

Comment created.

21:16:55 hopplant> 
21:16:55 hopplant> comment on column PWRPLANT.TAX_PLANT_RECON_GL_ACCOUNT.TAX_PR_GL_ACCOUNT_ID is 'System assigned identifier for a tax plant reconciliation GL Account.';

Comment created.

21:16:55 hopplant> comment on column PWRPLANT.TAX_PLANT_RECON_GL_ACCOUNT.DESCRIPTION is 'Description of the tax plant reconciliation GL Account.';

Comment created.

21:16:55 hopplant> comment on column PWRPLANT.TAX_PLANT_RECON_GL_ACCOUNT.TAX_ACCOUNT_TYPE is '1 = Asset; 2 = Reserve';

Comment created.

21:16:55 hopplant> comment on column PWRPLANT.TAX_PLANT_RECON_GL_ACCOUNT.TIME_STAMP is 'Standard system-assigned timestamp used for audit purposes.';

Comment created.

21:16:55 hopplant> comment on column PWRPLANT.TAX_PLANT_RECON_GL_ACCOUNT.USER_ID is 'Standard system-assigned user id used for audit purposes.';

Comment created.

21:16:55 hopplant> 
21:16:55 hopplant> alter table PWRPLANT.TAX_PLANT_RECON_GL_ACCOUNT
21:16:55   2  	 add constraint TAX_PLANT_RECON_GL_ACCOUNT_PK
21:16:55   3  	     primary key (TAX_PR_GL_ACCOUNT_ID)
21:16:55   4  	     using index tablespace PWRPLANT_IDX;

Table altered.

21:16:55 hopplant> 
21:16:55 hopplant> --Create table TAX_PLANT_RECON_FORM_GL_ACCT
21:16:55 hopplant> --=========================================
21:16:55 hopplant> 
21:16:55 hopplant> create table PWRPLANT.TAX_PLANT_RECON_FORM_GL_ACCT
21:16:55   2  (
21:16:55   3   TAX_PR_FORM_ID	      NUMBER(22,0) not null,
21:16:55   4   TAX_PR_GL_ACCOUNT_ID   NUMBER(22,0) not null,
21:16:55   5   BEG_BALANCE	      NUMBER(22,2) not null,
21:16:55   6   END_BALANCE	      NUMBER(22,2) not null,
21:16:55   7   TIME_STAMP	      date,
21:16:55   8   USER_ID		      varchar2(18)
21:16:55   9  );

Table created.

21:16:55 hopplant> 
21:16:55 hopplant> comment on table PWRPLANT.TAX_PLANT_RECON_FORM_GL_ACCT  is 'The Tax Plant Recon Form GL Acct Table stores the beginning and ending balances by GL Account for a Plant Reconciliation form; the values are manually entered by the user.';

Comment created.

21:16:55 hopplant> 
21:16:55 hopplant> comment on column PWRPLANT.TAX_PLANT_RECON_FORM_GL_ACCT.TAX_PR_FORM_ID is 'System assigned identifier for a tax plant reconciliation form.';

Comment created.

21:16:55 hopplant> comment on column PWRPLANT.TAX_PLANT_RECON_FORM_GL_ACCT.TAX_PR_GL_ACCOUNT_ID is 'System assigned identifier for a tax plant reconciliation GL Account.';

Comment created.

21:16:55 hopplant> comment on column PWRPLANT.TAX_PLANT_RECON_FORM_GL_ACCT.BEG_BALANCE is 'Beginning balance for the tax plant reconciliation GL Account.';

Comment created.

21:16:55 hopplant> comment on column PWRPLANT.TAX_PLANT_RECON_FORM_GL_ACCT.END_BALANCE is 'Ending balance for the tax plant reconciliation GL Account.';

Comment created.

21:16:55 hopplant> comment on column PWRPLANT.TAX_PLANT_RECON_FORM_GL_ACCT.TIME_STAMP is 'Standard system-assigned timestamp used for audit purposes.';

Comment created.

21:16:55 hopplant> comment on column PWRPLANT.TAX_PLANT_RECON_FORM_GL_ACCT.USER_ID is 'Standard system-assigned user id used for audit purposes.';

Comment created.

21:16:55 hopplant> 
21:16:55 hopplant> alter table PWRPLANT.TAX_PLANT_RECON_FORM_GL_ACCT
21:16:55   2  	 add constraint TAX_PLANT_RECON_FORM_GL_ACC_PK
21:16:55   3  	     primary key (TAX_PR_FORM_ID, TAX_PR_GL_ACCOUNT_ID)
21:16:55   4  	     using index tablespace PWRPLANT_IDX;

Table altered.

21:16:55 hopplant> 
21:16:55 hopplant> alter table PWRPLANT.TAX_PLANT_RECON_FORM_GL_ACCT
21:16:55   2  	 add constraint TX_PLNT_RECON_FORM_GL_ACC_FK1
21:16:55   3  	     foreign key (TAX_PR_FORM_ID)
21:16:55   4  	     references TAX_PLANT_RECON_FORM(TAX_PR_FORM_ID) ;

Table altered.

21:16:55 hopplant> 
21:16:55 hopplant> alter table PWRPLANT.TAX_PLANT_RECON_FORM_GL_ACCT
21:16:55   2  	 add constraint TX_PLNT_RECON_FORM_GL_ACC_FK2
21:16:55   3  	     foreign key (TAX_PR_GL_ACCOUNT_ID)
21:16:55   4  	     references TAX_PLANT_RECON_GL_ACCOUNT(TAX_PR_GL_ACCOUNT_ID) ;

Table altered.

21:16:55 hopplant> 
21:16:55 hopplant> --Create table TAX_PLANT_RECON_FORM_SUMM_ID
21:16:55 hopplant> --=========================================
21:16:55 hopplant> 
21:16:55 hopplant> create table PWRPLANT.TAX_PLANT_RECON_FORM_SUMM_ID
21:16:55   2  (
21:16:55   3   TAX_PR_FORM_ID	      NUMBER(22,0) not null,
21:16:55   4   TAX_PR_SUMMARY_ID      NUMBER(22,0) not null,
21:16:55   5   DESCRIPTION	      varchar2(100) not null,
21:16:55   6   TAX_PR_SECTION_ID      NUMBER(22,0) not null,
21:16:55   7   JURISDICTION_ID	      NUMBER(22,2),
21:16:55   8   RECON_SOURCE	      NUMBER(22,0),
21:16:55   9   TAX_ACCOUNT_TYPE       NUMBER(22,0),
21:16:55  10   SUBTOTAL 	      NUMBER(22,0),
21:16:55  11   SORT_ORDER	      NUMBER(22,0),
21:16:55  12   TIME_STAMP	      date,
21:16:55  13   USER_ID		      varchar2(18)
21:16:55  14  );

Table created.

21:16:55 hopplant> 
21:16:55 hopplant> comment on table PWRPLANT.TAX_PLANT_RECON_FORM_SUMM_ID  is 'The Tax Plant Recon Form Summ ID Table stores the description and relevant source information for a summary amount line on a Plant Reconciliation Form.';

Comment created.

21:16:55 hopplant> 
21:16:55 hopplant> comment on column PWRPLANT.TAX_PLANT_RECON_FORM_SUMM_ID.TAX_PR_FORM_ID is 'System assigned identifier for a tax plant reconciliation form.';

Comment created.

21:16:55 hopplant> comment on column PWRPLANT.TAX_PLANT_RECON_FORM_SUMM_ID.TAX_PR_SUMMARY_ID is 'System assigned identifier for a tax plant reconciliation summary.';

Comment created.

21:16:55 hopplant> comment on column PWRPLANT.TAX_PLANT_RECON_FORM_SUMM_ID.DESCRIPTION is 'Description of a tax plant reconciliation summary.';

Comment created.

21:16:55 hopplant> comment on column PWRPLANT.TAX_PLANT_RECON_FORM_SUMM_ID.TAX_PR_SECTION_ID is 'System assigned identifier for a tax plant reconciliation section.';

Comment created.

21:16:55 hopplant> comment on column PWRPLANT.TAX_PLANT_RECON_FORM_SUMM_ID.JURISDICTION_ID is 'System assigned identifier for a jurisdiction.';

Comment created.

21:16:55 hopplant> comment on column PWRPLANT.TAX_PLANT_RECON_FORM_SUMM_ID.RECON_SOURCE is '1 = GL; 2 = PowerTax; 3 = PowerPlan';

Comment created.

21:16:55 hopplant> comment on column PWRPLANT.TAX_PLANT_RECON_FORM_SUMM_ID.TAX_ACCOUNT_TYPE is '1 = Asset; 2 = Reserve';

Comment created.

21:16:55 hopplant> comment on column PWRPLANT.TAX_PLANT_RECON_FORM_SUMM_ID.SUBTOTAL is '0 = Not a subtotal; 1 = Subtotal';

Comment created.

21:16:55 hopplant> comment on column PWRPLANT.TAX_PLANT_RECON_FORM_SUMM_ID.SORT_ORDER is 'Display order for the summary items';

Comment created.

21:16:55 hopplant> comment on column PWRPLANT.TAX_PLANT_RECON_FORM_SUMM_ID.TIME_STAMP is 'Standard system-assigned timestamp used for audit purposes.';

Comment created.

21:16:55 hopplant> comment on column PWRPLANT.TAX_PLANT_RECON_FORM_SUMM_ID.USER_ID is 'Standard system-assigned user id used for audit purposes.';

Comment created.

21:16:55 hopplant> 
21:16:55 hopplant> alter table PWRPLANT.TAX_PLANT_RECON_FORM_SUMM_ID
21:16:55   2  	 add constraint TX_PLNT_RECON_FORM_SUMM_ID_PK
21:16:55   3  	     primary key (TAX_PR_FORM_ID, TAX_PR_SUMMARY_ID)
21:16:55   4  	     using index tablespace PWRPLANT_IDX;

Table altered.

21:16:55 hopplant> 
21:16:55 hopplant> alter table PWRPLANT.TAX_PLANT_RECON_FORM_SUMM_ID
21:16:55   2  	 add constraint TX_PLNT_RECON_FORM_SUMM_ID_FK1
21:16:55   3  	     foreign key (TAX_PR_FORM_ID)
21:16:55   4  	     references TAX_PLANT_RECON_FORM(TAX_PR_FORM_ID) ;

Table altered.

21:16:55 hopplant> 
21:16:55 hopplant> alter table PWRPLANT.TAX_PLANT_RECON_FORM_SUMM_ID
21:16:55   2  	 add constraint TX_PLNT_RECON_FORM_SUMM_ID_FK2
21:16:55   3  	     foreign key (TAX_PR_SECTION_ID)
21:16:55   4  	     references TAX_PLANT_RECON_SECTION(TAX_PR_SECTION_ID) ;

Table altered.

21:16:55 hopplant> 
21:16:55 hopplant> alter table PWRPLANT.TAX_PLANT_RECON_FORM_SUMM_ID
21:16:55   2  	 add constraint TX_PLNT_RECON_FORM_SUMM_ID_FK3
21:16:55   3  	     foreign key (JURISDICTION_ID)
21:16:55   4  	     references JURISDICTION (JURISDICTION_ID) ;

Table altered.

21:16:55 hopplant> 
21:16:55 hopplant> --Create table TAX_PLANT_RECON_FORM_SUMMARY
21:16:55 hopplant> --=========================================
21:16:55 hopplant> 
21:16:55 hopplant> create table PWRPLANT.TAX_PLANT_RECON_FORM_SUMMARY
21:16:55   2  (
21:16:55   3   TAX_PR_FORM_ID	  NUMBER(22,0) not null,
21:16:55   4   TAX_PR_SUMMARY_ID  NUMBER(22,0) not null,
21:16:55   5   BEG_BALANCE	  NUMBER(22,2) not null,
21:16:55   6   ADDITIONS	  NUMBER(22,2) not null,
21:16:55   7   ADJUSTMENTS	  NUMBER(22,2) not null,
21:16:55   8   TRANSFERS	  NUMBER(22,2) not null,
21:16:55   9   RETIREMENTS	  NUMBER(22,2) not null,
21:16:55  10   BOOK_PROVISION	  NUMBER(22,2) not null,
21:16:55  11   ACTUAL_COR	  NUMBER(22,2) not null,
21:16:55  12   ACTUAL_SALVAGE	  NUMBER(22,2) not null,
21:16:55  13   OTHER		  NUMBER(22,2) not null,
21:16:55  14   END_BALANCE	  NUMBER(22,2) not null,
21:16:55  15   TIME_STAMP	  date,
21:16:55  16   USER_ID		  varchar2(18)
21:16:55  17  );

Table created.

21:16:56 hopplant> 
21:16:56 hopplant> comment on table PWRPLANT.TAX_PLANT_RECON_FORM_SUMMARY  is 'The Tax Plant Recon Form Summary Table stores the beginning and ending balances as well as current year activity from Plant Asset, Depreciation, and PowerTax.  Summarized and calculated Form amounts are also stored.';

Comment created.

21:16:56 hopplant> 
21:16:56 hopplant> comment on column PWRPLANT.TAX_PLANT_RECON_FORM_SUMMARY.TAX_PR_FORM_ID is 'System assigned identifier for a tax plant reconciliation form.';

Comment created.

21:16:56 hopplant> comment on column PWRPLANT.TAX_PLANT_RECON_FORM_SUMMARY.TAX_PR_SUMMARY_ID is 'System assigned identifier for a tax plant reconciliation summary.';

Comment created.

21:16:56 hopplant> comment on column PWRPLANT.TAX_PLANT_RECON_FORM_SUMMARY.BEG_BALANCE is 'Beginning balance';

Comment created.

21:16:56 hopplant> comment on column PWRPLANT.TAX_PLANT_RECON_FORM_SUMMARY.ADDITIONS is 'Current year additions';

Comment created.

21:16:56 hopplant> comment on column PWRPLANT.TAX_PLANT_RECON_FORM_SUMMARY.ADJUSTMENTS is 'Current year adjustments';

Comment created.

21:16:56 hopplant> comment on column PWRPLANT.TAX_PLANT_RECON_FORM_SUMMARY.TRANSFERS is 'Current year transfers';

Comment created.

21:16:56 hopplant> comment on column PWRPLANT.TAX_PLANT_RECON_FORM_SUMMARY.RETIREMENTS is 'Current year retirements';

Comment created.

21:16:56 hopplant> comment on column PWRPLANT.TAX_PLANT_RECON_FORM_SUMMARY.BOOK_PROVISION is 'Current year book provision';

Comment created.

21:16:56 hopplant> comment on column PWRPLANT.TAX_PLANT_RECON_FORM_SUMMARY.ACTUAL_COR is 'Current year cost of removal';

Comment created.

21:16:56 hopplant> comment on column PWRPLANT.TAX_PLANT_RECON_FORM_SUMMARY.ACTUAL_SALVAGE is 'Current year salvage';

Comment created.

21:16:56 hopplant> comment on column PWRPLANT.TAX_PLANT_RECON_FORM_SUMMARY.OTHER is 'Current year transfers and gain/loss';

Comment created.

21:16:56 hopplant> comment on column PWRPLANT.TAX_PLANT_RECON_FORM_SUMMARY.END_BALANCE is 'Ending balance';

Comment created.

21:16:56 hopplant> comment on column PWRPLANT.TAX_PLANT_RECON_FORM_SUMMARY.TIME_STAMP is 'Standard system-assigned timestamp used for audit purposes.';

Comment created.

21:16:56 hopplant> comment on column PWRPLANT.TAX_PLANT_RECON_FORM_SUMMARY.USER_ID is 'Standard system-assigned user id used for audit purposes.';

Comment created.

21:16:56 hopplant> 
21:16:56 hopplant> alter table PWRPLANT.TAX_PLANT_RECON_FORM_SUMMARY
21:16:56   2  	 add constraint TX_PLNT_RECON_FORM_SUMMARY_PK
21:16:56   3  	     primary key (TAX_PR_FORM_ID, TAX_PR_SUMMARY_ID)
21:16:56   4  	     using index tablespace PWRPLANT_IDX;

Table altered.

21:16:56 hopplant> 
21:16:56 hopplant> alter table PWRPLANT.TAX_PLANT_RECON_FORM_SUMMARY
21:16:56   2  	 add constraint TX_PLNT_RECON_FORM_SUMMARY_FK1
21:16:56   3  	     foreign key (TAX_PR_FORM_ID)
21:16:56   4  	     references TAX_PLANT_RECON_FORM(TAX_PR_FORM_ID) ;

Table altered.

21:16:56 hopplant> 
21:16:56 hopplant> alter table PWRPLANT.TAX_PLANT_RECON_FORM_SUMMARY
21:16:56   2  	 add constraint TX_PLNT_RECON_FORM_SUMMARY_FK2
21:16:56   3  	     foreign key (TAX_PR_FORM_ID, TAX_PR_SUMMARY_ID)
21:16:56   4  	     references TAX_PLANT_RECON_FORM_SUMM_ID(TAX_PR_FORM_ID, TAX_PR_SUMMARY_ID) ;

Table altered.

21:16:56 hopplant> 
21:16:56 hopplant> --Create table TAX_PLANT_RECON_FORM_RES_SUMM
21:16:56 hopplant> --==========================================
21:16:56 hopplant> 
21:16:56 hopplant> create table PWRPLANT.TAX_PLANT_RECON_FORM_RES_SUMM
21:16:56   2  (
21:16:56   3   TAX_PR_FORM_ID	  NUMBER(22,0) not null,
21:16:56   4   JURISDICTION_ID	  NUMBER(22,0) not null,
21:16:56   5   BEG_BALANCE	  NUMBER(22,2) not null,
21:16:56   6   DEPR_EXPENSE	  NUMBER(22,2) not null,
21:16:56   7   TRANSFERS	  NUMBER(22,2) not null,
21:16:56   8   RESERVE_RETIRE	  NUMBER(22,2) not null,
21:16:56   9   SALVAGE_IMPACTS	  NUMBER(22,2) not null,
21:16:56  10   COR_IMPACTS	  NUMBER(22,2) not null,
21:16:56  11   OTHER_BONUS	  NUMBER(22,2) not null,
21:16:56  12   END_BALANCE	  NUMBER(22,2) not null,
21:16:56  13   TIME_STAMP	  date,
21:16:56  14   USER_ID		  varchar2(18)
21:16:56  15  );

Table created.

21:16:56 hopplant> 
21:16:56 hopplant> comment on table PWRPLANT.TAX_PLANT_RECON_FORM_RES_SUMM   is 'The Tax Plant Recon Form Res Summ Table stores the Depreciation Reserve Summary amounts for a Plant Reconciliation Form.';

Comment created.

21:16:56 hopplant> 
21:16:56 hopplant> comment on column PWRPLANT.TAX_PLANT_RECON_FORM_RES_SUMM.TAX_PR_FORM_ID is 'System assigned identifier for a tax plant reconciliation form.';

Comment created.

21:16:56 hopplant> comment on column PWRPLANT.TAX_PLANT_RECON_FORM_RES_SUMM.JURISDICTION_ID is 'System assigned identifier for a jurisdiction.';

Comment created.

21:16:56 hopplant> comment on column PWRPLANT.TAX_PLANT_RECON_FORM_RES_SUMM.BEG_BALANCE is 'Beginning balance';

Comment created.

21:16:56 hopplant> comment on column PWRPLANT.TAX_PLANT_RECON_FORM_RES_SUMM.DEPR_EXPENSE is 'Current year depreciation expense';

Comment created.

21:16:56 hopplant> comment on column PWRPLANT.TAX_PLANT_RECON_FORM_RES_SUMM.TRANSFERS is 'Current year transfers';

Comment created.

21:16:56 hopplant> comment on column PWRPLANT.TAX_PLANT_RECON_FORM_RES_SUMM.RESERVE_RETIRE is 'Current year reserve retires';

Comment created.

21:16:56 hopplant> comment on column PWRPLANT.TAX_PLANT_RECON_FORM_RES_SUMM.SALVAGE_IMPACTS is 'Current year salvage impacts';

Comment created.

21:16:56 hopplant> comment on column PWRPLANT.TAX_PLANT_RECON_FORM_RES_SUMM.COR_IMPACTS is 'Current year COR impacts';

Comment created.

21:16:56 hopplant> comment on column PWRPLANT.TAX_PLANT_RECON_FORM_RES_SUMM.OTHER_BONUS is 'Current year other bonus';

Comment created.

21:16:56 hopplant> comment on column PWRPLANT.TAX_PLANT_RECON_FORM_RES_SUMM.END_BALANCE is 'Ending balance';

Comment created.

21:16:56 hopplant> comment on column PWRPLANT.TAX_PLANT_RECON_FORM_RES_SUMM.TIME_STAMP is 'Standard system-assigned timestamp used for audit purposes.';

Comment created.

21:16:56 hopplant> comment on column PWRPLANT.TAX_PLANT_RECON_FORM_RES_SUMM.USER_ID is 'Standard system-assigned user id used for audit purposes.';

Comment created.

21:16:56 hopplant> 
21:16:56 hopplant> alter table PWRPLANT.TAX_PLANT_RECON_FORM_RES_SUMM
21:16:56   2  	 add constraint TX_PLNT_RECON_FORM_RES_SUMM_PK
21:16:56   3  	     primary key (TAX_PR_FORM_ID, JURISDICTION_ID)
21:16:56   4  	     using index tablespace PWRPLANT_IDX;

Table altered.

21:16:56 hopplant> 
21:16:56 hopplant> alter table PWRPLANT.TAX_PLANT_RECON_FORM_RES_SUMM
21:16:56   2  	 add constraint TX_PLNT_RECON_FORM_RES_SUM_FK1
21:16:56   3  	     foreign key (TAX_PR_FORM_ID)
21:16:56   4  	     references TAX_PLANT_RECON_FORM(TAX_PR_FORM_ID) ;

Table altered.

21:16:56 hopplant> 
21:16:56 hopplant> alter table PWRPLANT.TAX_PLANT_RECON_FORM_RES_SUMM
21:16:56   2  	 add constraint TX_PLNT_RECON_FORM_RES_SUM_FK2
21:16:56   3  	     foreign key (JURISDICTION_ID)
21:16:56   4  	     references JURISDICTION(JURISDICTION_ID) ;

Table altered.

21:16:56 hopplant> 
21:16:56 hopplant> --Create table TAX_PLANT_RECON_ADJ
21:16:56 hopplant> --================================
21:16:56 hopplant> 
21:16:56 hopplant> create table PWRPLANT.TAX_PLANT_RECON_ADJ
21:16:56   2  (
21:16:56   3   TAX_PR_ADJ_ID	  NUMBER(22,0) not null,
21:16:56   4   DESCRITION	  varchar2(100) not null,
21:16:56   5   TAX_PR_SECTION_ID  NUMBER(22,0) not null,
21:16:56   6   RECON_SOURCE	  NUMBER(22,0) not null,
21:16:56   7   TIME_STAMP	  date,
21:16:56   8   USER_ID		  varchar2(18)
21:16:56   9  );

Table created.

21:16:56 hopplant> 
21:16:56 hopplant> comment on table PWRPLANT.TAX_PLANT_RECON_ADJ    is 'The Tax Plant Recon Adj Table stores the manual reconciling adjustments available to a Plant Reconciliation Form.';

Comment created.

21:16:56 hopplant> 
21:16:56 hopplant> comment on column PWRPLANT.TAX_PLANT_RECON_ADJ.TAX_PR_ADJ_ID is 'System assigned identifier for a tax plant reconciliation adjustment.';

Comment created.

21:16:56 hopplant> comment on column PWRPLANT.TAX_PLANT_RECON_ADJ.DESCRITION is 'Description of a tax plant reconciliation adjustment.';

Comment created.

21:16:57 hopplant> comment on column PWRPLANT.TAX_PLANT_RECON_ADJ.TAX_PR_SECTION_ID is 'System assigned identifier for a tax plant reconciliation section.';

Comment created.

21:16:57 hopplant> comment on column PWRPLANT.TAX_PLANT_RECON_ADJ.RECON_SOURCE is '1 = GL; 2 = PowerTax';

Comment created.

21:16:57 hopplant> comment on column PWRPLANT.TAX_PLANT_RECON_ADJ.TIME_STAMP is 'Standard system-assigned timestamp used for audit purposes.';

Comment created.

21:16:57 hopplant> comment on column PWRPLANT.TAX_PLANT_RECON_ADJ.USER_ID is 'Standard system-assigned user id used for audit purposes.';

Comment created.

21:16:57 hopplant> 
21:16:57 hopplant> alter table PWRPLANT.TAX_PLANT_RECON_ADJ
21:16:57   2  	 add constraint TAX_PLANT_RECON_ADJ_PK
21:16:57   3  	     primary key (TAX_PR_ADJ_ID)
21:16:57   4  	     using index tablespace PWRPLANT_IDX;

Table altered.

21:16:57 hopplant> 
21:16:57 hopplant> alter table PWRPLANT.TAX_PLANT_RECON_ADJ
21:16:57   2  	 add constraint TAX_PLANT_RECON_ADJ_FK1
21:16:57   3  	     foreign key (TAX_PR_SECTION_ID)
21:16:57   4  	     references TAX_PLANT_RECON_SECTION(TAX_PR_SECTION_ID) ;

Table altered.

21:16:57 hopplant> 
21:16:57 hopplant> --Create table TAX_PLANT_RECON_FORM_ADJ
21:16:57 hopplant> --=====================================
21:16:57 hopplant> 
21:16:57 hopplant> create table PWRPLANT.TAX_PLANT_RECON_FORM_ADJ
21:16:57   2  (
21:16:57   3   TAX_PR_FORM_ID	  NUMBER(22,0) not null,
21:16:57   4   TAX_PR_ADJ_ID	  NUMBER(22,0) not null,
21:16:57   5   BEG_BALANCE	  NUMBER(22,2) not null,
21:16:57   6   ADDITIONS	  NUMBER(22,2) not null,
21:16:57   7   ADJUSTMENTS	  NUMBER(22,2) not null,
21:16:57   8   TRANSFERS	  NUMBER(22,2) not null,
21:16:57   9   RETIREMENTS	  NUMBER(22,2) not null,
21:16:57  10   BOOK_PROVISION	  NUMBER(22,2) not null,
21:16:57  11   ACTUAL_COR	  NUMBER(22,2) not null,
21:16:57  12   ACTUAL_SALVAGE	  NUMBER(22,2) not null,
21:16:57  13   OTHER		  NUMBER(22,2) not null,
21:16:57  14   END_BALANCE	  NUMBER(22,2) not null,
21:16:57  15   TIME_STAMP	  date,
21:16:57  16   USER_ID		  varchar2(18)
21:16:57  17  );

Table created.

21:16:57 hopplant> 
21:16:57 hopplant> comment on table PWRPLANT.TAX_PLANT_RECON_FORM_ADJ	 is 'The Tax Plant Recon Form Adj Table stores the beginning and ending balances as well as current year activity by adjustment for a Plant Reconciliation form; the values are manually entered by the user.';

Comment created.

21:16:57 hopplant> 
21:16:57 hopplant> comment on column PWRPLANT.TAX_PLANT_RECON_FORM_ADJ.TAX_PR_FORM_ID is 'System assigned identifier for a tax plant reconciliation form.';

Comment created.

21:16:57 hopplant> comment on column PWRPLANT.TAX_PLANT_RECON_FORM_ADJ.TAX_PR_ADJ_ID is 'System assigned identifier for a tax plant reconciliation adjustment.';

Comment created.

21:16:57 hopplant> comment on column PWRPLANT.TAX_PLANT_RECON_FORM_ADJ.BEG_BALANCE is 'Beginning balance';

Comment created.

21:16:57 hopplant> comment on column PWRPLANT.TAX_PLANT_RECON_FORM_ADJ.ADDITIONS is 'Current year additions for the tax plant reconciliation adjustment.';

Comment created.

21:16:57 hopplant> comment on column PWRPLANT.TAX_PLANT_RECON_FORM_ADJ.ADJUSTMENTS is 'Current year adjustments for the tax plant reconciliation adjustment.';

Comment created.

21:16:57 hopplant> comment on column PWRPLANT.TAX_PLANT_RECON_FORM_ADJ.TRANSFERS is 'Current year transfers for the tax plant reconciliation adjustment.';

Comment created.

21:16:57 hopplant> comment on column PWRPLANT.TAX_PLANT_RECON_FORM_ADJ.RETIREMENTS is 'Current year retirements for the tax plant reconciliation adjustment.';

Comment created.

21:16:57 hopplant> comment on column PWRPLANT.TAX_PLANT_RECON_FORM_ADJ.BOOK_PROVISION is 'Current year book provision';

Comment created.

21:16:57 hopplant> comment on column PWRPLANT.TAX_PLANT_RECON_FORM_ADJ.ACTUAL_COR is 'Current year cost of removal';

Comment created.

21:16:57 hopplant> comment on column PWRPLANT.TAX_PLANT_RECON_FORM_ADJ.ACTUAL_SALVAGE is 'Current year salvage';

Comment created.

21:16:57 hopplant> comment on column PWRPLANT.TAX_PLANT_RECON_FORM_ADJ.OTHER is 'Current year transfers and gain/loss';

Comment created.

21:16:57 hopplant> comment on column PWRPLANT.TAX_PLANT_RECON_FORM_ADJ.END_BALANCE is 'Ending balance';

Comment created.

21:16:57 hopplant> comment on column PWRPLANT.TAX_PLANT_RECON_FORM_ADJ.TIME_STAMP is 'Standard system-assigned timestamp used for audit purposes.';

Comment created.

21:16:57 hopplant> comment on column PWRPLANT.TAX_PLANT_RECON_FORM_ADJ.USER_ID is 'Standard system-assigned user id used for audit purposes.';

Comment created.

21:16:57 hopplant> 
21:16:57 hopplant> alter table PWRPLANT.TAX_PLANT_RECON_FORM_ADJ
21:16:57   2  	 add constraint TAX_PLANT_RECON_FORM_ADJ_PK
21:16:57   3  	     primary key (TAX_PR_FORM_ID, TAX_PR_ADJ_ID)
21:16:57   4  	     using index tablespace PWRPLANT_IDX;

Table altered.

21:16:57 hopplant> 
21:16:57 hopplant> alter table PWRPLANT.TAX_PLANT_RECON_FORM_ADJ
21:16:57   2  	 add constraint TAX_PLANT_RECON_FORM_ADJ_FK1
21:16:57   3  	     foreign key (TAX_PR_FORM_ID)
21:16:57   4  	     references TAX_PLANT_RECON_FORM(TAX_PR_FORM_ID) ;

Table altered.

21:16:57 hopplant> 
21:16:57 hopplant> alter table PWRPLANT.TAX_PLANT_RECON_FORM_ADJ
21:16:57   2  	 add constraint TAX_PLANT_RECON_FORM_ADJ_FK2
21:16:57   3  	     foreign key (TAX_PR_ADJ_ID  )
21:16:57   4  	     references TAX_PLANT_RECON_ADJ(TAX_PR_ADJ_ID  ) ;

Table altered.

21:16:57 hopplant> 
21:16:57 hopplant> 
21:16:57 hopplant> --Create table TAX_PLANT_RECON_FORM_REFRESH
21:16:57 hopplant> --=========================================
21:16:57 hopplant> 
21:16:57 hopplant> create table PWRPLANT.TAX_PLANT_RECON_FORM_REFRESH
21:16:57   2  (
21:16:57   3   TAX_PR_FORM_ID NUMBER(22,0) not null,
21:16:57   4   FORM_SOURCE_ID NUMBER(22,0) not null,
21:16:57   5   REFRESH_DATE   date,
21:16:57   6   TIME_STAMP     date,
21:16:57   7   USER_ID	      varchar2(18)
21:16:57   8  );

Table created.

21:16:57 hopplant> 
21:16:57 hopplant> comment on table PWRPLANT.TAX_PLANT_RECON_FORM_REFRESH  is 'The Tax Plant Recon Form Refresh Table stores the date of last refresh for each source of data.';

Comment created.

21:16:57 hopplant> comment on column PWRPLANT.TAX_PLANT_RECON_FORM_REFRESH.TAX_PR_FORM_ID is 'System assigned identifier for a tax plant reconciliation form.';

Comment created.

21:16:57 hopplant> comment on column PWRPLANT.TAX_PLANT_RECON_FORM_REFRESH.FORM_SOURCE_ID is '1 = Plant Asset Data; 2 = Plant Depreciation Data; 3 = PowerTax Data';

Comment created.

21:16:57 hopplant> comment on column PWRPLANT.TAX_PLANT_RECON_FORM_REFRESH.REFRESH_DATE is 'Date of last refresh for the source of data for the form.';

Comment created.

21:16:57 hopplant> comment on column PWRPLANT.TAX_PLANT_RECON_FORM_REFRESH.TIME_STAMP is 'Standard system-assigned timestamp used for audit purposes.';

Comment created.

21:16:57 hopplant> comment on column PWRPLANT.TAX_PLANT_RECON_FORM_REFRESH.USER_ID is 'Standard system-assigned user id used for audit purposes.';

Comment created.

21:16:57 hopplant> 
21:16:57 hopplant> alter table PWRPLANT.TAX_PLANT_RECON_FORM_REFRESH
21:16:57   2  	 add constraint TX_PLNT_RECON_FORM_REFRESH_PK
21:16:57   3  	     primary key (TAX_PR_FORM_ID, FORM_SOURCE_ID)
21:16:57   4  	     using index tablespace PWRPLANT_IDX;

Table altered.

21:16:57 hopplant> 
21:16:57 hopplant> alter table PWRPLANT.TAX_PLANT_RECON_FORM_REFRESH
21:16:57   2  	 add constraint TX_PLNT_RECON_FORM_REFRESH_FK1
21:16:57   3  	 foreign key (TAX_PR_FORM_ID)
21:16:57   4  	 references TAX_PLANT_RECON_FORM(TAX_PR_FORM_ID);

Table altered.

21:16:57 hopplant> 
21:16:57 hopplant> 
21:16:57 hopplant> --****************************************************
21:16:57 hopplant> --Log the run of the script to local PP_SCHEMA_LOG
21:16:57 hopplant> --****************************************************
21:16:57 hopplant> INSERT INTO PP_SCHEMA_CHANGE_LOG
21:16:57   2  	      (ID, SKIPPED, MAJOR_VERSION, MINOR_VERSION, POINT_VERSION, PATCH_VERSION, MAINT_NUM, SCRIPT_PATH,
21:16:57   3  	      SCRIPT_NAME, SCRIPT_REVISION, DATE_APPLIED, OS_USER, TERMINAL, SERVICE_NAME)
21:16:57   4  VALUES
21:16:57   5  	      (3089, 0, 2016, 1, 0, 0, 045519, 'C:\PlasticWks\powerplant\sql\maint_scripts', '2016.1.0.0_maint_045519_pwrtax_plant_reconciliation_tables_ddl.sql', 1,
21:16:57   6  	      SYSTIMESTAMP, SYS_CONTEXT('USERENV', 'OS_USER'), SYS_CONTEXT('USERENV', 'TERMINAL'),
21:16:57   7  	      SYS_CONTEXT('USERENV', 'SERVICE_NAME'));

1 row created.

21:16:57 hopplant> COMMIT;

Commit complete.

21:16:57 hopplant> SPOOL OFF
