22:32:34 hopplant> @&&PP_SCRIPT_PATH.packages_released\2017.4.0.0_PKG_LEASE_BUCKET.sql
22:32:34 hopplant> /*
22:32:34 hopplant> ||============================================================================
22:32:34 hopplant> || Application: PowerPlant
22:32:34 hopplant> || File Name:   maint_039519_lease_PKG_LEASE_BUCKET.sql
22:32:34 hopplant> ||============================================================================
22:32:34 hopplant> || Copyright (C) 2014 by PowerPlan, Inc. All Rights Reserved.
22:32:34 hopplant> ||============================================================================
22:32:34 hopplant> || Version  Date	  Revised By	   Reason for Change
22:32:34 hopplant> || -------- ---------- ---------------- --------------------------------------
22:32:34 hopplant> || 10.4.3.0 06/10/2014 Kyle Peterson
22:32:34 hopplant> ||============================================================================
22:32:34 hopplant> */
22:32:34 hopplant> 
22:32:34 hopplant> create or replace package PKG_LEASE_BUCKET as
22:32:34   2  	 /*
22:32:34   3  	      ||============================================================================
22:32:34   4  	      || Application: PowerPlant
22:32:34   5  	      || File Name:   PKG_LEASE_BUCKET.sql
22:32:34   6  	      ||============================================================================
22:32:34   7  	      || Copyright (C) 2014 by PowerPlan, Inc. All Rights Reserved.
22:32:34   8  	      ||============================================================================
22:32:34   9  	      || Version  Date	     Revised By       Reason for Change
22:32:34  10  	      || -------- ---------- ---------------- --------------------------------------
22:32:34  11  	      || 10.4.3.0 06/10/2014 Kyle Peterson
22:32:34  12  	      ||============================================================================
22:32:34  13  	      */
22:32:34  14  	      type LS_RENT_BUCKET_ADMIN_TABLE is table of LS_RENT_BUCKET_ADMIN%rowtype index by PLS_INTEGER;
22:32:34  15  	      type BUCKET_ACCTS is table of LS_RENT_BUCKET_ADMIN%rowtype index by PLS_INTEGER;
22:32:34  16  
22:32:34  17  	      procedure P_CALC_EXEC_ACCRUALS(A_TABLE in PKG_LEASE_CALC.ASSET_SCHEDULE_LINE_TYPE);
22:32:34  18  
22:32:34  19  	      procedure P_CALC_CONT_ACCRUALS(A_TABLE in PKG_LEASE_CALC.ASSET_SCHEDULE_LINE_TYPE);
22:32:34  20  
22:32:34  21  	      procedure P_CALC_EXEC_PAYMENTS(A_TABLE in PKG_LEASE_CALC.ASSET_SCHEDULE_LINE_TABLE);
22:32:34  22  
22:32:34  23  	      procedure P_CALC_CONT_PAYMENTS(A_TABLE in PKG_LEASE_CALC.ASSET_SCHEDULE_LINE_TABLE);
22:32:34  24  
22:32:34  25  	      function F_GET_TAX_TYPE(A_TYPE in varchar2, A_NUMBER number) return number;
22:32:34  26  
22:32:34  27  	      function F_GET_ACCTS return BUCKET_ACCTS;
22:32:34  28  
22:32:34  29  end PKG_LEASE_BUCKET;
22:32:34  30  /

Package created.

22:32:34 hopplant> create or replace package body PKG_LEASE_BUCKET as
22:32:34   2  	 /*
22:32:34   3  	      ||============================================================================
22:32:34   4  	      || Application: PowerPlant
22:32:34   5  	      || File Name:   PKG_LEASE_BUCKET.sql
22:32:34   6  	      ||============================================================================
22:32:34   7  	      || Copyright (C) 2014 by PowerPlan, Inc. All Rights Reserved.
22:32:34   8  	      ||============================================================================
22:32:34   9  	      || Version  Date	     Revised By       Reason for Change
22:32:34  10  	      || -------- ---------- ---------------- --------------------------------------
22:32:34  11  	      || 10.4.3.0 06/10/2014 Kyle Peterson
22:32:34  12  	      ||============================================================================
22:32:34  13  	      */
22:32:34  14  
22:32:34  15  	      procedure P_CALC_EXEC_ACCRUALS(A_TABLE in PKG_LEASE_CALC.ASSET_SCHEDULE_LINE_TYPE) is
22:32:34  16  
22:32:34  17  	      begin
22:32:34  18  		      /*Accrual_type_id = 2 is for interest accrual. If payments had accruals they'd be 1. Exec buckets 1-10 are 3-12. Offset by 2*/
22:32:34  19  
22:32:34  20  		      forall SCHEDULEINDEX in indices of A_TABLE
22:32:34  21  			      merge into LS_MONTHLY_ACCRUAL_STG STG
22:32:34  22  			      using (select 0 as ACCRUAL_ID,
22:32:34  23  					      3 as ACCRUAL_TYPE_ID,
22:32:34  24  					      A_TABLE(SCHEDULEINDEX).LS_ASSET_ID as LS_ASSET_ID,
22:32:34  25  					      nvl(A_TABLE(SCHEDULEINDEX).EXECUTORY_ACCRUAL1, 0) as AMOUNT,
22:32:34  26  					      A_TABLE(SCHEDULEINDEX).MONTH as GL_POSTING_MO_YR,
22:32:34  27  					      A_TABLE(SCHEDULEINDEX).SET_OF_BOOKS_ID as SET_OF_BOOKS_ID
22:32:34  28  					      from DUAL
22:32:34  29  					      where nvl(A_TABLE(SCHEDULEINDEX).EXECUTORY_ACCRUAL1, 0)  <> 0) B
22:32:34  30  			      on (b.ACCRUAL_TYPE_ID = STG.ACCRUAL_TYPE_ID
22:32:34  31  				      and b.LS_ASSET_ID = STG.LS_ASSET_ID
22:32:34  32  				      and b.GL_POSTING_MO_YR = STG.GL_POSTING_MO_YR
22:32:34  33  				      and b.SET_OF_BOOKS_ID = STG.SET_OF_BOOKS_ID)
22:32:34  34  			      when matched then update set STG.AMOUNT = B.AMOUNT
22:32:34  35  			      when not matched then insert (ACCRUAL_ID, ACCRUAL_TYPE_ID, LS_ASSET_ID, AMOUNT, GL_POSTING_MO_YR, SET_OF_BOOKS_ID)
22:32:34  36  			      values (LS_MONTHLY_ACCRUAL_STG_SEQ.NEXTVAL, B.ACCRUAL_TYPE_ID, B.LS_ASSET_ID, B.AMOUNT, B.GL_POSTING_MO_YR, B.SET_OF_BOOKS_ID);
22:32:34  37  
22:32:34  38  		      forall SCHEDULEINDEX in indices of A_TABLE
22:32:34  39  			      merge into LS_MONTHLY_ACCRUAL_STG STG
22:32:34  40  			      using (select 0 as ACCRUAL_ID,
22:32:34  41  					      4 as ACCRUAL_TYPE_ID,
22:32:34  42  					      A_TABLE(SCHEDULEINDEX).LS_ASSET_ID as LS_ASSET_ID,
22:32:34  43  					      nvl(A_TABLE(SCHEDULEINDEX).EXECUTORY_ACCRUAL2, 0) as AMOUNT,
22:32:34  44  					      A_TABLE(SCHEDULEINDEX).MONTH as GL_POSTING_MO_YR,
22:32:34  45  					      A_TABLE(SCHEDULEINDEX).SET_OF_BOOKS_ID as SET_OF_BOOKS_ID
22:32:34  46  					      from DUAL
22:32:34  47  					      where nvl(A_TABLE(SCHEDULEINDEX).EXECUTORY_ACCRUAL2, 0)  <> 0) B
22:32:34  48  			      on (b.ACCRUAL_TYPE_ID = STG.ACCRUAL_TYPE_ID
22:32:34  49  				      and b.LS_ASSET_ID = STG.LS_ASSET_ID
22:32:34  50  				      and b.GL_POSTING_MO_YR = STG.GL_POSTING_MO_YR
22:32:34  51  				      and b.SET_OF_BOOKS_ID = STG.SET_OF_BOOKS_ID)
22:32:34  52  			      when matched then update set STG.AMOUNT = B.AMOUNT
22:32:34  53  			      when not matched then insert (ACCRUAL_ID, ACCRUAL_TYPE_ID, LS_ASSET_ID, AMOUNT, GL_POSTING_MO_YR, SET_OF_BOOKS_ID)
22:32:34  54  			      values (LS_MONTHLY_ACCRUAL_STG_SEQ.NEXTVAL, B.ACCRUAL_TYPE_ID, B.LS_ASSET_ID, B.AMOUNT, B.GL_POSTING_MO_YR, B.SET_OF_BOOKS_ID);
22:32:34  55  
22:32:34  56  		      forall SCHEDULEINDEX in indices of A_TABLE
22:32:34  57  			      merge into LS_MONTHLY_ACCRUAL_STG STG
22:32:34  58  			      using (select 0 as ACCRUAL_ID,
22:32:34  59  					      5 as ACCRUAL_TYPE_ID,
22:32:34  60  					      A_TABLE(SCHEDULEINDEX).LS_ASSET_ID as LS_ASSET_ID,
22:32:34  61  					      nvl(A_TABLE(SCHEDULEINDEX).EXECUTORY_ACCRUAL3, 0) as AMOUNT,
22:32:34  62  					      A_TABLE(SCHEDULEINDEX).MONTH as GL_POSTING_MO_YR,
22:32:34  63  					      A_TABLE(SCHEDULEINDEX).SET_OF_BOOKS_ID as SET_OF_BOOKS_ID
22:32:34  64  					      from DUAL
22:32:34  65  					      where nvl(A_TABLE(SCHEDULEINDEX).EXECUTORY_ACCRUAL3, 0)  <> 0) B
22:32:34  66  			      on (b.ACCRUAL_TYPE_ID = STG.ACCRUAL_TYPE_ID
22:32:34  67  				      and b.LS_ASSET_ID = STG.LS_ASSET_ID
22:32:34  68  				      and b.GL_POSTING_MO_YR = STG.GL_POSTING_MO_YR
22:32:34  69  				      and b.SET_OF_BOOKS_ID = STG.SET_OF_BOOKS_ID)
22:32:34  70  			      when matched then update set STG.AMOUNT = B.AMOUNT
22:32:34  71  			      when not matched then insert (ACCRUAL_ID, ACCRUAL_TYPE_ID, LS_ASSET_ID, AMOUNT, GL_POSTING_MO_YR, SET_OF_BOOKS_ID)
22:32:34  72  			      values (LS_MONTHLY_ACCRUAL_STG_SEQ.NEXTVAL, B.ACCRUAL_TYPE_ID, B.LS_ASSET_ID, B.AMOUNT, B.GL_POSTING_MO_YR, B.SET_OF_BOOKS_ID);
22:32:34  73  
22:32:34  74  		      forall SCHEDULEINDEX in indices of A_TABLE
22:32:34  75  			      merge into LS_MONTHLY_ACCRUAL_STG STG
22:32:34  76  			      using (select 0 as ACCRUAL_ID,
22:32:34  77  					      6 as ACCRUAL_TYPE_ID,
22:32:34  78  					      A_TABLE(SCHEDULEINDEX).LS_ASSET_ID as LS_ASSET_ID,
22:32:34  79  					      nvl(A_TABLE(SCHEDULEINDEX).EXECUTORY_ACCRUAL4, 0) as AMOUNT,
22:32:34  80  					      A_TABLE(SCHEDULEINDEX).MONTH as GL_POSTING_MO_YR,
22:32:34  81  					      A_TABLE(SCHEDULEINDEX).SET_OF_BOOKS_ID as SET_OF_BOOKS_ID
22:32:34  82  					      from DUAL
22:32:34  83  					      where nvl(A_TABLE(SCHEDULEINDEX).EXECUTORY_ACCRUAL4, 0)  <> 0) B
22:32:34  84  			      on (b.ACCRUAL_TYPE_ID = STG.ACCRUAL_TYPE_ID
22:32:34  85  				      and b.LS_ASSET_ID = STG.LS_ASSET_ID
22:32:34  86  				      and b.GL_POSTING_MO_YR = STG.GL_POSTING_MO_YR
22:32:34  87  				      and b.SET_OF_BOOKS_ID = STG.SET_OF_BOOKS_ID)
22:32:34  88  			      when matched then update set STG.AMOUNT = B.AMOUNT
22:32:34  89  			      when not matched then insert (ACCRUAL_ID, ACCRUAL_TYPE_ID, LS_ASSET_ID, AMOUNT, GL_POSTING_MO_YR, SET_OF_BOOKS_ID)
22:32:34  90  			      values (LS_MONTHLY_ACCRUAL_STG_SEQ.NEXTVAL, B.ACCRUAL_TYPE_ID, B.LS_ASSET_ID, B.AMOUNT, B.GL_POSTING_MO_YR, B.SET_OF_BOOKS_ID);
22:32:34  91  
22:32:34  92  		      forall SCHEDULEINDEX in indices of A_TABLE
22:32:34  93  			      merge into LS_MONTHLY_ACCRUAL_STG STG
22:32:34  94  			      using (select 0 as ACCRUAL_ID,
22:32:34  95  					      7 as ACCRUAL_TYPE_ID,
22:32:34  96  					      A_TABLE(SCHEDULEINDEX).LS_ASSET_ID as LS_ASSET_ID,
22:32:34  97  					      nvl(A_TABLE(SCHEDULEINDEX).EXECUTORY_ACCRUAL5, 0) as AMOUNT,
22:32:34  98  					      A_TABLE(SCHEDULEINDEX).MONTH as GL_POSTING_MO_YR,
22:32:34  99  					      A_TABLE(SCHEDULEINDEX).SET_OF_BOOKS_ID as SET_OF_BOOKS_ID
22:32:34 100  					      from DUAL
22:32:34 101  					      where nvl(A_TABLE(SCHEDULEINDEX).EXECUTORY_ACCRUAL5, 0)  <> 0) B
22:32:34 102  			      on (b.ACCRUAL_TYPE_ID = STG.ACCRUAL_TYPE_ID
22:32:34 103  				      and b.LS_ASSET_ID = STG.LS_ASSET_ID
22:32:34 104  				      and b.GL_POSTING_MO_YR = STG.GL_POSTING_MO_YR
22:32:34 105  				      and b.SET_OF_BOOKS_ID = STG.SET_OF_BOOKS_ID)
22:32:34 106  			      when matched then update set STG.AMOUNT = B.AMOUNT
22:32:34 107  			      when not matched then insert (ACCRUAL_ID, ACCRUAL_TYPE_ID, LS_ASSET_ID, AMOUNT, GL_POSTING_MO_YR, SET_OF_BOOKS_ID)
22:32:34 108  			      values (LS_MONTHLY_ACCRUAL_STG_SEQ.NEXTVAL, B.ACCRUAL_TYPE_ID, B.LS_ASSET_ID, B.AMOUNT, B.GL_POSTING_MO_YR, B.SET_OF_BOOKS_ID);
22:32:34 109  
22:32:34 110  		      forall SCHEDULEINDEX in indices of A_TABLE
22:32:34 111  			      merge into LS_MONTHLY_ACCRUAL_STG STG
22:32:34 112  			      using (select 0 as ACCRUAL_ID,
22:32:34 113  					      8 as ACCRUAL_TYPE_ID,
22:32:34 114  					      A_TABLE(SCHEDULEINDEX).LS_ASSET_ID as LS_ASSET_ID,
22:32:34 115  					      nvl(A_TABLE(SCHEDULEINDEX).EXECUTORY_ACCRUAL6, 0) as AMOUNT,
22:32:34 116  					      A_TABLE(SCHEDULEINDEX).MONTH as GL_POSTING_MO_YR,
22:32:34 117  					      A_TABLE(SCHEDULEINDEX).SET_OF_BOOKS_ID as SET_OF_BOOKS_ID
22:32:34 118  					      from DUAL
22:32:34 119  					      where nvl(A_TABLE(SCHEDULEINDEX).EXECUTORY_ACCRUAL6, 0)  <> 0) B
22:32:34 120  			      on (b.ACCRUAL_TYPE_ID = STG.ACCRUAL_TYPE_ID
22:32:34 121  				      and b.LS_ASSET_ID = STG.LS_ASSET_ID
22:32:34 122  				      and b.GL_POSTING_MO_YR = STG.GL_POSTING_MO_YR
22:32:34 123  				      and b.SET_OF_BOOKS_ID = STG.SET_OF_BOOKS_ID)
22:32:34 124  			      when matched then update set STG.AMOUNT = B.AMOUNT
22:32:34 125  			      when not matched then insert (ACCRUAL_ID, ACCRUAL_TYPE_ID, LS_ASSET_ID, AMOUNT, GL_POSTING_MO_YR, SET_OF_BOOKS_ID)
22:32:34 126  			      values (LS_MONTHLY_ACCRUAL_STG_SEQ.NEXTVAL, B.ACCRUAL_TYPE_ID, B.LS_ASSET_ID, B.AMOUNT, B.GL_POSTING_MO_YR, B.SET_OF_BOOKS_ID);
22:32:34 127  
22:32:34 128  		      forall SCHEDULEINDEX in indices of A_TABLE
22:32:34 129  			      merge into LS_MONTHLY_ACCRUAL_STG STG
22:32:34 130  			      using (select 0 as ACCRUAL_ID,
22:32:34 131  					      9 as ACCRUAL_TYPE_ID,
22:32:34 132  					      A_TABLE(SCHEDULEINDEX).LS_ASSET_ID as LS_ASSET_ID,
22:32:34 133  					      nvl(A_TABLE(SCHEDULEINDEX).EXECUTORY_ACCRUAL7, 0) as AMOUNT,
22:32:34 134  					      A_TABLE(SCHEDULEINDEX).MONTH as GL_POSTING_MO_YR,
22:32:34 135  					      A_TABLE(SCHEDULEINDEX).SET_OF_BOOKS_ID as SET_OF_BOOKS_ID
22:32:34 136  					      from DUAL
22:32:34 137  					      where nvl(A_TABLE(SCHEDULEINDEX).EXECUTORY_ACCRUAL7, 0)  <> 0) B
22:32:34 138  			      on (b.ACCRUAL_TYPE_ID = STG.ACCRUAL_TYPE_ID
22:32:34 139  				      and b.LS_ASSET_ID = STG.LS_ASSET_ID
22:32:34 140  				      and b.GL_POSTING_MO_YR = STG.GL_POSTING_MO_YR
22:32:34 141  				      and b.SET_OF_BOOKS_ID = STG.SET_OF_BOOKS_ID)
22:32:34 142  			      when matched then update set STG.AMOUNT = B.AMOUNT
22:32:34 143  			      when not matched then insert (ACCRUAL_ID, ACCRUAL_TYPE_ID, LS_ASSET_ID, AMOUNT, GL_POSTING_MO_YR, SET_OF_BOOKS_ID)
22:32:34 144  			      values (LS_MONTHLY_ACCRUAL_STG_SEQ.NEXTVAL, B.ACCRUAL_TYPE_ID, B.LS_ASSET_ID, B.AMOUNT, B.GL_POSTING_MO_YR, B.SET_OF_BOOKS_ID);
22:32:34 145  
22:32:34 146  		      forall SCHEDULEINDEX in indices of A_TABLE
22:32:34 147  			      merge into LS_MONTHLY_ACCRUAL_STG STG
22:32:34 148  			      using (select 0 as ACCRUAL_ID,
22:32:34 149  					      10 as ACCRUAL_TYPE_ID,
22:32:34 150  					      A_TABLE(SCHEDULEINDEX).LS_ASSET_ID as LS_ASSET_ID,
22:32:34 151  					      nvl(A_TABLE(SCHEDULEINDEX).EXECUTORY_ACCRUAL8, 0) as AMOUNT,
22:32:34 152  					      A_TABLE(SCHEDULEINDEX).MONTH as GL_POSTING_MO_YR,
22:32:34 153  					      A_TABLE(SCHEDULEINDEX).SET_OF_BOOKS_ID as SET_OF_BOOKS_ID
22:32:34 154  					      from DUAL
22:32:34 155  					      where nvl(A_TABLE(SCHEDULEINDEX).EXECUTORY_ACCRUAL8, 0)  <> 0) B
22:32:34 156  			      on (b.ACCRUAL_TYPE_ID = STG.ACCRUAL_TYPE_ID
22:32:34 157  				      and b.LS_ASSET_ID = STG.LS_ASSET_ID
22:32:34 158  				      and b.GL_POSTING_MO_YR = STG.GL_POSTING_MO_YR
22:32:34 159  				      and b.SET_OF_BOOKS_ID = STG.SET_OF_BOOKS_ID)
22:32:34 160  			      when matched then update set STG.AMOUNT = B.AMOUNT
22:32:34 161  			      when not matched then insert (ACCRUAL_ID, ACCRUAL_TYPE_ID, LS_ASSET_ID, AMOUNT, GL_POSTING_MO_YR, SET_OF_BOOKS_ID)
22:32:34 162  			      values (LS_MONTHLY_ACCRUAL_STG_SEQ.NEXTVAL, B.ACCRUAL_TYPE_ID, B.LS_ASSET_ID, B.AMOUNT, B.GL_POSTING_MO_YR, B.SET_OF_BOOKS_ID);
22:32:34 163  
22:32:34 164  		      forall SCHEDULEINDEX in indices of A_TABLE
22:32:34 165  			      merge into LS_MONTHLY_ACCRUAL_STG STG
22:32:34 166  			      using (select 0 as ACCRUAL_ID,
22:32:34 167  					      11 as ACCRUAL_TYPE_ID,
22:32:34 168  					      A_TABLE(SCHEDULEINDEX).LS_ASSET_ID as LS_ASSET_ID,
22:32:34 169  					      nvl(A_TABLE(SCHEDULEINDEX).EXECUTORY_ACCRUAL9, 0) as AMOUNT,
22:32:34 170  					      A_TABLE(SCHEDULEINDEX).MONTH as GL_POSTING_MO_YR,
22:32:34 171  					      A_TABLE(SCHEDULEINDEX).SET_OF_BOOKS_ID as SET_OF_BOOKS_ID
22:32:34 172  					      from DUAL
22:32:34 173  					      where nvl(A_TABLE(SCHEDULEINDEX).EXECUTORY_ACCRUAL9, 0)  <> 0) B
22:32:34 174  			      on (b.ACCRUAL_TYPE_ID = STG.ACCRUAL_TYPE_ID
22:32:34 175  				      and b.LS_ASSET_ID = STG.LS_ASSET_ID
22:32:34 176  				      and b.GL_POSTING_MO_YR = STG.GL_POSTING_MO_YR
22:32:34 177  				      and b.SET_OF_BOOKS_ID = STG.SET_OF_BOOKS_ID)
22:32:34 178  			      when matched then update set STG.AMOUNT = B.AMOUNT
22:32:34 179  			      when not matched then insert (ACCRUAL_ID, ACCRUAL_TYPE_ID, LS_ASSET_ID, AMOUNT, GL_POSTING_MO_YR, SET_OF_BOOKS_ID)
22:32:34 180  			      values (LS_MONTHLY_ACCRUAL_STG_SEQ.NEXTVAL, B.ACCRUAL_TYPE_ID, B.LS_ASSET_ID, B.AMOUNT, B.GL_POSTING_MO_YR, B.SET_OF_BOOKS_ID);
22:32:34 181  
22:32:34 182  		      forall SCHEDULEINDEX in indices of A_TABLE
22:32:34 183  			      merge into LS_MONTHLY_ACCRUAL_STG STG
22:32:34 184  			      using (select 0 as ACCRUAL_ID,
22:32:34 185  					      12 as ACCRUAL_TYPE_ID,
22:32:34 186  					      A_TABLE(SCHEDULEINDEX).LS_ASSET_ID as LS_ASSET_ID,
22:32:34 187  					      nvl(A_TABLE(SCHEDULEINDEX).EXECUTORY_ACCRUAL10, 0) as AMOUNT,
22:32:34 188  					      A_TABLE(SCHEDULEINDEX).MONTH as GL_POSTING_MO_YR,
22:32:34 189  					      A_TABLE(SCHEDULEINDEX).SET_OF_BOOKS_ID as SET_OF_BOOKS_ID
22:32:34 190  					      from DUAL
22:32:34 191  					      where nvl(A_TABLE(SCHEDULEINDEX).EXECUTORY_ACCRUAL10, 0)	<> 0) B
22:32:34 192  			      on (b.ACCRUAL_TYPE_ID = STG.ACCRUAL_TYPE_ID
22:32:34 193  				      and b.LS_ASSET_ID = STG.LS_ASSET_ID
22:32:34 194  				      and b.GL_POSTING_MO_YR = STG.GL_POSTING_MO_YR
22:32:34 195  				      and b.SET_OF_BOOKS_ID = STG.SET_OF_BOOKS_ID)
22:32:34 196  			      when matched then update set STG.AMOUNT = B.AMOUNT
22:32:34 197  			      when not matched then insert (ACCRUAL_ID, ACCRUAL_TYPE_ID, LS_ASSET_ID, AMOUNT, GL_POSTING_MO_YR, SET_OF_BOOKS_ID)
22:32:34 198  			      values (LS_MONTHLY_ACCRUAL_STG_SEQ.NEXTVAL, B.ACCRUAL_TYPE_ID, B.LS_ASSET_ID, B.AMOUNT, B.GL_POSTING_MO_YR, B.SET_OF_BOOKS_ID);
22:32:34 199  
22:32:34 200  
22:32:34 201  
22:32:34 202  	      end P_CALC_EXEC_ACCRUALS;
22:32:34 203  
22:32:34 204  	      procedure P_CALC_CONT_ACCRUALS(A_TABLE in PKG_LEASE_CALC.ASSET_SCHEDULE_LINE_TYPE) is
22:32:34 205  
22:32:34 206  	      begin
22:32:34 207  		      /*Accrual_type_id = 2 is for interest accrual. If payments had accruals they'd be 1. Cont buckets 1-10 are 13-22. Offset by 12*/
22:32:34 208  
22:32:34 209  		      forall SCHEDULEINDEX in indices of A_TABLE
22:32:34 210  			      merge into LS_MONTHLY_ACCRUAL_STG STG
22:32:34 211  			      using (select 0 as ACCRUAL_ID,
22:32:34 212  					      13 as ACCRUAL_TYPE_ID,
22:32:34 213  					      A_TABLE(SCHEDULEINDEX).LS_ASSET_ID as LS_ASSET_ID,
22:32:34 214  					      nvl(A_TABLE(SCHEDULEINDEX).CONTINGENT_ACCRUAL1, 0) as AMOUNT,
22:32:34 215  					      A_TABLE(SCHEDULEINDEX).MONTH as GL_POSTING_MO_YR,
22:32:34 216  					      A_TABLE(SCHEDULEINDEX).SET_OF_BOOKS_ID as SET_OF_BOOKS_ID
22:32:34 217  					      from DUAL
22:32:34 218  					      where nvl(A_TABLE(SCHEDULEINDEX).CONTINGENT_ACCRUAL1, 0)	<> 0) B
22:32:34 219  			      on (b.ACCRUAL_TYPE_ID = STG.ACCRUAL_TYPE_ID
22:32:34 220  				      and b.LS_ASSET_ID = STG.LS_ASSET_ID
22:32:34 221  				      and b.GL_POSTING_MO_YR = STG.GL_POSTING_MO_YR
22:32:34 222  				      and b.SET_OF_BOOKS_ID = STG.SET_OF_BOOKS_ID)
22:32:34 223  			      when matched then update set STG.AMOUNT = B.AMOUNT
22:32:34 224  			      when not matched then insert (ACCRUAL_ID, ACCRUAL_TYPE_ID, LS_ASSET_ID, AMOUNT, GL_POSTING_MO_YR, SET_OF_BOOKS_ID)
22:32:34 225  			      values (LS_MONTHLY_ACCRUAL_STG_SEQ.NEXTVAL, B.ACCRUAL_TYPE_ID, B.LS_ASSET_ID, B.AMOUNT, B.GL_POSTING_MO_YR, B.SET_OF_BOOKS_ID);
22:32:34 226  
22:32:34 227  		      forall SCHEDULEINDEX in indices of A_TABLE
22:32:34 228  			      merge into LS_MONTHLY_ACCRUAL_STG STG
22:32:34 229  			      using (select 0 as ACCRUAL_ID,
22:32:34 230  					      14 as ACCRUAL_TYPE_ID,
22:32:34 231  					      A_TABLE(SCHEDULEINDEX).LS_ASSET_ID as LS_ASSET_ID,
22:32:34 232  					      nvl(A_TABLE(SCHEDULEINDEX).CONTINGENT_ACCRUAL2, 0) as AMOUNT,
22:32:34 233  					      A_TABLE(SCHEDULEINDEX).MONTH as GL_POSTING_MO_YR,
22:32:34 234  					      A_TABLE(SCHEDULEINDEX).SET_OF_BOOKS_ID as SET_OF_BOOKS_ID
22:32:34 235  					      from DUAL
22:32:34 236  					      where nvl(A_TABLE(SCHEDULEINDEX).CONTINGENT_ACCRUAL2, 0)	<> 0) B
22:32:34 237  			      on (b.ACCRUAL_TYPE_ID = STG.ACCRUAL_TYPE_ID
22:32:34 238  				      and b.LS_ASSET_ID = STG.LS_ASSET_ID
22:32:34 239  				      and b.GL_POSTING_MO_YR = STG.GL_POSTING_MO_YR
22:32:34 240  				      and b.SET_OF_BOOKS_ID = STG.SET_OF_BOOKS_ID)
22:32:34 241  			      when matched then update set STG.AMOUNT = B.AMOUNT
22:32:34 242  			      when not matched then insert (ACCRUAL_ID, ACCRUAL_TYPE_ID, LS_ASSET_ID, AMOUNT, GL_POSTING_MO_YR, SET_OF_BOOKS_ID)
22:32:34 243  			      values (LS_MONTHLY_ACCRUAL_STG_SEQ.NEXTVAL, B.ACCRUAL_TYPE_ID, B.LS_ASSET_ID, B.AMOUNT, B.GL_POSTING_MO_YR, B.SET_OF_BOOKS_ID);
22:32:34 244  
22:32:34 245  		      forall SCHEDULEINDEX in indices of A_TABLE
22:32:34 246  			      merge into LS_MONTHLY_ACCRUAL_STG STG
22:32:34 247  			      using (select 0 as ACCRUAL_ID,
22:32:34 248  					      15 as ACCRUAL_TYPE_ID,
22:32:34 249  					      A_TABLE(SCHEDULEINDEX).LS_ASSET_ID as LS_ASSET_ID,
22:32:34 250  					      nvl(A_TABLE(SCHEDULEINDEX).CONTINGENT_ACCRUAL3, 0) as AMOUNT,
22:32:34 251  					      A_TABLE(SCHEDULEINDEX).MONTH as GL_POSTING_MO_YR,
22:32:34 252  					      A_TABLE(SCHEDULEINDEX).SET_OF_BOOKS_ID as SET_OF_BOOKS_ID
22:32:34 253  					      from DUAL
22:32:34 254  					      where nvl(A_TABLE(SCHEDULEINDEX).CONTINGENT_ACCRUAL3, 0)	<> 0) B
22:32:34 255  			      on (b.ACCRUAL_TYPE_ID = STG.ACCRUAL_TYPE_ID
22:32:34 256  				      and b.LS_ASSET_ID = STG.LS_ASSET_ID
22:32:34 257  				      and b.GL_POSTING_MO_YR = STG.GL_POSTING_MO_YR
22:32:34 258  				      and b.SET_OF_BOOKS_ID = STG.SET_OF_BOOKS_ID)
22:32:34 259  			      when matched then update set STG.AMOUNT = B.AMOUNT
22:32:34 260  			      when not matched then insert (ACCRUAL_ID, ACCRUAL_TYPE_ID, LS_ASSET_ID, AMOUNT, GL_POSTING_MO_YR, SET_OF_BOOKS_ID)
22:32:34 261  			      values (LS_MONTHLY_ACCRUAL_STG_SEQ.NEXTVAL, B.ACCRUAL_TYPE_ID, B.LS_ASSET_ID, B.AMOUNT, B.GL_POSTING_MO_YR, B.SET_OF_BOOKS_ID);
22:32:34 262  
22:32:34 263  		      forall SCHEDULEINDEX in indices of A_TABLE
22:32:34 264  			      merge into LS_MONTHLY_ACCRUAL_STG STG
22:32:34 265  			      using (select 0 as ACCRUAL_ID,
22:32:34 266  					      16 as ACCRUAL_TYPE_ID,
22:32:34 267  					      A_TABLE(SCHEDULEINDEX).LS_ASSET_ID as LS_ASSET_ID,
22:32:34 268  					      nvl(A_TABLE(SCHEDULEINDEX).CONTINGENT_ACCRUAL4, 0) as AMOUNT,
22:32:34 269  					      A_TABLE(SCHEDULEINDEX).MONTH as GL_POSTING_MO_YR,
22:32:34 270  					      A_TABLE(SCHEDULEINDEX).SET_OF_BOOKS_ID as SET_OF_BOOKS_ID
22:32:34 271  					      from DUAL
22:32:34 272  					      where nvl(A_TABLE(SCHEDULEINDEX).CONTINGENT_ACCRUAL4, 0)	<> 0) B
22:32:34 273  			      on (b.ACCRUAL_TYPE_ID = STG.ACCRUAL_TYPE_ID
22:32:34 274  				      and b.LS_ASSET_ID = STG.LS_ASSET_ID
22:32:34 275  				      and b.GL_POSTING_MO_YR = STG.GL_POSTING_MO_YR
22:32:34 276  				      and b.SET_OF_BOOKS_ID = STG.SET_OF_BOOKS_ID)
22:32:34 277  			      when matched then update set STG.AMOUNT = B.AMOUNT
22:32:34 278  			      when not matched then insert (ACCRUAL_ID, ACCRUAL_TYPE_ID, LS_ASSET_ID, AMOUNT, GL_POSTING_MO_YR, SET_OF_BOOKS_ID)
22:32:34 279  			      values (LS_MONTHLY_ACCRUAL_STG_SEQ.NEXTVAL, B.ACCRUAL_TYPE_ID, B.LS_ASSET_ID, B.AMOUNT, B.GL_POSTING_MO_YR, B.SET_OF_BOOKS_ID);
22:32:34 280  
22:32:34 281  		      forall SCHEDULEINDEX in indices of A_TABLE
22:32:34 282  			      merge into LS_MONTHLY_ACCRUAL_STG STG
22:32:34 283  			      using (select 0 as ACCRUAL_ID,
22:32:34 284  					      17 as ACCRUAL_TYPE_ID,
22:32:34 285  					      A_TABLE(SCHEDULEINDEX).LS_ASSET_ID as LS_ASSET_ID,
22:32:34 286  					      nvl(A_TABLE(SCHEDULEINDEX).CONTINGENT_ACCRUAL5, 0) as AMOUNT,
22:32:34 287  					      A_TABLE(SCHEDULEINDEX).MONTH as GL_POSTING_MO_YR,
22:32:34 288  					      A_TABLE(SCHEDULEINDEX).SET_OF_BOOKS_ID as SET_OF_BOOKS_ID
22:32:34 289  					      from DUAL
22:32:34 290  					      where nvl(A_TABLE(SCHEDULEINDEX).CONTINGENT_ACCRUAL5, 0)	<> 0) B
22:32:34 291  			      on (b.ACCRUAL_TYPE_ID = STG.ACCRUAL_TYPE_ID
22:32:34 292  				      and b.LS_ASSET_ID = STG.LS_ASSET_ID
22:32:34 293  				      and b.GL_POSTING_MO_YR = STG.GL_POSTING_MO_YR
22:32:34 294  				      and b.SET_OF_BOOKS_ID = STG.SET_OF_BOOKS_ID)
22:32:34 295  			      when matched then update set STG.AMOUNT = B.AMOUNT
22:32:34 296  			      when not matched then insert (ACCRUAL_ID, ACCRUAL_TYPE_ID, LS_ASSET_ID, AMOUNT, GL_POSTING_MO_YR, SET_OF_BOOKS_ID)
22:32:34 297  			      values (LS_MONTHLY_ACCRUAL_STG_SEQ.NEXTVAL, B.ACCRUAL_TYPE_ID, B.LS_ASSET_ID, B.AMOUNT, B.GL_POSTING_MO_YR, B.SET_OF_BOOKS_ID);
22:32:34 298  
22:32:34 299  		      forall SCHEDULEINDEX in indices of A_TABLE
22:32:34 300  			      merge into LS_MONTHLY_ACCRUAL_STG STG
22:32:34 301  			      using (select 0 as ACCRUAL_ID,
22:32:34 302  					      18 as ACCRUAL_TYPE_ID,
22:32:34 303  					      A_TABLE(SCHEDULEINDEX).LS_ASSET_ID as LS_ASSET_ID,
22:32:34 304  					      nvl(A_TABLE(SCHEDULEINDEX).CONTINGENT_ACCRUAL6, 0) as AMOUNT,
22:32:34 305  					      A_TABLE(SCHEDULEINDEX).MONTH as GL_POSTING_MO_YR,
22:32:34 306  					      A_TABLE(SCHEDULEINDEX).SET_OF_BOOKS_ID as SET_OF_BOOKS_ID
22:32:34 307  					      from DUAL
22:32:34 308  					      where nvl(A_TABLE(SCHEDULEINDEX).CONTINGENT_ACCRUAL6, 0)	<> 0) B
22:32:34 309  			      on (b.ACCRUAL_TYPE_ID = STG.ACCRUAL_TYPE_ID
22:32:34 310  				      and b.LS_ASSET_ID = STG.LS_ASSET_ID
22:32:34 311  				      and b.GL_POSTING_MO_YR = STG.GL_POSTING_MO_YR
22:32:34 312  				      and b.SET_OF_BOOKS_ID = STG.SET_OF_BOOKS_ID)
22:32:34 313  			      when matched then update set STG.AMOUNT = B.AMOUNT
22:32:34 314  			      when not matched then insert (ACCRUAL_ID, ACCRUAL_TYPE_ID, LS_ASSET_ID, AMOUNT, GL_POSTING_MO_YR, SET_OF_BOOKS_ID)
22:32:34 315  			      values (LS_MONTHLY_ACCRUAL_STG_SEQ.NEXTVAL, B.ACCRUAL_TYPE_ID, B.LS_ASSET_ID, B.AMOUNT, B.GL_POSTING_MO_YR, B.SET_OF_BOOKS_ID);
22:32:34 316  
22:32:34 317  		      forall SCHEDULEINDEX in indices of A_TABLE
22:32:34 318  			      merge into LS_MONTHLY_ACCRUAL_STG STG
22:32:34 319  			      using (select 0 as ACCRUAL_ID,
22:32:34 320  					      19 as ACCRUAL_TYPE_ID,
22:32:34 321  					      A_TABLE(SCHEDULEINDEX).LS_ASSET_ID as LS_ASSET_ID,
22:32:34 322  					      nvl(A_TABLE(SCHEDULEINDEX).CONTINGENT_ACCRUAL7, 0) as AMOUNT,
22:32:34 323  					      A_TABLE(SCHEDULEINDEX).MONTH as GL_POSTING_MO_YR,
22:32:34 324  					      A_TABLE(SCHEDULEINDEX).SET_OF_BOOKS_ID as SET_OF_BOOKS_ID
22:32:34 325  					      from DUAL
22:32:34 326  					      where nvl(A_TABLE(SCHEDULEINDEX).CONTINGENT_ACCRUAL7, 0)	<> 0) B
22:32:34 327  			      on (b.ACCRUAL_TYPE_ID = STG.ACCRUAL_TYPE_ID
22:32:34 328  				      and b.LS_ASSET_ID = STG.LS_ASSET_ID
22:32:34 329  				      and b.GL_POSTING_MO_YR = STG.GL_POSTING_MO_YR
22:32:34 330  				      and b.SET_OF_BOOKS_ID = STG.SET_OF_BOOKS_ID)
22:32:34 331  			      when matched then update set STG.AMOUNT = B.AMOUNT
22:32:34 332  			      when not matched then insert (ACCRUAL_ID, ACCRUAL_TYPE_ID, LS_ASSET_ID, AMOUNT, GL_POSTING_MO_YR, SET_OF_BOOKS_ID)
22:32:34 333  			      values (LS_MONTHLY_ACCRUAL_STG_SEQ.NEXTVAL, B.ACCRUAL_TYPE_ID, B.LS_ASSET_ID, B.AMOUNT, B.GL_POSTING_MO_YR, B.SET_OF_BOOKS_ID);
22:32:34 334  
22:32:34 335  		      forall SCHEDULEINDEX in indices of A_TABLE
22:32:34 336  			      merge into LS_MONTHLY_ACCRUAL_STG STG
22:32:34 337  			      using (select 0 as ACCRUAL_ID,
22:32:34 338  					      20 as ACCRUAL_TYPE_ID,
22:32:34 339  					      A_TABLE(SCHEDULEINDEX).LS_ASSET_ID as LS_ASSET_ID,
22:32:34 340  					      nvl(A_TABLE(SCHEDULEINDEX).CONTINGENT_ACCRUAL8, 0) as AMOUNT,
22:32:34 341  					      A_TABLE(SCHEDULEINDEX).MONTH as GL_POSTING_MO_YR,
22:32:34 342  					      A_TABLE(SCHEDULEINDEX).SET_OF_BOOKS_ID as SET_OF_BOOKS_ID
22:32:34 343  					      from DUAL
22:32:34 344  					      where nvl(A_TABLE(SCHEDULEINDEX).CONTINGENT_ACCRUAL8, 0)	<> 0) B
22:32:34 345  			      on (b.ACCRUAL_TYPE_ID = STG.ACCRUAL_TYPE_ID
22:32:34 346  				      and b.LS_ASSET_ID = STG.LS_ASSET_ID
22:32:34 347  				      and b.GL_POSTING_MO_YR = STG.GL_POSTING_MO_YR
22:32:34 348  				      and b.SET_OF_BOOKS_ID = STG.SET_OF_BOOKS_ID)
22:32:34 349  			      when matched then update set STG.AMOUNT = B.AMOUNT
22:32:34 350  			      when not matched then insert (ACCRUAL_ID, ACCRUAL_TYPE_ID, LS_ASSET_ID, AMOUNT, GL_POSTING_MO_YR, SET_OF_BOOKS_ID)
22:32:34 351  			      values (LS_MONTHLY_ACCRUAL_STG_SEQ.NEXTVAL, B.ACCRUAL_TYPE_ID, B.LS_ASSET_ID, B.AMOUNT, B.GL_POSTING_MO_YR, B.SET_OF_BOOKS_ID);
22:32:34 352  
22:32:34 353  		      forall SCHEDULEINDEX in indices of A_TABLE
22:32:34 354  			      merge into LS_MONTHLY_ACCRUAL_STG STG
22:32:34 355  			      using (select 0 as ACCRUAL_ID,
22:32:34 356  					      21 as ACCRUAL_TYPE_ID,
22:32:34 357  					      A_TABLE(SCHEDULEINDEX).LS_ASSET_ID as LS_ASSET_ID,
22:32:34 358  					      nvl(A_TABLE(SCHEDULEINDEX).CONTINGENT_ACCRUAL9, 0) as AMOUNT,
22:32:34 359  					      A_TABLE(SCHEDULEINDEX).MONTH as GL_POSTING_MO_YR,
22:32:34 360  					      A_TABLE(SCHEDULEINDEX).SET_OF_BOOKS_ID as SET_OF_BOOKS_ID
22:32:34 361  					      from DUAL
22:32:34 362  					      where nvl(A_TABLE(SCHEDULEINDEX).CONTINGENT_ACCRUAL9, 0)	<> 0) B
22:32:34 363  			      on (b.ACCRUAL_TYPE_ID = STG.ACCRUAL_TYPE_ID
22:32:34 364  				      and b.LS_ASSET_ID = STG.LS_ASSET_ID
22:32:34 365  				      and b.GL_POSTING_MO_YR = STG.GL_POSTING_MO_YR
22:32:34 366  				      and b.SET_OF_BOOKS_ID = STG.SET_OF_BOOKS_ID)
22:32:34 367  			      when matched then update set STG.AMOUNT = B.AMOUNT
22:32:34 368  			      when not matched then insert (ACCRUAL_ID, ACCRUAL_TYPE_ID, LS_ASSET_ID, AMOUNT, GL_POSTING_MO_YR, SET_OF_BOOKS_ID)
22:32:34 369  			      values (LS_MONTHLY_ACCRUAL_STG_SEQ.NEXTVAL, B.ACCRUAL_TYPE_ID, B.LS_ASSET_ID, B.AMOUNT, B.GL_POSTING_MO_YR, B.SET_OF_BOOKS_ID);
22:32:34 370  
22:32:34 371  		      forall SCHEDULEINDEX in indices of A_TABLE
22:32:34 372  			      merge into LS_MONTHLY_ACCRUAL_STG STG
22:32:34 373  			      using (select 0 as ACCRUAL_ID,
22:32:34 374  					      22 as ACCRUAL_TYPE_ID,
22:32:34 375  					      A_TABLE(SCHEDULEINDEX).LS_ASSET_ID as LS_ASSET_ID,
22:32:34 376  					      nvl(A_TABLE(SCHEDULEINDEX).CONTINGENT_ACCRUAL10, 0) as AMOUNT,
22:32:34 377  					      A_TABLE(SCHEDULEINDEX).MONTH as GL_POSTING_MO_YR,
22:32:34 378  					      A_TABLE(SCHEDULEINDEX).SET_OF_BOOKS_ID as SET_OF_BOOKS_ID
22:32:34 379  					      from DUAL
22:32:34 380  					      where nvl(A_TABLE(SCHEDULEINDEX).CONTINGENT_ACCRUAL10, 0)  <> 0) B
22:32:34 381  			      on (b.ACCRUAL_TYPE_ID = STG.ACCRUAL_TYPE_ID
22:32:34 382  				      and b.LS_ASSET_ID = STG.LS_ASSET_ID
22:32:34 383  				      and b.GL_POSTING_MO_YR = STG.GL_POSTING_MO_YR
22:32:34 384  				      and b.SET_OF_BOOKS_ID = STG.SET_OF_BOOKS_ID)
22:32:34 385  			      when matched then update set STG.AMOUNT = B.AMOUNT
22:32:34 386  			      when not matched then insert (ACCRUAL_ID, ACCRUAL_TYPE_ID, LS_ASSET_ID, AMOUNT, GL_POSTING_MO_YR, SET_OF_BOOKS_ID)
22:32:34 387  			      values (LS_MONTHLY_ACCRUAL_STG_SEQ.NEXTVAL, B.ACCRUAL_TYPE_ID, B.LS_ASSET_ID, B.AMOUNT, B.GL_POSTING_MO_YR, B.SET_OF_BOOKS_ID);
22:32:34 388  
22:32:34 389  
22:32:34 390  
22:32:34 391  	      end P_CALC_CONT_ACCRUALS;
22:32:34 392  
22:32:34 393  	      procedure P_CALC_EXEC_PAYMENTS(A_TABLE in PKG_LEASE_CALC.ASSET_SCHEDULE_LINE_TABLE) is
22:32:34 394  	      begin
22:32:34 395  
22:32:34 396  		      forall SCHEDULEINDEX in indices of A_TABLE
22:32:34 397  			      insert into LS_PAYMENT_LINE
22:32:34 398  		  (PAYMENT_ID, PAYMENT_LINE_NUMBER, PAYMENT_TYPE_ID, LS_ASSET_ID, AMOUNT,
22:32:34 399  		   GL_POSTING_MO_YR, SET_OF_BOOKS_ID)
22:32:34 400  		  (select PAYMENT_ID,
22:32:34 401  			  A_TABLE(SCHEDULEINDEX).ROWNUMBER,
22:32:34 402  			  3,
22:32:34 403  			  A_TABLE(SCHEDULEINDEX).LS_ASSET_ID,
22:32:34 404  			  A_TABLE(SCHEDULEINDEX).EXECUTORY_PAID1 * A_TABLE(SCHEDULEINDEX).PAYMENT_PCT,
22:32:34 405  			  A_TABLE(SCHEDULEINDEX).MONTH,
22:32:34 406  			  A_TABLE(SCHEDULEINDEX).SET_OF_BOOKS_ID
22:32:34 407  		     from LS_PAYMENT_HDR
22:32:34 408  		    where GL_POSTING_MO_YR = A_TABLE(SCHEDULEINDEX).MONTH
22:32:34 409  		      and LEASE_ID = A_TABLE(SCHEDULEINDEX).LEASE_ID
22:32:34 410  				      and ILR_ID = case when A_TABLE(SCHEDULEINDEX).LS_RECONCILE_TYPE_ID in (1,2)
22:32:34 411  							      then A_TABLE(SCHEDULEINDEX).ILR_ID else -1 end
22:32:34 412  		      and LS_ASSET_ID = case when A_TABLE(SCHEDULEINDEX).LS_RECONCILE_TYPE_ID = 1
22:32:34 413  							      then A_TABLE(SCHEDULEINDEX).LS_ASSET_ID else -1 end
22:32:34 414  		      and COMPANY_ID = A_TABLE(SCHEDULEINDEX).COMPANY_ID
22:32:34 415  		      and VENDOR_ID = A_TABLE(SCHEDULEINDEX).VENDOR_ID
22:32:34 416  		      and NVL(A_TABLE(SCHEDULEINDEX).RETIREMENT_DATE, A_TABLE(SCHEDULEINDEX).PAYMENT_MONTH) >= A_TABLE(SCHEDULEINDEX).PAYMENT_MONTH
22:32:34 417  		      and A_TABLE(SCHEDULEINDEX).EXECUTORY_PAID1 <> 0);
22:32:34 418  
22:32:34 419  		      forall SCHEDULEINDEX in indices of A_TABLE
22:32:34 420  			      insert into LS_PAYMENT_LINE
22:32:34 421  		  (PAYMENT_ID, PAYMENT_LINE_NUMBER, PAYMENT_TYPE_ID, LS_ASSET_ID, AMOUNT,
22:32:34 422  		   GL_POSTING_MO_YR, SET_OF_BOOKS_ID)
22:32:34 423  		  (select PAYMENT_ID,
22:32:34 424  			  A_TABLE(SCHEDULEINDEX).ROWNUMBER,
22:32:34 425  			  4,
22:32:34 426  			  A_TABLE(SCHEDULEINDEX).LS_ASSET_ID,
22:32:34 427  			  A_TABLE(SCHEDULEINDEX).EXECUTORY_PAID2 * A_TABLE(SCHEDULEINDEX).PAYMENT_PCT,
22:32:34 428  			  A_TABLE(SCHEDULEINDEX).MONTH,
22:32:34 429  			  A_TABLE(SCHEDULEINDEX).SET_OF_BOOKS_ID
22:32:34 430  		     from LS_PAYMENT_HDR
22:32:34 431  		    where GL_POSTING_MO_YR = A_TABLE(SCHEDULEINDEX).MONTH
22:32:34 432  		      and LEASE_ID = A_TABLE(SCHEDULEINDEX).LEASE_ID
22:32:34 433  				      and ILR_ID = case when A_TABLE(SCHEDULEINDEX).LS_RECONCILE_TYPE_ID in (1,2)
22:32:34 434  							      then A_TABLE(SCHEDULEINDEX).ILR_ID else -1 end
22:32:34 435  		      and LS_ASSET_ID = case when A_TABLE(SCHEDULEINDEX).LS_RECONCILE_TYPE_ID = 1
22:32:34 436  							      then A_TABLE(SCHEDULEINDEX).LS_ASSET_ID else -1 end
22:32:34 437  		      and COMPANY_ID = A_TABLE(SCHEDULEINDEX).COMPANY_ID
22:32:34 438  		      and VENDOR_ID = A_TABLE(SCHEDULEINDEX).VENDOR_ID
22:32:34 439  		      and NVL(A_TABLE(SCHEDULEINDEX).RETIREMENT_DATE, A_TABLE(SCHEDULEINDEX).PAYMENT_MONTH) >= A_TABLE(SCHEDULEINDEX).PAYMENT_MONTH
22:32:34 440  		      and A_TABLE(SCHEDULEINDEX).EXECUTORY_PAID2 <> 0);
22:32:34 441  
22:32:34 442  		      forall SCHEDULEINDEX in indices of A_TABLE
22:32:34 443  			      insert into LS_PAYMENT_LINE
22:32:34 444  		  (PAYMENT_ID, PAYMENT_LINE_NUMBER, PAYMENT_TYPE_ID, LS_ASSET_ID, AMOUNT,
22:32:34 445  		   GL_POSTING_MO_YR, SET_OF_BOOKS_ID)
22:32:34 446  		  (select PAYMENT_ID,
22:32:34 447  			  A_TABLE(SCHEDULEINDEX).ROWNUMBER,
22:32:34 448  			  5,
22:32:34 449  			  A_TABLE(SCHEDULEINDEX).LS_ASSET_ID,
22:32:34 450  			  A_TABLE(SCHEDULEINDEX).EXECUTORY_PAID3 * A_TABLE(SCHEDULEINDEX).PAYMENT_PCT,
22:32:34 451  			  A_TABLE(SCHEDULEINDEX).MONTH,
22:32:34 452  			  A_TABLE(SCHEDULEINDEX).SET_OF_BOOKS_ID
22:32:34 453  		     from LS_PAYMENT_HDR
22:32:34 454  		    where GL_POSTING_MO_YR = A_TABLE(SCHEDULEINDEX).MONTH
22:32:34 455  		      and LEASE_ID = A_TABLE(SCHEDULEINDEX).LEASE_ID
22:32:34 456  				      and ILR_ID = case when A_TABLE(SCHEDULEINDEX).LS_RECONCILE_TYPE_ID in (1,2)
22:32:34 457  							      then A_TABLE(SCHEDULEINDEX).ILR_ID else -1 end
22:32:34 458  		      and LS_ASSET_ID = case when A_TABLE(SCHEDULEINDEX).LS_RECONCILE_TYPE_ID = 1
22:32:34 459  							      then A_TABLE(SCHEDULEINDEX).LS_ASSET_ID else -1 end
22:32:34 460  		      and COMPANY_ID = A_TABLE(SCHEDULEINDEX).COMPANY_ID
22:32:34 461  		      and VENDOR_ID = A_TABLE(SCHEDULEINDEX).VENDOR_ID
22:32:34 462  		      and NVL(A_TABLE(SCHEDULEINDEX).RETIREMENT_DATE, A_TABLE(SCHEDULEINDEX).PAYMENT_MONTH) >= A_TABLE(SCHEDULEINDEX).PAYMENT_MONTH
22:32:34 463  		      and A_TABLE(SCHEDULEINDEX).EXECUTORY_PAID3 <> 0);
22:32:34 464  
22:32:34 465  		      forall SCHEDULEINDEX in indices of A_TABLE
22:32:34 466  			      insert into LS_PAYMENT_LINE
22:32:34 467  		  (PAYMENT_ID, PAYMENT_LINE_NUMBER, PAYMENT_TYPE_ID, LS_ASSET_ID, AMOUNT,
22:32:34 468  		   GL_POSTING_MO_YR, SET_OF_BOOKS_ID)
22:32:34 469  		  (select PAYMENT_ID,
22:32:34 470  			  A_TABLE(SCHEDULEINDEX).ROWNUMBER,
22:32:34 471  			  6,
22:32:34 472  			  A_TABLE(SCHEDULEINDEX).LS_ASSET_ID,
22:32:34 473  			  A_TABLE(SCHEDULEINDEX).EXECUTORY_PAID4 * A_TABLE(SCHEDULEINDEX).PAYMENT_PCT,
22:32:34 474  			  A_TABLE(SCHEDULEINDEX).MONTH,
22:32:34 475  			  A_TABLE(SCHEDULEINDEX).SET_OF_BOOKS_ID
22:32:34 476  		     from LS_PAYMENT_HDR
22:32:34 477  		    where GL_POSTING_MO_YR = A_TABLE(SCHEDULEINDEX).MONTH
22:32:34 478  		      and LEASE_ID = A_TABLE(SCHEDULEINDEX).LEASE_ID
22:32:34 479  				      and ILR_ID = case when A_TABLE(SCHEDULEINDEX).LS_RECONCILE_TYPE_ID in (1,2)
22:32:34 480  							      then A_TABLE(SCHEDULEINDEX).ILR_ID else -1 end
22:32:34 481  		      and LS_ASSET_ID = case when A_TABLE(SCHEDULEINDEX).LS_RECONCILE_TYPE_ID = 1
22:32:34 482  							      then A_TABLE(SCHEDULEINDEX).LS_ASSET_ID else -1 end
22:32:34 483  		      and COMPANY_ID = A_TABLE(SCHEDULEINDEX).COMPANY_ID
22:32:34 484  		      and VENDOR_ID = A_TABLE(SCHEDULEINDEX).VENDOR_ID
22:32:34 485  		      and NVL(A_TABLE(SCHEDULEINDEX).RETIREMENT_DATE, A_TABLE(SCHEDULEINDEX).PAYMENT_MONTH) >= A_TABLE(SCHEDULEINDEX).PAYMENT_MONTH
22:32:34 486  		      and A_TABLE(SCHEDULEINDEX).EXECUTORY_PAID4 <> 0);
22:32:34 487  
22:32:34 488  		      forall SCHEDULEINDEX in indices of A_TABLE
22:32:34 489  			      insert into LS_PAYMENT_LINE
22:32:34 490  		  (PAYMENT_ID, PAYMENT_LINE_NUMBER, PAYMENT_TYPE_ID, LS_ASSET_ID, AMOUNT,
22:32:34 491  		   GL_POSTING_MO_YR, SET_OF_BOOKS_ID)
22:32:34 492  		  (select PAYMENT_ID,
22:32:34 493  			  A_TABLE(SCHEDULEINDEX).ROWNUMBER,
22:32:34 494  			  7,
22:32:34 495  			  A_TABLE(SCHEDULEINDEX).LS_ASSET_ID,
22:32:34 496  			  A_TABLE(SCHEDULEINDEX).EXECUTORY_PAID5 * A_TABLE(SCHEDULEINDEX).PAYMENT_PCT,
22:32:34 497  			  A_TABLE(SCHEDULEINDEX).MONTH,
22:32:34 498  			  A_TABLE(SCHEDULEINDEX).SET_OF_BOOKS_ID
22:32:34 499  		     from LS_PAYMENT_HDR
22:32:34 500  		    where GL_POSTING_MO_YR = A_TABLE(SCHEDULEINDEX).MONTH
22:32:34 501  		      and LEASE_ID = A_TABLE(SCHEDULEINDEX).LEASE_ID
22:32:34 502  				      and ILR_ID = case when A_TABLE(SCHEDULEINDEX).LS_RECONCILE_TYPE_ID in (1,2)
22:32:34 503  							      then A_TABLE(SCHEDULEINDEX).ILR_ID else -1 end
22:32:34 504  		      and LS_ASSET_ID = case when A_TABLE(SCHEDULEINDEX).LS_RECONCILE_TYPE_ID = 1
22:32:34 505  							      then A_TABLE(SCHEDULEINDEX).LS_ASSET_ID else -1 end
22:32:34 506  		      and COMPANY_ID = A_TABLE(SCHEDULEINDEX).COMPANY_ID
22:32:34 507  		      and VENDOR_ID = A_TABLE(SCHEDULEINDEX).VENDOR_ID
22:32:34 508  		      and NVL(A_TABLE(SCHEDULEINDEX).RETIREMENT_DATE, A_TABLE(SCHEDULEINDEX).PAYMENT_MONTH) >= A_TABLE(SCHEDULEINDEX).PAYMENT_MONTH
22:32:34 509  		      and A_TABLE(SCHEDULEINDEX).EXECUTORY_PAID5 <> 0);
22:32:34 510  
22:32:34 511  		      forall SCHEDULEINDEX in indices of A_TABLE
22:32:34 512  			      insert into LS_PAYMENT_LINE
22:32:34 513  		  (PAYMENT_ID, PAYMENT_LINE_NUMBER, PAYMENT_TYPE_ID, LS_ASSET_ID, AMOUNT,
22:32:34 514  		   GL_POSTING_MO_YR, SET_OF_BOOKS_ID)
22:32:34 515  		  (select PAYMENT_ID,
22:32:34 516  			  A_TABLE(SCHEDULEINDEX).ROWNUMBER,
22:32:34 517  			  8,
22:32:34 518  			  A_TABLE(SCHEDULEINDEX).LS_ASSET_ID,
22:32:34 519  			  A_TABLE(SCHEDULEINDEX).EXECUTORY_PAID6 * A_TABLE(SCHEDULEINDEX).PAYMENT_PCT,
22:32:34 520  			  A_TABLE(SCHEDULEINDEX).MONTH,
22:32:34 521  			  A_TABLE(SCHEDULEINDEX).SET_OF_BOOKS_ID
22:32:34 522  		     from LS_PAYMENT_HDR
22:32:34 523  		    where GL_POSTING_MO_YR = A_TABLE(SCHEDULEINDEX).MONTH
22:32:34 524  		      and LEASE_ID = A_TABLE(SCHEDULEINDEX).LEASE_ID
22:32:34 525  				      and ILR_ID = case when A_TABLE(SCHEDULEINDEX).LS_RECONCILE_TYPE_ID in (1,2)
22:32:34 526  							      then A_TABLE(SCHEDULEINDEX).ILR_ID else -1 end
22:32:34 527  		      and LS_ASSET_ID = case when A_TABLE(SCHEDULEINDEX).LS_RECONCILE_TYPE_ID = 1
22:32:34 528  							      then A_TABLE(SCHEDULEINDEX).LS_ASSET_ID else -1 end
22:32:34 529  		      and COMPANY_ID = A_TABLE(SCHEDULEINDEX).COMPANY_ID
22:32:34 530  		      and VENDOR_ID = A_TABLE(SCHEDULEINDEX).VENDOR_ID
22:32:34 531  		      and NVL(A_TABLE(SCHEDULEINDEX).RETIREMENT_DATE, A_TABLE(SCHEDULEINDEX).PAYMENT_MONTH) >= A_TABLE(SCHEDULEINDEX).PAYMENT_MONTH
22:32:34 532  		      and A_TABLE(SCHEDULEINDEX).EXECUTORY_PAID6 <> 0);
22:32:34 533  
22:32:34 534  		      forall SCHEDULEINDEX in indices of A_TABLE
22:32:34 535  			      insert into LS_PAYMENT_LINE
22:32:34 536  		  (PAYMENT_ID, PAYMENT_LINE_NUMBER, PAYMENT_TYPE_ID, LS_ASSET_ID, AMOUNT,
22:32:34 537  		   GL_POSTING_MO_YR, SET_OF_BOOKS_ID)
22:32:34 538  		  (select PAYMENT_ID,
22:32:34 539  			  A_TABLE(SCHEDULEINDEX).ROWNUMBER,
22:32:34 540  			  9,
22:32:34 541  			  A_TABLE(SCHEDULEINDEX).LS_ASSET_ID,
22:32:34 542  			  A_TABLE(SCHEDULEINDEX).EXECUTORY_PAID7 * A_TABLE(SCHEDULEINDEX).PAYMENT_PCT,
22:32:34 543  			  A_TABLE(SCHEDULEINDEX).MONTH,
22:32:34 544  			  A_TABLE(SCHEDULEINDEX).SET_OF_BOOKS_ID
22:32:34 545  		     from LS_PAYMENT_HDR
22:32:34 546  		    where GL_POSTING_MO_YR = A_TABLE(SCHEDULEINDEX).MONTH
22:32:34 547  		      and LEASE_ID = A_TABLE(SCHEDULEINDEX).LEASE_ID
22:32:34 548  				      and ILR_ID = case when A_TABLE(SCHEDULEINDEX).LS_RECONCILE_TYPE_ID in (1,2)
22:32:34 549  							      then A_TABLE(SCHEDULEINDEX).ILR_ID else -1 end
22:32:34 550  		      and LS_ASSET_ID = case when A_TABLE(SCHEDULEINDEX).LS_RECONCILE_TYPE_ID = 1
22:32:34 551  							      then A_TABLE(SCHEDULEINDEX).LS_ASSET_ID else -1 end
22:32:34 552  		      and COMPANY_ID = A_TABLE(SCHEDULEINDEX).COMPANY_ID
22:32:34 553  		      and VENDOR_ID = A_TABLE(SCHEDULEINDEX).VENDOR_ID
22:32:34 554  		      and NVL(A_TABLE(SCHEDULEINDEX).RETIREMENT_DATE, A_TABLE(SCHEDULEINDEX).PAYMENT_MONTH) >= A_TABLE(SCHEDULEINDEX).PAYMENT_MONTH
22:32:34 555  		      and A_TABLE(SCHEDULEINDEX).EXECUTORY_PAID7 <> 0);
22:32:34 556  
22:32:34 557  		      forall SCHEDULEINDEX in indices of A_TABLE
22:32:34 558  			      insert into LS_PAYMENT_LINE
22:32:34 559  		  (PAYMENT_ID, PAYMENT_LINE_NUMBER, PAYMENT_TYPE_ID, LS_ASSET_ID, AMOUNT,
22:32:34 560  		   GL_POSTING_MO_YR, SET_OF_BOOKS_ID)
22:32:34 561  		  (select PAYMENT_ID,
22:32:34 562  			  A_TABLE(SCHEDULEINDEX).ROWNUMBER,
22:32:34 563  			  10,
22:32:34 564  			  A_TABLE(SCHEDULEINDEX).LS_ASSET_ID,
22:32:34 565  			  A_TABLE(SCHEDULEINDEX).EXECUTORY_PAID8 * A_TABLE(SCHEDULEINDEX).PAYMENT_PCT,
22:32:34 566  			  A_TABLE(SCHEDULEINDEX).MONTH,
22:32:34 567  			  A_TABLE(SCHEDULEINDEX).SET_OF_BOOKS_ID
22:32:34 568  		     from LS_PAYMENT_HDR
22:32:34 569  		    where GL_POSTING_MO_YR = A_TABLE(SCHEDULEINDEX).MONTH
22:32:34 570  		      and LEASE_ID = A_TABLE(SCHEDULEINDEX).LEASE_ID
22:32:34 571  				      and ILR_ID = case when A_TABLE(SCHEDULEINDEX).LS_RECONCILE_TYPE_ID in (1,2)
22:32:34 572  							      then A_TABLE(SCHEDULEINDEX).ILR_ID else -1 end
22:32:34 573  		      and LS_ASSET_ID = case when A_TABLE(SCHEDULEINDEX).LS_RECONCILE_TYPE_ID = 1
22:32:34 574  							      then A_TABLE(SCHEDULEINDEX).LS_ASSET_ID else -1 end
22:32:34 575  		      and COMPANY_ID = A_TABLE(SCHEDULEINDEX).COMPANY_ID
22:32:34 576  		      and VENDOR_ID = A_TABLE(SCHEDULEINDEX).VENDOR_ID
22:32:34 577  		      and NVL(A_TABLE(SCHEDULEINDEX).RETIREMENT_DATE, A_TABLE(SCHEDULEINDEX).PAYMENT_MONTH) >= A_TABLE(SCHEDULEINDEX).PAYMENT_MONTH
22:32:34 578  		      and A_TABLE(SCHEDULEINDEX).EXECUTORY_PAID8 <> 0);
22:32:34 579  
22:32:34 580  		      forall SCHEDULEINDEX in indices of A_TABLE
22:32:34 581  			      insert into LS_PAYMENT_LINE
22:32:34 582  		  (PAYMENT_ID, PAYMENT_LINE_NUMBER, PAYMENT_TYPE_ID, LS_ASSET_ID, AMOUNT,
22:32:34 583  		   GL_POSTING_MO_YR, SET_OF_BOOKS_ID)
22:32:34 584  		  (select PAYMENT_ID,
22:32:34 585  			  A_TABLE(SCHEDULEINDEX).ROWNUMBER,
22:32:34 586  			  11,
22:32:34 587  			  A_TABLE(SCHEDULEINDEX).LS_ASSET_ID,
22:32:34 588  			  A_TABLE(SCHEDULEINDEX).EXECUTORY_PAID9 * A_TABLE(SCHEDULEINDEX).PAYMENT_PCT,
22:32:34 589  			  A_TABLE(SCHEDULEINDEX).MONTH,
22:32:34 590  			  A_TABLE(SCHEDULEINDEX).SET_OF_BOOKS_ID
22:32:34 591  		     from LS_PAYMENT_HDR
22:32:34 592  		    where GL_POSTING_MO_YR = A_TABLE(SCHEDULEINDEX).MONTH
22:32:34 593  		      and LEASE_ID = A_TABLE(SCHEDULEINDEX).LEASE_ID
22:32:34 594  				      and ILR_ID = case when A_TABLE(SCHEDULEINDEX).LS_RECONCILE_TYPE_ID in (1,2)
22:32:34 595  							      then A_TABLE(SCHEDULEINDEX).ILR_ID else -1 end
22:32:34 596  		      and LS_ASSET_ID = case when A_TABLE(SCHEDULEINDEX).LS_RECONCILE_TYPE_ID = 1
22:32:34 597  							      then A_TABLE(SCHEDULEINDEX).LS_ASSET_ID else -1 end
22:32:34 598  		      and COMPANY_ID = A_TABLE(SCHEDULEINDEX).COMPANY_ID
22:32:34 599  		      and VENDOR_ID = A_TABLE(SCHEDULEINDEX).VENDOR_ID
22:32:34 600  		      and NVL(A_TABLE(SCHEDULEINDEX).RETIREMENT_DATE, A_TABLE(SCHEDULEINDEX).PAYMENT_MONTH) >= A_TABLE(SCHEDULEINDEX).PAYMENT_MONTH
22:32:34 601  		      and A_TABLE(SCHEDULEINDEX).EXECUTORY_PAID9 <> 0);
22:32:34 602  
22:32:34 603  		      forall SCHEDULEINDEX in indices of A_TABLE
22:32:34 604  			      insert into LS_PAYMENT_LINE
22:32:34 605  		  (PAYMENT_ID, PAYMENT_LINE_NUMBER, PAYMENT_TYPE_ID, LS_ASSET_ID, AMOUNT,
22:32:34 606  		   GL_POSTING_MO_YR, SET_OF_BOOKS_ID)
22:32:34 607  		  (select PAYMENT_ID,
22:32:34 608  			  A_TABLE(SCHEDULEINDEX).ROWNUMBER,
22:32:34 609  			  12,
22:32:34 610  			  A_TABLE(SCHEDULEINDEX).LS_ASSET_ID,
22:32:34 611  			  A_TABLE(SCHEDULEINDEX).EXECUTORY_PAID10 * A_TABLE(SCHEDULEINDEX).PAYMENT_PCT,
22:32:34 612  			  A_TABLE(SCHEDULEINDEX).MONTH,
22:32:34 613  			  A_TABLE(SCHEDULEINDEX).SET_OF_BOOKS_ID
22:32:34 614  		     from LS_PAYMENT_HDR
22:32:34 615  		    where GL_POSTING_MO_YR = A_TABLE(SCHEDULEINDEX).MONTH
22:32:34 616  		      and LEASE_ID = A_TABLE(SCHEDULEINDEX).LEASE_ID
22:32:34 617  				      and ILR_ID = case when A_TABLE(SCHEDULEINDEX).LS_RECONCILE_TYPE_ID in (1,2)
22:32:34 618  							      then A_TABLE(SCHEDULEINDEX).ILR_ID else -1 end
22:32:34 619  		      and LS_ASSET_ID = case when A_TABLE(SCHEDULEINDEX).LS_RECONCILE_TYPE_ID = 1
22:32:34 620  							      then A_TABLE(SCHEDULEINDEX).LS_ASSET_ID else -1 end
22:32:34 621  		      and COMPANY_ID = A_TABLE(SCHEDULEINDEX).COMPANY_ID
22:32:34 622  		      and VENDOR_ID = A_TABLE(SCHEDULEINDEX).VENDOR_ID
22:32:34 623  		      and NVL(A_TABLE(SCHEDULEINDEX).RETIREMENT_DATE, A_TABLE(SCHEDULEINDEX).PAYMENT_MONTH) >= A_TABLE(SCHEDULEINDEX).PAYMENT_MONTH
22:32:34 624  		      and A_TABLE(SCHEDULEINDEX).EXECUTORY_PAID10 <> 0);
22:32:34 625  
22:32:34 626  	      end P_CALC_EXEC_PAYMENTS;
22:32:34 627  
22:32:34 628  	      procedure P_CALC_CONT_PAYMENTS(A_TABLE in PKG_LEASE_CALC.ASSET_SCHEDULE_LINE_TABLE) is
22:32:34 629  	      begin
22:32:34 630  
22:32:34 631  		      forall SCHEDULEINDEX in indices of A_TABLE
22:32:34 632  			      insert into LS_PAYMENT_LINE
22:32:34 633  		  (PAYMENT_ID, PAYMENT_LINE_NUMBER, PAYMENT_TYPE_ID, LS_ASSET_ID, AMOUNT,
22:32:34 634  		   GL_POSTING_MO_YR, SET_OF_BOOKS_ID)
22:32:34 635  		  (select PAYMENT_ID,
22:32:34 636  			  A_TABLE(SCHEDULEINDEX).ROWNUMBER,
22:32:34 637  			  13,
22:32:34 638  			  A_TABLE(SCHEDULEINDEX).LS_ASSET_ID,
22:32:34 639  			  A_TABLE(SCHEDULEINDEX).CONTINGENT_PAID1 * A_TABLE(SCHEDULEINDEX).PAYMENT_PCT,
22:32:34 640  			  A_TABLE(SCHEDULEINDEX).MONTH,
22:32:34 641  			  A_TABLE(SCHEDULEINDEX).SET_OF_BOOKS_ID
22:32:34 642  		     from LS_PAYMENT_HDR
22:32:34 643  		    where GL_POSTING_MO_YR = A_TABLE(SCHEDULEINDEX).MONTH
22:32:34 644  		      and LEASE_ID = A_TABLE(SCHEDULEINDEX).LEASE_ID
22:32:34 645  				      and ILR_ID = case when A_TABLE(SCHEDULEINDEX).LS_RECONCILE_TYPE_ID in (1,2)
22:32:34 646  							      then A_TABLE(SCHEDULEINDEX).ILR_ID else -1 end
22:32:34 647  		      and LS_ASSET_ID = case when A_TABLE(SCHEDULEINDEX).LS_RECONCILE_TYPE_ID = 1
22:32:34 648  							      then A_TABLE(SCHEDULEINDEX).LS_ASSET_ID else -1 end
22:32:34 649  		      and COMPANY_ID = A_TABLE(SCHEDULEINDEX).COMPANY_ID
22:32:34 650  		      and VENDOR_ID = A_TABLE(SCHEDULEINDEX).VENDOR_ID
22:32:34 651  		      and NVL(A_TABLE(SCHEDULEINDEX).RETIREMENT_DATE, A_TABLE(SCHEDULEINDEX).PAYMENT_MONTH) >= A_TABLE(SCHEDULEINDEX).PAYMENT_MONTH
22:32:34 652  		      and A_TABLE(SCHEDULEINDEX).CONTINGENT_PAID1 <> 0);
22:32:34 653  
22:32:34 654  		      forall SCHEDULEINDEX in indices of A_TABLE
22:32:34 655  			      insert into LS_PAYMENT_LINE
22:32:34 656  		  (PAYMENT_ID, PAYMENT_LINE_NUMBER, PAYMENT_TYPE_ID, LS_ASSET_ID, AMOUNT,
22:32:34 657  		   GL_POSTING_MO_YR, SET_OF_BOOKS_ID)
22:32:34 658  		  (select PAYMENT_ID,
22:32:34 659  			  A_TABLE(SCHEDULEINDEX).ROWNUMBER,
22:32:34 660  			  14,
22:32:34 661  			  A_TABLE(SCHEDULEINDEX).LS_ASSET_ID,
22:32:34 662  			  A_TABLE(SCHEDULEINDEX).CONTINGENT_PAID2 * A_TABLE(SCHEDULEINDEX).PAYMENT_PCT,
22:32:34 663  			  A_TABLE(SCHEDULEINDEX).MONTH,
22:32:34 664  			  A_TABLE(SCHEDULEINDEX).SET_OF_BOOKS_ID
22:32:34 665  		     from LS_PAYMENT_HDR
22:32:34 666  		    where GL_POSTING_MO_YR = A_TABLE(SCHEDULEINDEX).MONTH
22:32:34 667  		      and LEASE_ID = A_TABLE(SCHEDULEINDEX).LEASE_ID
22:32:34 668  				      and ILR_ID = case when A_TABLE(SCHEDULEINDEX).LS_RECONCILE_TYPE_ID in (1,2)
22:32:34 669  							      then A_TABLE(SCHEDULEINDEX).ILR_ID else -1 end
22:32:34 670  		      and LS_ASSET_ID = case when A_TABLE(SCHEDULEINDEX).LS_RECONCILE_TYPE_ID = 1
22:32:34 671  							      then A_TABLE(SCHEDULEINDEX).LS_ASSET_ID else -1 end
22:32:34 672  		      and COMPANY_ID = A_TABLE(SCHEDULEINDEX).COMPANY_ID
22:32:34 673  		      and VENDOR_ID = A_TABLE(SCHEDULEINDEX).VENDOR_ID
22:32:34 674  		      and NVL(A_TABLE(SCHEDULEINDEX).RETIREMENT_DATE, A_TABLE(SCHEDULEINDEX).PAYMENT_MONTH) >= A_TABLE(SCHEDULEINDEX).PAYMENT_MONTH
22:32:34 675  		      and A_TABLE(SCHEDULEINDEX).CONTINGENT_PAID2 <> 0);
22:32:34 676  
22:32:34 677  		      forall SCHEDULEINDEX in indices of A_TABLE
22:32:34 678  			      insert into LS_PAYMENT_LINE
22:32:34 679  		  (PAYMENT_ID, PAYMENT_LINE_NUMBER, PAYMENT_TYPE_ID, LS_ASSET_ID, AMOUNT,
22:32:34 680  		   GL_POSTING_MO_YR, SET_OF_BOOKS_ID)
22:32:34 681  		  (select PAYMENT_ID,
22:32:34 682  			  A_TABLE(SCHEDULEINDEX).ROWNUMBER,
22:32:34 683  			  15,
22:32:34 684  			  A_TABLE(SCHEDULEINDEX).LS_ASSET_ID,
22:32:34 685  			  A_TABLE(SCHEDULEINDEX).CONTINGENT_PAID3 * A_TABLE(SCHEDULEINDEX).PAYMENT_PCT,
22:32:34 686  			  A_TABLE(SCHEDULEINDEX).MONTH,
22:32:34 687  			  A_TABLE(SCHEDULEINDEX).SET_OF_BOOKS_ID
22:32:34 688  		     from LS_PAYMENT_HDR
22:32:34 689  		    where GL_POSTING_MO_YR = A_TABLE(SCHEDULEINDEX).MONTH
22:32:34 690  		      and LEASE_ID = A_TABLE(SCHEDULEINDEX).LEASE_ID
22:32:34 691  				      and ILR_ID = case when A_TABLE(SCHEDULEINDEX).LS_RECONCILE_TYPE_ID in (1,2)
22:32:34 692  							      then A_TABLE(SCHEDULEINDEX).ILR_ID else -1 end
22:32:34 693  		      and LS_ASSET_ID = case when A_TABLE(SCHEDULEINDEX).LS_RECONCILE_TYPE_ID = 1
22:32:34 694  							      then A_TABLE(SCHEDULEINDEX).LS_ASSET_ID else -1 end
22:32:34 695  		      and COMPANY_ID = A_TABLE(SCHEDULEINDEX).COMPANY_ID
22:32:34 696  		      and VENDOR_ID = A_TABLE(SCHEDULEINDEX).VENDOR_ID
22:32:34 697  		      and NVL(A_TABLE(SCHEDULEINDEX).RETIREMENT_DATE, A_TABLE(SCHEDULEINDEX).PAYMENT_MONTH) >= A_TABLE(SCHEDULEINDEX).PAYMENT_MONTH
22:32:34 698  		      and A_TABLE(SCHEDULEINDEX).CONTINGENT_PAID3 <> 0);
22:32:34 699  
22:32:34 700  		      forall SCHEDULEINDEX in indices of A_TABLE
22:32:34 701  			      insert into LS_PAYMENT_LINE
22:32:34 702  		  (PAYMENT_ID, PAYMENT_LINE_NUMBER, PAYMENT_TYPE_ID, LS_ASSET_ID, AMOUNT,
22:32:34 703  		   GL_POSTING_MO_YR, SET_OF_BOOKS_ID)
22:32:34 704  		  (select PAYMENT_ID,
22:32:34 705  			  A_TABLE(SCHEDULEINDEX).ROWNUMBER,
22:32:34 706  			  16,
22:32:34 707  			  A_TABLE(SCHEDULEINDEX).LS_ASSET_ID,
22:32:34 708  			  A_TABLE(SCHEDULEINDEX).CONTINGENT_PAID4 * A_TABLE(SCHEDULEINDEX).PAYMENT_PCT,
22:32:34 709  			  A_TABLE(SCHEDULEINDEX).MONTH,
22:32:34 710  			  A_TABLE(SCHEDULEINDEX).SET_OF_BOOKS_ID
22:32:34 711  		     from LS_PAYMENT_HDR
22:32:34 712  		    where GL_POSTING_MO_YR = A_TABLE(SCHEDULEINDEX).MONTH
22:32:34 713  		      and LEASE_ID = A_TABLE(SCHEDULEINDEX).LEASE_ID
22:32:34 714  				      and ILR_ID = case when A_TABLE(SCHEDULEINDEX).LS_RECONCILE_TYPE_ID in (1,2)
22:32:34 715  							      then A_TABLE(SCHEDULEINDEX).ILR_ID else -1 end
22:32:34 716  		      and LS_ASSET_ID = case when A_TABLE(SCHEDULEINDEX).LS_RECONCILE_TYPE_ID = 1
22:32:34 717  							      then A_TABLE(SCHEDULEINDEX).LS_ASSET_ID else -1 end
22:32:34 718  		      and COMPANY_ID = A_TABLE(SCHEDULEINDEX).COMPANY_ID
22:32:34 719  		      and VENDOR_ID = A_TABLE(SCHEDULEINDEX).VENDOR_ID
22:32:34 720  		      and NVL(A_TABLE(SCHEDULEINDEX).RETIREMENT_DATE, A_TABLE(SCHEDULEINDEX).PAYMENT_MONTH) >= A_TABLE(SCHEDULEINDEX).PAYMENT_MONTH
22:32:34 721  		      and A_TABLE(SCHEDULEINDEX).CONTINGENT_PAID4 <> 0);
22:32:34 722  
22:32:34 723  		      forall SCHEDULEINDEX in indices of A_TABLE
22:32:34 724  			      insert into LS_PAYMENT_LINE
22:32:34 725  		  (PAYMENT_ID, PAYMENT_LINE_NUMBER, PAYMENT_TYPE_ID, LS_ASSET_ID, AMOUNT,
22:32:34 726  		   GL_POSTING_MO_YR, SET_OF_BOOKS_ID)
22:32:34 727  		  (select PAYMENT_ID,
22:32:34 728  			  A_TABLE(SCHEDULEINDEX).ROWNUMBER,
22:32:34 729  			  17,
22:32:34 730  			  A_TABLE(SCHEDULEINDEX).LS_ASSET_ID,
22:32:34 731  			  A_TABLE(SCHEDULEINDEX).CONTINGENT_PAID5 * A_TABLE(SCHEDULEINDEX).PAYMENT_PCT,
22:32:34 732  			  A_TABLE(SCHEDULEINDEX).MONTH,
22:32:34 733  			  A_TABLE(SCHEDULEINDEX).SET_OF_BOOKS_ID
22:32:34 734  		     from LS_PAYMENT_HDR
22:32:34 735  		    where GL_POSTING_MO_YR = A_TABLE(SCHEDULEINDEX).MONTH
22:32:34 736  		      and LEASE_ID = A_TABLE(SCHEDULEINDEX).LEASE_ID
22:32:34 737  				      and ILR_ID = case when A_TABLE(SCHEDULEINDEX).LS_RECONCILE_TYPE_ID in (1,2)
22:32:34 738  							      then A_TABLE(SCHEDULEINDEX).ILR_ID else -1 end
22:32:34 739  		      and LS_ASSET_ID = case when A_TABLE(SCHEDULEINDEX).LS_RECONCILE_TYPE_ID = 1
22:32:34 740  							      then A_TABLE(SCHEDULEINDEX).LS_ASSET_ID else -1 end
22:32:34 741  		      and COMPANY_ID = A_TABLE(SCHEDULEINDEX).COMPANY_ID
22:32:34 742  		      and VENDOR_ID = A_TABLE(SCHEDULEINDEX).VENDOR_ID
22:32:34 743  		      and NVL(A_TABLE(SCHEDULEINDEX).RETIREMENT_DATE, A_TABLE(SCHEDULEINDEX).PAYMENT_MONTH) >= A_TABLE(SCHEDULEINDEX).PAYMENT_MONTH
22:32:34 744  		      and A_TABLE(SCHEDULEINDEX).CONTINGENT_PAID5 <> 0);
22:32:34 745  
22:32:34 746  		      forall SCHEDULEINDEX in indices of A_TABLE
22:32:34 747  			      insert into LS_PAYMENT_LINE
22:32:34 748  		  (PAYMENT_ID, PAYMENT_LINE_NUMBER, PAYMENT_TYPE_ID, LS_ASSET_ID, AMOUNT,
22:32:34 749  		   GL_POSTING_MO_YR, SET_OF_BOOKS_ID)
22:32:34 750  		  (select PAYMENT_ID,
22:32:34 751  			  A_TABLE(SCHEDULEINDEX).ROWNUMBER,
22:32:34 752  			  18,
22:32:34 753  			  A_TABLE(SCHEDULEINDEX).LS_ASSET_ID,
22:32:34 754  			  A_TABLE(SCHEDULEINDEX).CONTINGENT_PAID6 * A_TABLE(SCHEDULEINDEX).PAYMENT_PCT,
22:32:34 755  			  A_TABLE(SCHEDULEINDEX).MONTH,
22:32:34 756  			  A_TABLE(SCHEDULEINDEX).SET_OF_BOOKS_ID
22:32:34 757  		     from LS_PAYMENT_HDR
22:32:34 758  		    where GL_POSTING_MO_YR = A_TABLE(SCHEDULEINDEX).MONTH
22:32:34 759  		      and LEASE_ID = A_TABLE(SCHEDULEINDEX).LEASE_ID
22:32:34 760  				      and ILR_ID = case when A_TABLE(SCHEDULEINDEX).LS_RECONCILE_TYPE_ID in (1,2)
22:32:34 761  							      then A_TABLE(SCHEDULEINDEX).ILR_ID else -1 end
22:32:34 762  		      and LS_ASSET_ID = case when A_TABLE(SCHEDULEINDEX).LS_RECONCILE_TYPE_ID = 1
22:32:34 763  							      then A_TABLE(SCHEDULEINDEX).LS_ASSET_ID else -1 end
22:32:34 764  		      and COMPANY_ID = A_TABLE(SCHEDULEINDEX).COMPANY_ID
22:32:34 765  		      and VENDOR_ID = A_TABLE(SCHEDULEINDEX).VENDOR_ID
22:32:34 766  		      and NVL(A_TABLE(SCHEDULEINDEX).RETIREMENT_DATE, A_TABLE(SCHEDULEINDEX).PAYMENT_MONTH) >= A_TABLE(SCHEDULEINDEX).PAYMENT_MONTH
22:32:34 767  		      and A_TABLE(SCHEDULEINDEX).CONTINGENT_PAID6 <> 0);
22:32:34 768  
22:32:34 769  		      forall SCHEDULEINDEX in indices of A_TABLE
22:32:34 770  			      insert into LS_PAYMENT_LINE
22:32:34 771  		  (PAYMENT_ID, PAYMENT_LINE_NUMBER, PAYMENT_TYPE_ID, LS_ASSET_ID, AMOUNT,
22:32:34 772  		   GL_POSTING_MO_YR, SET_OF_BOOKS_ID)
22:32:34 773  		  (select PAYMENT_ID,
22:32:34 774  			  A_TABLE(SCHEDULEINDEX).ROWNUMBER,
22:32:34 775  			  19,
22:32:34 776  			  A_TABLE(SCHEDULEINDEX).LS_ASSET_ID,
22:32:34 777  			  A_TABLE(SCHEDULEINDEX).CONTINGENT_PAID7 * A_TABLE(SCHEDULEINDEX).PAYMENT_PCT,
22:32:34 778  			  A_TABLE(SCHEDULEINDEX).MONTH,
22:32:34 779  			  A_TABLE(SCHEDULEINDEX).SET_OF_BOOKS_ID
22:32:34 780  		     from LS_PAYMENT_HDR
22:32:34 781  		    where GL_POSTING_MO_YR = A_TABLE(SCHEDULEINDEX).MONTH
22:32:34 782  		      and LEASE_ID = A_TABLE(SCHEDULEINDEX).LEASE_ID
22:32:34 783  				      and ILR_ID = case when A_TABLE(SCHEDULEINDEX).LS_RECONCILE_TYPE_ID in (1,2)
22:32:34 784  							      then A_TABLE(SCHEDULEINDEX).ILR_ID else -1 end
22:32:34 785  		      and LS_ASSET_ID = case when A_TABLE(SCHEDULEINDEX).LS_RECONCILE_TYPE_ID = 1
22:32:34 786  							      then A_TABLE(SCHEDULEINDEX).LS_ASSET_ID else -1 end
22:32:34 787  		      and COMPANY_ID = A_TABLE(SCHEDULEINDEX).COMPANY_ID
22:32:34 788  		      and VENDOR_ID = A_TABLE(SCHEDULEINDEX).VENDOR_ID
22:32:34 789  		      and NVL(A_TABLE(SCHEDULEINDEX).RETIREMENT_DATE, A_TABLE(SCHEDULEINDEX).PAYMENT_MONTH) >= A_TABLE(SCHEDULEINDEX).PAYMENT_MONTH
22:32:34 790  		      and A_TABLE(SCHEDULEINDEX).CONTINGENT_PAID7 <> 0);
22:32:34 791  
22:32:34 792  		      forall SCHEDULEINDEX in indices of A_TABLE
22:32:34 793  			      insert into LS_PAYMENT_LINE
22:32:34 794  		  (PAYMENT_ID, PAYMENT_LINE_NUMBER, PAYMENT_TYPE_ID, LS_ASSET_ID, AMOUNT,
22:32:34 795  		   GL_POSTING_MO_YR, SET_OF_BOOKS_ID)
22:32:34 796  		  (select PAYMENT_ID,
22:32:34 797  			  A_TABLE(SCHEDULEINDEX).ROWNUMBER,
22:32:34 798  			  20,
22:32:34 799  			  A_TABLE(SCHEDULEINDEX).LS_ASSET_ID,
22:32:34 800  			  A_TABLE(SCHEDULEINDEX).CONTINGENT_PAID8 * A_TABLE(SCHEDULEINDEX).PAYMENT_PCT,
22:32:34 801  			  A_TABLE(SCHEDULEINDEX).MONTH,
22:32:34 802  			  A_TABLE(SCHEDULEINDEX).SET_OF_BOOKS_ID
22:32:34 803  		     from LS_PAYMENT_HDR
22:32:34 804  		    where GL_POSTING_MO_YR = A_TABLE(SCHEDULEINDEX).MONTH
22:32:34 805  		      and LEASE_ID = A_TABLE(SCHEDULEINDEX).LEASE_ID
22:32:34 806  				      and ILR_ID = case when A_TABLE(SCHEDULEINDEX).LS_RECONCILE_TYPE_ID in (1,2)
22:32:34 807  							      then A_TABLE(SCHEDULEINDEX).ILR_ID else -1 end
22:32:34 808  		      and LS_ASSET_ID = case when A_TABLE(SCHEDULEINDEX).LS_RECONCILE_TYPE_ID = 1
22:32:34 809  							      then A_TABLE(SCHEDULEINDEX).LS_ASSET_ID else -1 end
22:32:34 810  		      and COMPANY_ID = A_TABLE(SCHEDULEINDEX).COMPANY_ID
22:32:34 811  		      and VENDOR_ID = A_TABLE(SCHEDULEINDEX).VENDOR_ID
22:32:34 812  		      and NVL(A_TABLE(SCHEDULEINDEX).RETIREMENT_DATE, A_TABLE(SCHEDULEINDEX).PAYMENT_MONTH) >= A_TABLE(SCHEDULEINDEX).PAYMENT_MONTH
22:32:34 813  		      and A_TABLE(SCHEDULEINDEX).CONTINGENT_PAID8 <> 0);
22:32:34 814  
22:32:34 815  		      forall SCHEDULEINDEX in indices of A_TABLE
22:32:34 816  			      insert into LS_PAYMENT_LINE
22:32:34 817  		  (PAYMENT_ID, PAYMENT_LINE_NUMBER, PAYMENT_TYPE_ID, LS_ASSET_ID, AMOUNT,
22:32:34 818  		   GL_POSTING_MO_YR, SET_OF_BOOKS_ID)
22:32:34 819  		  (select PAYMENT_ID,
22:32:34 820  			  A_TABLE(SCHEDULEINDEX).ROWNUMBER,
22:32:34 821  			  21,
22:32:34 822  			  A_TABLE(SCHEDULEINDEX).LS_ASSET_ID,
22:32:34 823  			  A_TABLE(SCHEDULEINDEX).CONTINGENT_PAID9 * A_TABLE(SCHEDULEINDEX).PAYMENT_PCT,
22:32:34 824  			  A_TABLE(SCHEDULEINDEX).MONTH,
22:32:34 825  			  A_TABLE(SCHEDULEINDEX).SET_OF_BOOKS_ID
22:32:34 826  		     from LS_PAYMENT_HDR
22:32:34 827  		    where GL_POSTING_MO_YR = A_TABLE(SCHEDULEINDEX).MONTH
22:32:34 828  		      and LEASE_ID = A_TABLE(SCHEDULEINDEX).LEASE_ID
22:32:34 829  				      and ILR_ID = case when A_TABLE(SCHEDULEINDEX).LS_RECONCILE_TYPE_ID in (1,2)
22:32:34 830  							      then A_TABLE(SCHEDULEINDEX).ILR_ID else -1 end
22:32:34 831  		      and LS_ASSET_ID = case when A_TABLE(SCHEDULEINDEX).LS_RECONCILE_TYPE_ID = 1
22:32:34 832  							      then A_TABLE(SCHEDULEINDEX).LS_ASSET_ID else -1 end
22:32:34 833  		      and COMPANY_ID = A_TABLE(SCHEDULEINDEX).COMPANY_ID
22:32:34 834  		      and VENDOR_ID = A_TABLE(SCHEDULEINDEX).VENDOR_ID
22:32:34 835  		      and NVL(A_TABLE(SCHEDULEINDEX).RETIREMENT_DATE, A_TABLE(SCHEDULEINDEX).PAYMENT_MONTH) >= A_TABLE(SCHEDULEINDEX).PAYMENT_MONTH
22:32:34 836  		      and A_TABLE(SCHEDULEINDEX).CONTINGENT_PAID9 <> 0);
22:32:34 837  
22:32:34 838  		      forall SCHEDULEINDEX in indices of A_TABLE
22:32:34 839  			      insert into LS_PAYMENT_LINE
22:32:34 840  		  (PAYMENT_ID, PAYMENT_LINE_NUMBER, PAYMENT_TYPE_ID, LS_ASSET_ID, AMOUNT,
22:32:34 841  		   GL_POSTING_MO_YR, SET_OF_BOOKS_ID)
22:32:34 842  		  (select PAYMENT_ID,
22:32:34 843  			  A_TABLE(SCHEDULEINDEX).ROWNUMBER,
22:32:34 844  			  22,
22:32:34 845  			  A_TABLE(SCHEDULEINDEX).LS_ASSET_ID,
22:32:34 846  			  A_TABLE(SCHEDULEINDEX).CONTINGENT_PAID10 * A_TABLE(SCHEDULEINDEX).PAYMENT_PCT,
22:32:34 847  			  A_TABLE(SCHEDULEINDEX).MONTH,
22:32:34 848  			  A_TABLE(SCHEDULEINDEX).SET_OF_BOOKS_ID
22:32:34 849  		     from LS_PAYMENT_HDR
22:32:34 850  		    where GL_POSTING_MO_YR = A_TABLE(SCHEDULEINDEX).MONTH
22:32:34 851  		      and LEASE_ID = A_TABLE(SCHEDULEINDEX).LEASE_ID
22:32:34 852  				      and ILR_ID = case when A_TABLE(SCHEDULEINDEX).LS_RECONCILE_TYPE_ID in (1,2)
22:32:34 853  							      then A_TABLE(SCHEDULEINDEX).ILR_ID else -1 end
22:32:34 854  		      and LS_ASSET_ID = case when A_TABLE(SCHEDULEINDEX).LS_RECONCILE_TYPE_ID = 1
22:32:34 855  							      then A_TABLE(SCHEDULEINDEX).LS_ASSET_ID else -1 end
22:32:34 856  		      and COMPANY_ID = A_TABLE(SCHEDULEINDEX).COMPANY_ID
22:32:34 857  		      and VENDOR_ID = A_TABLE(SCHEDULEINDEX).VENDOR_ID
22:32:34 858  		      and NVL(A_TABLE(SCHEDULEINDEX).RETIREMENT_DATE, A_TABLE(SCHEDULEINDEX).PAYMENT_MONTH) >= A_TABLE(SCHEDULEINDEX).PAYMENT_MONTH
22:32:34 859  		      and A_TABLE(SCHEDULEINDEX).CONTINGENT_PAID10 <> 0);
22:32:34 860  
22:32:34 861  		      -- OFFSET the amount for taxes paid to STATE.
22:32:34 862  		      -- use payment_type_id = -99 to handle the offset to reduce the total payment header
22:32:34 863  		      forall SCHEDULEINDEX in indices of A_TABLE
22:32:34 864  			      insert into LS_PAYMENT_LINE
22:32:34 865  		  (PAYMENT_ID, PAYMENT_LINE_NUMBER, PAYMENT_TYPE_ID, LS_ASSET_ID, AMOUNT,
22:32:34 866  		   GL_POSTING_MO_YR, SET_OF_BOOKS_ID)
22:32:34 867  		  (select H.PAYMENT_ID,
22:32:34 868  			  A_TABLE(SCHEDULEINDEX).ROWNUMBER,
22:32:34 869  			  -99,
22:32:34 870  			  A_TABLE(SCHEDULEINDEX).LS_ASSET_ID,
22:32:34 871  			  -1 * sum(LMT.AMOUNT),
22:32:34 872  			  A_TABLE(SCHEDULEINDEX).MONTH,
22:32:34 873  			  A_TABLE(SCHEDULEINDEX).SET_OF_BOOKS_ID
22:32:34 874  		     from LS_PAYMENT_HDR H, LS_MONTHLY_TAX LMT, ls_tax_local ltt
22:32:34 875  		    where LMT.ACCRUAL = 0
22:32:34 876  				and lmt.tax_local_id = ltt.tax_local_id
22:32:34 877  				and ltt.pay_lessor = 0
22:32:34 878  				and LMT.schedule_month = H.GL_POSTING_MO_YR
22:32:34 879  	      and NVL(A_TABLE(SCHEDULEINDEX).RETIREMENT_DATE, A_TABLE(SCHEDULEINDEX).PAYMENT_MONTH) >= A_TABLE(SCHEDULEINDEX).PAYMENT_MONTH
22:32:34 880  				      and LMT.set_of_books_id = A_TABLE(SCHEDULEINDEX).SET_OF_BOOKS_ID
22:32:34 881  				      and LMT.LS_ASSET_ID = A_TABLE(SCHEDULEINDEX).LS_ASSET_ID
22:32:34 882  				and H.GL_POSTING_MO_YR = A_TABLE(SCHEDULEINDEX).MONTH
22:32:34 883  		      and H.LEASE_ID = A_TABLE(SCHEDULEINDEX).LEASE_ID
22:32:34 884  				      and H.ILR_ID = case when A_TABLE(SCHEDULEINDEX).LS_RECONCILE_TYPE_ID in (1,2)
22:32:34 885  							      then A_TABLE(SCHEDULEINDEX).ILR_ID else -1 end
22:32:34 886  		      and H.LS_ASSET_ID = case when A_TABLE(SCHEDULEINDEX).LS_RECONCILE_TYPE_ID = 1
22:32:34 887  							      then A_TABLE(SCHEDULEINDEX).LS_ASSET_ID else -1 end
22:32:34 888  		      and H.COMPANY_ID = A_TABLE(SCHEDULEINDEX).COMPANY_ID
22:32:34 889  		      and H.VENDOR_ID = A_TABLE(SCHEDULEINDEX).VENDOR_ID
22:32:34 890  				      group by H.PAYMENT_ID
22:32:34 891  				      );
22:32:34 892  
22:32:34 893  	      end P_CALC_CONT_PAYMENTS;
22:32:34 894  
22:32:34 895  	      function F_GET_TAX_TYPE(A_TYPE varchar2, A_NUMBER number) return number is
22:32:34 896  		      x number := 2;
22:32:34 897  	      begin
22:32:34 898  		      if lower(A_TYPE) = 'contingent' then
22:32:34 899  			      x := 12;
22:32:34 900  		      end if;
22:32:34 901  
22:32:34 902  		      return x + A_NUMBER;
22:32:34 903  
22:32:34 904  	      end F_GET_TAX_TYPE;
22:32:34 905  
22:32:34 906  	      function F_GET_ACCTS return BUCKET_ACCTS is
22:32:34 907  		      rtn BUCKET_ACCTS;
22:32:34 908  		      x number;
22:32:34 909  	      begin
22:32:34 910  
22:32:34 911  		      for L_LOC in (select *
22:32:34 912  						      from LS_RENT_BUCKET_ADMIN
22:32:34 913  						      where STATUS_CODE_ID = 1)
22:32:34 914  		      loop
22:32:34 915  			      if lower(L_LOC.RENT_TYPE) = 'executory' then
22:32:34 916  				      x := 2;
22:32:34 917  			      else
22:32:34 918  				      x := 12;
22:32:34 919  			      end if;
22:32:34 920  
22:32:34 921  			      rtn(x + L_LOC.BUCKET_NUMBER) := L_LOC;
22:32:34 922  
22:32:34 923  		      end loop;
22:32:34 924  
22:32:34 925  		      return rtn;
22:32:34 926  
22:32:34 927  	      end F_GET_ACCTS;
22:32:34 928  
22:32:34 929  end PKG_LEASE_BUCKET;
22:32:34 930  /

Warning: Package Body created with compilation errors.

22:32:35 hopplant> --**************************
22:32:35 hopplant> -- Log the run of the script
22:32:35 hopplant> --**************************
22:32:35 hopplant> insert into PP_SCHEMA_CHANGE_LOG
22:32:35   2  	 (ID, SKIPPED, MAJOR_VERSION, MINOR_VERSION, POINT_VERSION, PATCH_VERSION, MAINT_NUM, SCRIPT_PATH,
22:32:35   3  	  SCRIPT_NAME, SCRIPT_REVISION, DATE_APPLIED, OS_USER, TERMINAL, SERVICE_NAME)
22:32:35   4  values
22:32:35   5  	 (7585, 0, 2017, 4, 0, 0, 0, 'C:\plasticwks\powerplant\sql\packages', '2017.4.0.0_PKG_LEASE_BUCKET.sql', 1, SYSTIMESTAMP, SYS_CONTEXT('USERENV', 'OS_USER'), SYS_CONTEXT('USERENV', 'TERMINAL'), SYS_CONTEXT('USERENV', 'SERVICE_NAME'));

1 row created.

22:32:35 hopplant> commit;

Commit complete.

22:32:35 hopplant> SPOOL OFF
