21:52:38 hopplant> @&&PP_SCRIPT_PATH.maint_scripts\2017.1.0.0_maint_049462_lessee_02_ilr_import_update_dml.sql
21:52:38 hopplant> /*
21:52:38 hopplant> ||============================================================================
21:52:38 hopplant> || Application: PowerPlan
21:52:38 hopplant> || File Name:   maint_049462_lessee_02_ilr_import_update_dml.sql
21:52:38 hopplant> ||============================================================================
21:52:38 hopplant> || Copyright (C) 2017 by PowerPlan, Inc. All Rights Reserved.
21:52:38 hopplant> ||============================================================================
21:52:38 hopplant> || Version	 Date	    Revised By	     Reason for Change
21:52:38 hopplant> || ---------- ---------- ---------------- ------------------------------------
21:52:38 hopplant> || 2017.1.0.0 11/12/2017 Shane "C" Ward    Updates to Lessee ILR Import
21:52:38 hopplant> ||============================================================================
21:52:38 hopplant> */
21:52:38 hopplant> INSERT INTO PP_IMPORT_COLUMN
21:52:38   2  		  (import_type_id,
21:52:38   3  		   column_name,
21:52:38   4  		   description,
21:52:38   5  		   import_column_name,
21:52:38   6  		   is_required,
21:52:38   7  		   processing_order,
21:52:38   8  		   column_type,
21:52:38   9  		   parent_table,
21:52:38  10  		   is_on_table,
21:52:38  11  		   parent_table_pk_column)
21:52:38  12  VALUES	  ( 252,
21:52:38  13  		   'sublease_flag',
21:52:38  14  		   'Sublease',
21:52:38  15  		   'sublease_flag_xlate',
21:52:38  16  		   1,
21:52:38  17  		   1,
21:52:38  18  		   'number(1)',
21:52:38  19  		   'yes_no',
21:52:38  20  		   1,
21:52:38  21  		   'yes_no_id');

1 row created.

21:52:38 hopplant> 
21:52:38 hopplant> INSERT INTO PP_IMPORT_COLUMN
21:52:38   2  		  (import_type_id,
21:52:38   3  		   column_name,
21:52:38   4  		   description,
21:52:38   5  		   import_column_name,
21:52:38   6  		   is_required,
21:52:38   7  		   processing_order,
21:52:38   8  		   column_type,
21:52:38   9  		   parent_table,
21:52:38  10  		   is_on_table,
21:52:38  11  		   parent_table_pk_column)
21:52:38  12  VALUES	  ( 252,
21:52:38  13  		   'sublease_id',
21:52:38  14  		   'Sublease Lease',
21:52:38  15  		   'sublease_id_xlate',
21:52:38  16  		   0,
21:52:38  17  		   1,
21:52:38  18  		   'number(22,0)',
21:52:38  19  		   'lsr_lease',
21:52:38  20  		   1,
21:52:38  21  		   'lease_id');

1 row created.

21:52:38 hopplant> 
21:52:38 hopplant> INSERT INTO PP_IMPORT_COLUMN
21:52:38   2  		  (import_type_id,
21:52:38   3  		   column_name,
21:52:38   4  		   description,
21:52:38   5  		   import_column_name,
21:52:38   6  		   is_required,
21:52:38   7  		   processing_order,
21:52:38   8  		   column_type,
21:52:38   9  		   parent_table,
21:52:38  10  		   is_on_table,
21:52:38  11  		   parent_table_pk_column)
21:52:38  12  VALUES	  ( 252,
21:52:38  13  		   'intent_to_purch',
21:52:38  14  		   'Intent to Purchase',
21:52:38  15  		   'intent_to_purch_xlate',
21:52:38  16  		   1,
21:52:38  17  		   1,
21:52:38  18  		   'number(1)',
21:52:38  19  		   'yes_no',
21:52:38  20  		   1,
21:52:38  21  		   'yes_no_id');

1 row created.

21:52:38 hopplant> 
21:52:38 hopplant> INSERT INTO PP_IMPORT_COLUMN
21:52:38   2  		  (import_type_id,
21:52:38   3  		   column_name,
21:52:38   4  		   description,
21:52:38   5  		   import_column_name,
21:52:38   6  		   is_required,
21:52:38   7  		   processing_order,
21:52:38   8  		   column_type,
21:52:38   9  		   parent_table,
21:52:38  10  		   is_on_table,
21:52:38  11  		   parent_table_pk_column)
21:52:38  12  VALUES	  ( 252,
21:52:38  13  		   'specialized_asset',
21:52:38  14  		   'Specialized Asset',
21:52:38  15  		   'specialized_asset_xlate',
21:52:38  16  		   1,
21:52:38  17  		   1,
21:52:38  18  		   'number(1)',
21:52:38  19  		   'yes_no',
21:52:38  20  		   1,
21:52:38  21  		   'yes_no_id');

1 row created.

21:52:38 hopplant> 
21:52:38 hopplant> INSERT INTO PP_IMPORT_COLUMN
21:52:38   2  		  (import_type_id,
21:52:38   3  		   column_name,
21:52:38   4  		   description,
21:52:38   5  		   import_column_name,
21:52:38   6  		   is_required,
21:52:38   7  		   processing_order,
21:52:38   8  		   column_type,
21:52:38   9  		   parent_table,
21:52:38  10  		   is_on_table,
21:52:38  11  		   parent_table_pk_column)
21:52:38  12  VALUES	  ( 252,
21:52:38  13  		   'intercompany_lease',
21:52:38  14  		   'Intercompany Lease',
21:52:38  15  		   'intercompany_lease_xlate',
21:52:38  16  		   1,
21:52:38  17  		   1,
21:52:38  18  		   'number(1)',
21:52:38  19  		   'yes_no',
21:52:38  20  		   1,
21:52:38  21  		   'yes_no_id');

1 row created.

21:52:38 hopplant> 
21:52:38 hopplant> INSERT INTO PP_IMPORT_COLUMN
21:52:38   2  		  (import_type_id,
21:52:38   3  		   column_name,
21:52:38   4  		   description,
21:52:38   5  		   import_column_name,
21:52:38   6  		   is_required,
21:52:38   7  		   processing_order,
21:52:38   8  		   column_type,
21:52:38   9  		   parent_table,
21:52:38  10  		   is_on_table,
21:52:38  11  		   parent_table_pk_column)
21:52:38  12  VALUES	  ( 252,
21:52:38  13  		   'intercompany_company',
21:52:38  14  		   'Intercompany Lease Company',
21:52:38  15  		   'intercompany_company_xlate',
21:52:38  16  		   0,
21:52:38  17  		   1,
21:52:38  18  		   'number(22,0)',
21:52:38  19  		   'company_setup',
21:52:38  20  		   1,
21:52:38  21  		   'company_id');

1 row created.

21:52:38 hopplant> 
21:52:38 hopplant> INSERT INTO PP_IMPORT_COLUMN_LOOKUP
21:52:38   2  		  (import_type_id,
21:52:38   3  		   column_name,
21:52:38   4  		   import_lookup_id)
21:52:38   5  VALUES	  ( 252,
21:52:38   6  		   'intent_to_purch',
21:52:38   7  		   77);

1 row created.

21:52:38 hopplant> 
21:52:38 hopplant> INSERT INTO PP_IMPORT_COLUMN_LOOKUP
21:52:38   2  		  (import_type_id,
21:52:38   3  		   column_name,
21:52:38   4  		   import_lookup_id)
21:52:38   5  VALUES	  ( 252,
21:52:38   6  		   'intent_to_purch',
21:52:38   7  		   78);

1 row created.

21:52:38 hopplant> 
21:52:38 hopplant> INSERT INTO PP_IMPORT_COLUMN_LOOKUP
21:52:38   2  		  (import_type_id,
21:52:38   3  		   column_name,
21:52:38   4  		   import_lookup_id)
21:52:38   5  VALUES	  ( 252,
21:52:38   6  		   'intercompany_company',
21:52:38   7  		   19);

1 row created.

21:52:38 hopplant> 
21:52:38 hopplant> INSERT INTO PP_IMPORT_COLUMN_LOOKUP
21:52:38   2  		  (import_type_id,
21:52:38   3  		   column_name,
21:52:38   4  		   import_lookup_id)
21:52:38   5  VALUES	  ( 252,
21:52:38   6  		   'intercompany_company',
21:52:38   7  		   20);

1 row created.

21:52:38 hopplant> 
21:52:38 hopplant> INSERT INTO PP_IMPORT_COLUMN_LOOKUP
21:52:38   2  		  (import_type_id,
21:52:38   3  		   column_name,
21:52:38   4  		   import_lookup_id)
21:52:38   5  VALUES	  ( 252,
21:52:38   6  		   'intercompany_lease',
21:52:38   7  		   77);

1 row created.

21:52:38 hopplant> 
21:52:38 hopplant> INSERT INTO PP_IMPORT_COLUMN_LOOKUP
21:52:38   2  		  (import_type_id,
21:52:38   3  		   column_name,
21:52:38   4  		   import_lookup_id)
21:52:38   5  VALUES	  ( 252,
21:52:38   6  		   'intercompany_lease',
21:52:38   7  		   78);

1 row created.

21:52:39 hopplant> 
21:52:39 hopplant> INSERT INTO PP_IMPORT_COLUMN_LOOKUP
21:52:39   2  		  (import_type_id,
21:52:39   3  		   column_name,
21:52:39   4  		   import_lookup_id)
21:52:39   5  VALUES	  ( 252,
21:52:39   6  		   'specialized_asset',
21:52:39   7  		   77);

1 row created.

21:52:39 hopplant> 
21:52:39 hopplant> INSERT INTO PP_IMPORT_COLUMN_LOOKUP
21:52:39   2  		  (import_type_id,
21:52:39   3  		   column_name,
21:52:39   4  		   import_lookup_id)
21:52:39   5  VALUES	  ( 252,
21:52:39   6  		   'specialized_asset',
21:52:39   7  		   78);

1 row created.

21:52:39 hopplant> 
21:52:39 hopplant> INSERT INTO PP_IMPORT_COLUMN_LOOKUP
21:52:39   2  		  (import_type_id,
21:52:39   3  		   column_name,
21:52:39   4  		   import_lookup_id)
21:52:39   5  VALUES	  ( 252,
21:52:39   6  		   'sublease_flag',
21:52:39   7  		   77);

1 row created.

21:52:39 hopplant> 
21:52:39 hopplant> INSERT INTO PP_IMPORT_COLUMN_LOOKUP
21:52:39   2  		  (import_type_id,
21:52:39   3  		   column_name,
21:52:39   4  		   import_lookup_id)
21:52:39   5  VALUES	  ( 252,
21:52:39   6  		   'sublease_flag',
21:52:39   7  		   78);

1 row created.

21:52:39 hopplant> 
21:52:39 hopplant> INSERT INTO PP_IMPORT_COLUMN_LOOKUP
21:52:39   2  		  (import_type_id,
21:52:39   3  		   column_name,
21:52:39   4  		   import_lookup_id)
21:52:39   5  VALUES	  ( 252,
21:52:39   6  		   'sublease_id',
21:52:39   7  		   1083);

1 row created.

21:52:39 hopplant> 
21:52:39 hopplant> INSERT INTO PP_IMPORT_COLUMN_LOOKUP
21:52:39   2  		  (import_type_id,
21:52:39   3  		   column_name,
21:52:39   4  		   import_lookup_id)
21:52:39   5  VALUES	  ( 252,
21:52:39   6  		   'sublease_id',
21:52:39   7  		   1084);

1 row created.

21:52:39 hopplant> 
21:52:39 hopplant> INSERT INTO PP_IMPORT_COLUMN_LOOKUP
21:52:39   2  		  (import_type_id,
21:52:39   3  		   column_name,
21:52:39   4  		   import_lookup_id)
21:52:39   5  VALUES	  ( 252,
21:52:39   6  		   'sublease_id',
21:52:39   7  		   1085);

1 row created.

21:52:39 hopplant> 
21:52:39 hopplant> --PP_IMPORT_TEMPLATE_FIELDS
21:52:39 hopplant> UPDATE PP_IMPORT_TEMPLATE_FIELDS
21:52:39   2  SET    field_id = field_id + 6
21:52:39   3  WHERE  import_type_id = 252 AND
21:52:39   4  	     import_template_id IN
21:52:39   5  	     ( SELECT import_template_id
21:52:39   6  	       FROM   PP_IMPORT_TEMPLATE
21:52:39   7  	       WHERE  description = 'ILR Add' ) AND
21:52:39   8  	     field_id > 9;

58 rows updated.

21:52:39 hopplant> 
21:52:39 hopplant> INSERT INTO PP_IMPORT_TEMPLATE_FIELDS
21:52:39   2  		  (import_template_id,
21:52:39   3  		   field_id,
21:52:39   4  		   import_type_id,
21:52:39   5  		   column_name,
21:52:39   6  		   import_lookup_id)
21:52:39   7  SELECT import_template_id,
21:52:39   8  	     10,
21:52:39   9  	     252,
21:52:39  10  	     'intent_to_purch',
21:52:39  11  	     77
21:52:39  12  FROM   PP_IMPORT_TEMPLATE
21:52:39  13  WHERE  import_type_id = 252 AND
21:52:39  14  	     description = 'ILR Add';

1 row created.

21:52:39 hopplant> 
21:52:39 hopplant> INSERT INTO PP_IMPORT_TEMPLATE_FIELDS
21:52:39   2  		  (import_template_id,
21:52:39   3  		   field_id,
21:52:39   4  		   import_type_id,
21:52:39   5  		   column_name,
21:52:39   6  		   import_lookup_id)
21:52:39   7  SELECT import_template_id,
21:52:39   8  	     11,
21:52:39   9  	     252,
21:52:39  10  	     'specialized_asset',
21:52:39  11  	     77
21:52:39  12  FROM   PP_IMPORT_TEMPLATE
21:52:39  13  WHERE  import_type_id = 252 AND
21:52:39  14  	     description = 'ILR Add';

1 row created.

21:52:39 hopplant> 
21:52:39 hopplant> INSERT INTO PP_IMPORT_TEMPLATE_FIELDS
21:52:39   2  		  (import_template_id,
21:52:39   3  		   field_id,
21:52:39   4  		   import_type_id,
21:52:39   5  		   column_name,
21:52:39   6  		   import_lookup_id)
21:52:39   7  SELECT import_template_id,
21:52:39   8  	     12,
21:52:39   9  	     252,
21:52:39  10  	     'sublease_flag',
21:52:39  11  	     77
21:52:39  12  FROM   PP_IMPORT_TEMPLATE
21:52:39  13  WHERE  import_type_id = 252 AND
21:52:39  14  	     description = 'ILR Add';

1 row created.

21:52:39 hopplant> 
21:52:39 hopplant> INSERT INTO PP_IMPORT_TEMPLATE_FIELDS
21:52:39   2  		  (import_template_id,
21:52:39   3  		   field_id,
21:52:39   4  		   import_type_id,
21:52:39   5  		   column_name,
21:52:39   6  		   import_lookup_id)
21:52:39   7  SELECT import_template_id,
21:52:39   8  	     13,
21:52:39   9  	     252,
21:52:39  10  	     'sublease_id',
21:52:39  11  	     1083
21:52:39  12  FROM   PP_IMPORT_TEMPLATE
21:52:39  13  WHERE  import_type_id = 252 AND
21:52:39  14  	     description = 'ILR Add';

1 row created.

21:52:39 hopplant> 
21:52:39 hopplant> INSERT INTO PP_IMPORT_TEMPLATE_FIELDS
21:52:39   2  		  (import_template_id,
21:52:39   3  		   field_id,
21:52:39   4  		   import_type_id,
21:52:39   5  		   column_name,
21:52:39   6  		   import_lookup_id)
21:52:39   7  SELECT import_template_id,
21:52:39   8  	     14,
21:52:39   9  	     252,
21:52:39  10  	     'intercompany_lease',
21:52:39  11  	     77
21:52:39  12  FROM   PP_IMPORT_TEMPLATE
21:52:39  13  WHERE  import_type_id = 252 AND
21:52:39  14  	     description = 'ILR Add';

1 row created.

21:52:39 hopplant> 
21:52:39 hopplant> INSERT INTO PP_IMPORT_TEMPLATE_FIELDS
21:52:39   2  		  (import_template_id,
21:52:39   3  		   field_id,
21:52:39   4  		   import_type_id,
21:52:39   5  		   column_name,
21:52:39   6  		   import_lookup_id)
21:52:39   7  SELECT import_template_id,
21:52:39   8  	     15,
21:52:39   9  	     252,
21:52:39  10  	     'intercompany_company',
21:52:39  11  	     19
21:52:39  12  FROM   PP_IMPORT_TEMPLATE
21:52:39  13  WHERE  import_type_id = 252 AND
21:52:39  14  	     description = 'ILR Add';

1 row created.

21:52:39 hopplant> 
21:52:39 hopplant> --****************************************************
21:52:39 hopplant> --Log the run of the script to local PP_SCHEMA_LOG
21:52:39 hopplant> --****************************************************
21:52:39 hopplant> INSERT INTO PP_SCHEMA_CHANGE_LOG
21:52:39   2  (ID, SKIPPED, MAJOR_VERSION, MINOR_VERSION, POINT_VERSION, PATCH_VERSION, MAINT_NUM, SCRIPT_PATH,
21:52:39   3  SCRIPT_NAME, SCRIPT_REVISION, DATE_APPLIED, OS_USER, TERMINAL, SERVICE_NAME)
21:52:39   4  VALUES
21:52:39   5  (3939, 0, 2017, 1, 0, 0, 49462, 'C:\PlasticWks\powerplant\sql\maint_scripts', '2017.1.0.0_maint_049462_lessee_02_ilr_import_update_dml.sql', 1,
21:52:39   6  SYSTIMESTAMP, SYS_CONTEXT('USERENV', 'OS_USER'), SYS_CONTEXT('USERENV', 'TERMINAL'),
21:52:39   7  SYS_CONTEXT('USERENV', 'SERVICE_NAME'));

1 row created.

21:52:39 hopplant> COMMIT;

Commit complete.

21:52:39 hopplant> SPOOL OFF
