21:44:11 hopplant> @&&PP_SCRIPT_PATH.maint_scripts\2017.1.0.0_maint_047549_lease_mc_add_curr_type_ddl.sql
21:44:11 hopplant> /*
21:44:11 hopplant> ||============================================================================================
21:44:11 hopplant> || Application: PowerPlan
21:44:11 hopplant> || File Name: maint_047549_lease_mc_add_curr_type_ddl.sql
21:44:11 hopplant> ||============================================================================================
21:44:11 hopplant> || Copyright (C) 2017 by PowerPlan, Inc. All Rights Reserved.
21:44:11 hopplant> ||============================================================================================
21:44:11 hopplant> || Version	 Date	    Revised By	      Reason for Change
21:44:11 hopplant> || ---------- ---------- ----------------- ---------------------------------------------------
21:44:11 hopplant> || 2017.1.0.0 04/19/2017 Johnny Sisouphanh Create a table to store types of currency
21:44:11 hopplant> ||============================================================================================
21:44:11 hopplant> */
21:44:11 hopplant> 
21:44:11 hopplant> create table ls_lease_currency_type (
21:44:11   2  	ls_currency_type_id  number(22) not null,
21:44:11   3  	description	      varchar(35) not null,
21:44:11   4  	user_id 			      varchar2(18),
21:44:11   5  	time_stamp		      date
21:44:11   6  );

Table created.

21:44:11 hopplant> 
21:44:11 hopplant> alter table ls_lease_currency_type
21:44:11   2  	add constraint ls_lease_currency_typepk
21:44:11   3  	primary key (ls_currency_type_id)
21:44:11   4  	using index tablespace pwrplant_idx;

Table altered.

21:44:11 hopplant> 
21:44:11 hopplant> comment on table ls_lease_currency_type is '(F) [06] The LS Currency Type table is a table that stores the types of currency. ';

Comment created.

21:44:11 hopplant> comment on column ls_lease_currency_type.ls_currency_type_id is 'A reference to the type of currency. 1-Contract Currency Type, 2-Company Currency Type.';

Comment created.

21:44:11 hopplant> comment on column ls_lease_currency_type.description is 'The description for the type of currency.';

Comment created.

21:44:11 hopplant> comment on column ls_lease_currency_type.user_id    is 'Standard system-assigned user id used for audit purposes.';

Comment created.

21:44:11 hopplant> comment on column ls_lease_currency_type.time_stamp is 'Standard system-assigned timestamp used for audit purposes.';

Comment created.

21:44:11 hopplant> 
21:44:11 hopplant> --****************************************************
21:44:11 hopplant> --Log the run of the script to local PP_SCHEMA_LOG
21:44:11 hopplant> --****************************************************
21:44:11 hopplant> INSERT INTO PP_SCHEMA_CHANGE_LOG
21:44:11   2  	      (ID, SKIPPED, MAJOR_VERSION, MINOR_VERSION, POINT_VERSION, PATCH_VERSION, MAINT_NUM, SCRIPT_PATH,
21:44:11   3  	      SCRIPT_NAME, SCRIPT_REVISION, DATE_APPLIED, OS_USER, TERMINAL, SERVICE_NAME)
21:44:11   4  VALUES
21:44:11   5  	      (3457, 0, 2017, 1, 0, 0, 47549, 'C:\PlasticWks\powerplant\sql\maint_scripts', '2017.1.0.0_maint_047549_lease_mc_add_curr_type_ddl.sql', 1,
21:44:11   6  	      SYSTIMESTAMP, SYS_CONTEXT('USERENV', 'OS_USER'), SYS_CONTEXT('USERENV', 'TERMINAL'),
21:44:11   7  	      SYS_CONTEXT('USERENV', 'SERVICE_NAME'));

1 row created.

21:44:11 hopplant> COMMIT;

Commit complete.

21:44:11 hopplant> SPOOL OFF
