21:47:23 hopplant> @&&PP_SCRIPT_PATH.maint_scripts\2017.1.0.0_maint_048623_lease_14_move_dense_update_trigger_to_currency_rate.sql
21:47:23 hopplant> /*
21:47:23 hopplant> ||============================================================================
21:47:23 hopplant> || Application: PowerPlan
21:47:23 hopplant> || File Name:   maint_048623_lease_14_move_dense_update_trigger_to_currency_rate.sql
21:47:23 hopplant> ||============================================================================
21:47:23 hopplant> || Copyright (C) 2017 by PowerPlan, Inc. All Rights Reserved.
21:47:23 hopplant> ||============================================================================
21:47:23 hopplant> || Version	 Date	    Revised By	     Reason for Change
21:47:23 hopplant> || ---------- ---------- ---------------- ------------------------------------
21:47:23 hopplant> || 2017.1.0.0 08/16/2017 Andrew Hill      Currency_rate_default is intended to be system managed;
21:47:23 hopplant> ||					     all changes should go through currency_rate. Since
21:47:23 hopplant> ||					     currency_rate has existing row-by-row triggers, this
21:47:23 hopplant> ||					     would result in poor performance for the refresh process
21:47:23 hopplant> ||					     (it should run after all updates, not row-by-row) where
21:47:23 hopplant> ||					     the trigger to remain on currency_rate_default. Moving
21:47:23 hopplant> ||					     the trigger to currency & currency_rate
21:47:23 hopplant> ||					     should mitigate the performance hit.
21:47:23 hopplant> ||============================================================================
21:47:23 hopplant> */
21:47:23 hopplant> 
21:47:23 hopplant> drop trigger curr_rate_dflt_refresh_dense;

Trigger dropped.

21:47:23 hopplant> 
21:47:23 hopplant> create or replace trigger curr_refresh_rate_dflt_dense after insert or update or delete on currency
21:47:23   2  begin
21:47:23   3  	p_refresh_curr_rate_dflt_dense;
21:47:23   4  end;
21:47:23   5  /

Trigger created.

21:47:23 hopplant> 
21:47:23 hopplant> create or replace trigger curr_rate_refresh_dflt_dense after insert or update or delete on currency_rate
21:47:23   2  begin
21:47:23   3  	  p_refresh_curr_rate_dflt_dense;
21:47:23   4  end;
21:47:23   5  /

Trigger created.

21:47:23 hopplant> 
21:47:23 hopplant> --****************************************************
21:47:23 hopplant> --Log the run of the script to local PP_SCHEMA_LOG
21:47:23 hopplant> --****************************************************
21:47:23 hopplant> INSERT INTO PP_SCHEMA_CHANGE_LOG
21:47:23   2  	      (ID, SKIPPED, MAJOR_VERSION, MINOR_VERSION, POINT_VERSION, PATCH_VERSION, MAINT_NUM, SCRIPT_PATH,
21:47:23   3  	      SCRIPT_NAME, SCRIPT_REVISION, DATE_APPLIED, OS_USER, TERMINAL, SERVICE_NAME)
21:47:23   4  VALUES
21:47:23   5  	      (3661, 0, 2017, 1, 0, 0, 48623, 'C:\PlasticWks\powerplant\sql\maint_scripts', '2017.1.0.0_maint_048623_lease_14_move_dense_update_trigger_to_currency_rate.sql', 1,
21:47:23   6  	      SYSTIMESTAMP, SYS_CONTEXT('USERENV', 'OS_USER'), SYS_CONTEXT('USERENV', 'TERMINAL'),
21:47:23   7  	      SYS_CONTEXT('USERENV', 'SERVICE_NAME'));

1 row created.

21:47:23 hopplant> COMMIT;

Commit complete.

21:47:23 hopplant> SPOOL OFF
