21:48:31 hopplant> @&&PP_SCRIPT_PATH.maint_scripts\2017.1.0.0_maint_048808_lessor_03_make_payment_month_freq_col_not_null_ddl.sql
21:48:31 hopplant> /*
21:48:31 hopplant> ||============================================================================
21:48:31 hopplant> || Application: PowerPlan
21:48:31 hopplant> || File Name:   maint_048808_lessor_03_make_payment_month_freq_col_not_null_ddl.sql
21:48:31 hopplant> ||============================================================================
21:48:31 hopplant> || Copyright (C) 2017 by PowerPlan, Inc. All Rights Reserved.
21:48:31 hopplant> ||============================================================================
21:48:31 hopplant> || Version	 Date	    Revised By	     Reason for Change
21:48:31 hopplant> || ---------- ---------- ---------------- ------------------------------------
21:48:31 hopplant> || 2017.1.0.0 09/21/2017 Charlie Shilling make our new column NOT NULL now that it's been populated by script 02
21:48:31 hopplant> ||============================================================================
21:48:31 hopplant> */
21:48:31 hopplant> 
21:48:31 hopplant> ALTER TABLE ls_payment_freq
21:48:31   2  MODIFY payment_month_freq NOT NULL;

Table altered.

21:48:31 hopplant> 
21:48:31 hopplant> 
21:48:31 hopplant> --****************************************************
21:48:31 hopplant> --Log the run of the script to local PP_SCHEMA_LOG
21:48:31 hopplant> --****************************************************
21:48:31 hopplant> INSERT INTO PP_SCHEMA_CHANGE_LOG
21:48:31   2  	      (ID, SKIPPED, MAJOR_VERSION, MINOR_VERSION, POINT_VERSION, PATCH_VERSION, MAINT_NUM, SCRIPT_PATH,
21:48:31   3  	      SCRIPT_NAME, SCRIPT_REVISION, DATE_APPLIED, OS_USER, TERMINAL, SERVICE_NAME)
21:48:31   4  VALUES
21:48:31   5  	      (3737, 0, 2017, 1, 0, 0, 48808, 'C:\PlasticWks\powerplant\sql\maint_scripts', '2017.1.0.0_maint_048808_lessor_03_make_payment_month_freq_col_not_null_ddl.sql', 1,
21:48:31   6  	      SYSTIMESTAMP, SYS_CONTEXT('USERENV', 'OS_USER'), SYS_CONTEXT('USERENV', 'TERMINAL'),
21:48:31   7  	      SYS_CONTEXT('USERENV', 'SERVICE_NAME'));

1 row created.

21:48:31 hopplant> COMMIT;

Commit complete.

21:48:31 hopplant> SPOOL OFF
