22:20:11 hopplant> @&&PP_SCRIPT_PATH.maint_scripts\2017.3.0.0_maint_050388_lessor_03_add_ilr_to_multicurrency_audit_table_ddl.sql
22:20:11 hopplant> /*
22:20:11 hopplant> ||============================================================================
22:20:11 hopplant> || Application: PowerPlan
22:20:11 hopplant> || File Name:   maint_050388_lessor_03_add_ilr_to_multicurrency_audit_table_ddl.sql
22:20:11 hopplant> ||============================================================================
22:20:11 hopplant> || Copyright (C) 2018 by PowerPlan, Inc. All Rights Reserved.
22:20:11 hopplant> ||============================================================================
22:20:11 hopplant> || Version	 Date	    Revised By	      Reason for Change
22:20:11 hopplant> || ---------- ---------- ----------------  ------------------------------------
22:20:11 hopplant> || 2017.3.0.0 03/16/2018 Jared Watkins     Add ILR ID to the Lease Multicurrency Audit table
22:20:11 hopplant> ||============================================================================
22:20:11 hopplant> */
22:20:11 hopplant> 
22:20:11 hopplant> alter table ls_mc_gl_transaction_audit
22:20:11   2  add ilr_id number(22,0) null;

Table altered.

22:20:11 hopplant> 
22:20:11 hopplant> comment on column ls_mc_gl_transaction_audit.ilr_id is 'The unique identifier for the ILR having GL Transactions created.';

Comment created.

22:20:11 hopplant> 
22:20:11 hopplant> --****************************************************
22:20:11 hopplant> --Log the run of the script to local PP_SCHEMA_LOG
22:20:11 hopplant> --****************************************************
22:20:11 hopplant> INSERT INTO PP_SCHEMA_CHANGE_LOG
22:20:11   2  	      (ID, SKIPPED, MAJOR_VERSION, MINOR_VERSION, POINT_VERSION, PATCH_VERSION, MAINT_NUM, SCRIPT_PATH,
22:20:11   3  	      SCRIPT_NAME, SCRIPT_REVISION, DATE_APPLIED, OS_USER, TERMINAL, SERVICE_NAME)
22:20:11   4  VALUES
22:20:11   5  	      (4216, 0, 2017, 3, 0, 0, 50388, 'C:\PlasticWks\powerplant\sql\maint_scripts', '2017.3.0.0_maint_050388_lessor_03_add_ilr_to_multicurrency_audit_table_ddl.sql', 1,
22:20:11   6  	      SYSTIMESTAMP, SYS_CONTEXT('USERENV', 'OS_USER'), SYS_CONTEXT('USERENV', 'TERMINAL'),
22:20:11   7  	      SYS_CONTEXT('USERENV', 'SERVICE_NAME'));

1 row created.

22:20:11 hopplant> COMMIT;

Commit complete.

22:20:11 hopplant> SPOOL OFF
