22:18:56 hopplant> @&&PP_SCRIPT_PATH.maint_scripts\2017.3.0.0_maint_050180_lessor_05_create_rate_compounding_view_ddl.sql
22:18:56 hopplant> /*
22:18:56 hopplant> ||============================================================================
22:18:56 hopplant> || Application: PowerPlan
22:18:56 hopplant> || File Name: maint_050180_lessor_05_create_rate_compounding_view_ddl.sql
22:18:56 hopplant> || Description: Create view to display ILR rates compounded by frequencies
22:18:56 hopplant> ||============================================================================
22:18:56 hopplant> || Copyright (C) 2018 by PowerPlan, Inc. All Rights Reserved.
22:18:56 hopplant> ||============================================================================
22:18:56 hopplant> || Version	 Date	    Revised By	   Reason for Change
22:18:56 hopplant> || ---------- ---------- -------------- ----------------------------------------
22:18:56 hopplant> || 2017.3.0.0 03/20/2018 Andrew Hill    Create view
22:18:56 hopplant> ||============================================================================
22:18:56 hopplant> */
22:18:56 hopplant> 
22:18:56 hopplant> CREATE OR REPLACE VIEW v_lsr_ilr_rates_compounded AS
22:18:56   2  SELECT  lsr_ilr_rates.ilr_id,
22:18:56   3  	      lsr_ilr_rates.revision,
22:18:56   4  	      lsr_ilr_rates.rate_type_id,
22:18:56   5  	      lsr_ilr_rate_types.DESCRIPTION AS rate_type_description,
22:18:56   6  	      lsr_ilr_rates.rate AS rate_implicit,
22:18:56   7  	      (POWER(1 + lsr_ilr_rates.rate, 3) - 1)/3 AS quarterly_compounded_rate,
22:18:56   8  	      (POWER(1 + lsr_ilr_rates.rate, 6) - 1)/6 AS  semiannual_compounded_rate,
22:18:56   9  	      POWER(1 + lsr_ilr_rates.rate, 12) - 1 AS annual_discount_rate
22:18:56  10  FROM lsr_ilr_rates
22:18:56  11  JOIN lsr_ilr_rate_types ON lsr_ilr_rates.rate_type_id = lsr_ilr_rate_types.rate_type_id;

View created.

22:18:56 hopplant> 
22:18:56 hopplant> --****************************************************
22:18:56 hopplant> --Log the run of the script to local PP_SCHEMA_LOG
22:18:56 hopplant> --****************************************************
22:18:56 hopplant> INSERT INTO PP_SCHEMA_CHANGE_LOG
22:18:56   2  	      (ID, SKIPPED, MAJOR_VERSION, MINOR_VERSION, POINT_VERSION, PATCH_VERSION, MAINT_NUM, SCRIPT_PATH,
22:18:56   3  	      SCRIPT_NAME, SCRIPT_REVISION, DATE_APPLIED, OS_USER, TERMINAL, SERVICE_NAME)
22:18:56   4  VALUES
22:18:56   5  	      (4223, 0, 2017, 3, 0, 0, 50180, 'C:\PlasticWks\powerplant\sql\maint_scripts', '2017.3.0.0_maint_050180_lessor_05_create_rate_compounding_view_ddl.sql', 1,
22:18:56   6  	      SYSTIMESTAMP, SYS_CONTEXT('USERENV', 'OS_USER'), SYS_CONTEXT('USERENV', 'TERMINAL'),
22:18:56   7  	      SYS_CONTEXT('USERENV', 'SERVICE_NAME'));

1 row created.

22:18:56 hopplant> COMMIT;

Commit complete.

22:18:56 hopplant> SPOOL OFF
