21:52:14 hopplant> @&&PP_SCRIPT_PATH.maint_scripts\2017.1.0.0_maint_049517_lessor_03_reestablish_ilr_schedule_links_ddl.sql
21:52:14 hopplant> /*
21:52:14 hopplant> ||============================================================================
21:52:14 hopplant> || Application: PowerPlan
21:52:14 hopplant> || File Name: maint_049517_lessor_03_reestablish_ilr_schedule_links_ddl.sql
21:52:14 hopplant> ||============================================================================
21:52:14 hopplant> || Copyright (C) 2017 by PowerPlan, Inc. All Rights Reserved.
21:52:14 hopplant> ||============================================================================
21:52:14 hopplant> || Version	 Date	    Revised By	     Reason for Change
21:52:14 hopplant> || ---------- ---------- ---------------- ------------------------------------
21:52:14 hopplant> || 2017.1.0.0 11/09/2017 Andrew Hill      Reestablish keys, views, etc. referencing ls_ilr_schedule
21:52:14 hopplant> ||============================================================================
21:52:14 hopplant> */
21:52:14 hopplant> 
21:52:14 hopplant> ALTER TABLE lsr_ilr_schedule_sales_direct ADD CONSTRAINT r_lsr_ilr_sched_sales_direct3 FOREIGN KEY ( ilr_id,revision,set_of_books_id,MONTH )
21:52:14   2  	  REFERENCES LSR_ILR_SCHEDULE ( ILR_ID,REVISION,SET_OF_BOOKS_ID,MONTH );

Table altered.

21:52:14 hopplant> 
21:52:14 hopplant> CREATE MATERIALIZED VIEW LOG ON LSR_ILR_SCHEDULE WITH
21:52:14   2  	ROWID
21:52:14   3  	INCLUDING NEW VALUES;

Materialized view log created.

21:52:14 hopplant> 
21:52:14 hopplant> CREATE MATERIALIZED VIEW MV_LSR_ILR_MC_SCHEDULE_AMOUNTS (
21:52:14   2  	ILR_ID,
21:52:14   3  	ILR_NUMBER,
21:52:14   4  	CURRENT_REVISION,
21:52:14   5  	REVISION,
21:52:14   6  	SET_OF_BOOKS_ID,
21:52:14   7  	MONTH,
21:52:14   8  	INTEREST_INCOME_RECEIVED,
21:52:14   9  	INTEREST_INCOME_ACCRUED,
21:52:14  10  	BEG_DEFERRED_REV,
21:52:14  11  	DEFERRED_REV_ACTIVITY,
21:52:14  12  	END_DEFERRED_REV,
21:52:14  13  	BEG_RECEIVABLE,
21:52:14  14  	END_RECEIVABLE,
21:52:14  15  	beg_long_term_receivable,
21:52:14  16  	end_long_term_receivable,
21:52:14  17  	initial_direct_cost,
21:52:14  18  	EXECUTORY_ACCRUAL1,
21:52:14  19  	EXECUTORY_ACCRUAL2,
21:52:14  20  	EXECUTORY_ACCRUAL3,
21:52:14  21  	EXECUTORY_ACCRUAL4,
21:52:14  22  	EXECUTORY_ACCRUAL5,
21:52:14  23  	EXECUTORY_ACCRUAL6,
21:52:14  24  	EXECUTORY_ACCRUAL7,
21:52:14  25  	EXECUTORY_ACCRUAL8,
21:52:14  26  	EXECUTORY_ACCRUAL9,
21:52:14  27  	EXECUTORY_ACCRUAL10,
21:52:14  28  	EXECUTORY_PAID1,
21:52:14  29  	EXECUTORY_PAID2,
21:52:14  30  	EXECUTORY_PAID3,
21:52:14  31  	EXECUTORY_PAID4,
21:52:14  32  	EXECUTORY_PAID5,
21:52:14  33  	EXECUTORY_PAID6,
21:52:14  34  	EXECUTORY_PAID7,
21:52:14  35  	EXECUTORY_PAID8,
21:52:14  36  	EXECUTORY_PAID9,
21:52:14  37  	EXECUTORY_PAID10,
21:52:14  38  	CONTINGENT_ACCRUAL1,
21:52:14  39  	CONTINGENT_ACCRUAL2,
21:52:14  40  	CONTINGENT_ACCRUAL3,
21:52:14  41  	CONTINGENT_ACCRUAL4,
21:52:14  42  	CONTINGENT_ACCRUAL5,
21:52:14  43  	CONTINGENT_ACCRUAL6,
21:52:14  44  	CONTINGENT_ACCRUAL7,
21:52:14  45  	CONTINGENT_ACCRUAL8,
21:52:14  46  	CONTINGENT_ACCRUAL9,
21:52:14  47  	CONTINGENT_ACCRUAL10,
21:52:14  48  	CONTINGENT_PAID1,
21:52:14  49  	CONTINGENT_PAID2,
21:52:14  50  	CONTINGENT_PAID3,
21:52:14  51  	CONTINGENT_PAID4,
21:52:14  52  	CONTINGENT_PAID5,
21:52:14  53  	CONTINGENT_PAID6,
21:52:14  54  	CONTINGENT_PAID7,
21:52:14  55  	CONTINGENT_PAID8,
21:52:14  56  	CONTINGENT_PAID9,
21:52:14  57  	CONTINGENT_PAID10,
21:52:14  58  	PRINCIPAL_RECEIVED,
21:52:14  59  	PRINCIPAL_ACCRUED,
21:52:14  60  	BEG_UNGUARANTEED_RESIDUAL,
21:52:14  61  	INTEREST_UNGUARANTEED_RESIDUAL,
21:52:14  62  	ENDING_UNGUARANTEED_RESIDUAL,
21:52:14  63  	BEG_NET_INVESTMENT,
21:52:14  64  	INTEREST_NET_INVESTMENT,
21:52:14  65  	ENDING_NET_INVESTMENT,
21:52:14  66  	LEASE_ID,
21:52:14  67  	COMPANY_ID,
21:52:14  68  	IN_SERVICE_EXCHANGE_RATE,
21:52:14  69  	PURCHASE_OPTION_AMT,
21:52:14  70  	TERMINATION_AMT,
21:52:14  71  	LISROWID,
21:52:14  72  	OPTROWID,
21:52:14  73  	ILRROWID,
21:52:14  74  	LEASEROWID,
21:52:14  75  	SALESROWID
21:52:14  76  ) BUILD IMMEDIATE REFRESH FAST ON COMMIT AS
21:52:14  77  SELECT schedule.ilr_id,
21:52:14  78  	     ilr.ilr_number,
21:52:14  79  	     ilr.current_revision,
21:52:14  80  	     schedule.revision,
21:52:14  81  	     schedule.set_of_books_id,
21:52:14  82  	     schedule.month,
21:52:14  83  	     schedule.interest_income_received,
21:52:14  84  	     schedule.interest_income_accrued,
21:52:14  85  	     schedule.beg_deferred_rev,
21:52:14  86  	     schedule.deferred_rev_activity,
21:52:14  87  	     schedule.end_deferred_rev,
21:52:14  88  	     schedule.beg_receivable,
21:52:14  89  	     schedule.end_receivable,
21:52:14  90  	     schedule.beg_lt_receivable,
21:52:14  91  	     schedule.end_lt_receivable,
21:52:14  92  	     schedule.initial_direct_cost,
21:52:14  93  	     schedule.executory_accrual1,
21:52:14  94  	     schedule.executory_accrual2,
21:52:14  95  	     schedule.executory_accrual3,
21:52:14  96  	     schedule.executory_accrual4,
21:52:14  97  	     schedule.executory_accrual5,
21:52:14  98  	     schedule.executory_accrual6,
21:52:14  99  	     schedule.executory_accrual7,
21:52:14 100  	     schedule.executory_accrual8,
21:52:14 101  	     schedule.executory_accrual9,
21:52:14 102  	     schedule.executory_accrual10,
21:52:14 103  	     schedule.executory_paid1,
21:52:14 104  	     schedule.executory_paid2,
21:52:14 105  	     schedule.executory_paid3,
21:52:14 106  	     schedule.executory_paid4,
21:52:14 107  	     schedule.executory_paid5,
21:52:14 108  	     schedule.executory_paid6,
21:52:14 109  	     schedule.executory_paid7,
21:52:14 110  	     schedule.executory_paid8,
21:52:14 111  	     schedule.executory_paid9,
21:52:14 112  	     schedule.executory_paid10,
21:52:14 113  	     schedule.contingent_accrual1,
21:52:14 114  	     schedule.contingent_accrual2,
21:52:14 115  	     schedule.contingent_accrual3,
21:52:14 116  	     schedule.contingent_accrual4,
21:52:14 117  	     schedule.contingent_accrual5,
21:52:14 118  	     schedule.contingent_accrual6,
21:52:14 119  	     schedule.contingent_accrual7,
21:52:14 120  	     schedule.contingent_accrual8,
21:52:14 121  	     schedule.contingent_accrual9,
21:52:14 122  	     schedule.contingent_accrual10,
21:52:14 123  	     schedule.contingent_paid1,
21:52:14 124  	     schedule.contingent_paid2,
21:52:14 125  	     schedule.contingent_paid3,
21:52:14 126  	     schedule.contingent_paid4,
21:52:14 127  	     schedule.contingent_paid5,
21:52:14 128  	     schedule.contingent_paid6,
21:52:14 129  	     schedule.contingent_paid7,
21:52:14 130  	     schedule.contingent_paid8,
21:52:14 131  	     schedule.contingent_paid9,
21:52:14 132  	     schedule.contingent_paid10,
21:52:14 133  	     st_schedule.principal_received,
21:52:14 134  	     st_schedule.principal_accrued,
21:52:14 135  	     st_schedule.beg_unguaranteed_residual,
21:52:14 136  	     st_schedule.interest_unguaranteed_residual,
21:52:14 137  	     st_schedule.ending_unguaranteed_residual,
21:52:14 138  	     st_schedule.beg_net_investment,
21:52:14 139  	     st_schedule.interest_net_investment,
21:52:14 140  	     st_schedule.ending_net_investment,
21:52:14 141  	     ilr.lease_id,
21:52:14 142  	     ilr.company_id,
21:52:14 143  	     options.in_service_exchange_rate,
21:52:14 144  	     options.purchase_option_amt,
21:52:14 145  	     options.termination_amt,
21:52:14 146  	     schedule.rowid AS lisrowid,
21:52:14 147  	     options.rowid AS optrowid,
21:52:14 148  	     ilr.rowid AS ilrrowid,
21:52:14 149  	     lease.rowid AS leaserowid,
21:52:14 150  	     st_schedule.rowid AS salesrowid
21:52:14 151  FROM lsr_ilr_schedule schedule,
21:52:14 152  	   lsr_ilr_options options,
21:52:14 153  	   lsr_ilr ilr,
21:52:14 154  	   lsr_lease lease,
21:52:14 155  	   lsr_ilr_schedule_sales_direct st_schedule
21:52:14 156  WHERE schedule.ilr_id = options.ilr_id
21:52:14 157  	AND schedule.revision = options.revision
21:52:14 158  	AND schedule.ilr_id = ilr.ilr_id
21:52:14 159  	AND ilr.lease_id = lease.lease_id
21:52:14 160  	AND st_schedule.ilr_id (+) = schedule.ilr_id
21:52:14 161  	AND st_schedule.revision (+) = schedule.revision
21:52:14 162  	AND st_schedule.month (+) = schedule.month
21:52:14 163  	AND st_schedule.set_of_books_id (+) = schedule.set_of_books_id;

Materialized view created.

21:52:15 hopplant> 
21:52:15 hopplant> CREATE INDEX MV_LSR_ILR_MC_SCH_AMT_IDX ON
21:52:15   2  	MV_LSR_ILR_MC_SCHEDULE_AMOUNTS (
21:52:15   3  	  ILR_ID,
21:52:15   4  	  REVISION,
21:52:15   5  	  MONTH,
21:52:15   6  	  set_of_books_id
21:52:15   7  	) tablespace pwrplant_idx;

Index created.

21:52:15 hopplant> 
21:52:15 hopplant> CREATE INDEX mv_lsr_ilr_mc_sch_amt_mth_idx ON
21:52:15   2  	MV_LSR_ILR_MC_SCHEDULE_AMOUNTS ( MONTH ) tablespace pwrplant_idx;

Index created.

21:52:15 hopplant> 
21:52:15 hopplant> CREATE INDEX mv_lsr_ilr_mc_sch_amt_cl_idx ON
21:52:15   2  	MV_LSR_ILR_MC_SCHEDULE_AMOUNTS ( COMPANY_ID,LEASE_ID ) tablespace pwrplant_idx;

Index created.

21:52:15 hopplant> 
21:52:15 hopplant> CREATE INDEX mv_lsr_ilr_mc_sch_amt_ls_idx ON
21:52:15   2  	MV_LSR_ILR_MC_SCHEDULE_AMOUNTS ( LEASE_ID ) tablespace pwrplant_idx;

Index created.

21:52:15 hopplant> 
21:52:15 hopplant> CREATE INDEX mv_lsr_ilr_mc_sch_lisrid_idx ON
21:52:15   2  	MV_LSR_ILR_MC_SCHEDULE_AMOUNTS ( LISROWID ) tablespace pwrplant_idx;

Index created.

21:52:15 hopplant> 
21:52:15 hopplant> CREATE INDEX MV_LSR_ILR_MC_SCH_OPTRID_IDX ON
21:52:15   2  	MV_LSR_ILR_MC_SCHEDULE_AMOUNTS ( OPTROWID ) tablespace pwrplant_idx;

Index created.

21:52:15 hopplant> 
21:52:15 hopplant> CREATE INDEX mv_lsr_ilr_mc_sch_ilrrid_idx ON
21:52:15   2  	MV_LSR_ILR_MC_SCHEDULE_AMOUNTS ( ILRROWID ) tablespace pwrplant_idx;

Index created.

21:52:15 hopplant> 
21:52:15 hopplant> CREATE INDEX MV_LSR_ILR_MC_SCH_LSRID_IDX ON
21:52:15   2  	mv_lsr_ilr_mc_schedule_amounts ( leaserowid ) TABLESPACE pwrplant_idx;

Index created.

21:52:15 hopplant> 
21:52:15 hopplant> CREATE INDEX mv_lsr_ilr_mc_sch_slsrid_idx ON
21:52:15   2  	mv_lsr_ilr_mc_schedule_amounts ( salesrowid ) TABLESPACE pwrplant_idx;

Index created.

21:52:15 hopplant> 
21:52:15 hopplant> COMMENT ON MATERIALIZED VIEW MV_LSR_ILR_MC_SCHEDULE_AMOUNTS IS
21:52:15   2  	'snapshot table for snapshot PWRPLANT.MV_LSR_ILR_MC_SCHEDULE_AMOUNTS';

Comment created.

21:52:15 hopplant> 
21:52:15 hopplant> drop table lsr_ilr_schedule_old;

Table dropped.

21:52:22 hopplant> 
21:52:22 hopplant> CREATE OR REPLACE VIEW v_lsr_ilr_mc_schedule AS
21:52:22   2  WITH cur AS ( SELECT ls_currency_type_id AS ls_cur_type,
21:52:22   3  	     currency_id,
21:52:22   4  	     currency_display_symbol,
21:52:22   5  	     iso_code,
21:52:22   6  	       CASE
21:52:22   7  	    ls_currency_type_id
21:52:22   8  	    WHEN
21:52:22   9  	      1
21:52:22  10  	    THEN
21:52:22  11  	      1
21:52:22  12  	    ELSE
21:52:22  13  	      NULL
21:52:22  14  	  END
21:52:22  15  	AS contract_approval_rate
21:52:22  16  FROM currency
21:52:22  17  	CROSS JOIN ls_lease_currency_type
21:52:22  18  ),open_month AS ( SELECT company_id,
21:52:22  19  	     MIN(gl_posting_mo_yr) open_month
21:52:22  20  FROM lsr_process_control WHERE open_next IS NULL GROUP BY
21:52:22  21  	company_id
21:52:22  22  ),calc_rate AS ( SELECT a.company_id,
21:52:22  23  	     a.contract_currency_id,
21:52:22  24  	     a.company_currency_id,
21:52:22  25  	     a.accounting_month,
21:52:22  26  	     a.exchange_date,
21:52:22  27  	     a.rate,
21:52:22  28  	     b.rate prev_rate
21:52:22  29  FROM ls_lease_calculated_date_rates a
21:52:22  30  	LEFT OUTER JOIN ls_lease_calculated_date_rates b ON a.company_id = b.company_id
21:52:22  31  	AND a.contract_currency_id = b.contract_currency_id
21:52:22  32  	AND a.accounting_month = add_months(b.accounting_month,1)
21:52:22  33  ),rate_now AS ( SELECT currency_from,
21:52:22  34  	     currency_to,
21:52:22  35  	     rate
21:52:22  36  FROM ( SELECT currency_from,
21:52:22  37  	       currency_to,
21:52:22  38  	       rate,
21:52:22  39  	       ROW_NUMBER() OVER(PARTITION BY
21:52:22  40  	    currency_from,
21:52:22  41  	    currency_to
21:52:22  42  	    ORDER BY
21:52:22  43  	      exchange_date
21:52:22  44  	    DESC
21:52:22  45  	  ) AS rn
21:52:22  46  	FROM currency_rate_default_dense WHERE trunc(exchange_date,'MONTH') <= trunc(SYSDATE,'MONTH')
21:52:22  47  	  AND exchange_rate_type_id = 1
21:52:22  48  	)
21:52:22  49  WHERE rn = 1 ) SELECT schedule.ilr_id ilr_id,
21:52:22  50  	     schedule.ilr_number,
21:52:22  51  	     lease.lease_id,
21:52:22  52  	     lease.lease_number,
21:52:22  53  	     schedule.current_revision,
21:52:22  54  	     schedule.revision revision,
21:52:22  55  	     schedule.set_of_books_id set_of_books_id,
21:52:22  56  	     schedule.month month,
21:52:22  57  	     open_month.company_id,
21:52:22  58  	     open_month.open_month,
21:52:22  59  	     cur.ls_cur_type AS ls_cur_type,
21:52:22  60  	     rates.exchange_date,
21:52:22  61  	     calc_rate.exchange_date prev_exchange_date,
21:52:22  62  	     lease.contract_currency_id,
21:52:22  63  	     cur.currency_id display_currency_id,
21:52:22  64  	     rates.rate,
21:52:22  65  	     calc_rate.rate calculated_rate,
21:52:22  66  	     calc_rate.prev_rate previous_calculated_rate,
21:52:22  67  	     cur.iso_code,
21:52:22  68  	     cur.currency_display_symbol,
21:52:22  69  	     schedule.interest_income_received * nvl(
21:52:22  70  	  calc_rate.rate,
21:52:22  71  	  rates.rate
21:52:22  72  	) interest_income_received,
21:52:22  73  	     schedule.interest_income_accrued * nvl(
21:52:22  74  	  calc_rate.rate,
21:52:22  75  	  rates.rate
21:52:22  76  	) interest_income_accrued,
21:52:22  77  	     schedule.beg_deferred_rev * nvl(
21:52:22  78  	  calc_rate.rate,
21:52:22  79  	  rates.rate
21:52:22  80  	) beg_deferred_rev,
21:52:22  81  	     schedule.deferred_rev_activity * nvl(
21:52:22  82  	  calc_rate.rate,
21:52:22  83  	  rates.rate
21:52:22  84  	) deferred_rev_activity,
21:52:22  85  	     schedule.end_deferred_rev * nvl(
21:52:22  86  	  calc_rate.rate,
21:52:22  87  	  rates.rate
21:52:22  88  	) end_deferred_rev,
21:52:22  89  	     schedule.beg_receivable * nvl(
21:52:22  90  	  calc_rate.rate,
21:52:22  91  	  rates.rate
21:52:22  92  	) beg_receivable,
21:52:22  93  	     schedule.end_receivable * nvl(
21:52:22  94  	  calc_rate.rate,
21:52:22  95  	  rates.rate
21:52:22  96  	) end_receivable,
21:52:22  97  	       schedule.beg_long_term_receivable * nvl(
21:52:22  98  	  calc_rate.rate,
21:52:22  99  	  rates.rate
21:52:22 100  	) beg_long_term_receivable,
21:52:22 101  	     schedule.end_long_term_receivable * nvl(
21:52:22 102  	  calc_rate.rate,
21:52:22 103  	  rates.rate
21:52:22 104  	) end_long_term_receivable,
21:52:22 105  	     schedule.initial_direct_cost * nvl(
21:52:22 106  	  calc_rate.rate,
21:52:22 107  	  rates.rate
21:52:22 108  	) initial_direct_cost,
21:52:22 109  	     schedule.executory_accrual1 * nvl(
21:52:22 110  	  calc_rate.rate,
21:52:22 111  	  rates.rate
21:52:22 112  	) executory_accrual1,
21:52:22 113  	     schedule.executory_accrual2 * nvl(
21:52:22 114  	  calc_rate.rate,
21:52:22 115  	  rates.rate
21:52:22 116  	) executory_accrual2,
21:52:22 117  	     schedule.executory_accrual3 * nvl(
21:52:22 118  	  calc_rate.rate,
21:52:22 119  	  rates.rate
21:52:22 120  	) executory_accrual3,
21:52:22 121  	     schedule.executory_accrual4 * nvl(
21:52:22 122  	  calc_rate.rate,
21:52:22 123  	  rates.rate
21:52:22 124  	) executory_accrual4,
21:52:22 125  	     schedule.executory_accrual5 * nvl(
21:52:22 126  	  calc_rate.rate,
21:52:22 127  	  rates.rate
21:52:22 128  	) executory_accrual5,
21:52:22 129  	     schedule.executory_accrual6 * nvl(
21:52:22 130  	  calc_rate.rate,
21:52:22 131  	  rates.rate
21:52:22 132  	) executory_accrual6,
21:52:22 133  	     schedule.executory_accrual7 * nvl(
21:52:22 134  	  calc_rate.rate,
21:52:22 135  	  rates.rate
21:52:22 136  	) executory_accrual7,
21:52:22 137  	     schedule.executory_accrual8 * nvl(
21:52:22 138  	  calc_rate.rate,
21:52:22 139  	  rates.rate
21:52:22 140  	) executory_accrual8,
21:52:22 141  	     schedule.executory_accrual9 * nvl(
21:52:22 142  	  calc_rate.rate,
21:52:22 143  	  rates.rate
21:52:22 144  	) executory_accrual9,
21:52:22 145  	     schedule.executory_accrual10 * nvl(
21:52:22 146  	  calc_rate.rate,
21:52:22 147  	  rates.rate
21:52:22 148  	) executory_accrual10,
21:52:22 149  	     schedule.executory_paid1 * nvl(
21:52:22 150  	  calc_rate.rate,
21:52:22 151  	  rates.rate
21:52:22 152  	) executory_paid1,
21:52:22 153  	     schedule.executory_paid2 * nvl(
21:52:22 154  	  calc_rate.rate,
21:52:22 155  	  rates.rate
21:52:22 156  	) executory_paid2,
21:52:22 157  	     schedule.executory_paid3 * nvl(
21:52:22 158  	  calc_rate.rate,
21:52:22 159  	  rates.rate
21:52:22 160  	) executory_paid3,
21:52:22 161  	     schedule.executory_paid4 * nvl(
21:52:22 162  	  calc_rate.rate,
21:52:22 163  	  rates.rate
21:52:22 164  	) executory_paid4,
21:52:22 165  	     schedule.executory_paid5 * nvl(
21:52:22 166  	  calc_rate.rate,
21:52:22 167  	  rates.rate
21:52:22 168  	) executory_paid5,
21:52:22 169  	     schedule.executory_paid6 * nvl(
21:52:22 170  	  calc_rate.rate,
21:52:22 171  	  rates.rate
21:52:22 172  	) executory_paid6,
21:52:22 173  	     schedule.executory_paid7 * nvl(
21:52:22 174  	  calc_rate.rate,
21:52:22 175  	  rates.rate
21:52:22 176  	) executory_paid7,
21:52:22 177  	     schedule.executory_paid8 * nvl(
21:52:22 178  	  calc_rate.rate,
21:52:22 179  	  rates.rate
21:52:22 180  	) executory_paid8,
21:52:22 181  	     schedule.executory_paid9 * nvl(
21:52:22 182  	  calc_rate.rate,
21:52:22 183  	  rates.rate
21:52:22 184  	) executory_paid9,
21:52:22 185  	     schedule.executory_paid10 * nvl(
21:52:22 186  	  calc_rate.rate,
21:52:22 187  	  rates.rate
21:52:22 188  	) executory_paid10,
21:52:22 189  	     schedule.contingent_accrual1 * nvl(
21:52:22 190  	  calc_rate.rate,
21:52:22 191  	  rates.rate
21:52:22 192  	) contingent_accrual1,
21:52:22 193  	     schedule.contingent_accrual2 * nvl(
21:52:22 194  	  calc_rate.rate,
21:52:22 195  	  rates.rate
21:52:22 196  	) contingent_accrual2,
21:52:22 197  	     schedule.contingent_accrual3 * nvl(
21:52:22 198  	  calc_rate.rate,
21:52:22 199  	  rates.rate
21:52:22 200  	) contingent_accrual3,
21:52:22 201  	     schedule.contingent_accrual4 * nvl(
21:52:22 202  	  calc_rate.rate,
21:52:22 203  	  rates.rate
21:52:22 204  	) contingent_accrual4,
21:52:22 205  	     schedule.contingent_accrual5 * nvl(
21:52:22 206  	  calc_rate.rate,
21:52:22 207  	  rates.rate
21:52:22 208  	) contingent_accrual5,
21:52:22 209  	     schedule.contingent_accrual6 * nvl(
21:52:22 210  	  calc_rate.rate,
21:52:22 211  	  rates.rate
21:52:22 212  	) contingent_accrual6,
21:52:22 213  	     schedule.contingent_accrual7 * nvl(
21:52:22 214  	  calc_rate.rate,
21:52:22 215  	  rates.rate
21:52:22 216  	) contingent_accrual7,
21:52:22 217  	     schedule.contingent_accrual8 * nvl(
21:52:22 218  	  calc_rate.rate,
21:52:22 219  	  rates.rate
21:52:22 220  	) contingent_accrual8,
21:52:22 221  	     schedule.contingent_accrual9 * nvl(
21:52:22 222  	  calc_rate.rate,
21:52:22 223  	  rates.rate
21:52:22 224  	) contingent_accrual9,
21:52:22 225  	     schedule.contingent_accrual10 * nvl(
21:52:22 226  	  calc_rate.rate,
21:52:22 227  	  rates.rate
21:52:22 228  	) contingent_accrual10,
21:52:22 229  	     schedule.contingent_paid1 * nvl(
21:52:22 230  	  calc_rate.rate,
21:52:22 231  	  rates.rate
21:52:22 232  	) contingent_paid1,
21:52:22 233  	     schedule.contingent_paid2 * nvl(
21:52:22 234  	  calc_rate.rate,
21:52:22 235  	  rates.rate
21:52:22 236  	) contingent_paid2,
21:52:22 237  	     schedule.contingent_paid3 * nvl(
21:52:22 238  	  calc_rate.rate,
21:52:22 239  	  rates.rate
21:52:22 240  	) contingent_paid3,
21:52:22 241  	     schedule.contingent_paid4 * nvl(
21:52:22 242  	  calc_rate.rate,
21:52:22 243  	  rates.rate
21:52:22 244  	) contingent_paid4,
21:52:22 245  	     schedule.contingent_paid5 * nvl(
21:52:22 246  	  calc_rate.rate,
21:52:22 247  	  rates.rate
21:52:22 248  	) contingent_paid5,
21:52:22 249  	     schedule.contingent_paid6 * nvl(
21:52:22 250  	  calc_rate.rate,
21:52:22 251  	  rates.rate
21:52:22 252  	) contingent_paid6,
21:52:22 253  	     schedule.contingent_paid7 * nvl(
21:52:22 254  	  calc_rate.rate,
21:52:22 255  	  rates.rate
21:52:22 256  	) contingent_paid7,
21:52:22 257  	     schedule.contingent_paid8 * nvl(
21:52:22 258  	  calc_rate.rate,
21:52:22 259  	  rates.rate
21:52:22 260  	) contingent_paid8,
21:52:22 261  	     schedule.contingent_paid9 * nvl(
21:52:22 262  	  calc_rate.rate,
21:52:22 263  	  rates.rate
21:52:22 264  	) contingent_paid9,
21:52:22 265  	     schedule.contingent_paid10 * nvl(
21:52:22 266  	  calc_rate.rate,
21:52:22 267  	  rates.rate
21:52:22 268  	) contingent_paid10,
21:52:22 269  	     schedule.principal_received * nvl(
21:52:22 270  	  calc_rate.rate,
21:52:22 271  	  rates.rate
21:52:22 272  	) principal_received,
21:52:22 273  	     schedule.principal_accrued * nvl(
21:52:22 274  	  calc_rate.rate,
21:52:22 275  	  rates.rate
21:52:22 276  	) principal_accrued,
21:52:22 277  	     schedule.beg_unguaranteed_residual * nvl(
21:52:22 278  	  calc_rate.rate,
21:52:22 279  	  rates.rate
21:52:22 280  	) beg_unguaranteed_residual,
21:52:22 281  	     schedule.interest_unguaranteed_residual * nvl(
21:52:22 282  	  calc_rate.rate,
21:52:22 283  	  rates.rate
21:52:22 284  	) interest_unguaranteed_residual,
21:52:22 285  	     schedule.ending_unguaranteed_residual * nvl(
21:52:22 286  	  calc_rate.rate,
21:52:22 287  	  rates.rate
21:52:22 288  	) ending_unguaranteed_residual,
21:52:22 289  	     schedule.beg_net_investment * nvl(
21:52:22 290  	  calc_rate.rate,
21:52:22 291  	  rates.rate
21:52:22 292  	) beg_net_investment,
21:52:22 293  	     schedule.interest_net_investment * nvl(
21:52:22 294  	  calc_rate.rate,
21:52:22 295  	  rates.rate
21:52:22 296  	) interest_net_investment,
21:52:22 297  	     schedule.ending_net_investment * nvl(
21:52:22 298  	  calc_rate.rate,
21:52:22 299  	  rates.rate
21:52:22 300  	) ending_net_investment,
21:52:22 301  	     schedule.beg_receivable * ( nvl(calc_rate.rate,0) - nvl(calc_rate.prev_rate,0) ) gain_loss_fx
21:52:22 302  FROM mv_lsr_ilr_mc_schedule_amounts schedule
21:52:22 303  	INNER JOIN lsr_lease lease ON schedule.lease_id = lease.lease_id
21:52:22 304  	INNER JOIN currency_schema cs ON schedule.company_id = cs.company_id
21:52:22 305  	INNER JOIN cur ON cur.currency_id =
21:52:22 306  	  CASE
21:52:22 307  	    cur.ls_cur_type
21:52:22 308  	    WHEN
21:52:22 309  	      1
21:52:22 310  	    THEN
21:52:22 311  	      lease.contract_currency_id
21:52:22 312  	    WHEN
21:52:22 313  	      2
21:52:22 314  	    THEN
21:52:22 315  	      cs.currency_id
21:52:22 316  	  END
21:52:22 317  	INNER JOIN open_month ON schedule.company_id = open_month.company_id
21:52:22 318  	INNER JOIN currency_rate_default_dense rates ON cur.currency_id = rates.currency_to
21:52:22 319  	AND lease.contract_currency_id = rates.currency_from
21:52:22 320  	AND trunc(rates.exchange_date,'MONTH') = trunc(schedule.month,'MONTH')
21:52:22 321  	INNER JOIN rate_now ON cur.currency_id = rate_now.currency_to
21:52:22 322  	AND lease.contract_currency_id = rate_now.currency_from
21:52:22 323  	LEFT OUTER JOIN calc_rate ON lease.contract_currency_id = calc_rate.contract_currency_id
21:52:22 324  	AND cur.currency_id = calc_rate.company_currency_id
21:52:22 325  	AND schedule.company_id = calc_rate.company_id
21:52:22 326  	AND schedule.month = calc_rate.accounting_month
21:52:22 327  WHERE cs.currency_type_id = 1
21:52:22 328  	AND rates.exchange_rate_type_id = 1;

View created.

21:52:22 hopplant> 
21:52:22 hopplant> CREATE OR REPLACE VIEW v_lsr_pseudo_asset_schedule AS
21:52:22   2  SELECT lsr_asset_id,
21:52:22   3  	     revision,
21:52:22   4  	     set_of_books_id,
21:52:22   5  	     month,
21:52:22   6  	     interest_income_received * allocation AS interest_income_received,
21:52:22   7  	     interest_income_accrued * allocation AS interest_income_accrued,
21:52:22   8  	     interest_rental_recvd_spread * allocation AS interest_rental_recvd_spread,
21:52:22   9  	     beg_deferred_rev * allocation AS beg_deferred_rev,
21:52:22  10  	     deferred_rev_activity * allocation AS deferred_rev_activity,
21:52:22  11  	     end_deferred_rev * allocation AS end_deferred_rev,
21:52:22  12  	     beg_receivable * allocation AS beg_receivable,
21:52:22  13  	     end_receivable * allocation AS end_receivable,
21:52:22  14  	     beg_lt_receivable * allocation AS beg_lt_receivable,
21:52:22  15  	     end_lt_receivable * allocation AS end_lt_receivable,
21:52:22  16  	     initial_direct_cost * allocation as initial_direct_cost,
21:52:22  17  	     executory_accrual1 * allocation AS executory_accrual1,
21:52:22  18  	     executory_accrual2 * allocation AS executory_accrual2,
21:52:22  19  	     executory_accrual3 * allocation AS executory_accrual3,
21:52:22  20  	     executory_accrual4 * allocation AS executory_accrual4,
21:52:22  21  	     executory_accrual5 * allocation AS executory_accrual5,
21:52:22  22  	     executory_accrual6 * allocation AS executory_accrual6,
21:52:22  23  	     executory_accrual7 * allocation AS executory_accrual7,
21:52:22  24  	     executory_accrual8 * allocation AS executory_accrual8,
21:52:22  25  	     executory_accrual9 * allocation AS executory_accrual9,
21:52:22  26  	     executory_accrual10 * allocation AS executory_accrual10,
21:52:22  27  	     executory_paid1 * allocation AS executory_paid1,
21:52:22  28  	     executory_paid2 * allocation AS executory_paid2,
21:52:22  29  	     executory_paid3 * allocation AS executory_paid3,
21:52:22  30  	     executory_paid4 * allocation AS executory_paid4,
21:52:22  31  	     executory_paid5 * allocation AS executory_paid5,
21:52:22  32  	     executory_paid6 * allocation AS executory_paid6,
21:52:22  33  	     executory_paid7 * allocation AS executory_paid7,
21:52:22  34  	     executory_paid8 * allocation AS executory_paid8,
21:52:22  35  	     executory_paid9 * allocation AS executory_paid9,
21:52:22  36  	     executory_paid10 * allocation AS executory_paid10,
21:52:22  37  	     contingent_accrual1 * allocation AS contingent_accrual1,
21:52:22  38  	     contingent_accrual2 * allocation AS contingent_accrual2,
21:52:22  39  	     contingent_accrual3 * allocation AS contingent_accrual3,
21:52:22  40  	     contingent_accrual4 * allocation AS contingent_accrual4,
21:52:22  41  	     contingent_accrual5 * allocation AS contingent_accrual5,
21:52:22  42  	     contingent_accrual6 * allocation AS contingent_accrual6,
21:52:22  43  	     contingent_accrual7 * allocation AS contingent_accrual7,
21:52:22  44  	     contingent_accrual8 * allocation AS contingent_accrual8,
21:52:22  45  	     contingent_accrual9 * allocation AS contingent_accrual9,
21:52:22  46  	     contingent_accrual10 * allocation AS contingent_accrual10,
21:52:22  47  	     contingent_paid1 * allocation AS contingent_paid1,
21:52:22  48  	     contingent_paid2 * allocation AS contingent_paid2,
21:52:22  49  	     contingent_paid3 * allocation AS contingent_paid3,
21:52:22  50  	     contingent_paid4 * allocation AS contingent_paid4,
21:52:22  51  	     contingent_paid5 * allocation AS contingent_paid5,
21:52:22  52  	     contingent_paid6 * allocation AS contingent_paid6,
21:52:22  53  	     contingent_paid7 * allocation AS contingent_paid7,
21:52:22  54  	     contingent_paid8 * allocation AS contingent_paid8,
21:52:22  55  	     contingent_paid9 * allocation AS contingent_paid9,
21:52:22  56  	     contingent_paid10 * allocation AS contingent_paid10
21:52:22  57  FROM ( SELECT asset.lsr_asset_id,
21:52:22  58  	       sch.revision,
21:52:22  59  	       sch.set_of_books_id,
21:52:22  60  	       sch.month,
21:52:22  61  	       sch.interest_income_received,
21:52:22  62  	       sch.interest_income_accrued,
21:52:22  63  	       sch.interest_rental_recvd_spread,
21:52:22  64  	       sch.beg_deferred_rev,
21:52:22  65  	       sch.deferred_rev_activity,
21:52:22  66  	       sch.end_deferred_rev,
21:52:22  67  	       sch.beg_receivable,
21:52:22  68  	       sch.end_receivable,
21:52:22  69  	       sch.beg_lt_receivable,
21:52:22  70  	       sch.end_lt_receivable,
21:52:22  71  	       sch.initial_direct_cost,
21:52:22  72  	       sch.executory_accrual1,
21:52:22  73  	       sch.executory_accrual2,
21:52:22  74  	       sch.executory_accrual3,
21:52:22  75  	       sch.executory_accrual4,
21:52:22  76  	       sch.executory_accrual5,
21:52:22  77  	       sch.executory_accrual6,
21:52:22  78  	       sch.executory_accrual7,
21:52:22  79  	       sch.executory_accrual8,
21:52:22  80  	       sch.executory_accrual9,
21:52:22  81  	       sch.executory_accrual10,
21:52:22  82  	       sch.executory_paid1,
21:52:22  83  	       sch.executory_paid2,
21:52:22  84  	       sch.executory_paid3,
21:52:22  85  	       sch.executory_paid4,
21:52:22  86  	       sch.executory_paid5,
21:52:22  87  	       sch.executory_paid6,
21:52:22  88  	       sch.executory_paid7,
21:52:22  89  	       sch.executory_paid8,
21:52:22  90  	       sch.executory_paid9,
21:52:22  91  	       sch.executory_paid10,
21:52:22  92  	       sch.contingent_accrual1,
21:52:22  93  	       sch.contingent_accrual2,
21:52:22  94  	       sch.contingent_accrual3,
21:52:22  95  	       sch.contingent_accrual4,
21:52:22  96  	       sch.contingent_accrual5,
21:52:22  97  	       sch.contingent_accrual6,
21:52:22  98  	       sch.contingent_accrual7,
21:52:22  99  	       sch.contingent_accrual8,
21:52:22 100  	       sch.contingent_accrual9,
21:52:22 101  	       sch.contingent_accrual10,
21:52:22 102  	       sch.contingent_paid1,
21:52:22 103  	       sch.contingent_paid2,
21:52:22 104  	       sch.contingent_paid3,
21:52:22 105  	       sch.contingent_paid4,
21:52:22 106  	       sch.contingent_paid5,
21:52:22 107  	       sch.contingent_paid6,
21:52:22 108  	       sch.contingent_paid7,
21:52:22 109  	       sch.contingent_paid8,
21:52:22 110  	       sch.contingent_paid9,
21:52:22 111  	       sch.contingent_paid10,
21:52:22 112  	       coalesce(
21:52:22 113  	    RATIO_TO_REPORT(
21:52:22 114  	      asset.fair_market_value
21:52:22 115  	    ) OVER(PARTITION BY
21:52:22 116  	      asset.ilr_id,
21:52:22 117  	      asset.revision,
21:52:22 118  	      sch.month,
21:52:22 119  	      sch.set_of_books_id
21:52:22 120  	    ),
21:52:22 121  	    0
21:52:22 122  	  ) AS allocation
21:52:22 123  	FROM lsr_ilr_schedule sch
21:52:22 124  	  JOIN lsr_asset asset ON sch.ilr_id = asset.ilr_id
21:52:22 125  	  AND sch.revision = asset.revision
21:52:22 126  	);

View created.

21:52:22 hopplant> 
21:52:22 hopplant> drop type lsr_ilr_op_sch_result_tab;

Type dropped.

21:52:22 hopplant> 
21:52:22 hopplant> CREATE OR REPLACE TYPE lsr_ilr_op_sch_result IS OBJECT( MONTH DATE,
21:52:22   2  							      interest_income_received		       NUMBER(22,2),
21:52:22   3  							      interest_income_accrued		       NUMBER(22,2),
21:52:22   4  							      interest_rental_recvd_spread NUMBER(22,2),
21:52:22   5  							      begin_deferred_rev				 NUMBER(22,2),
21:52:22   6  							      deferred_rev					     NUMBER(22,2),
21:52:22   7  							      end_deferred_rev					   NUMBER(22,2),
21:52:22   8  							      begin_receivable					   NUMBER(22,2),
21:52:22   9  							      end_receivable					   NUMBER(22,2),
21:52:22  10  							      begin_lt_receivable	   NUMBER(22,2),
21:52:22  11  							      end_lt_receivable 	   NUMBER(22,2),
21:52:22  12  							      initial_direct_cost	   NUMBER(22,2),
21:52:22  13  							      executory_accrual1	   NUMBER(22,2),
21:52:22  14  							      executory_accrual2	   NUMBER(22,2),
21:52:22  15  							      executory_accrual3	   NUMBER(22,2),
21:52:22  16  							      executory_accrual4	   NUMBER(22,2),
21:52:22  17  							      executory_accrual5	   NUMBER(22,2),
21:52:22  18  							      executory_accrual6	   NUMBER(22,2),
21:52:22  19  							      executory_accrual7	   NUMBER(22,2),
21:52:22  20  							      executory_accrual8	   NUMBER(22,2),
21:52:22  21  							      executory_accrual9	   NUMBER(22,2),
21:52:22  22  							      executory_accrual10	   NUMBER(22,2),
21:52:22  23  							      executory_paid1		   NUMBER(22,2),
21:52:22  24  							      executory_paid2		   NUMBER(22,2),
21:52:22  25  							      executory_paid3		   NUMBER(22,2),
21:52:22  26  							      executory_paid4		   NUMBER(22,2),
21:52:22  27  							      executory_paid5		   NUMBER(22,2),
21:52:22  28  							      executory_paid6		   NUMBER(22,2),
21:52:22  29  							      executory_paid7		   NUMBER(22,2),
21:52:22  30  							      executory_paid8		   NUMBER(22,2),
21:52:22  31  							      executory_paid9		   NUMBER(22,2),
21:52:22  32  							      executory_paid10		   NUMBER(22,2),
21:52:22  33  							      contingent_accrual1	   NUMBER(22,2),
21:52:22  34  							      contingent_accrual2	   NUMBER(22,2),
21:52:22  35  							      contingent_accrual3	   NUMBER(22,2),
21:52:22  36  							      contingent_accrual4	   NUMBER(22,2),
21:52:22  37  							      contingent_accrual5	   NUMBER(22,2),
21:52:22  38  							      contingent_accrual6	   NUMBER(22,2),
21:52:22  39  							      contingent_accrual7	   NUMBER(22,2),
21:52:22  40  							      contingent_accrual8	   NUMBER(22,2),
21:52:22  41  							      contingent_accrual9	   NUMBER(22,2),
21:52:22  42  							      contingent_accrual10	   NUMBER(22,2),
21:52:22  43  							      contingent_paid1		   NUMBER(22,2),
21:52:22  44  							      contingent_paid2		   NUMBER(22,2),
21:52:22  45  							      contingent_paid3		   NUMBER(22,2),
21:52:22  46  							      contingent_paid4		   NUMBER(22,2),
21:52:22  47  							      contingent_paid5		   NUMBER(22,2),
21:52:22  48  							      contingent_paid6		   NUMBER(22,2),
21:52:22  49  							      contingent_paid7		   NUMBER(22,2),
21:52:22  50  							      contingent_paid8		   NUMBER(22,2),
21:52:22  51  							      contingent_paid9		   NUMBER(22,2),
21:52:22  52  							      contingent_paid10 	   NUMBER(22,2));
21:52:22  53  /

Type created.

21:52:22 hopplant> 
21:52:22 hopplant> CREATE TYPE lsr_ilr_op_sch_result_tab AS TABLE OF lsr_ilr_op_sch_result;
21:52:22   2  /

Type created.

21:52:24 hopplant> 
21:52:24 hopplant> drop type lsr_ilr_sales_sch_result_tab;

Type dropped.

21:52:24 hopplant> 
21:52:24 hopplant> create or replace TYPE lsr_ilr_sales_sch_result IS OBJECT(MONTH DATE,
21:52:24   2  								principal_received NUMBER(22,2),
21:52:24   3  								interest_income_received	       NUMBER(22,2),
21:52:24   4  								interest_income_accrued 	       NUMBER(22,2),
21:52:24   5  								principal_accrued	     NUMBER(22,2),
21:52:24   6  								begin_receivable				   NUMBER(22,2),
21:52:24   7  								end_receivable						   NUMBER(22,2),
21:52:24   8  								begin_lt_receivable	     NUMBER(22,2),
21:52:24   9  								end_lt_receivable	     NUMBER(22,2),
21:52:24  10  								initial_direct_cost	     NUMBER(22,2),
21:52:24  11  								executory_accrual1	     NUMBER(22,2),
21:52:24  12  								executory_accrual2	     NUMBER(22,2),
21:52:24  13  								executory_accrual3	     NUMBER(22,2),
21:52:24  14  								executory_accrual4	     NUMBER(22,2),
21:52:24  15  								executory_accrual5	     NUMBER(22,2),
21:52:24  16  								executory_accrual6	     NUMBER(22,2),
21:52:24  17  								executory_accrual7	     NUMBER(22,2),
21:52:24  18  								executory_accrual8	     NUMBER(22,2),
21:52:24  19  								executory_accrual9	     NUMBER(22,2),
21:52:24  20  								executory_accrual10	     NUMBER(22,2),
21:52:24  21  								executory_paid1 	     NUMBER(22,2),
21:52:24  22  								executory_paid2 	     NUMBER(22,2),
21:52:24  23  								executory_paid3 	     NUMBER(22,2),
21:52:24  24  								executory_paid4 	     NUMBER(22,2),
21:52:24  25  								executory_paid5 	     NUMBER(22,2),
21:52:24  26  								executory_paid6 	     NUMBER(22,2),
21:52:24  27  								executory_paid7 	     NUMBER(22,2),
21:52:24  28  								executory_paid8 	     NUMBER(22,2),
21:52:24  29  								executory_paid9 	     NUMBER(22,2),
21:52:24  30  								executory_paid10	     NUMBER(22,2),
21:52:24  31  								contingent_accrual1	     NUMBER(22,2),
21:52:24  32  								contingent_accrual2	     NUMBER(22,2),
21:52:24  33  								contingent_accrual3	     NUMBER(22,2),
21:52:24  34  								contingent_accrual4	     NUMBER(22,2),
21:52:24  35  								contingent_accrual5	     NUMBER(22,2),
21:52:24  36  								contingent_accrual6	     NUMBER(22,2),
21:52:24  37  								contingent_accrual7	     NUMBER(22,2),
21:52:24  38  								contingent_accrual8	     NUMBER(22,2),
21:52:24  39  								contingent_accrual9	     NUMBER(22,2),
21:52:24  40  								contingent_accrual10	     NUMBER(22,2),
21:52:24  41  								contingent_paid1	     NUMBER(22,2),
21:52:24  42  								contingent_paid2	     NUMBER(22,2),
21:52:24  43  								contingent_paid3	     NUMBER(22,2),
21:52:24  44  								contingent_paid4	     NUMBER(22,2),
21:52:24  45  								contingent_paid5	     NUMBER(22,2),
21:52:24  46  								contingent_paid6	     NUMBER(22,2),
21:52:24  47  								contingent_paid7	     NUMBER(22,2),
21:52:24  48  								contingent_paid8	     NUMBER(22,2),
21:52:24  49  								contingent_paid9	     NUMBER(22,2),
21:52:24  50  								contingent_paid10	     NUMBER(22,2),
21:52:24  51  								begin_unguaranteed_residual NUMBER(22,2),
21:52:24  52  								int_on_unguaranteed_residual NUMBER(22,2),
21:52:24  53  								end_unguaranteed_residual NUMBER(22,2),
21:52:24  54  								begin_net_investment NUMBER(22,2),
21:52:24  55  								int_on_net_investment NUMBER(22,2),
21:52:24  56  								end_net_investment NUMBER(22,2),
21:52:24  57  								initial_rate NUMBER(22,8),
21:52:24  58  								rate NUMBER(22,8),
21:52:24  59  								begin_lease_receivable number(22,2),
21:52:24  60  								npv_lease_payments NUMBER(22,2),
21:52:24  61  								npv_guaranteed_residual NUMBER(22,2),
21:52:24  62  								npv_unguaranteed_residual NUMBER(22,2),
21:52:24  63  								selling_profit_loss NUMBER(22,2),
21:52:24  64  								cost_of_goods_sold NUMBER(22,2));
21:52:24  65  /

Type created.

21:52:25 hopplant> 
21:52:25 hopplant> CREATE TYPE lsr_ilr_sales_sch_result_tab AS TABLE OF lsr_ilr_sales_sch_result;
21:52:25   2  /

Type created.

21:52:25 hopplant> 
21:52:25 hopplant> drop table lsr_asset_schedule_tmp;

Table dropped.

21:52:25 hopplant> 
21:52:25 hopplant> CREATE GLOBAL TEMPORARY TABLE LSR_ASSET_SCHEDULE_TMP (
21:52:25   2  	lsr_asset_id		       NUMBER(22,0),
21:52:25   3  	revision		       NUMBER(22,0),
21:52:25   4  	set_of_books_id 	       NUMBER(22,0),
21:52:25   5  	MONTH			       DATE,
21:52:25   6  	interest_income_received       NUMBER(22,2),
21:52:25   7  	interest_income_accrued        NUMBER(22,2),
21:52:25   8  	interest_rental_recvd_spread   NUMBER(22,2),
21:52:25   9  	beg_deferred_rev	       NUMBER(22,2),
21:52:25  10  	deferred_rev_activity	       NUMBER(22,2),
21:52:25  11  	end_deferred_rev	       NUMBER(22,2),
21:52:25  12  	beg_receivable		       NUMBER(22,2),
21:52:25  13  	end_receivable		       NUMBER(22,2),
21:52:25  14  	beg_lt_receivable	       NUMBER(22,2),
21:52:25  15  	end_lt_receivable	       NUMBER(22,2),
21:52:25  16  	initial_direct_cost	       NUMBER(22,2),
21:52:25  17  	executory_accrual1	       NUMBER(22,2),
21:52:25  18  	EXECUTORY_ACCRUAL2	       NUMBER(22,2),
21:52:25  19  	EXECUTORY_ACCRUAL3	       NUMBER(22,2),
21:52:25  20  	EXECUTORY_ACCRUAL4	       NUMBER(22,2),
21:52:25  21  	EXECUTORY_ACCRUAL5	       NUMBER(22,2),
21:52:25  22  	EXECUTORY_ACCRUAL6	       NUMBER(22,2),
21:52:25  23  	EXECUTORY_ACCRUAL7	       NUMBER(22,2),
21:52:25  24  	EXECUTORY_ACCRUAL8	       NUMBER(22,2),
21:52:25  25  	EXECUTORY_ACCRUAL9	       NUMBER(22,2),
21:52:25  26  	EXECUTORY_ACCRUAL10	       NUMBER(22,2),
21:52:25  27  	EXECUTORY_PAID1 	       NUMBER(22,2),
21:52:25  28  	EXECUTORY_PAID2 	       NUMBER(22,2),
21:52:25  29  	EXECUTORY_PAID3 	       NUMBER(22,2),
21:52:25  30  	EXECUTORY_PAID4 	       NUMBER(22,2),
21:52:25  31  	EXECUTORY_PAID5 	       NUMBER(22,2),
21:52:25  32  	EXECUTORY_PAID6 	       NUMBER(22,2),
21:52:25  33  	EXECUTORY_PAID7 	       NUMBER(22,2),
21:52:25  34  	EXECUTORY_PAID8 	       NUMBER(22,2),
21:52:25  35  	EXECUTORY_PAID9 	       NUMBER(22,2),
21:52:25  36  	EXECUTORY_PAID10	       NUMBER(22,2),
21:52:25  37  	CONTINGENT_ACCRUAL1	       NUMBER(22,2),
21:52:25  38  	CONTINGENT_ACCRUAL2	       NUMBER(22,2),
21:52:25  39  	CONTINGENT_ACCRUAL3	       NUMBER(22,2),
21:52:25  40  	CONTINGENT_ACCRUAL4	       NUMBER(22,2),
21:52:25  41  	CONTINGENT_ACCRUAL5	       NUMBER(22,2),
21:52:25  42  	CONTINGENT_ACCRUAL6	       NUMBER(22,2),
21:52:25  43  	CONTINGENT_ACCRUAL7	       NUMBER(22,2),
21:52:25  44  	CONTINGENT_ACCRUAL8	       NUMBER(22,2),
21:52:25  45  	CONTINGENT_ACCRUAL9	       NUMBER(22,2),
21:52:25  46  	CONTINGENT_ACCRUAL10	       NUMBER(22,2),
21:52:25  47  	CONTINGENT_PAID1	       NUMBER(22,2),
21:52:25  48  	CONTINGENT_PAID2	       NUMBER(22,2),
21:52:25  49  	CONTINGENT_PAID3	       NUMBER(22,2),
21:52:25  50  	CONTINGENT_PAID4	       NUMBER(22,2),
21:52:25  51  	CONTINGENT_PAID5	       NUMBER(22,2),
21:52:25  52  	CONTINGENT_PAID6	       NUMBER(22,2),
21:52:25  53  	CONTINGENT_PAID7	       NUMBER(22,2),
21:52:25  54  	CONTINGENT_PAID8	       NUMBER(22,2),
21:52:25  55  	CONTINGENT_PAID9	       NUMBER(22,2),
21:52:25  56  	CONTINGENT_PAID10	       NUMBER(22,2)
21:52:25  57  ) ON COMMIT DELETE ROWS;

Table created.

21:52:25 hopplant> 
21:52:25 hopplant> COMMENT ON COLUMN "LSR_ASSET_SCHEDULE_TMP"."LSR_ASSET_ID" IS
21:52:25   2  	'The Lessor Asset ID';

Comment created.

21:52:25 hopplant> 
21:52:25 hopplant> COMMENT ON COLUMN "LSR_ASSET_SCHEDULE_TMP"."REVISION" IS
21:52:25   2  	'The revision with which this asset is associated';

Comment created.

21:52:25 hopplant> 
21:52:25 hopplant> COMMENT ON COLUMN "LSR_ASSET_SCHEDULE_TMP"."SET_OF_BOOKS_ID" IS
21:52:25   2  	'The Set of Books which which the values are associated';

Comment created.

21:52:25 hopplant> 
21:52:25 hopplant> COMMENT ON COLUMN "LSR_ASSET_SCHEDULE_TMP"."MONTH" IS
21:52:25   2  	'The month with which the values are associated';

Comment created.

21:52:25 hopplant> 
21:52:25 hopplant> COMMENT ON COLUMN "LSR_ASSET_SCHEDULE_TMP"."INTEREST_INCOME_RECEIVED" IS
21:52:25   2  	'The interest/income received in this period';

Comment created.

21:52:25 hopplant> 
21:52:25 hopplant> COMMENT ON COLUMN "LSR_ASSET_SCHEDULE_TMP"."INTEREST_INCOME_ACCRUED" IS
21:52:25   2  	'The interest/income accrued in this period';

Comment created.

21:52:25 hopplant> 
21:52:25 hopplant> COMMENT ON COLUMN "LSR_ASSET_SCHEDULE_TMP"."INTEREST_RENTAL_RECVD_SPREAD" IS
21:52:25   2  	'The interest/income spread in this period';

Comment created.

21:52:25 hopplant> 
21:52:25 hopplant> COMMENT ON COLUMN "LSR_ASSET_SCHEDULE_TMP"."BEG_DEFERRED_REV" IS
21:52:25   2  	'The deferred revenue at the beginning of the period';

Comment created.

21:52:25 hopplant> 
21:52:25 hopplant> COMMENT ON COLUMN "LSR_ASSET_SCHEDULE_TMP"."DEFERRED_REV_ACTIVITY" IS
21:52:25   2  	'The deferred revenue activity in the period';

Comment created.

21:52:25 hopplant> 
21:52:25 hopplant> COMMENT ON COLUMN "LSR_ASSET_SCHEDULE_TMP"."END_DEFERRED_REV" IS
21:52:25   2  	'The deferred revenue at the end of the period';

Comment created.

21:52:25 hopplant> 
21:52:25 hopplant> COMMENT ON COLUMN "LSR_ASSET_SCHEDULE_TMP"."BEG_RECEIVABLE" IS
21:52:25   2  	'The receivable amount at the beginning of the period';

Comment created.

21:52:25 hopplant> 
21:52:25 hopplant> COMMENT ON COLUMN "LSR_ASSET_SCHEDULE_TMP"."END_RECEIVABLE" IS
21:52:25   2  	'The receviable amount at the end of the period';

Comment created.

21:52:25 hopplant> 
21:52:25 hopplant> COMMENT ON COLUMN "LSR_ASSET_SCHEDULE_TMP"."BEG_LT_RECEIVABLE" IS
21:52:25   2  	'The long-term receivable amount at the beginning of the period';

Comment created.

21:52:25 hopplant> 
21:52:25 hopplant> COMMENT ON COLUMN "LSR_ASSET_SCHEDULE_TMP"."END_LT_RECEIVABLE" IS
21:52:25   2  	'The long-term receviable amount at the end of the period';

Comment created.

21:52:25 hopplant> 
21:52:25 hopplant> COMMENT ON COLUMN "LSR_ASSET_SCHEDULE_TMP"."INITIAL_DIRECT_COST" IS
21:52:25   2  	'The initial direct cost associated with this period';

Comment created.

21:52:25 hopplant> 
21:52:25 hopplant> COMMENT ON COLUMN "LSR_ASSET_SCHEDULE_TMP"."EXECUTORY_ACCRUAL1" IS
21:52:25   2  	'Executory Accrual Buckets';

Comment created.

21:52:25 hopplant> 
21:52:25 hopplant> COMMENT ON COLUMN "LSR_ASSET_SCHEDULE_TMP"."EXECUTORY_ACCRUAL2" IS
21:52:25   2  	'Executory Accrual Buckets';

Comment created.

21:52:25 hopplant> 
21:52:25 hopplant> COMMENT ON COLUMN "LSR_ASSET_SCHEDULE_TMP"."EXECUTORY_ACCRUAL3" IS
21:52:25   2  	'Executory Accrual Buckets';

Comment created.

21:52:25 hopplant> 
21:52:25 hopplant> COMMENT ON COLUMN "LSR_ASSET_SCHEDULE_TMP"."EXECUTORY_ACCRUAL4" IS
21:52:25   2  	'Executory Accrual Buckets';

Comment created.

21:52:25 hopplant> 
21:52:25 hopplant> COMMENT ON COLUMN "LSR_ASSET_SCHEDULE_TMP"."EXECUTORY_ACCRUAL5" IS
21:52:25   2  	'Executory Accrual Buckets';

Comment created.

21:52:25 hopplant> 
21:52:25 hopplant> COMMENT ON COLUMN "LSR_ASSET_SCHEDULE_TMP"."EXECUTORY_ACCRUAL6" IS
21:52:25   2  	'Executory Accrual Buckets';

Comment created.

21:52:25 hopplant> 
21:52:25 hopplant> COMMENT ON COLUMN "LSR_ASSET_SCHEDULE_TMP"."EXECUTORY_ACCRUAL7" IS
21:52:25   2  	'Executory Accrual Buckets';

Comment created.

21:52:25 hopplant> 
21:52:25 hopplant> COMMENT ON COLUMN "LSR_ASSET_SCHEDULE_TMP"."EXECUTORY_ACCRUAL8" IS
21:52:25   2  	'Executory Accrual Buckets';

Comment created.

21:52:25 hopplant> 
21:52:25 hopplant> COMMENT ON COLUMN "LSR_ASSET_SCHEDULE_TMP"."EXECUTORY_ACCRUAL9" IS
21:52:25   2  	'Executory Accrual Buckets';

Comment created.

21:52:25 hopplant> 
21:52:25 hopplant> COMMENT ON COLUMN "LSR_ASSET_SCHEDULE_TMP"."EXECUTORY_ACCRUAL10" IS
21:52:25   2  	'Executory Accrual Buckets';

Comment created.

21:52:25 hopplant> 
21:52:25 hopplant> COMMENT ON COLUMN "LSR_ASSET_SCHEDULE_TMP"."EXECUTORY_PAID1" IS
21:52:25   2  	'Executory Paid (Received) Buckets';

Comment created.

21:52:25 hopplant> 
21:52:25 hopplant> COMMENT ON COLUMN "LSR_ASSET_SCHEDULE_TMP"."EXECUTORY_PAID2" IS
21:52:25   2  	'Executory Paid (Received) Buckets';

Comment created.

21:52:26 hopplant> 
21:52:26 hopplant> COMMENT ON COLUMN "LSR_ASSET_SCHEDULE_TMP"."EXECUTORY_PAID3" IS
21:52:26   2  	'Executory Paid (Received) Buckets';

Comment created.

21:52:26 hopplant> 
21:52:26 hopplant> COMMENT ON COLUMN "LSR_ASSET_SCHEDULE_TMP"."EXECUTORY_PAID4" IS
21:52:26   2  	'Executory Paid (Received) Buckets';

Comment created.

21:52:26 hopplant> 
21:52:26 hopplant> COMMENT ON COLUMN "LSR_ASSET_SCHEDULE_TMP"."EXECUTORY_PAID5" IS
21:52:26   2  	'Executory Paid (Received) Buckets';

Comment created.

21:52:26 hopplant> 
21:52:26 hopplant> COMMENT ON COLUMN "LSR_ASSET_SCHEDULE_TMP"."EXECUTORY_PAID6" IS
21:52:26   2  	'Executory Paid (Received) Buckets';

Comment created.

21:52:26 hopplant> 
21:52:26 hopplant> COMMENT ON COLUMN "LSR_ASSET_SCHEDULE_TMP"."EXECUTORY_PAID7" IS
21:52:26   2  	'Executory Paid (Received) Buckets';

Comment created.

21:52:26 hopplant> 
21:52:26 hopplant> COMMENT ON COLUMN "LSR_ASSET_SCHEDULE_TMP"."EXECUTORY_PAID8" IS
21:52:26   2  	'Executory Paid (Received) Buckets';

Comment created.

21:52:26 hopplant> 
21:52:26 hopplant> COMMENT ON COLUMN "LSR_ASSET_SCHEDULE_TMP"."EXECUTORY_PAID9" IS
21:52:26   2  	'Executory Paid (Received) Buckets';

Comment created.

21:52:26 hopplant> 
21:52:26 hopplant> COMMENT ON COLUMN "LSR_ASSET_SCHEDULE_TMP"."EXECUTORY_PAID10" IS
21:52:26   2  	'Executory Paid (Received) Buckets';

Comment created.

21:52:26 hopplant> 
21:52:26 hopplant> COMMENT ON COLUMN "LSR_ASSET_SCHEDULE_TMP"."CONTINGENT_ACCRUAL1" IS
21:52:26   2  	'Contingent Accrual Buckets';

Comment created.

21:52:26 hopplant> 
21:52:26 hopplant> COMMENT ON COLUMN "LSR_ASSET_SCHEDULE_TMP"."CONTINGENT_ACCRUAL2" IS
21:52:26   2  	'Contingent Accrual Buckets';

Comment created.

21:52:26 hopplant> 
21:52:26 hopplant> COMMENT ON COLUMN "LSR_ASSET_SCHEDULE_TMP"."CONTINGENT_ACCRUAL3" IS
21:52:26   2  	'Contingent Accrual Buckets';

Comment created.

21:52:26 hopplant> 
21:52:26 hopplant> COMMENT ON COLUMN "LSR_ASSET_SCHEDULE_TMP"."CONTINGENT_ACCRUAL4" IS
21:52:26   2  	'Contingent Accrual Buckets';

Comment created.

21:52:26 hopplant> 
21:52:26 hopplant> COMMENT ON COLUMN "LSR_ASSET_SCHEDULE_TMP"."CONTINGENT_ACCRUAL5" IS
21:52:26   2  	'Contingent Accrual Buckets';

Comment created.

21:52:26 hopplant> 
21:52:26 hopplant> COMMENT ON COLUMN "LSR_ASSET_SCHEDULE_TMP"."CONTINGENT_ACCRUAL6" IS
21:52:26   2  	'Contingent Accrual Buckets';

Comment created.

21:52:26 hopplant> 
21:52:26 hopplant> COMMENT ON COLUMN "LSR_ASSET_SCHEDULE_TMP"."CONTINGENT_ACCRUAL7" IS
21:52:26   2  	'Contingent Accrual Buckets';

Comment created.

21:52:26 hopplant> 
21:52:26 hopplant> COMMENT ON COLUMN "LSR_ASSET_SCHEDULE_TMP"."CONTINGENT_ACCRUAL8" IS
21:52:26   2  	'Contingent Accrual Buckets';

Comment created.

21:52:26 hopplant> 
21:52:26 hopplant> COMMENT ON COLUMN "LSR_ASSET_SCHEDULE_TMP"."CONTINGENT_ACCRUAL9" IS
21:52:26   2  	'Contingent Accrual Buckets';

Comment created.

21:52:26 hopplant> 
21:52:26 hopplant> COMMENT ON COLUMN "LSR_ASSET_SCHEDULE_TMP"."CONTINGENT_ACCRUAL10" IS
21:52:26   2  	'Contingent Accrual Buckets';

Comment created.

21:52:26 hopplant> 
21:52:26 hopplant> COMMENT ON COLUMN "LSR_ASSET_SCHEDULE_TMP"."CONTINGENT_PAID1" IS
21:52:26   2  	'Contingent Paid (Received) Buckets';

Comment created.

21:52:26 hopplant> 
21:52:26 hopplant> COMMENT ON COLUMN "LSR_ASSET_SCHEDULE_TMP"."CONTINGENT_PAID2" IS
21:52:26   2  	'Contingent Paid (Received) Buckets';

Comment created.

21:52:26 hopplant> 
21:52:26 hopplant> COMMENT ON COLUMN "LSR_ASSET_SCHEDULE_TMP"."CONTINGENT_PAID3" IS
21:52:26   2  	'Contingent Paid (Received) Buckets';

Comment created.

21:52:26 hopplant> 
21:52:26 hopplant> COMMENT ON COLUMN "LSR_ASSET_SCHEDULE_TMP"."CONTINGENT_PAID4" IS
21:52:26   2  	'Contingent Paid (Received) Buckets';

Comment created.

21:52:26 hopplant> 
21:52:26 hopplant> COMMENT ON COLUMN "LSR_ASSET_SCHEDULE_TMP"."CONTINGENT_PAID5" IS
21:52:26   2  	'Contingent Paid (Received) Buckets';

Comment created.

21:52:26 hopplant> 
21:52:26 hopplant> COMMENT ON COLUMN "LSR_ASSET_SCHEDULE_TMP"."CONTINGENT_PAID6" IS
21:52:26   2  	'Contingent Paid (Received) Buckets';

Comment created.

21:52:26 hopplant> 
21:52:26 hopplant> COMMENT ON COLUMN "LSR_ASSET_SCHEDULE_TMP"."CONTINGENT_PAID7" IS
21:52:26   2  	'Contingent Paid (Received) Buckets';

Comment created.

21:52:26 hopplant> 
21:52:26 hopplant> COMMENT ON COLUMN "LSR_ASSET_SCHEDULE_TMP"."CONTINGENT_PAID8" IS
21:52:26   2  	'Contingent Paid (Received) Buckets';

Comment created.

21:52:26 hopplant> 
21:52:26 hopplant> COMMENT ON COLUMN "LSR_ASSET_SCHEDULE_TMP"."CONTINGENT_PAID9" IS
21:52:26   2  	'Contingent Paid (Received) Buckets';

Comment created.

21:52:26 hopplant> 
21:52:26 hopplant> COMMENT ON COLUMN "LSR_ASSET_SCHEDULE_TMP"."CONTINGENT_PAID10" IS
21:52:26   2  	'Contingent Paid (Received) Buckets';

Comment created.

21:52:26 hopplant> 
21:52:26 hopplant> COMMENT ON TABLE "LSR_ASSET_SCHEDULE_TMP" IS
21:52:26   2  	'Tempoary "asset schedule" (allocated from ILR Scheduled based on FMV) created for use in lessor variable payments calculations';

Comment created.

21:52:26 hopplant> 
21:52:26 hopplant> CREATE INDEX LSR_ASSET_SCH_TMP_MAIN_IDX ON
21:52:26   2  	LSR_ASSET_SCHEDULE_TMP (
21:52:26   3  	  LSR_ASSET_ID,
21:52:26   4  	  REVISION,
21:52:26   5  	  SET_OF_BOOKS_ID,
21:52:26   6  	  MONTH
21:52:26   7  	);

Index created.

21:52:26 hopplant> 
21:52:26 hopplant> CREATE INDEX LSR_ASSET_SCH_TMP_MTH_IDX ON
21:52:26   2  	LSR_ASSET_SCHEDULE_TMP ( MONTH );

Index created.

21:52:26 hopplant> 
21:52:26 hopplant> CREATE INDEX LSR_ASSET_SCH_TMP_SCH_IDX ON
21:52:26   2  	LSR_ASSET_SCHEDULE_TMP ( LSR_ASSET_ID,SET_OF_BOOKS_ID,REVISION );

Index created.

21:52:26 hopplant> 
21:52:26 hopplant> CREATE INDEX lsr_asset_sch_tmp_tmth_idx ON
21:52:26   2  	LSR_ASSET_SCHEDULE_TMP ( trunc(MONTH,'fmmonth') );

Index created.

21:52:26 hopplant> 
21:52:26 hopplant> CREATE OR REPLACE TYPE lsr_init_direct_cost_info AS OBJECT (idc_group_id NUMBER,
21:52:26   2  								  date_incurred DATE,
21:52:26   3  								  amount NUMBER(22,2),
21:52:26   4  								  description varchar2(254));
21:52:26   5  /

Type created.

21:52:26 hopplant> 
21:52:26 hopplant> CREATE OR REPLACE TYPE lsr_init_direct_cost_info_tab AS TABLE OF lsr_init_direct_cost_info;
21:52:26   2  /

Type created.

21:52:26 hopplant> 
21:52:26 hopplant> --****************************************************
21:52:26 hopplant> --Log the run of the script to local PP_SCHEMA_LOG
21:52:26 hopplant> --****************************************************
21:52:26 hopplant> INSERT INTO PP_SCHEMA_CHANGE_LOG
21:52:26   2  	  (ID, SKIPPED, MAJOR_VERSION, MINOR_VERSION, POINT_VERSION, PATCH_VERSION, MAINT_NUM, SCRIPT_PATH,
21:52:26   3  	  SCRIPT_NAME, SCRIPT_REVISION, DATE_APPLIED, OS_USER, TERMINAL, SERVICE_NAME)
21:52:26   4  VALUES
21:52:26   5  	  (3929, 0, 2017, 1, 0, 0, 49517, 'C:\PlasticWks\powerplant\sql\maint_scripts', '2017.1.0.0_maint_049517_lessor_03_reestablish_ilr_schedule_links_ddl.sql', 1,
21:52:26   6  	  SYSTIMESTAMP, SYS_CONTEXT('USERENV', 'OS_USER'), SYS_CONTEXT('USERENV', 'TERMINAL'),
21:52:26   7  	  SYS_CONTEXT('USERENV', 'SERVICE_NAME'));

1 row created.

21:52:26 hopplant> COMMIT;

Commit complete.

21:52:27 hopplant> /

Commit complete.

21:52:27 hopplant> SPOOL OFF
