21:44:45 hopplant> @&&PP_SCRIPT_PATH.maint_scripts\2017.1.0.0_maint_047037_lease_fix_vc_company_import_column_dml.sql
21:44:45 hopplant> /*
21:44:45 hopplant> ||============================================================================
21:44:45 hopplant> || Application: PowerPlan
21:44:45 hopplant> || File Name:   maint_047037_lease_fix_vc_company_import_column_dml.sql
21:44:45 hopplant> ||============================================================================
21:44:45 hopplant> || Copyright (C) 2017 by PowerPlan, Inc. All Rights Reserved.
21:44:45 hopplant> ||============================================================================
21:44:45 hopplant> || Version	 Date	    Revised By	     Reason for Change
21:44:45 hopplant> || ---------- ---------- ---------------- ------------------------------------
21:44:45 hopplant> || 2017.1.0.0 05/22/2017 Jared Watkins    fix the company ID lookup for the VC import and add the row to the template
21:44:45 hopplant> ||============================================================================
21:44:45 hopplant> */
21:44:45 hopplant> 
21:44:45 hopplant> --create new, non-broken lease company lookup based on company description
21:44:45 hopplant> insert into pp_import_lookup(import_lookup_id, description, long_description, column_name, lookup_sql,
21:44:45   2  	  is_derived, lookup_table_name, lookup_column_name)
21:44:45   3  values(2507, 'Lease Company.Description', 'The passed in value corresponds to ILR Number field', 'company_id',
21:44:45   4  	  '( select b.company_id from company b where upper( trim( <importfield> ) ) = upper( trim( b.description ) ) and b.is_lease_company = 1 )',
21:44:45   5  	  0, 'company', 'description')
21:44:45   6  ;

1 row created.

21:44:45 hopplant> 
21:44:45 hopplant> --set our import to use the new, functional lookup
21:44:45 hopplant> update pp_import_column_lookup
21:44:45   2  set import_lookup_id = 2507
21:44:45   3  where import_type_id = 264
21:44:45   4  and column_name = 'company_id'
21:44:45   5  ;

1 row updated.

21:44:45 hopplant> 
21:44:45 hopplant> --in the case that the company_id column was created successfully before, update the lookup
21:44:45 hopplant> update pp_import_template_fields
21:44:45   2  set import_lookup_id = 2507
21:44:45   3  where import_type_id = 264
21:44:45   4  and column_name = 'company_id'
21:44:45   5  and import_template_id = (select import_template_id
21:44:45   6  				from pp_import_template
21:44:45   7  				where import_type_id = 264
21:44:45   8  				and description = 'VP Var Component Amounts Add')
21:44:45   9  ;

1 row updated.

21:44:45 hopplant> 
21:44:45 hopplant> --insert the company_id row correctly this time (in the case that it didn't somehow get through last time)
21:44:45 hopplant> insert into pp_import_template_fields(import_template_id, field_id, import_type_id, column_name, import_lookup_id)
21:44:45   2  select import_template_id, 2, 264, 'company_id', 2507
21:44:45   3  from pp_import_template a
21:44:45   4  where import_type_id = 264
21:44:45   5  and description = 'VP Var Component Amounts Add'
21:44:45   6  and not exists (select 1
21:44:45   7  		      from pp_import_template_fields b
21:44:45   8  		      where b.import_template_id = a.import_template_id
21:44:45   9  		      and column_name = 'company_id')
21:44:45  10  ;

0 rows created.

21:44:45 hopplant> 
21:44:45 hopplant> --****************************************************
21:44:45 hopplant> --Log the run of the script to local PP_SCHEMA_LOG
21:44:45 hopplant> --****************************************************
21:44:45 hopplant> INSERT INTO PP_SCHEMA_CHANGE_LOG
21:44:45   2  	  (ID, SKIPPED, MAJOR_VERSION, MINOR_VERSION, POINT_VERSION, PATCH_VERSION, MAINT_NUM, SCRIPT_PATH,
21:44:45   3  	  SCRIPT_NAME, SCRIPT_REVISION, DATE_APPLIED, OS_USER, TERMINAL, SERVICE_NAME)
21:44:45   4  VALUES
21:44:45   5  	  (3508, 0, 2017, 1, 0, 0, 47037, 'C:\PlasticWks\powerplant\sql\maint_scripts', '2017.1.0.0_maint_047037_lease_fix_vc_company_import_column_dml.sql', 1,
21:44:45   6  	  SYSTIMESTAMP, SYS_CONTEXT('USERENV', 'OS_USER'), SYS_CONTEXT('USERENV', 'TERMINAL'),
21:44:45   7  	  SYS_CONTEXT('USERENV', 'SERVICE_NAME'));

1 row created.

21:44:45 hopplant> COMMIT;

Commit complete.

21:44:45 hopplant> SPOOL OFF
