22:31:58 hopplant> @&&PP_SCRIPT_PATH.maint_scripts\2017.4.0.0_maint_051356_lessee_01_remove_cap_type_table_maint_dml.sql
22:31:58 hopplant> /*
22:31:58 hopplant> ||============================================================================
22:31:58 hopplant> || Application: PowerPlan
22:31:58 hopplant> || File Name:   maint_051356_lessee_01_remove_cap_type_table_maint_dml.sql
22:31:58 hopplant> ||============================================================================
22:31:58 hopplant> || Copyright (C) 2018 by PowerPlan, Inc. All Rights Reserved.
22:31:58 hopplant> ||============================================================================
22:31:58 hopplant> || Version	 Date	    Revised By	     Reason for Change
22:31:58 hopplant> || ---------- ---------- ---------------- ------------------------------------
22:31:58 hopplant> || 2017.4.0.0 05/22/2018 Josh Sandler     Remove ls_lease_cap_type from table maintenance
22:31:58 hopplant> ||============================================================================
22:31:58 hopplant> */
22:31:58 hopplant> 
22:31:58 hopplant> DELETE
22:31:58   2  FROM pp_table_groups
22:31:58   3  WHERE table_name = 'ls_lease_cap_type';

2 rows deleted.

22:31:58 hopplant> 
22:31:58 hopplant> DELETE
22:31:58   2  FROM powerplant_columns
22:31:58   3  WHERE table_name = 'ls_lease_cap_type';

8 rows deleted.

22:31:58 hopplant> 
22:31:58 hopplant> DELETE
22:31:58   2  FROM powerplant_tables
22:31:58   3  WHERE table_name = 'ls_lease_cap_type';

1 row deleted.

22:31:58 hopplant> 
22:31:58 hopplant> --****************************************************
22:31:58 hopplant> --Log the run of the script to local PP_SCHEMA_LOG
22:31:58 hopplant> --****************************************************
22:31:58 hopplant> INSERT INTO PP_SCHEMA_CHANGE_LOG
22:31:58   2  	  (ID, SKIPPED, MAJOR_VERSION, MINOR_VERSION, POINT_VERSION, PATCH_VERSION, MAINT_NUM, SCRIPT_PATH,
22:31:58   3  	  SCRIPT_NAME, SCRIPT_REVISION, DATE_APPLIED, OS_USER, TERMINAL, SERVICE_NAME)
22:31:58   4  VALUES
22:31:58   5  	  (5806, 0, 2017, 4, 0, 0, 51356, 'C:\PlasticWks\powerplant\sql\maint_scripts', '2017.4.0.0_maint_051356_lessee_01_remove_cap_type_table_maint_dml.sql', 1,
22:31:58   6  	  SYSTIMESTAMP, SYS_CONTEXT('USERENV', 'OS_USER'), SYS_CONTEXT('USERENV', 'TERMINAL'),
22:31:58   7  	  SYS_CONTEXT('USERENV', 'SERVICE_NAME'));

1 row created.

22:31:58 hopplant> COMMIT;

Commit complete.

22:31:58 hopplant> SPOOL OFF
