22:32:33 hopplant> @&&PP_SCRIPT_PATH.maint_scripts\2017.4.0.0_maint_051711_lessee_02_purchase_option_payment_ddl.sql
22:32:33 hopplant> /*
22:32:33 hopplant> ||============================================================================
22:32:33 hopplant> || Application: PowerPlan
22:32:33 hopplant> || Object Name: maint_051711_lessee_02_purchase_option_payment_ddl.sql
22:32:33 hopplant> ||============================================================================
22:32:33 hopplant> || Copyright (C) 2018 by PowerPlan Inc. All Rights Reserved.
22:32:33 hopplant> ||============================================================================
22:32:33 hopplant> || Version	 Date	    Revised By	     Reason for Change
22:32:33 hopplant> || ---------- ---------- ---------------- --------------------------------------
22:32:33 hopplant> || 2017.4.0.0 06/07/2018 Sarah Byers      New for Purchase Option Payments
22:32:33 hopplant> ||============================================================================
22:32:33 hopplant> */
22:32:33 hopplant> 
22:32:33 hopplant> ALTER TABLE LS_ASSET ADD (PAY_PURCHASE_OPTION   NUMBER(22,0) NULL,
22:32:33   2  				ACTUAL_PURCHASE_AMOUNT NUMBER(22,2) NULL);

Table altered.

22:32:33 hopplant> 
22:32:33 hopplant> comment on column ls_asset.pay_purchase_option is 'Indicates whether Purchase Option Payment Lines should be generated for a retired asset (1 = Yes, 0 = No).';

Comment created.

22:32:33 hopplant> comment on column ls_asset.actual_purchase_amount is 'Indicates the dollar amount of the purchase price paid for the asset.';

Comment created.

22:32:33 hopplant> 
22:32:33 hopplant> ALTER TABLE LS_ILR_ACCOUNT ADD (PO_DEBIT_ACCOUNT_ID NUMBER(22,0) NULL);

Table altered.

22:32:33 hopplant> 
22:32:33 hopplant> comment on column ls_asset.pay_purchase_option is 'The Purchase Option Debit Account.';

Comment created.

22:32:33 hopplant> 
22:32:33 hopplant> 
22:32:33 hopplant> --****************************************************
22:32:33 hopplant> --Log the run of the script to local PP_SCHEMA_LOG
22:32:33 hopplant> --****************************************************
22:32:33 hopplant> INSERT INTO PP_SCHEMA_CHANGE_LOG
22:32:33   2  	  (ID, SKIPPED, MAJOR_VERSION, MINOR_VERSION, POINT_VERSION, PATCH_VERSION, MAINT_NUM, SCRIPT_PATH,
22:32:33   3  	  SCRIPT_NAME, SCRIPT_REVISION, DATE_APPLIED, OS_USER, TERMINAL, SERVICE_NAME)
22:32:33   4  VALUES
22:32:33   5  	  (7467, 0, 2017, 4, 0, 0, 51711, 'C:\PlasticWks\powerplant\sql\maint_scripts', '2017.4.0.0_maint_051711_lessee_02_purchase_option_payment_ddl.sql', 1,
22:32:33   6  	  SYSTIMESTAMP, SYS_CONTEXT('USERENV', 'OS_USER'), SYS_CONTEXT('USERENV', 'TERMINAL'),
22:32:33   7  	  SYS_CONTEXT('USERENV', 'SERVICE_NAME'));

1 row created.

22:32:33 hopplant> COMMIT;

Commit complete.

22:32:33 hopplant> SPOOL OFF
