22:09:22 hopplant> @&&PP_SCRIPT_PATH.maint_scripts\2017.2.0.0_maint_050220_lessee_05_sch_remove_unused_objects_ddl.sql
22:09:22 hopplant> /*
22:09:22 hopplant> ||============================================================================
22:09:22 hopplant> || Application: PowerPlan
22:09:22 hopplant> || File Name:   maint_050220_lessee_05_sch_remove_unused_objects_ddl.sql
22:09:22 hopplant> ||============================================================================
22:09:22 hopplant> || Copyright (C) 2018 by PowerPlan, Inc. All Rights Reserved.
22:09:22 hopplant> ||============================================================================
22:09:22 hopplant> || Version	 Date	    Revised By	     Reason for Change
22:09:22 hopplant> || ---------- ---------- ---------------- ------------------------------------
22:09:22 hopplant> || 2017.2.0.0 01/24/2018 Shane "C" Ward	   Lesseee Calculation Performance enhancements
22:09:22 hopplant> ||============================================================================
22:09:22 hopplant> */
22:09:22 hopplant> 
22:09:22 hopplant> DROP VIEW v_multicurrency_lis_inner;

View dropped.

22:09:22 hopplant> 
22:09:22 hopplant> DROP VIEW v_multicurrency_ls_asset_inner;

View dropped.

22:09:22 hopplant> 
22:09:22 hopplant> DROP materialized VIEW mv_multicurr_lis_inner_amounts;

Materialized view dropped.

22:09:22 hopplant> 
22:09:22 hopplant> DROP materialized VIEW mv_multicurr_lis_inner_depr;

Materialized view dropped.

22:09:22 hopplant> 
22:09:22 hopplant> DROP materialized VIEW mv_multicurr_ls_asset_inner;

Materialized view dropped.

22:09:22 hopplant> 
22:09:22 hopplant> DROP materialized VIEW log ON ls_asset;

Materialized view log dropped.

22:09:22 hopplant> 
22:09:22 hopplant> DROP materialized VIEW log ON ls_asset_schedule;

Materialized view log dropped.

22:09:22 hopplant> 
22:09:22 hopplant> DROP materialized VIEW log ON ls_depr_forecast;

Materialized view log dropped.

22:09:22 hopplant> 
22:09:22 hopplant> DROP materialized VIEW log ON ls_ilr;

Materialized view log dropped.

22:09:22 hopplant> 
22:09:22 hopplant> DROP materialized VIEW log ON ls_ilr_amounts_set_of_books;

Materialized view log dropped.

22:09:22 hopplant> 
22:09:22 hopplant> DROP materialized VIEW log ON ls_ilr_options;

Materialized view log dropped.

22:09:22 hopplant> 
22:09:22 hopplant> DROP materialized VIEW log ON ls_ilr_schedule;

Materialized view log dropped.

22:09:22 hopplant> 
22:09:22 hopplant> DROP materialized VIEW log ON ls_lease;

Materialized view log dropped.

22:09:22 hopplant> 
22:09:22 hopplant> --****************************************************
22:09:22 hopplant> --Log the run of the script to local PP_SCHEMA_LOG
22:09:22 hopplant> --****************************************************
22:09:22 hopplant> INSERT INTO PP_SCHEMA_CHANGE_LOG
22:09:22   2  	      (ID, SKIPPED, MAJOR_VERSION, MINOR_VERSION, POINT_VERSION, PATCH_VERSION, MAINT_NUM, SCRIPT_PATH,
22:09:22   3  	      SCRIPT_NAME, SCRIPT_REVISION, DATE_APPLIED, OS_USER, TERMINAL, SERVICE_NAME)
22:09:22   4  VALUES
22:09:22   5  	      (4093, 0, 2017, 2, 0, 0, 50220, 'C:\PlasticWks\powerplant\sql\maint_scripts', '2017.2.0.0_maint_050220_lessee_05_sch_remove_unused_objects_ddl.sql', 1,
22:09:22   6  	      SYSTIMESTAMP, SYS_CONTEXT('USERENV', 'OS_USER'), SYS_CONTEXT('USERENV', 'TERMINAL'),
22:09:22   7  	      SYS_CONTEXT('USERENV', 'SERVICE_NAME'));

1 row created.

22:09:22 hopplant> COMMIT;

Commit complete.

22:09:23 hopplant> SPOOL OFF
