22:32:47 hopplant> @&&PP_SCRIPT_PATH.maint_scripts\2017.4.0.0_maint_051050_lessee_01_disc_consol_rpts_dml.sql
22:32:47 hopplant> /*
22:32:47 hopplant> ||============================================================================
22:32:47 hopplant> || Application: PowerPlan
22:32:47 hopplant> || File Name:   maint_051050_lessee_01_disc_consol_rpts_dml.sql
22:32:47 hopplant> ||============================================================================
22:32:47 hopplant> || Copyright (C) 2018 by PowerPlan, Inc. All Rights Reserved.
22:32:47 hopplant> ||============================================================================
22:32:47 hopplant> || Version	  Date	     Revised By       Reason for Change
22:32:47 hopplant> || ----------  ---------- ---------------- ------------------------------------
22:32:47 hopplant> || 2017.4.0.0  06/21/2018 Sarah Byers      Add configuration for Lessee Consolidated Disclosure Reports
22:32:47 hopplant> ||============================================================================
22:32:47 hopplant> */
22:32:47 hopplant> 
22:32:47 hopplant> -- New system controls for exchange rate type to use for activity and balances for consolidated disclosure reporting
22:32:47 hopplant> insert into pp_system_control_company (
22:32:47   2  	     control_id, control_name, control_value, description, long_description, company_id)
22:32:47   3  values (
22:32:47   4  	     (select max(nvl(control_id,0)) + 1 from pp_system_control_company),
22:32:47   5  	     'Lease Consolidated IS Curr Type', 4, 'Lease Consolidated Disclosure Income Statement Currency Type',
22:32:47   6  	     'Determines the Currency Type used for the Income Statement amounts on the Consolidated Disclosure Reports.', -1);

1 row created.

22:32:47 hopplant> 
22:32:47 hopplant> insert into pp_system_control_company (
22:32:47   2  	     control_id, control_name, control_value, description, long_description, company_id)
22:32:47   3  values (
22:32:47   4  	     (select max(nvl(control_id,0)) + 1 from pp_system_control_company),
22:32:47   5  	     'Lease Consolidated BS Curr Type', 1, 'Lease Consolidated Disclosure Balance Sheet Currency Type',
22:32:47   6  	     'Determines the Currency Type used for the Balance Sheet amounts on the Consolidated Disclosure Reports.', -1);

1 row created.

22:32:47 hopplant> 
22:32:47 hopplant> -- New Report Type
22:32:47 hopplant> insert into pp_report_type (report_type_id, description, sort_order)
22:32:47   2  values (312, 'Lessee - Disclosure Consolidated', 5);

1 row created.

22:32:47 hopplant> 
22:32:47 hopplant> -- New Consolidated Report Filter
22:32:47 hopplant> insert into pp_reports_filter (
22:32:47   2  	     pp_report_filter_id, description, filter_uo_name)
22:32:47   3  values (
22:32:47   4  	     104, 'Lessee - Disclosure - Consolidated', 'uo_ls_selecttabs_disclosure_consol');

1 row created.

22:32:47 hopplant> 
22:32:47 hopplant> -- Create New Consolidated Disclosure Reports
22:32:47 hopplant> insert into pp_reports (
22:32:47   2  	     report_id, description, long_description, subsystem, datawindow, report_number,
22:32:47   3  	     pp_report_subsystem_id, report_type_id, pp_report_time_option_id,
22:32:47   4  	     pp_report_filter_id, pp_report_status_id, pp_report_envir_id)
22:32:47   5  select max_report.rid + rownum, description, 'Company Consolidation - '||long_description, 'Lessee', datawindow,
22:32:47   6  	     report_number||' - Consolidated', pp_report_subsystem_id, 312, pp_report_time_option_id,
22:32:47   7  	     104, pp_report_status_id, pp_report_envir_id
22:32:47   8  	from pp_reports r, (select nvl(max(report_id), 0) rid from pp_reports) max_report
22:32:47   9   where r.report_type_id = 311
22:32:47  10  	 and report_number not in ('Lessee - 2009', 'Lessee - 2012');

13 rows created.

22:32:47 hopplant> 
22:32:47 hopplant> -- Update report time options
22:32:47 hopplant> -- 208 -> 201
22:32:47 hopplant> update pp_reports
22:32:47   2  	 set pp_report_time_option_id = 201
22:32:47   3   where report_type_id = 312
22:32:47   4  	 and pp_report_time_option_id = 208;

5 rows updated.

22:32:47 hopplant> 
22:32:47 hopplant> -- 207 -> 206
22:32:47 hopplant> update pp_reports
22:32:47   2  	 set pp_report_time_option_id = 206
22:32:47   3   where report_type_id = 312
22:32:47   4  	 and pp_report_time_option_id = 207;

7 rows updated.

22:32:47 hopplant> 
22:32:47 hopplant> -- Lease Cost
22:32:47 hopplant> update pp_reports
22:32:47   2  	 set datawindow = 'dw_ls_rpt_disclosure_lease_cost_consol'
22:32:47   3   where report_type_id = 312
22:32:47   4  	 and report_number = 'Lessee - 2001 - Consolidated';

1 row updated.

22:32:47 hopplant> 
22:32:47 hopplant> -- Weighted Average Lease Term
22:32:47 hopplant> update pp_reports
22:32:47   2  	 set datawindow = 'dw_ls_rpt_disc_wtd_avg_term_consol'
22:32:47   3   where report_type_id = 312
22:32:47   4  	 and report_number = 'Lessee - 2002 - Consolidated';

1 row updated.

22:32:47 hopplant> 
22:32:47 hopplant> -- Weighted Average Discount Rate
22:32:47 hopplant> update pp_reports
22:32:47   2  	 set datawindow = 'dw_ls_rpt_disc_wtd_discnt_rt_consol'
22:32:47   3   where report_type_id = 312
22:32:47   4  	 and report_number = 'Lessee - 2003 - Consolidated';

1 row updated.

22:32:47 hopplant> 
22:32:47 hopplant> -- Maturity Analysis
22:32:47 hopplant> update pp_reports
22:32:47   2  	 set datawindow = 'dw_ls_rpt_disc_maturity_det_consol'
22:32:47   3   where report_type_id = 312
22:32:47   4  	 and report_number = 'Lessee - 2004 - Consolidated';

1 row updated.

22:32:47 hopplant> 
22:32:47 hopplant> -- Cash Paid
22:32:47 hopplant> update pp_reports
22:32:47   2  	 set datawindow = 'dw_ls_rpt_disclosure_cash_paid_consol'
22:32:47   3   where report_type_id = 312
22:32:47   4  	 and report_number = 'Lessee - 2005 - Consolidated';

1 row updated.

22:32:47 hopplant> 
22:32:47 hopplant> -- New ROU Assets
22:32:47 hopplant> update pp_reports
22:32:47   2  	 set datawindow = 'dw_ls_rpt_disc_new_rou_asset_consol'
22:32:47   3   where report_type_id = 312
22:32:47   4  	 and report_number = 'Lessee - 2006 - Consolidated';

1 row updated.

22:32:47 hopplant> 
22:32:47 hopplant> -- Statement of Financial Position
22:32:47 hopplant> update pp_reports
22:32:47   2  	 set datawindow = 'dw_ls_rpt_disc_stmnt_fin_pos_consol'
22:32:47   3   where report_type_id = 312
22:32:47   4  	 and report_number = 'Lessee - 2007 - Consolidated';

1 row updated.

22:32:47 hopplant> 
22:32:47 hopplant> -- Short Term Lease Cost
22:32:47 hopplant> update pp_reports
22:32:47   2  	 set datawindow = 'dw_ls_rpt_disc_st_lease_cost_consol'
22:32:47   3   where report_type_id = 312
22:32:47   4  	 and report_number = 'Lessee - 2008 - Consolidated';

1 row updated.

22:32:47 hopplant> 
22:32:47 hopplant> -- Lease Residuals
22:32:47 hopplant> update pp_reports
22:32:47   2  	 set datawindow = 'dw_ls_rpt_disc_lease_residuals_consol'
22:32:47   3   where report_type_id = 312
22:32:47   4  	 and report_number = 'Lessee - 2010 - Consolidated';

1 row updated.

22:32:47 hopplant> 
22:32:47 hopplant> -- Non Lease Costs
22:32:47 hopplant> update pp_reports
22:32:47   2  	 set datawindow = 'dw_ls_rpt_disc_non_lease_cost_consol'
22:32:47   3   where report_type_id = 312
22:32:47   4  	 and report_number = 'Lessee - 2011 - Consolidated';

1 row updated.

22:32:47 hopplant> 
22:32:47 hopplant> -- Leases Not Yet Commenced
22:32:47 hopplant> update pp_reports
22:32:47   2  	 set datawindow = 'dw_ls_rpt_disc_not_commenced_consol'
22:32:47   3   where report_type_id = 312
22:32:47   4  	 and report_number = 'Lessee - 2013 - Consolidated';

1 row updated.

22:32:47 hopplant> 
22:32:47 hopplant> -- Lease Options
22:32:47 hopplant> update pp_reports
22:32:47   2  	 set datawindow = 'dw_ls_rpt_disc_ls_options_consol'
22:32:47   3   where report_type_id = 312
22:32:47   4  	 and report_number = 'Lessee - 2014 - Consolidated';

1 row updated.

22:32:47 hopplant> 
22:32:47 hopplant> -- Lease Classification Determination
22:32:47 hopplant> update pp_reports
22:32:47   2  	 set datawindow = 'dw_ls_rpt_disc_lease_class_consol'
22:32:47   3   where report_type_id = 312
22:32:47   4  	 and report_number = 'Lessee - 2015 - Consolidated';

1 row updated.

22:32:47 hopplant> 
22:32:47 hopplant> -- Set up PP Tree Category and Type
22:32:47 hopplant> insert into pp_tree_category (pp_tree_category_id, description, table_name, column_name, column_description)
22:32:47   2  select pp_tree_category_id, description, table_name, column_name, column_description from (
22:32:47   3  	select nvl(max(pp_tree_category_id),0) + 1 pp_tree_category_id, 'Company' description,
22:32:47   4  	       'company_setup' table_name, 'company_id' column_name, 'description' column_description
22:32:47   5  	  from pp_tree_category) a
22:32:47   6   where not exists (
22:32:47   7  	     select 1 from pp_tree_category b
22:32:47   8  	      where lower(b.table_name) = 'company_setup'
22:32:47   9  		and lower(a.table_name) = lower(b.table_name));

0 rows created.

22:32:47 hopplant> 
22:32:47 hopplant> insert into pp_tree_type (pp_tree_category_id, pp_tree_type_id, description)
22:32:47   2  select pp_tree_category_id, pp_tree_type_id, description from (
22:32:47   3  	select (select pp_tree_category_id from pp_tree_category where lower(table_name) = 'company_setup') pp_tree_category_id,
22:32:47   4  	       nvl((select max(pp_tree_type_id) from pp_tree_type),0) + 1 pp_tree_type_id,
22:32:47   5  	       'Lessee Disclosure Consolidated'description
22:32:47   6  	  from dual) a
22:32:47   7   where not exists (
22:32:47   8  	     select 1 from pp_tree_type b
22:32:47   9  	      where b.description = 'Lessee Disclosure Consolidated'
22:32:47  10  		and lower(a.description) = lower(b.description));

1 row created.

22:32:47 hopplant> 
22:32:47 hopplant> 
22:32:47 hopplant> --****************************************************
22:32:47 hopplant> --Log the run of the script to local PP_SCHEMA_LOG
22:32:47 hopplant> --****************************************************
22:32:47 hopplant> INSERT INTO PP_SCHEMA_CHANGE_LOG
22:32:47   2  	  (ID, SKIPPED, MAJOR_VERSION, MINOR_VERSION, POINT_VERSION, PATCH_VERSION, MAINT_NUM, SCRIPT_PATH,
22:32:47   3  	  SCRIPT_NAME, SCRIPT_REVISION, DATE_APPLIED, OS_USER, TERMINAL, SERVICE_NAME)
22:32:47   4  VALUES
22:32:47   5  	  (7883, 0, 2017, 4, 0, 0, 51050, 'C:\PlasticWks\powerplant\sql\maint_scripts', '2017.4.0.0_maint_051050_lessee_01_disc_consol_rpts_dml.sql', 1,
22:32:47   6  	  SYSTIMESTAMP, SYS_CONTEXT('USERENV', 'OS_USER'), SYS_CONTEXT('USERENV', 'TERMINAL'),
22:32:47   7  	  SYS_CONTEXT('USERENV', 'SERVICE_NAME'));

1 row created.

22:32:47 hopplant> COMMIT;

Commit complete.

22:32:47 hopplant> 
22:32:47 hopplant> SPOOL OFF
