21:48:41 hopplant> @&&PP_SCRIPT_PATH.maint_scripts\2017.1.0.0_maint_048891_lessor_04_lessee_import_misc_dml.sql
21:48:41 hopplant> /*
21:48:41 hopplant> ||============================================================================
21:48:41 hopplant> || Application: PowerPlan
21:48:41 hopplant> || File Name:   maint_048891_lessor_04_lessee_import_misc_dml.sql
21:48:41 hopplant> ||============================================================================
21:48:41 hopplant> || Copyright (C) 2017 by PowerPlan, Inc. All Rights Reserved.
21:48:41 hopplant> ||============================================================================
21:48:41 hopplant> || Version	 Date	    Revised By	     Reason for Change
21:48:41 hopplant> || ---------- ---------- ---------------- ------------------------------------
21:48:41 hopplant> || 2017.1.0.0 09/29/2017 Shane "C" Ward  Set up Lessor Lessee Import Tables
21:48:41 hopplant> ||============================================================================
21:48:41 hopplant> */
21:48:41 hopplant> 
21:48:41 hopplant> --Point Lessor Lease group lookup to Lessor table
21:48:41 hopplant> INSERT INTO pp_import_lookup (import_lookup_id, description, long_description, column_name, lookup_sql, is_derived, lookup_table_name, lookup_column_name)
21:48:41   2  VALUES (1075, 'Lsr Lease Group.Description', 'Lessor Lease Group Id', 'lease_group_id', '( select b.lease_group_id from lsr_lease_group b where upper( trim( <importfield> ) ) = upper( trim( b.description ) ) )',
21:48:41   3  0, 'lsr_lease_group', 'description');

1 row created.

21:48:41 hopplant> 
21:48:41 hopplant> UPDATE pp_import_column_lookup SET import_lookup_id = 1075
21:48:41   2  WHERE column_name = 'lease_group_id' AND import_type_id = '500';

1 row updated.

21:48:41 hopplant> 
21:48:41 hopplant> --Recreate Default Template
21:48:41 hopplant> DELETE FROM pp_import_template_fields WHERE import_type_id = 500 AND import_template_id IN (SELECT import_template_id FROM pp_import_template WHERE description = 'Lessor Lessee Add' AND import_type_id = 500);

5 rows deleted.

21:48:41 hopplant> 
21:48:41 hopplant> INSERT INTO pp_import_template_fields (import_template_id, field_id, import_type_id, column_name)
21:48:41   2  SELECT t.import_template_id, rownum, t.import_type_id, column_name  FROM pp_import_template t, pp_import_column c WHERE
21:48:41   3  t.description = 'Lessor Lessee Add' AND t.import_type_id = 500
21:48:41   4  AND c.import_type_id = t.import_type_id;

21 rows created.

21:48:41 hopplant> 
21:48:41 hopplant> 
21:48:41 hopplant> --****************************************************
21:48:41 hopplant> --Log the run of the script to local PP_SCHEMA_LOG
21:48:41 hopplant> --****************************************************
21:48:41 hopplant> INSERT INTO PP_SCHEMA_CHANGE_LOG
21:48:41   2  	      (ID, SKIPPED, MAJOR_VERSION, MINOR_VERSION, POINT_VERSION, PATCH_VERSION, MAINT_NUM, SCRIPT_PATH,
21:48:41   3  	      SCRIPT_NAME, SCRIPT_REVISION, DATE_APPLIED, OS_USER, TERMINAL, SERVICE_NAME)
21:48:41   4  VALUES
21:48:41   5  	      (3751, 0, 2017, 1, 0, 0, 48891, 'C:\PlasticWks\powerplant\sql\maint_scripts', '2017.1.0.0_maint_048891_lessor_04_lessee_import_misc_dml.sql', 1,
21:48:41   6  	      SYSTIMESTAMP, SYS_CONTEXT('USERENV', 'OS_USER'), SYS_CONTEXT('USERENV', 'TERMINAL'),
21:48:41   7  	      SYS_CONTEXT('USERENV', 'SERVICE_NAME'));

1 row created.

21:48:41 hopplant> COMMIT;

Commit complete.

21:48:41 hopplant> SPOOL OFF
