22:32:25 hopplant> @&&PP_SCRIPT_PATH.maint_scripts\2017.4.0.0_maint_048906_lessor_01_create_st_df_termination_trans_types_dml.sql
22:32:25 hopplant> /*
22:32:25 hopplant> ||============================================================================
22:32:25 hopplant> || Application: PowerPlan
22:32:25 hopplant> || File Name:   maint_048906_lessor_01_create_st_df_termination_trans_types_dml.sql
22:32:25 hopplant> ||============================================================================
22:32:25 hopplant> || Copyright (C) 2018 by PowerPlan, Inc. All Rights Reserved.
22:32:25 hopplant> ||============================================================================
22:32:25 hopplant> || Version	 Date	    Revised By	      Reason for Change
22:32:25 hopplant> || ---------- ---------- ----------------  ------------------------------------
22:32:25 hopplant> || 2017.4.0.0 06/19/2018 Jared Watkins     Create the new Transaction types we need for ST/DF Termination JEs
22:32:25 hopplant> ||============================================================================
22:32:25 hopplant> */
22:32:25 hopplant> 
22:32:25 hopplant> /* Add new trans type 4060 - Receivable Termination Debit */
22:32:25 hopplant> insert into je_trans_type (trans_type, description)
22:32:25   2  values (4060, '4060 - Lessor Receivable Termination Debit');

1 row created.

22:32:25 hopplant> 
22:32:25 hopplant> /* Add new trans type 4061 - Receivable Termination Credit */
22:32:25 hopplant> insert into je_trans_type (trans_type, description)
22:32:25   2  values (4061, '4061 - Lessor Receivable Termination Credit');

1 row created.

22:32:25 hopplant> 
22:32:25 hopplant> /* Add new trans type 4062 - Unguaranteed Residual Debit */
22:32:25 hopplant> insert into je_trans_type (trans_type, description)
22:32:25   2  values (4062, '4062 - Lessor Unguaranteed Residual Debit');

1 row created.

22:32:25 hopplant> 
22:32:25 hopplant> /* Add new trans type 4063 - Unguaranteed Residual Credit */
22:32:25 hopplant> insert into je_trans_type (trans_type, description)
22:32:25   2  values (4063, '4063 - Lessor Unguaranteed Residual Credit');

1 row created.

22:32:25 hopplant> 
22:32:25 hopplant> /* Add new trans type 4064 - Future Payments Debit */
22:32:25 hopplant> insert into je_trans_type (trans_type, description)
22:32:25   2  values (4064, '4064 - Lessor Future Payments Debit');

1 row created.

22:32:25 hopplant> 
22:32:25 hopplant> /* Add new trans type 4065 - Future Payments Credit */
22:32:25 hopplant> insert into je_trans_type (trans_type, description)
22:32:25   2  values (4065, '4065 - Lessor Future Payments Credit');

1 row created.

22:32:25 hopplant> 
22:32:25 hopplant> /* Add new trans type 4066 - Deferred Profit Debit */
22:32:25 hopplant> insert into je_trans_type (trans_type, description)
22:32:25   2  values (4066, '4066 - Lessor Deferred Profit Debit');

1 row created.

22:32:25 hopplant> 
22:32:25 hopplant> /* Add new trans type 4067 - Deferred Profit Credit */
22:32:25 hopplant> insert into je_trans_type (trans_type, description)
22:32:25   2  values (4067, '4067 - Lessor Deferred Profit Credit');

1 row created.

22:32:25 hopplant> 
22:32:25 hopplant> /* Relate the new trans types to the delivered JE Method */
22:32:25 hopplant> insert into je_method_trans_type(je_method_id, trans_type)
22:32:25   2  select 1, trans_type from je_trans_type
22:32:25   3  where trans_type between 4060 and 4067;

8 rows created.

22:32:25 hopplant> 
22:32:25 hopplant> --***********************************************
22:32:25 hopplant> --Log the run of the script PP_SCHEMA_CGANGE_LOG
22:32:25 hopplant> --***********************************************
22:32:25 hopplant> INSERT INTO PP_SCHEMA_CHANGE_LOG
22:32:25   2  	  (ID, SKIPPED, MAJOR_VERSION, MINOR_VERSION, POINT_VERSION, PATCH_VERSION, MAINT_NUM, SCRIPT_PATH, SCRIPT_NAME, SCRIPT_REVISION, DATE_APPLIED, OS_USER, TERMINAL, SERVICE_NAME)
22:32:25   3  VALUES
22:32:25   4  	  (6822, 0, 2017, 4, 0, 0, 48906, 'C:\PlasticWks\powerplant\sql\maint_scripts', '2017.4.0.0_maint_048906_lessor_01_create_st_df_termination_trans_types_dml.sql', 1, SYSTIMESTAMP, SYS_CONTEXT('USERENV', 'OS_USER'), SYS_CONTEXT('USERENV', 'TERMINAL'), SYS_CONTEXT('USERENV', 'SERVICE_NAME'));

1 row created.

22:32:25 hopplant> COMMIT;

Commit complete.

22:32:25 hopplant> SPOOL OFF
