22:32:29 hopplant> @&&PP_SCRIPT_PATH.packages_released\2017.4.0.0_pkg_lessor_var_payments.sql
22:32:29 hopplant> CREATE OR REPLACE package pkg_lessor_var_payments is
22:32:29   2  
22:32:29   3  	 /*
22:32:29   4  	 ||============================================================================
22:32:29   5  	 || Application: PowerPlant
22:32:29   6  	 || Object Name: PKG_LESSOR_VAR_PAYMENTS
22:32:29   7  	 || Description:
22:32:29   8  	 ||============================================================================
22:32:29   9  	 || Copyright (C) 2017 by PowerPlan, Inc. All Rights Reserved.
22:32:29  10  	 ||============================================================================
22:32:29  11  	 || Version    Date	  Revised By	  Reason for Change
22:32:29  12  	 || ---------- ---------- --------------  ----------------------------------------
22:32:29  13  	 || 2017.1.0.0 10/25/2017 A. Hill	  Original Verion (Copied from PKG_LEASE_VAR_PAYMENTS)
22:32:29  14  	 ||============================================================================
22:32:29  15  	 */
22:32:29  16  
22:32:29  17  	function f_get_initial_pay_terms(a_ilr_id number, a_revision number) return lsr_ilr_op_sch_pay_term_tab;
22:32:29  18  
22:32:29  19  	-- Function to calc the value of an index/rate formula component for a given variable name and month
22:32:29  20  	function F_CALC_VAR_PAYMENT_INITIAL_AMT(A_VARIABLE_PAYMENT_ID number,
22:32:29  21  						A_ILR_ID	      number,
22:32:29  22  						A_REVISION	      number) return number;
22:32:29  23  
22:32:29  24  	-- Function to calculate an index/rate formula component value
22:32:29  25  	FUNCTION F_CALC_INDEX(A_COMPONENT_ID	       number,
22:32:29  26  			      A_ILR_ID		       number,
22:32:29  27  			      A_REVISION	       number,
22:32:29  28  			      A_INITIAL_AMT_FLAG       number,
22:32:29  29  			      A_MONTH		       date ) return number;
22:32:29  30  
22:32:29  31  	-- Function to calculate a variable component
22:32:29  32  	function F_CALC_VAR_COMPONENT(A_COMPONENT_ID number,
22:32:29  33  --				A_ILR_ID       number,
22:32:29  34  				      A_ASSET_ID     number,
22:32:29  35  				      A_MONTH	     date) return number;
22:32:29  36  
22:32:29  37  	 -- Function to calculate the value of a historic component
22:32:29  38  	 function F_CALC_HISTORIC(A_COMPONENT_ID	  number,
22:32:29  39  				  A_ID			  number,
22:32:29  40  				  A_REVISION		  number,
22:32:29  41  				  A_ASSET_LEVEL_FLAG	  number,
22:32:29  42  				  A_SET_OF_BOOKS_ID	  number,
22:32:29  43  				  A_MONTH		      date) return number;
22:32:29  44  
22:32:29  45  
22:32:29  46  	 -- Function to calculate all variable payments for an ILR in appropriate order
22:32:29  47  	 function F_CALC_ILR_VAR_PAYMENTS(A_ILR_ID     number,
22:32:29  48  					  A_REVISION   number,
22:32:29  49  					  A_MONTH      date) return varchar2;
22:32:29  50  
22:32:29  51  	 -- Function to calculate variable payments for all ILR/revision combos currently in the schedule build staging tables
22:32:29  52  
22:32:29  53  	 function F_CALC_ALL_VAR_PAYMENTS(A_MONTH   date) return varchar2;
22:32:29  54  
22:32:29  55  	 -- Function to calculate variable payments for each asset bucket
22:32:29  56  	 function F_CALC_ASSET_BUCKET( A_ILR_ID number, A_ASSET_ID number, A_REVISION number, A_SET_OF_BOOKS_ID number, A_PAYMENT_TERM_ID number, A_BUCKET_NUMBER number, A_MONTH date, A_PROCESS_TYPE varchar2) return number;
22:32:29  57  
22:32:29  58  	 -- Function to rollup all buckets from the assets to ILR level.
22:32:29  59  	 function F_ROLLUP_ASSETS_BUCKETS_TO_ILR(A_COMPANY_ID in number, A_MONTH in date, A_CALC_TYPE varchar2) return varchar2;
22:32:29  60  
22:32:29  61  	 -- Function to calculate variable payments for all assets of a company during month end.
22:32:29  62  	 function F_CALC_ASSET_BUCKETS_MONTH_END(A_COMPANY_ID in number, A_MONTH in date, CALC_TYPE varchar2) return varchar2;
22:32:29  63  
22:32:29  64  	 -- Function to calculate paid amount for a given asset and month
22:32:29  65  	 function F_CALC_ASSET_PAID_AMOUNT(A_ASSET_ID	    number,
22:32:29  66  					   A_REVISION	    number,
22:32:29  67  					   A_MONTH	    date,
22:32:29  68  					   A_BUCKET_NUMBER  number,
22:32:29  69  					   A_SET_OF_BOOKS_ID number) return number;
22:32:29  70  
22:32:29  71  	 -- Function to update the ILR and asset schedule tables during calculation of variable payments
22:32:29  72  	 function F_UPDATE_SCHEDULE_TABLES(A_ILR_ID	       number,
22:32:29  73  					   A_MONTH	       date,
22:32:29  74  					   A_REVISION	       number) return varchar2;
22:32:29  75  
22:32:29  76  	 -- Function to return if a given month is a payment month for a given ILR and revision
22:32:29  77  	 function F_IS_PAYMENT_MONTH(A_ILR_ID	  number,
22:32:29  78  				     A_REVISION   number,
22:32:29  79  				     A_MONTH	  date) return boolean;
22:32:29  80  
22:32:29  81  	 -- Function to return the first payment month for a given ILR and revision
22:32:29  82  	 function F_GET_FIRST_PAYMENT_TERM_MONTH(A_ILR_ID     number,
22:32:29  83  						 A_REVISION   number) return date;
22:32:29  84  
22:32:29  85  	      function F_IS_PAYMENT_MONTH_RTN_NUMBER(A_ILR_ID	  number,
22:32:29  86  				     A_REVISION   number,
22:32:29  87  				     A_MONTH	  date) return INTEGER;
22:32:29  88  
22:32:29  89  	FUNCTION f_get_rate(a_ilr_id NUMBER, a_revision NUMBER, a_rate_type_id NUMBER) RETURN NUMBER;
22:32:29  90  
22:32:29  91  END pkg_lessor_var_payments;
22:32:29  92  /

Package created.

22:32:29 hopplant> 
22:32:29 hopplant> create or replace PACKAGE BODY pkg_lessor_var_payments AS
22:32:29   2  /*
22:32:29   3  	 ||============================================================================
22:32:29   4  	 || Application: PowerPlant
22:32:29   5  	 || Object Name: PKG_LESSOR_VAR_PAYMENTS
22:32:29   6  	 || Description:
22:32:29   7  	 ||============================================================================
22:32:29   8  	 || Copyright (C) 2017 by PowerPlan, Inc. All Rights Reserved.
22:32:29   9  	 ||============================================================================
22:32:29  10  	 || Version    Date	  Revised By	  Reason for Change
22:32:29  11  	 || ---------- ---------- --------------  ----------------------------------------
22:32:29  12  	 || 2017.1.0.0 10/25/2017 A. Hill	  Original Version (Copied from PKG_LEASE_VAR_PAYMENTS)
22:32:29  13  	 ||============================================================================
22:32:29  14  	 */
22:32:29  15  
22:32:29  16  	 --**************************************************************************
22:32:29  17  	 --			       Start Body
22:32:29  18  	 --**************************************************************************
22:32:29  19  	 --**************************************************************************
22:32:29  20  	 --			       PROCEDURES
22:32:29  21  	 --**************************************************************************
22:32:29  22  
22:32:29  23   -- Function and procedure implementations
22:32:29  24  	FUNCTION f_get_initial_pay_terms(a_ilr_id NUMBER, a_revision NUMBER) RETURN lsr_ilr_op_sch_pay_term_tab
22:32:29  25  	IS
22:32:29  26  	  l_results lsr_ilr_op_sch_pay_term_tab;
22:32:29  27  	BEGIN
22:32:29  28  	  -- The buckets should be in their own table, but until that happens we're stuck with this pivot/unpivot string matching mess
22:32:29  29  	  WITH buckets
22:32:29  30  		      as (SELECT  ilr_id,
22:32:29  31  				  revision,
22:32:29  32  				  payment_term_id,
22:32:29  33  				  CASE substr(LOWER(bucket), 0, 1)
22:32:29  34  				    WHEN 'c' THEN 'contingent'
22:32:29  35  				    WHEN 'e' THEN 'executory'
22:32:29  36  				  END as bucket_type,
22:32:29  37  				  lower(bucket) as bucket,
22:32:29  38  				  bucket_amount
22:32:29  39  			  FROM lsr_ilr_payment_term
22:32:29  40  			  UNPIVOT INCLUDE NULLS (bucket_amount FOR bucket IN (c_bucket_1,
22:32:29  41  									      c_bucket_2,
22:32:29  42  									      c_bucket_3,
22:32:29  43  									      c_bucket_4,
22:32:29  44  									      c_bucket_5,
22:32:29  45  									      c_bucket_6,
22:32:29  46  									      c_bucket_7,
22:32:29  47  									      c_bucket_8,
22:32:29  48  									      c_bucket_9,
22:32:29  49  									      c_bucket_10,
22:32:29  50  									      e_bucket_1,
22:32:29  51  									      e_bucket_2,
22:32:29  52  									      e_bucket_3,
22:32:29  53  									      e_bucket_4,
22:32:29  54  									      e_bucket_5,
22:32:29  55  									      e_bucket_6,
22:32:29  56  									      e_bucket_7,
22:32:29  57  									      e_bucket_8,
22:32:29  58  									      e_bucket_9,
22:32:29  59  									      e_bucket_10))
22:32:29  60  			  WHERE ilr_id = a_ilr_id
22:32:29  61  			  AND revision = a_revision),
22:32:29  62  		      variable_payments
22:32:29  63  		      AS (SELECT  var_payment.ilr_id,
22:32:29  64  				  var_payment.revision,
22:32:29  65  				  var_payment.payment_term_id,
22:32:29  66  				  var_payment.variable_payment_id,
22:32:29  67  				  pay_term.bucket,
22:32:29  68  				  pay_term.bucket_amount
22:32:29  69  			  FROM lsr_ilr_payment_term_var_pay var_payment
22:32:29  70  			  JOIN buckets pay_term
22:32:29  71  			    ON var_payment.ilr_id = pay_term.ilr_id
22:32:29  72  			    AND var_payment.revision = pay_term.revision
22:32:29  73  			    AND var_payment.payment_term_id = pay_term.payment_term_id
22:32:29  74  			    AND LOWER(substr(var_payment.receivable_type, 0, 1)) || '_bucket_' || bucket_number = lower(pay_term.bucket)
22:32:29  75  			  WHERE var_payment.incl_in_initial_measure = 1
22:32:29  76  			  AND var_payment.ilr_id = a_ilr_id
22:32:29  77  			  AND var_payment.revision = a_revision)
22:32:29  78  		      SELECT lsr_ilr_op_sch_pay_term( freq.payment_month_freq,
22:32:29  79  						      pay_term.payment_term_date,
22:32:29  80  						      pay_term.number_of_terms,
22:32:29  81  						      pay_term.payment_amount + SUM(pay_term.add_payment_amount),
22:32:29  82  						      CAST(COLLECT(pay_term.contingent_bucket) AS lsr_bucket_amount_tab),
22:32:29  83  						      CAST(COLLECT(pay_term.executory_bucket) AS lsr_bucket_amount_tab),
22:32:29  84  					  lease.pre_payment_sw)
22:32:29  85  	  BULK COLLECT INTO l_results
22:32:29  86  		      FROM (SELECT  terms.payment_term_date,
22:32:29  87  				    terms.number_of_terms,
22:32:29  88  				    terms.payment_freq_id,
22:32:29  89  				    terms.payment_amount,
22:32:29  90  				    terms.ilr_id,
22:32:29  91  				    CASE
22:32:29  92  				      WHEN var_pay.ilr_id IS NULL
22:32:29  93  					THEN 0
22:32:29  94  				      WHEN var_pay.variable_payment_id IS NULL
22:32:29  95  					THEN SUM(var_pay.bucket_amount) OVER (PARTITION BY  var_pay.ilr_id,
22:32:29  96  											    var_pay.revision,
22:32:29  97  											    var_pay.payment_term_id)
22:32:29  98  				      ELSE pkg_lessor_var_payments.f_calc_var_payment_initial_amt(var_pay.variable_payment_id,
22:32:29  99  												  terms.ilr_id,
22:32:29 100  												  terms.revision)
22:32:29 101  				    END AS add_payment_amount,
22:32:29 102  				    CASE buckets.bucket_type
22:32:29 103  				      WHEN 'contingent'
22:32:29 104  					THEN lsr_bucket_amount(buckets.bucket,	CASE
22:32:29 105  										  WHEN var_pay.ilr_id IS NULL
22:32:29 106  										    THEN buckets.bucket_amount
22:32:29 107  										  ELSE buckets.bucket_amount - var_pay.bucket_amount
22:32:29 108  										END)
22:32:29 109  				    END AS contingent_bucket,
22:32:29 110  				    CASE buckets.bucket_type
22:32:29 111  				      WHEN 'executory'
22:32:29 112  				      THEN lsr_bucket_amount( buckets.bucket,
22:32:29 113  							      CASE
22:32:29 114  								WHEN var_pay.ilr_id IS NULL
22:32:29 115  								  THEN buckets.bucket_amount
22:32:29 116  								ELSE buckets.bucket_amount - var_pay.bucket_amount
22:32:29 117  							      END)
22:32:29 118  				    END AS executory_bucket
22:32:29 119  			    FROM lsr_ilr_payment_term terms
22:32:29 120  			    JOIN buckets on terms.ilr_id = buckets.ilr_id
22:32:29 121  					  AND terms.revision = buckets.revision
22:32:29 122  					  and terms.payment_term_id = buckets.payment_term_id
22:32:29 123  			    LEFT JOIN variable_payments var_pay ON terms.ilr_id = var_pay.ilr_id
22:32:29 124  								  AND terms.revision = var_pay.revision
22:32:29 125  								  AND terms.payment_term_id = var_pay.payment_term_id
22:32:29 126  								  AND buckets.bucket = var_pay.bucket
22:32:29 127  			    WHERE terms.ilr_id = a_ilr_id
22:32:29 128  			    AND terms.revision = a_revision) pay_term
22:32:29 129  		      JOIN ls_payment_freq freq ON pay_term.payment_freq_id = freq.payment_freq_id
22:32:29 130  		      JOIN lsr_ilr ilr ON pay_term.ilr_id = ilr.ilr_id
22:32:29 131  		      JOIN lsr_lease lease ON ilr.lease_id = lease.lease_id
22:32:29 132  		      WHERE ilr.ilr_id = a_ilr_id
22:32:29 133  		      GROUP BY	freq.payment_month_freq,
22:32:29 134  				pay_term.payment_term_date,
22:32:29 135  				pay_term.number_of_terms,
22:32:29 136  				pay_term.payment_amount,
22:32:29 137  		    lease.pre_payment_sw;
22:32:29 138  	  RETURN l_results;
22:32:29 139  	END f_get_initial_pay_terms;
22:32:29 140  
22:32:29 141  	FUNCTION f_get_rate(a_ilr_id NUMBER, a_revision NUMBER, a_rate_type_id NUMBER) RETURN NUMBER IS
22:32:29 142  	  l_msg varchar2(2000);
22:32:29 143  	  l_result NUMBER;
22:32:29 144  	BEGIN
22:32:29 145  	  SELECT rate INTO l_result
22:32:29 146  	  FROM lsr_ilr_rates R
22:32:29 147  	  JOIN lsr_ilr_rate_types rt ON R.rate_type_id = rt.rate_type_id
22:32:29 148  	  WHERE r.ilr_id = a_ilr_id
22:32:29 149  	  AND R.revision = a_revision
22:32:29 150  	  AND R.rate_type_id = a_rate_type_id;
22:32:29 151  
22:32:29 152  	  return l_result;
22:32:29 153  
22:32:29 154  	EXCEPTION
22:32:29 155  	  WHEN OTHERS THEN
22:32:29 156  	    L_MSG := SUBSTR('ERROR retrieving rate: ' || sqlerrm, 1, 2000);
22:32:29 157  	       return L_MSG;
22:32:29 158  	END f_get_rate;
22:32:29 159  
22:32:29 160  
22:32:29 161  	function F_CALC_VAR_PAYMENT_INITIAL_AMT(A_VARIABLE_PAYMENT_ID number,
22:32:29 162  						A_ILR_ID	      number,
22:32:29 163  						A_REVISION	      number) return number is
22:32:29 164  
22:32:29 165  		 L_MSG varchar2(2000);
22:32:29 166  		 L_SQLS varchar2(2000);
22:32:29 167  		 L_FORMULA varchar2(4000);
22:32:29 168  		 L_MONTH date;
22:32:29 169  		 L_RESULT number(22,8);
22:32:29 170  
22:32:29 171  	BEGIN
22:32:29 172  
22:32:29 173  	  SELECT PAYMENT_FORMULA_DB
22:32:29 174  	    INTO l_formula
22:32:29 175  	    FROM LSR_VARIABLE_PAYMENT
22:32:29 176  	    WHERE VARIABLE_PAYMENT_ID = A_VARIABLE_PAYMENT_ID;
22:32:29 177  
22:32:29 178  	    --use the first payment term month when calculating the initial amount
22:32:29 179  	    L_MONTH := F_GET_FIRST_PAYMENT_TERM_MONTH(A_ILR_ID, A_REVISION);
22:32:29 180  
22:32:29 181  	    L_MSG := '	 Executing formula: ' || L_FORMULA;
22:32:29 182  	    --PKG_PP_LOG.P_WRITE_MESSAGE(L_MSG);
22:32:29 183  
22:32:29 184  	    --This formula can only contain formula components	constants if included in initial amount
22:32:29 185  	    --So a simple select will work
22:32:29 186  	    L_SQLS := 'SELECT nvl(' || L_FORMULA || ',0)' ||
22:32:29 187  		      ' FROM (
22:32:29 188  			     SELECT to_date('|| to_char(L_MONTH,'yyyymm') || ',''yyyymm'') as month from dual
22:32:29 189  			 ) a,
22:32:29 190  			 ( select 1 as initial_amt_flag from dual) b,
22:32:29 191  			 lsr_ilr_options lio
22:32:29 192  			 where lio.ilr_id = :ilr_id
22:32:29 193  			 and lio.revision = :revision';
22:32:29 194  
22:32:29 195  	    EXECUTE IMMEDIATE L_SQLS
22:32:29 196  	     INTO L_RESULT
22:32:29 197  	     USING A_ILR_ID, A_REVISION;
22:32:29 198  
22:32:29 199  	     L_MSG := '   Got the following initial amount result: ' || to_char(L_RESULT);
22:32:29 200  	     --PKG_PP_LOG.P_WRITE_MESSAGE(L_MSG);
22:32:29 201  
22:32:29 202  	     return L_RESULT;
22:32:29 203  
22:32:29 204  	exception
22:32:29 205  	  when others then
22:32:29 206  	    L_MSG := SUBSTR('ERROR calculating variable payment initial amount: ' || sqlerrm, 1, 2000);
22:32:29 207  	       return L_MSG;
22:32:29 208  	end F_CALC_VAR_PAYMENT_INITIAL_AMT;
22:32:29 209  
22:32:29 210  	FUNCTION F_CALC_INDEX(A_COMPONENT_ID		number,
22:32:29 211  			      A_ILR_ID			number,
22:32:29 212  			      A_REVISION		number,
22:32:29 213  			      A_INITIAL_AMT_FLAG	number,
22:32:29 214  			      A_MONTH			date ) return number is
22:32:29 215  
22:32:29 216  	  L_COMPONENT_ID      number(22,0);
22:32:29 217  	  L_SQLS	      varchar2(2000);
22:32:29 218  	  L_MSG 	      varchar2(2000);
22:32:29 219  	  L_COMPONENT_AMOUNT  number(22,8);
22:32:29 220  	  L_COMPONENT_TYPE    number(1,0);
22:32:29 221  
22:32:29 222  	begin
22:32:29 223  	  --check if we're calculating an initial amount and if given month is a payment month
22:32:29 224  	  --if not calculating initial amount and not a payment month, return null to zero out the formula value
22:32:29 225  	  --if calculating an initial amount, we want to return the component value regardless of if it's a payment month or not
22:32:29 226  	  if A_INITIAL_AMT_FLAG = 0 and F_IS_PAYMENT_MONTH(A_ILR_ID, A_REVISION, A_MONTH) = false then
22:32:29 227  	    return null;
22:32:29 228  	  end if;
22:32:29 229  
22:32:29 230  	  L_COMPONENT_ID := TO_NUMBER(A_COMPONENT_ID);
22:32:29 231  
22:32:29 232  	  L_SQLS := 'SELECT amount
22:32:29 233  		      FROM (
22:32:29 234  			  SELECT amount
22:32:29 235  			  FROM lsr_index_component_values
22:32:29 236  			  WHERE formula_component_id = :component_id
22:32:29 237  			  AND effective_date <= :open_month
22:32:29 238  			  ORDER BY effective_date DESC
22:32:29 239  		      )
22:32:29 240  		      WHERE ROWNUM = 1';
22:32:29 241  
22:32:29 242  	BEGIN
22:32:29 243  	    EXECUTE IMMEDIATE L_SQLS
22:32:29 244  	      INTO L_COMPONENT_AMOUNT
22:32:29 245  	      USING L_COMPONENT_ID, A_MONTH;
22:32:29 246  	EXCEPTION
22:32:29 247  	  WHEN No_Data_Found THEN
22:32:29 248  	    RETURN 0 ;
22:32:29 249  	END;
22:32:29 250  
22:32:29 251  	  L_MSG := '   Got the following component value: ' || to_char(L_COMPONENT_AMOUNT);
22:32:29 252  	   --  PKG_PP_LOG.P_WRITE_MESSAGE(L_MSG);
22:32:29 253  
22:32:29 254  	  RETURN L_COMPONENT_AMOUNT;
22:32:29 255  	exception
22:32:29 256  	  when others then
22:32:29 257  	    L_MSG := SUBSTR('Error calculating formula index/rate component: ' || sqlerrm, 1, 2000);
22:32:29 258  	       return L_MSG;
22:32:29 259  	end F_CALC_INDEX;
22:32:29 260  
22:32:29 261  	function F_CALC_VAR_COMPONENT(A_COMPONENT_ID NUMBER,
22:32:29 262  				      A_ASSET_ID     number,
22:32:29 263  				      A_MONTH	     date) return number is
22:32:29 264  
22:32:29 265  	 L_COMPONENT_ID 	      number(22,0);
22:32:29 266  	 L_SQLS 		      varchar2(2000);
22:32:29 267  	 L_MSG			      varchar2(2000);
22:32:29 268  	 L_COMPONENT_AMOUNT	      number(22,8);
22:32:29 269  	 L_COMPONENT_NUMBER_FORMAT    number(1,0);
22:32:29 270  	 L_ARG_MONTH		      number(2,0);
22:32:29 271  	 L_ARG_YEAR		      number(4,0);
22:32:29 272  	 L_PAY_MONTH		      number(2,0);
22:32:29 273  	 L_TEMP_MONTH		      number(2,0);
22:32:29 274  	 L_TEMP_MONTH_CHAR	      varchar2(35);
22:32:29 275  	 L_CLOSEST_PAY_MONTH	     number(2,0);
22:32:29 276  	 L_LOAD_MONTH		     varchar2(35);
22:32:29 277  	 L_TEMP_MONTH_NUMBER	     number(6,0);
22:32:29 278  	 L_LOAD_MONTHS		     varchar2(254);
22:32:29 279  
22:32:29 280  	 begin
22:32:29 281  	  --get month number from A_MONTH and check if it's a payment month for any load month on the component calendar
22:32:29 282  	  L_ARG_MONTH := to_number(to_char(A_MONTH,'mm'));
22:32:29 283  	  L_ARG_YEAR := to_number(to_char(A_MONTH,'yyyy'));
22:32:29 284  
22:32:29 285  	  L_SQLS :=  'SELECT distinct PAYMENT_MONTH_NUMBER
22:32:29 286  		      FROM lsr_var_component_calendar
22:32:29 287  		      WHERE FORMULA_COMPONENT_ID = :component_id
22:32:29 288  		      AND PAYMENT_MONTH_NUMBER = :month';
22:32:29 289  
22:32:29 290  	  BEGIN
22:32:29 291  		EXECUTE IMMEDIATE L_SQLS
22:32:29 292  		  INTO L_PAY_MONTH
22:32:29 293  		  USING A_COMPONENT_ID, L_ARG_MONTH;
22:32:29 294  	    EXCEPTION
22:32:29 295  	      --if the SQL returns no data, then the passed in month is not a payment month, return null to zero out the formula
22:32:29 296  	      WHEN No_Data_Found THEN
22:32:29 297  		RETURN null ;
22:32:29 298  	    END;
22:32:29 299  
22:32:29 300  	  SELECT NUMBER_FORMAT_ID
22:32:29 301  	  INTO l_component_number_format
22:32:29 302  	  FROM LSR_FORMULA_COMPONENT
22:32:29 303  	  WHERE FORMULA_COMPONENT_ID = A_COMPONENT_ID;
22:32:29 304  
22:32:29 305  	  -- only sum the amounts if the number is not a percentage
22:32:29 306  	  IF L_COMPONENT_NUMBER_FORMAT <> 3 THEN
22:32:29 307  	    --since the calendar only has pure month numbers (2 digits), we need to relate those months to
22:32:29 308  	    --the corresponding full month numbers (6 digits) related to the component value data in LSR_VARIABLE_COMPONENT_VALUES
22:32:29 309  
22:32:29 310  	    --start the string build
22:32:29 311  	    L_LOAD_MONTHS := '(';
22:32:29 312  
22:32:29 313  	   --get the load_month_numbers from the calendar with this payment_month_number
22:32:29 314  	   for month in (select load_month_number
22:32:29 315  			  from lsr_var_component_calendar
22:32:29 316  			  where formula_component_id = A_COMPONENT_ID
22:32:29 317  			  and payment_month_number = L_ARG_MONTH)
22:32:29 318  	    loop
22:32:29 319  	      --convert so that leading 0s are added
22:32:29 320  	      L_TEMP_MONTH_CHAR := to_char(to_date(month.load_month_number,'mm'),'mm');
22:32:29 321  
22:32:29 322  	      --add the year, taking care to use previous year for any month > the passed in month
22:32:29 323  	      if month.load_month_number > L_ARG_MONTH then
22:32:29 324  		L_TEMP_MONTH_NUMBER := to_number(to_char(L_ARG_YEAR - 1) || L_TEMP_MONTH_CHAR);
22:32:29 325  	      else
22:32:29 326  		L_TEMP_MONTH_NUMBER := to_number(to_char(L_ARG_YEAR) || L_TEMP_MONTH_CHAR);
22:32:29 327  	      end if;
22:32:29 328  
22:32:29 329  	      --add month number to the string containing all full month numbers
22:32:29 330  	      L_LOAD_MONTHS := L_LOAD_MONTHS || to_char(L_TEMP_MONTH_NUMBER) || ',';
22:32:29 331  
22:32:29 332  	    end loop;
22:32:29 333  
22:32:29 334  	    --remove the last ',' and finish the string
22:32:29 335  	    L_LOAD_MONTHS := SUBSTR(L_LOAD_MONTHS, 1, LENGTH(L_LOAD_MONTHS)-1);
22:32:29 336  	    L_LOAD_MONTHS := L_LOAD_MONTHS || ')';
22:32:29 337  
22:32:29 338  	    l_sqls := 'select sum(amount) amount
22:32:29 339  		       from lsr_variable_component_values vc
22:32:29 340  		       where vc.formula_component_id = :component_id
22:32:29 341  		       and vc.asset_id = :asset_id
22:32:29 342  		       and vc.incurred_month_number in '|| L_LOAD_MONTHS || ' ' || '
22:32:29 343  		       group by vc.formula_component_id, vc.ilr_id, vc.asset_id';
22:32:29 344  
22:32:29 345  	    --retrieve the value
22:32:29 346  	    BEGIN
22:32:29 347  		EXECUTE IMMEDIATE L_SQLS
22:32:29 348  		  INTO L_COMPONENT_AMOUNT
22:32:29 349  		  USING A_COMPONENT_ID, A_ASSET_ID;
22:32:29 350  	    EXCEPTION
22:32:29 351  	      WHEN No_Data_Found THEN
22:32:29 352  		RETURN 0 ;
22:32:29 353  	    END;
22:32:29 354  
22:32:29 355  	  ELSE
22:32:29 356  	    -- if it is a percentage, retrieve the latest
22:32:29 357  	    -- this requires building a list of the incurred months for this particular payment month
22:32:29 358  	    -- then selecting the most recently loaded value
22:32:29 359  
22:32:29 360  	     --start the string build
22:32:29 361  	    L_LOAD_MONTHS := '(';
22:32:29 362  
22:32:29 363  	     --get the load_month_numbers from the calendar with this payment_month_number
22:32:29 364  	     for month in (select load_month_number
22:32:29 365  			    from lsr_var_component_calendar
22:32:29 366  			    where formula_component_id = A_COMPONENT_ID
22:32:29 367  			    and payment_month_number = L_ARG_MONTH)
22:32:29 368  	      loop
22:32:29 369  		--convert so that leading 0s are added
22:32:29 370  		L_TEMP_MONTH_CHAR := to_char(to_date(month.load_month_number,'mm'),'mm');
22:32:29 371  
22:32:29 372  		--add the year, taking care to use previous year for any month > the passed in month
22:32:29 373  		if month.load_month_number > L_ARG_MONTH then
22:32:29 374  		  L_TEMP_MONTH_NUMBER := to_number(to_char(L_ARG_YEAR - 1) || L_TEMP_MONTH_CHAR);
22:32:29 375  		else
22:32:29 376  		  L_TEMP_MONTH_NUMBER := to_number(to_char(L_ARG_YEAR) || L_TEMP_MONTH_CHAR);
22:32:29 377  		end if;
22:32:29 378  
22:32:29 379  		--add month number to the string containing all full month numbers
22:32:29 380  		L_LOAD_MONTHS := L_LOAD_MONTHS || to_char(L_TEMP_MONTH_NUMBER) || ',';
22:32:29 381  
22:32:29 382  	      end loop;
22:32:29 383  
22:32:29 384  	      --remove the last ',' and finish the string
22:32:29 385  	      L_LOAD_MONTHS := SUBSTR(L_LOAD_MONTHS, 1, LENGTH(L_LOAD_MONTHS)-1);
22:32:29 386  	      L_LOAD_MONTHS := L_LOAD_MONTHS || ')';
22:32:29 387  
22:32:29 388  	       --get the actual value from the list of load months
22:32:29 389  	      L_SQLS := ' select amount from (
22:32:29 390  			    select amount
22:32:29 391  			    from lsr_variable_component_values
22:32:29 392  			    where formula_component_id = :component_id
22:32:29 393  			    and asset_id = :asset_id
22:32:29 394  			    and incurred_month_number in '|| L_LOAD_MONTHS || '
22:32:29 395  			    order by incurred_month_number desc
22:32:29 396  			   )
22:32:29 397  			   where ROWNUM = 1'
22:32:29 398  			  ;
22:32:29 399  
22:32:29 400  	      BEGIN
22:32:29 401  		  EXECUTE IMMEDIATE L_SQLS
22:32:29 402  		    INTO L_COMPONENT_AMOUNT
22:32:29 403  		    USING A_COMPONENT_ID, A_ASSET_ID;
22:32:29 404  	      EXCEPTION
22:32:29 405  		WHEN No_Data_Found THEN
22:32:29 406  		  RETURN 0 ;
22:32:29 407  	      END;
22:32:29 408  
22:32:29 409  	  END IF;
22:32:29 410  
22:32:29 411  	  RETURN L_COMPONENT_AMOUNT;
22:32:29 412  
22:32:29 413  	 exception
22:32:29 414  	  when others then
22:32:29 415  	    L_MSG := SUBSTR('Error calculating formula variable component: ' || sqlerrm, 1, 2000);
22:32:29 416  	       return L_MSG;
22:32:29 417  	 end F_CALC_VAR_COMPONENT;
22:32:29 418  
22:32:29 419  	 --Function to calculate historic component value
22:32:29 420  	 --The A_ID argument is either ILR ID or asset ID
22:32:29 421  	 --The formula with a historic component follows the associated VP for asset or ILR level
22:32:29 422  	 --So this function must support calculating either way
22:32:29 423  	 function F_CALC_HISTORIC(A_COMPONENT_ID	  number,
22:32:29 424  				  A_ID			  number,
22:32:29 425  				  A_REVISION		  number,
22:32:29 426  				  A_ASSET_LEVEL_FLAG	  number,
22:32:29 427  				  A_SET_OF_BOOKS_ID	  number,
22:32:29 428  				  A_MONTH		  date) return number is
22:32:29 429  
22:32:29 430  	 L_SQLS 		  varchar2(5000);
22:32:29 431  	 L_MSG			  varchar2(2000);
22:32:29 432  	 L_COMPONENT_AMOUNT	  number;
22:32:29 433  	 L_ARG_MONTH		  number(2,0);
22:32:29 434  	 L_ARG_YEAR		  number(4,0);
22:32:29 435  	 L_COMPONENT_YEAR	  number(4,0);
22:32:29 436  	 L_COMPONENT_MONTH	  number(2,0);
22:32:29 437  	 L_COMPONENT_STR	  varchar2(6);
22:32:29 438  	 L_PAY_MONTH		  number(2,0);
22:32:29 439  	 L_ASSOC_BUCKET_NUMBER	  number;
22:32:29 440  	 L_ASSOC_BUCKET_STR	  varchar2(2000);
22:32:29 441  	 L_ILR_ID		  number;
22:32:29 442  	 L_MONTHS_PER_TERM	   number;
22:32:29 443  	 L_ANNUAL		   number;
22:32:29 444  	 L_SEMI_ANNUAL		   number;
22:32:29 445  	 L_QUARTERLY		   number;
22:32:29 446  	 L_MONTHLY		   number;
22:32:29 447  	 L_ACTUAL		   number;
22:32:29 448  	 L_NEXT_PAYMENT_MONTH	   varchar2(35);
22:32:29 449  	 l_term_component_pay_months VARCHAR2(2000);
22:32:29 450  	 l_temp_amount		     NUMBER;
22:32:29 451  	 l_prepay_switch	  number(1,0);
22:32:29 452  
22:32:29 453  	 TYPE T_PAYMENT_MONTHS is table of number index by varchar2(35);
22:32:29 454  
22:32:29 455  	 L_COMPONENT_CALC_MONTHS	  t_payment_months;
22:32:29 456  	 L_TERM_PAYMENT_MONTHS		     t_payment_months;
22:32:29 457  
22:32:29 458  	 begin
22:32:29 459  	   L_ARG_MONTH := to_number(to_char(A_MONTH,'mm'));
22:32:29 460  	   L_ARG_YEAR := to_number(to_char(A_MONTH,'yyyy'));
22:32:29 461  
22:32:29 462  	   --determine if the given month is a payment month for this component
22:32:29 463  	   l_sqls :=  'SELECT distinct PAYMENT_MONTH_NUMBER
22:32:29 464  		      FROM LSR_HIST_COMPONENT_CALENDAR
22:32:29 465  		      WHERE FORMULA_COMPONENT_ID = :component_id
22:32:29 466  		      AND PAYMENT_MONTH_NUMBER = :month';
22:32:29 467  
22:32:29 468  	    BEGIN
22:32:29 469  		EXECUTE IMMEDIATE L_SQLS
22:32:29 470  		  INTO L_PAY_MONTH
22:32:29 471  		  USING A_COMPONENT_ID, L_ARG_MONTH;
22:32:29 472  	    EXCEPTION
22:32:29 473  	      --if the SQL returns no data, then the passed in month is not a payment month, return null to zero out the formula
22:32:29 474  	      WHEN No_Data_Found THEN
22:32:29 475  		RETURN null ;
22:32:29 476  	    END;
22:32:29 477  
22:32:29 478  	  --if this component is asset level, get the ILR ID
22:32:29 479  	  --A_ID will be an asset ID in this case
22:32:29 480  	  if A_ASSET_LEVEL_FLAG = 1 then
22:32:29 481  	    select ilr_id
22:32:29 482  	    INTO l_ilr_id
22:32:29 483  	    FROM lsr_asset
22:32:29 484  	    where lsr_asset_id = A_ID
22:32:29 485  	    and revision = A_REVISION;
22:32:29 486  	  else
22:32:29 487  	    L_ILR_ID := A_ID;
22:32:29 488  	  end if;
22:32:29 489  
22:32:29 490  	  SELECT pre_payment_sw INTO l_prepay_switch
22:32:29 491  	  FROM lsr_lease
22:32:29 492  	  where lease_id = (select distinct lease_id from lsr_ilr where ilr_id = l_ilr_id);
22:32:29 493  
22:32:29 494  	  --create a master list (array) of all payment months for the component
22:32:29 495  	  --this will be based on the calc months combined with the timing column, so it can only span over 2 years at most
22:32:29 496  	  --example: its 201203 and March is a payment month for Jan-Mar, with Jan timing as Previous Year and Feb-Mar as Current Year
22:32:29 497  	  --the month numbers stored would be 201101,201202,201203
22:32:29 498  	  FOR calc_month IN ( SELECT calc_month_number, TIMING
22:32:29 499  			      FROM lsr_hist_component_calendar
22:32:29 500  			      WHERE formula_component_id = a_component_id
22:32:29 501  			      and payment_month_number = L_ARG_MONTH)
22:32:29 502  	  loop
22:32:29 503  	    --extract correct year based on timing
22:32:29 504  	    if calc_month.timing = 1 then
22:32:29 505  	      L_COMPONENT_YEAR := L_ARG_YEAR;
22:32:29 506  	    elsif calc_month.timing = 2 then
22:32:29 507  	      L_COMPONENT_YEAR := L_ARG_YEAR - 1;
22:32:29 508  	    end if;
22:32:29 509  
22:32:29 510  	    --create the month number string with leading zero on the month if needed
22:32:29 511  	    L_COMPONENT_STR := to_char(L_COMPONENT_YEAR) || lpad(to_char(calc_month.calc_month_number), 2, '0');
22:32:29 512  
22:32:29 513  	    --add the full month number to the master list
22:32:29 514  	    --the index is the month number string, which is all we care about
22:32:29 515  	    --so the value associated is just a dummy- use the calc_month_number
22:32:29 516  	    L_COMPONENT_CALC_MONTHS(L_COMPONENT_STR) := calc_month.calc_month_number;
22:32:29 517  
22:32:29 518  	  end loop;
22:32:29 519  
22:32:29 520  	   --set the variables for payment frequency types
22:32:29 521  	   L_ANNUAL := 1;
22:32:29 522  	   L_SEMI_ANNUAL := 2;
22:32:29 523  	   L_QUARTERLY := 3;
22:32:29 524  	   L_MONTHLY := 4;
22:32:29 525  	   L_ACTUAL := 5;
22:32:29 526  
22:32:29 527  	  --initialize the amount
22:32:29 528  	  L_COMPONENT_AMOUNT := 0;
22:32:29 529  
22:32:29 530  	  --loop over the payment terms
22:32:29 531  	  for payment_term in (select payment_term_id,
22:32:29 532  				      payment_term_type_id,
22:32:29 533  				      payment_term_date,
22:32:29 534  				      payment_freq_id,
22:32:29 535  				      number_of_terms
22:32:29 536  			       FROM lsr_ilr_payment_term
22:32:29 537  			       WHERE ilr_id = l_ilr_id
22:32:29 538  			       AND revision = a_revision
22:32:29 539  			       order by payment_term_date)
22:32:29 540  	  loop
22:32:29 541  	    --reset the string to hold the months as well as the string to hold associated buckets to sum
22:32:29 542  	    L_TERM_COMPONENT_PAY_MONTHS := '(';
22:32:29 543  	    L_ASSOC_BUCKET_STR := '(';
22:32:29 544  
22:32:29 545  	    --get the buckets for the VP associated to this component in this payment term
22:32:29 546  	    FOR bucket IN (SELECT bucket_number
22:32:29 547  			   FROM lsr_ilr_payment_term_var_pay ptvp
22:32:29 548  			   INNER JOIN lsr_historic_component_values hcv
22:32:29 549  			     on hcv.formula_component_id = A_COMPONENT_ID
22:32:29 550  			     and hcv.variable_payment_id = ptvp.variable_payment_id
22:32:29 551  			   where ptvp.ilr_id = L_ILR_ID
22:32:29 552  			   and ptvp.revision = A_REVISION
22:32:29 553  			   and payment_term_id = payment_term.payment_term_id)
22:32:29 554  	     loop
22:32:29 555  	       L_ASSOC_BUCKET_STR := L_ASSOC_BUCKET_STR || 'sum(contingent_paid' || to_char(bucket.bucket_number) || ')+';
22:32:29 556  	     end loop;
22:32:29 557  
22:32:29 558  	     --if the VP is not associated to any buckets for this term, go to the next loop
22:32:29 559  	     --the string will only have the leading paren if this is the case
22:32:29 560  	     if LENGTH(L_ASSOC_BUCKET_STR) = 1 then
22:32:29 561  	       continue;
22:32:29 562  	     end if;
22:32:29 563  
22:32:29 564  	     --trim the final + from the bucket string and add the trailing paren
22:32:29 565  	    L_ASSOC_BUCKET_STR := SUBSTR(L_ASSOC_BUCKET_STR, 1, LENGTH(L_ASSOC_BUCKET_STR)-1) || ')';
22:32:29 566  
22:32:29 567  	    --create a list of months in this payment term that are calculation months for the historic component
22:32:29 568  	    --	i.e. if the component calcs jan-mar to pay in mar, then get the month numbers from this payment term for jan-mar
22:32:29 569  	    --	if instead feb was the payment term start date, then this prevents double counting, as it would have been calced in a previous loop
22:32:29 570  	    --	in that case, we'd only add feb and mar to the list since jan would have been included in the sum already
22:32:29 571  
22:32:29 572  	    --set the number of months per term for this payment term
22:32:29 573  	     if payment_term.payment_freq_id = L_ANNUAL then
22:32:29 574  	       L_MONTHS_PER_TERM := 12;
22:32:29 575  	     elsif payment_term.payment_freq_id = L_SEMI_ANNUAL then
22:32:29 576  	       L_MONTHS_PER_TERM := 6;
22:32:29 577  	     elsif payment_term.payment_freq_id = L_QUARTERLY then
22:32:29 578  	       L_MONTHS_PER_TERM := 3;
22:32:29 579  	     elsif payment_term.payment_freq_id = L_MONTHLY or payment_term.payment_freq_id = L_ACTUAL then
22:32:29 580  	       L_MONTHS_PER_TERM := 1;
22:32:29 581  	     end if;
22:32:29 582  
22:32:29 583  	     --loop over the number of terms and check if payment months coincide with component payment months
22:32:29 584  	     --if so, add those months to a string to be used in summing the component value
22:32:29 585  	     for term in 1..payment_term.number_of_terms
22:32:29 586  	       loop
22:32:29 587  		 --add months to payment_term_date based on payment frequency and current term number
22:32:29 588  		 --subtract 1 month from the start month because add_months appends to the end, which would throw everything off by 1 month
22:32:29 589  		 IF l_prepay_switch = 0 THEN
22:32:29 590  		    l_next_payment_month := to_char(add_months(add_months(payment_term.payment_term_date,-1), l_months_per_term*TERM),'yyyymm');
22:32:29 591  		 ELSE
22:32:29 592  		    l_next_payment_month := to_char(add_months(payment_term.payment_term_date, l_months_per_term * (term - 1)), 'yyyymm');
22:32:29 593  		 END IF;
22:32:29 594  
22:32:29 595  		 --check if this payment month is in the component calc months
22:32:29 596  		 if L_COMPONENT_CALC_MONTHS.EXISTS(L_NEXT_PAYMENT_MONTH) then
22:32:29 597  		   L_TERM_COMPONENT_PAY_MONTHS := L_TERM_COMPONENT_PAY_MONTHS || L_NEXT_PAYMENT_MONTH || ',';
22:32:29 598  		 end if;
22:32:29 599  
22:32:29 600  	     end loop;
22:32:29 601  
22:32:29 602  	    --if no months were added to the string, proceed to the next loop
22:32:29 603  	    if LENGTH(L_TERM_COMPONENT_PAY_MONTHS) = 1 then
22:32:29 604  	      continue;
22:32:29 605  	    end if;
22:32:29 606  
22:32:29 607  	    --finish the string holding the months - remove the trailing , and add the final )
22:32:29 608  	    L_TERM_COMPONENT_PAY_MONTHS := SUBSTR(L_TERM_COMPONENT_PAY_MONTHS, 1, LENGTH(L_TERM_COMPONENT_PAY_MONTHS)-1) || ')';
22:32:29 609  
22:32:29 610  	    --now sum the buckets over the months from this payment term which are also calc months for the component
22:32:29 611  	    --if asset level, select from the asset schedule
22:32:29 612  	    --otherwise, select from the ilr_schedule
22:32:29 613  	    if A_ASSET_LEVEL_FLAG = 1 then
22:32:29 614  	      l_sqls := 'select ' || l_assoc_bucket_str || ' ' ||
22:32:29 615  			'from LSR_ASSET_SCHEDULE_TMP ' ||
22:32:29 616  			'where lsr_asset_id = :a_asset_id ' ||
22:32:29 617  			'and revision = :a_revision ' ||
22:32:29 618  			'and set_of_books_id = :a_set_of_books_id ' ||
22:32:29 619  			'and to_char(month,''yyyymm'') in ' || L_TERM_COMPONENT_PAY_MONTHS;
22:32:29 620  
22:32:29 621  	       execute immediate L_SQLS
22:32:29 622  	       into L_TEMP_AMOUNT
22:32:29 623  	       using A_ID, A_REVISION, A_SET_OF_BOOKS_ID;
22:32:29 624  
22:32:29 625  	     else
22:32:29 626  	       l_sqls := 'select ' || l_assoc_bucket_str || ' ' ||
22:32:29 627  			'from LSR_ILR_SCHEDULE ' ||
22:32:29 628  			'where ilr_id = :a_ilr_id ' ||
22:32:29 629  			'and revision = :a_revision ' ||
22:32:29 630  			'and set_of_books_id = :a_set_of_books_id ' ||
22:32:29 631  			'and to_char(month,''yyyymm'') in ' || L_TERM_COMPONENT_PAY_MONTHS;
22:32:29 632  
22:32:29 633  	       execute immediate L_SQLS
22:32:29 634  	       into L_TEMP_AMOUNT
22:32:29 635  	       using L_ILR_ID, A_REVISION, A_SET_OF_BOOKS_ID;
22:32:29 636  
22:32:29 637  	     end if;
22:32:29 638  
22:32:29 639  	    --add the sum to the running total
22:32:29 640  	    L_COMPONENT_AMOUNT := L_COMPONENT_AMOUNT + L_TEMP_AMOUNT;
22:32:29 641  
22:32:29 642  	  end loop;
22:32:29 643  
22:32:29 644  	  --all done, just return the calculated amount
22:32:29 645  	  return L_COMPONENT_AMOUNT;
22:32:29 646  
22:32:29 647  	 exception
22:32:29 648  	   when others then
22:32:29 649  	     return 'Error! ' + sqlerrm;
22:32:29 650  	 end F_CALC_HISTORIC;
22:32:29 651  
22:32:29 652  	 --Function to calculate the variable payments for an ILR in appropriate run order
22:32:29 653  	 function F_CALC_ILR_VAR_PAYMENTS(A_ILR_ID     number,
22:32:29 654  					  A_REVISION   number,
22:32:29 655  					  A_MONTH      date) return varchar2 is
22:32:29 656  
22:32:29 657  	 L_SQLS 		      varchar2(2000);
22:32:29 658  	 L_BUCKET_NAME		      varchar2(35);
22:32:29 659  	 L_MSG			      varchar2(2000);
22:32:29 660  	 L_STATUS		      varchar2(2000);
22:32:29 661  	 L_VALUE		      number(22,8);
22:32:29 662  	 l_paid_amount		      NUMBER(22,8);
22:32:29 663  
22:32:29 664  
22:32:29 665  	 CURSOR c_assets IS
22:32:29 666  		SELECT	las.ilr_id,
22:32:29 667  			las.revision,
22:32:29 668  			las.MONTH,
22:32:29 669  			las.set_of_books_id,
22:32:29 670  			las.lsr_asset_id,
22:32:29 671  			ipt.payment_term_id,
22:32:29 672  			ptvp.receivable_type,
22:32:29 673  			ptvp.bucket_number,
22:32:29 674  			ptvp.run_order,
22:32:29 675  			lvp.asset_level_formula,
22:32:29 676  			ipt.payment_term_date
22:32:29 677  	       from lsr_ilr_payment_term ipt,
22:32:29 678  		    lsr_ilr_payment_term_var_pay ptvp,
22:32:29 679  		    v_lsr_pseudo_asset_schedule las,
22:32:29 680  		    lsr_variable_payment lvp
22:32:29 681  	       WHERE las.ilr_id = A_ILR_ID
22:32:29 682  		   AND las.revision = A_REVISION
22:32:29 683  		   AND ipt.ilr_id = las.ilr_id
22:32:29 684  		   AND LOWER(ptvp.receivable_type) = 'contingent'
22:32:30 685  		   AND ptvp.ilr_id = las.ilr_id
22:32:30 686  		   AND ptvp.revision = las.revision
22:32:30 687  		   AND las.revision = ipt.revision
22:32:30 688  		   AND ptvp.incl_in_initial_measure = 0
22:32:30 689  		   AND lvp.variable_payment_id = ptvp.variable_payment_id
22:32:30 690  		   AND las.month >= ipt.payment_term_date
22:32:30 691  		   AND las.month < add_months(ipt.payment_term_date, decode(payment_freq_id, 4, 1, 3, 3, 2, 6, 1, 12) * number_of_terms)
22:32:30 692  		   AND ptvp.payment_term_id IN (
22:32:30 693  		      SELECT payment_term_id
22:32:30 694  		      FROM lsr_ilr_payment_term b
22:32:30 695  		      WHERE b.ilr_id = las.ilr_id
22:32:30 696  		      AND b.revision = las.revision
22:32:30 697  		      AND las.month >= payment_term_date
22:32:30 698  		      AND las.month < add_months(payment_term_date, decode(payment_freq_id, 4, 1, 3, 3, 2, 6, 1, 12) * number_of_terms)
22:32:30 699  		      )
22:32:30 700  		   order by las.ilr_id, las.revision, ptvp.run_order, ptvp.bucket_number, las.lsr_asset_id, las.month, ipt.payment_term_id, las.set_of_books_id;
22:32:30 701  
22:32:30 702  	 BEGIN
22:32:30 703  	    -- Variable payments are calculated during schedule processing. Using a separate process id for variable payments would end the log
22:32:30 704  	    -- for the schedule calc in the middle of the process
22:32:30 705  	    -- Use same ID for the time being to have all schedule info in one log
22:32:30 706  	   PKG_PP_LOG.P_START_LOG(f_get_pp_process_id('Lessor - ILR Schedule'));
22:32:30 707  	   L_MSG := '  Beginning variable payment calculation';
22:32:30 708  	   PKG_PP_LOG.P_WRITE_MESSAGE(L_MSG);
22:32:30 709  
22:32:30 710  --     --roll up to the schedule tables before beginning calculation
22:32:30 711  --     L_STATUS := PKG_LEASE_SCHEDULE.F_SAVE_SCHEDULES(A_MONTH);
22:32:30 712  --     if L_STATUS <> 'OK' then
22:32:30 713  --       PKG_PP_LOG.P_WRITE_MESSAGE('Saving schedule tables before VP calc failed: ' || L_STATUS);
22:32:30 714  --       L_STATUS := 'Saving schedule tables before VP calc failed:'  || L_STATUS;
22:32:30 715  --       return L_STATUS;
22:32:30 716  --     end if;
22:32:30 717  
22:32:30 718  	   l_msg := ' Clearing temporary Lessor Asset Schedule Table (LSR_ASSET_SCHEDULE_TMP)';
22:32:30 719  
22:32:30 720  	   DELETE FROM lsr_asset_schedule_tmp;
22:32:30 721  
22:32:30 722  	   L_MSG := ' Populating temporary Lessor Asset Schedule Table (LSR_ASSET_SCHEDULE_TMP)';
22:32:30 723  
22:32:30 724  	   INSERT INTO lsr_asset_schedule_tmp(lsr_asset_id,
22:32:30 725  					      revision,
22:32:30 726  					      set_of_books_id,
22:32:30 727  					      month,
22:32:30 728  					      interest_income_received,
22:32:30 729  					      interest_income_accrued,
22:32:30 730  					      interest_rental_recvd_spread,
22:32:30 731  					      beg_deferred_rev,
22:32:30 732  					      deferred_rev_activity,
22:32:30 733  					      end_deferred_rev,
22:32:30 734  					      beg_receivable,
22:32:30 735  					      end_receivable,
22:32:30 736  					      beg_lt_receivable,
22:32:30 737  					      end_lt_receivable,
22:32:30 738  					      initial_direct_cost,
22:32:30 739  					      executory_accrual1,
22:32:30 740  					      executory_accrual2,
22:32:30 741  					      executory_accrual3,
22:32:30 742  					      executory_accrual4,
22:32:30 743  					      executory_accrual5,
22:32:30 744  					      executory_accrual6,
22:32:30 745  					      executory_accrual7,
22:32:30 746  					      executory_accrual8,
22:32:30 747  					      executory_accrual9,
22:32:30 748  					      executory_accrual10,
22:32:30 749  					      executory_paid1,
22:32:30 750  					      executory_paid2,
22:32:30 751  					      executory_paid3,
22:32:30 752  					      executory_paid4,
22:32:30 753  					      executory_paid5,
22:32:30 754  					      executory_paid6,
22:32:30 755  					      executory_paid7,
22:32:30 756  					      executory_paid8,
22:32:30 757  					      executory_paid9,
22:32:30 758  					      executory_paid10,
22:32:30 759  					      contingent_accrual1,
22:32:30 760  					      contingent_accrual2,
22:32:30 761  					      contingent_accrual3,
22:32:30 762  					      contingent_accrual4,
22:32:30 763  					      contingent_accrual5,
22:32:30 764  					      contingent_accrual6,
22:32:30 765  					      contingent_accrual7,
22:32:30 766  					      contingent_accrual8,
22:32:30 767  					      contingent_accrual9,
22:32:30 768  					      contingent_accrual10,
22:32:30 769  					      contingent_paid1,
22:32:30 770  					      contingent_paid2,
22:32:30 771  					      contingent_paid3,
22:32:30 772  					      contingent_paid4,
22:32:30 773  					      contingent_paid5,
22:32:30 774  					      contingent_paid6,
22:32:30 775  					      contingent_paid7,
22:32:30 776  					      contingent_paid8,
22:32:30 777  					      contingent_paid9,
22:32:30 778  					      contingent_paid10)
22:32:30 779  	   SELECT sch.lsr_asset_id,
22:32:30 780  		  sch.revision,
22:32:30 781  		  sch.set_of_books_id,
22:32:30 782  		  sch.month,
22:32:30 783  		  sch.interest_income_received,
22:32:30 784  		  sch.interest_income_accrued,
22:32:30 785  		  sch.interest_rental_recvd_spread,
22:32:30 786  		  sch.beg_deferred_rev,
22:32:30 787  		  sch.deferred_rev_activity,
22:32:30 788  		  sch.end_deferred_rev,
22:32:30 789  		  sch.beg_receivable,
22:32:30 790  		  sch.end_receivable,
22:32:30 791  		  sch.beg_lt_receivable,
22:32:30 792  		  sch.end_lt_receivable,
22:32:30 793  		  sch.initial_direct_cost,
22:32:30 794  		  sch.executory_accrual1,
22:32:30 795  		  sch.executory_accrual2,
22:32:30 796  		  sch.executory_accrual3,
22:32:30 797  		  sch.executory_accrual4,
22:32:30 798  		  sch.executory_accrual5,
22:32:30 799  		  sch.executory_accrual6,
22:32:30 800  		  sch.executory_accrual7,
22:32:30 801  		  sch.executory_accrual8,
22:32:30 802  		  sch.executory_accrual9,
22:32:30 803  		  sch.executory_accrual10,
22:32:30 804  		  sch.executory_paid1,
22:32:30 805  		  sch.executory_paid2,
22:32:30 806  		  sch.executory_paid3,
22:32:30 807  		  sch.executory_paid4,
22:32:30 808  		  sch.executory_paid5,
22:32:30 809  		  sch.executory_paid6,
22:32:30 810  		  sch.executory_paid7,
22:32:30 811  		  sch.executory_paid8,
22:32:30 812  		  sch.executory_paid9,
22:32:30 813  		  sch.executory_paid10,
22:32:30 814  		  sch.contingent_accrual1,
22:32:30 815  		  sch.contingent_accrual2,
22:32:30 816  		  sch.contingent_accrual3,
22:32:30 817  		  sch.contingent_accrual4,
22:32:30 818  		  sch.contingent_accrual5,
22:32:30 819  		  sch.contingent_accrual6,
22:32:30 820  		  sch.contingent_accrual7,
22:32:30 821  		  sch.contingent_accrual8,
22:32:30 822  		  sch.contingent_accrual9,
22:32:30 823  		  sch.contingent_accrual10,
22:32:30 824  		  sch.contingent_paid1,
22:32:30 825  		  sch.contingent_paid2,
22:32:30 826  		  sch.contingent_paid3,
22:32:30 827  		  sch.contingent_paid4,
22:32:30 828  		  sch.contingent_paid5,
22:32:30 829  		  sch.contingent_paid6,
22:32:30 830  		  sch.contingent_paid7,
22:32:30 831  		  sch.contingent_paid8,
22:32:30 832  		  sch.contingent_paid9,
22:32:30 833  		  sch.contingent_paid10
22:32:30 834  	   FROM v_lsr_pseudo_asset_schedule sch
22:32:30 835  	   WHERE ilr_id = a_ilr_id
22:32:30 836  	   AND revision = a_revision;
22:32:30 837  
22:32:30 838  	    delete from lsr_ilr_payment_month_tmp;
22:32:30 839  
22:32:30 840  	    INSERT INTO lsr_ilr_payment_month_tmp
22:32:30 841  	    SELECT MONTH
22:32:30 842  	    FROM TABLE(pkg_lessor_schedule.f_get_payment_info_from_terms(pkg_lessor_schedule.f_get_payment_terms(a_ilr_id, a_revision)))
22:32:30 843  	    where mod(iter, payment_month_frequency) = 0;
22:32:30 844  
22:32:30 845  	   --loop over every row in the cursor
22:32:30 846  	   for asset in c_assets
22:32:30 847  	     loop
22:32:30 848  	       --call the function to calc the formula
22:32:30 849  	       --check if the current month is a payment month, if not then don't calc anything
22:32:30 850  	       --formulas with components will handle this correctly on their own,
22:32:30 851  	       -- but formulas with only amounts and/or schedule fields will not, so we handle them here
22:32:30 852  	       if F_IS_PAYMENT_MONTH(A_ILR_ID, A_REVISION, asset.month) then
22:32:30 853  		  L_VALUE := F_CALC_ASSET_BUCKET(asset.ilr_id, asset.lsr_asset_id, asset.revision, asset.set_of_books_id,
22:32:30 854  						 asset.payment_term_id, asset.bucket_number, asset.month,'SCHEDULE') ;
22:32:30 855  	       else
22:32:30 856  		 L_VALUE := 0;
22:32:30 857  	       end if;
22:32:30 858  
22:32:30 859  	       --update the bucket accrual column
22:32:30 860  	       L_BUCKET_NAME := 'CONTINGENT_ACCRUAL' || to_char(asset.bucket_number);
22:32:30 861  
22:32:30 862  	       L_SQLS := 'UPDATE LSR_ASSET_SCHEDULE_TMP
22:32:30 863  			 SET ' || L_BUCKET_NAME || ' = :value
22:32:30 864  			  WHERE lsr_asset_id = :asset_id
22:32:30 865  			  AND revision = :revision
22:32:30 866  			  AND set_of_books_id = :set_of_books_id
22:32:30 867  			  AND month = :month';
22:32:30 868  
22:32:30 869  		EXECUTE IMMEDIATE l_sqls
22:32:30 870  		  USING L_VALUE, asset.LSR_ASSET_ID, asset.REVISION, asset.SET_OF_BOOKS_ID, to_char(asset.MONTH);
22:32:30 871  
22:32:30 872  	       --update the bucket paid column
22:32:30 873  	       --  if asset-level formula, update no matter what
22:32:30 874  	       L_BUCKET_NAME := 'CONTINGENT_PAID' || to_char(asset.bucket_number);
22:32:30 875  	       if asset.asset_level_formula = 1 then
22:32:30 876  
22:32:30 877  		 L_SQLS := 'UPDATE LSR_ASSET_SCHEDULE_TMP
22:32:30 878  			   SET ' || L_BUCKET_NAME || ' = :value
22:32:30 879  			    WHERE lsr_asset_id = :asset_id
22:32:30 880  			    AND revision = :revision
22:32:30 881  			    AND set_of_books_id = :set_of_books_id
22:32:30 882  			    AND month = :month';
22:32:30 883  
22:32:30 884  		 EXECUTE IMMEDIATE l_sqls
22:32:30 885  		  USING L_VALUE, asset.LSR_ASSET_ID, asset.REVISION, asset.SET_OF_BOOKS_ID, to_char(asset.MONTH);
22:32:30 886  
22:32:30 887  	       elsif asset.asset_level_formula = 0 then
22:32:30 888  		 --  if ILR-level formula, calc the paid amount and update
22:32:30 889  		 --  for formulas w/ index/rate components, paid amount will be 0 in non payment month, and full amount in payment month (matches accrual)
22:32:30 890  		 --  for formulas w/ schedule fields, we need to use the function so that payment follows the payment term frequency
22:32:30 891  
22:32:30 892  		 L_PAID_AMOUNT := F_CALC_ASSET_PAID_AMOUNT(asset.lsr_asset_id, asset.revision, asset.month, asset.bucket_number, asset.set_of_books_id);
22:32:30 893  
22:32:30 894  		 L_SQLS := 'UPDATE LSR_ASSET_SCHEDULE_TMP
22:32:30 895  			   SET ' || L_BUCKET_NAME || ' = :value
22:32:30 896  			    WHERE lsr_asset_id = :asset_id
22:32:30 897  			    AND revision = :revision
22:32:30 898  			    AND set_of_books_id = :set_of_books_id
22:32:30 899  			    AND month = :month';
22:32:30 900  
22:32:30 901  		 EXECUTE IMMEDIATE l_sqls
22:32:30 902  		  USING L_PAID_AMOUNT, asset.LSR_ASSET_ID, asset.REVISION, asset.SET_OF_BOOKS_ID, to_char(asset.MONTH);
22:32:30 903  	       else
22:32:30 904  		 return 'Formula has no value denoting asset-level or ILR-level';
22:32:30 905  	       end if;
22:32:30 906  
22:32:30 907  	       --call the update function to roll up the staging tables to the live tables
22:32:30 908  	       --this ensures the next calculation uses the most up to date numbers
22:32:30 909  	       L_STATUS := F_UPDATE_SCHEDULE_TABLES(A_ILR_ID, asset.month, A_REVISION);
22:32:30 910  	       --L_STATUS := PKG_LEASE_SCHEDULE.F_SAVE_SCHEDULES(A_MONTH);
22:32:30 911  	       if L_STATUS <> 'OK' then
22:32:30 912  		 PKG_PP_LOG.P_WRITE_MESSAGE('Updating schedule tables during VP calc failed: ' || L_STATUS);
22:32:30 913  		 L_STATUS := 'Updating schedule tables during VP calc failed: ' || L_STATUS;
22:32:30 914  		 return L_STATUS;
22:32:30 915  	       end if;
22:32:30 916  
22:32:30 917  	    end loop;
22:32:30 918  
22:32:30 919  	    return 'OK';
22:32:30 920  
22:32:30 921  	exception
22:32:30 922  	  when zero_divide then
22:32:30 923  	     L_MSG := 'Variable payment calculation error: divide by zero. Ensure formula components used in division are non-zero';
22:32:30 924  	     return L_MSG;
22:32:30 925  	  when others then
22:32:30 926  	    l_msg := substr('ERROR calculating variable payments: ' || sqlerrm, 1, 2000);
22:32:30 927  	       return L_MSG;
22:32:30 928  	 end F_CALC_ILR_VAR_PAYMENTS;
22:32:30 929  
22:32:30 930  	 -- Function to calculate variable payments for all staged ILRs
22:32:30 931  	 function F_CALC_ALL_VAR_PAYMENTS(A_MONTH date) return varchar2 is
22:32:30 932  	   L_SQLS			varchar2(2000);
22:32:30 933  	   L_MSG			varchar2(2000);
22:32:30 934  	   L_STATUS			varchar2(2000);
22:32:30 935  	   L_DEL_STATUS 		varchar2(2000);
22:32:30 936  
22:32:30 937  	   cursor STAGED_ILRS is
22:32:30 938  		SELECT DISTINCT ilr_id, revision
22:32:30 939  		FROM lsr_ilr_schedule
22:32:30 940  		WHERE MONTH = a_month;
22:32:30 941  
22:32:30 942  	 BEGIN
22:32:30 943  	    -- Variable payments are calculated during schedule processing. Using a separate process id for variable payments would end the log
22:32:30 944  	    -- for the schedule calc in the middle of the process
22:32:30 945  	    -- Use same ID for the time being to have all schedule info in one log
22:32:30 946  	   PKG_PP_LOG.P_START_LOG(f_get_pp_process_id('Lessor - ILR Schedule'));
22:32:30 947  	   PKG_PP_LOG.P_WRITE_MESSAGE('Starting var payment calc for all staged ILRs');
22:32:30 948  
22:32:30 949  
22:32:30 950  	   for STAGED_ILR in STAGED_ILRS
22:32:30 951  	     loop
22:32:30 952  	       L_MSG := ' Calculating variable payments for ILR with ID: ' || to_char(STAGED_ILR.ILR_ID);
22:32:30 953  
22:32:30 954  	       L_STATUS := F_CALC_ILR_VAR_PAYMENTS(STAGED_ILR.ILR_ID, STAGED_ILR.REVISION, A_MONTH);
22:32:30 955  
22:32:30 956  	       IF L_STATUS <> 'OK' THEN
22:32:30 957  		 L_MSG := 'Calculation of variable payments failed for ILR ID: ' || to_char(STAGED_ILR.ILR_ID) || ' with message : ' || L_STATUS;
22:32:30 958  
22:32:30 959  --	   --clear the staging tables since the schedule build will end now
22:32:30 960  --	   L_STATUS := PKG_LEASE_SCHEDULE.F_CLEAR_STAGING_TABLES;
22:32:30 961  --	   if L_STATUS <> 'OK' then
22:32:30 962  --	     PKG_PP_LOG.P_WRITE_MESSAGE(L_STATUS);
22:32:30 963  --	   end if;
22:32:30 964  
22:32:30 965  		 --return the constructed error message
22:32:30 966  		 return L_MSG;
22:32:30 967  	       END IF;
22:32:30 968  
22:32:30 969  	     end loop;
22:32:30 970  
22:32:30 971  
22:32:30 972  	   return 'OK';
22:32:30 973  
22:32:30 974  	 exception
22:32:30 975  	  when others then
22:32:30 976  	    L_MSG := SUBSTR('ERROR calculating variable payments: ' || sqlerrm, 1, 2000);
22:32:30 977  	       return L_MSG;
22:32:30 978  
22:32:30 979  	 end F_CALC_ALL_VAR_PAYMENTS;
22:32:30 980  
22:32:30 981  
22:32:30 982  	 --**************************************************************************
22:32:30 983  	 --  F_CALC_ASSET_BUCKET.
22:32:30 984  	 -- This function calculates the variable payments for the passed in arguments.
22:32:30 985  	 -- If the variable payment type is variable component, lsr_asset_schedule is used
22:32:30 986  	 -- else lsr_ilr_schedule is used for calculations
22:32:30 987  	 --**************************************************************************
22:32:30 988  
22:32:30 989  	 function F_CALC_ASSET_BUCKET( A_ILR_ID number, A_ASSET_ID number, A_REVISION number, A_SET_OF_BOOKS_ID number, A_PAYMENT_TERM_ID number, A_BUCKET_NUMBER number, A_MONTH date, A_PROCESS_TYPE varchar2) return number is
22:32:30 990  	 L_MSG varchar2(100);
22:32:30 991  	 l_formula_db varchar2(4000);
22:32:30 992  	 l_asset_level_formula number(1,0);
22:32:30 993  	 l_amount number(22,2);
22:32:30 994  	 l_sqls varchar2(8000);
22:32:30 995  	 l_asset_fmv number; l_ilr_current_cost number; l_asset_npv number;
22:32:30 996  
22:32:30 997  	    begin
22:32:30 998  	      SELECT lvp.payment_formula_db, asset_level_formula INTO l_formula_db, l_asset_level_formula
22:32:30 999  	     from lsr_variable_payment lvp, lsr_ilr_payment_term_var_pay ptvp
22:32:30 1000  	      where ptvp.ilr_id = A_ILR_ID
22:32:30 1001  		 and ptvp.revision = A_REVISION
22:32:30 1002  		 AND ptvp.payment_term_id = a_payment_term_id
22:32:30 1003  		 and lower(ptvp.receivable_type) = 'contingent'
22:32:30 1004  		 and ptvp.bucket_number = A_BUCKET_NUMBER
22:32:30 1005  		 and ptvp.variable_payment_id = lvp.variable_payment_id;
22:32:30 1006  
22:32:30 1007  
22:32:30 1008  	    begin
22:32:30 1009  	      if l_asset_level_formula = 1 then
22:32:30 1010  		--calculate the formula for the assets
22:32:30 1011  		l_sqls := 'SELECT nvl(' || l_formula_db || ', 0)' ;
22:32:30 1012  		--Note there's no need for a temp table on the sales/direct schedule table, as none of the fields are manipulated by var payments
22:32:30 1013  		IF a_process_type = 'MONTH_END' THEN
22:32:30 1014  		  l_sqls := l_sqls || ' FROM LSR_ASSET_SCHEDULE_TMP a, V_LSR_PSEUDO_ASSET_SCH_SALES sales, V_LSR_PSEUDO_ASSET_SCH_DIRECT direct, LSR_ILR_OPTIONS LIO, LSR_ILR_AMOUNTS calc, (select 0 as initial_amt_flag from dual) b';
22:32:30 1015  		ELSE
22:32:30 1016  		  L_SQLS := L_SQLS || ' FROM LSR_ASSET_SCHEDULE_TMP a, V_LSR_PSEUDO_ASSET_SCH_SALES sales, V_LSR_PSEUDO_ASSET_SCH_DIRECT direct, LSR_ILR_OPTIONS LIO, LSR_ILR_AMOUNTS calc, (select 0 as initial_amt_flag from dual) b';
22:32:30 1017  
22:32:30 1018  		end if;
22:32:30 1019  
22:32:30 1020  		L_SQLS := L_SQLS || '  WHERE a.LSR_ASSET_ID = :A_ASSET_ID
22:32:30 1021  			      AND a.revision = :A_REVISION
22:32:30 1022  			      AND a.MONTH = :A_MONTH
22:32:30 1023  			      and a.SET_OF_BOOKS_ID = :A_SET_OF_BOOKS_ID
22:32:30 1024  			      AND LIO.ILR_ID = :A_ILR_ID
22:32:30 1025  			      AND LIO.REVISION = A.REVISION
22:32:30 1026  			      AND a.LSR_ASSET_ID = sales.LSR_ASSET_ID (+)
22:32:30 1027  			      AND a.REVISION = sales.REVISION (+)
22:32:30 1028  			      AND a.SET_OF_BOOKS_ID = sales.SET_OF_BOOKS_ID (+)
22:32:30 1029  			      AND a.MONTH = sales.MONTH (+)
22:32:30 1030  						  AND A.LSR_ASSET_ID = direct.LSR_ASSET_ID (+)
22:32:30 1031  						  AND A.REVISION = direct.REVISION (+)
22:32:30 1032  						  AND A.SET_OF_BOOKS_ID = direct.SET_OF_BOOKS_ID (+)
22:32:30 1033  						  AND A.MONTH = direct.MONTH (+)
22:32:30 1034  			      AND LIO.ILR_ID = calc.ILR_ID
22:32:30 1035  			      AND a.REVISION = calc.REVISION
22:32:30 1036  			      AND a.SET_OF_BOOKS_ID = calc.SET_OF_BOOKS_ID';
22:32:30 1037  
22:32:30 1038  		   EXECUTE IMMEDIATE L_SQLS
22:32:30 1039  		   INTO L_AMOUNT
22:32:30 1040  		   USING A_ASSET_ID, A_REVISION, A_MONTH, A_SET_OF_BOOKS_ID, A_ILR_ID;
22:32:30 1041  
22:32:30 1042  	      else
22:32:30 1043  		---calculate the formula for the asset by first calculating the npv ratio and then
22:32:30 1044  		-- evaluate the formula at ILR level and then apply tha to the variable payment
22:32:30 1045  	       SELECT fair_market_value,
22:32:30 1046  		       current_lease_cost,
22:32:30 1047  		       (fair_market_value/current_lease_cost)
22:32:30 1048  	       INTO  l_asset_fmv,
22:32:30 1049  		     l_ilr_current_cost,
22:32:30 1050  		     l_asset_npv
22:32:30 1051  	       FROM (SELECT  ilr_id,
22:32:30 1052  			     revision,
22:32:30 1053  			     lsr_asset_id,
22:32:30 1054  			     fair_market_value,
22:32:30 1055  			     SUM(fair_market_value) OVER (PARTITION BY ilr_id, revision) AS current_lease_cost
22:32:30 1056  		     FROM lsr_asset)
22:32:30 1057  	       WHERE ilr_id = a_ilr_id
22:32:30 1058  	       AND revision = a_revision
22:32:30 1059  	       AND lsr_asset_id = a_asset_id;
22:32:30 1060  
22:32:30 1061  
22:32:30 1062  	       l_sqls := 'SELECT ' || to_char(l_asset_npv) || '* (nvl(' || l_formula_db || ',0))';
22:32:30 1063  	       IF a_process_type = 'MONTH_END' THEN
22:32:30 1064  		  L_SQLS := L_SQLS || ' FROM LSR_ILR_SCHEDULE A, LSR_ILR_SCHEDULE_SALES_DIRECT sales, LSR_ILR_SCHEDULE_DIRECT_FIN direct, LSR_ILR_AMOUNTS calc, LSR_ILR_OPTIONS LIO, (select 0 as initial_amt_flag from dual) b';
22:32:30 1065  		ELSE
22:32:30 1066  		  L_SQLS := L_SQLS || ' FROM LSR_ILR_SCHEDULE A, LSR_ILR_SCHEDULE_SALES_DIRECT sales, LSR_ILR_SCHEDULE_DIRECT_FIN direct, LSR_ILR_AMOUNTS calc, LSR_ILR_OPTIONS LIO, (select 0 as initial_amt_flag from dual) b';
22:32:30 1067  
22:32:30 1068  		end if;
22:32:30 1069  
22:32:30 1070  
22:32:30 1071  	       L_SQLS := L_SQLS ||  ' WHERE LIO.ILR_ID = :A_ILR_ID
22:32:30 1072  			      AND A.revision = :A_REVISION
22:32:30 1073  			      AND A.MONTH = :A_MONTH
22:32:30 1074  			      and A.SET_OF_BOOKS_ID = :A_SET_OF_BOOKS_ID
22:32:30 1075  			      AND A.ILR_ID = LIO.ILR_ID
22:32:30 1076  			      AND A.REVISION = LIO.REVISION
22:32:30 1077  			      AND A.ILR_ID = sales.ILR_ID (+)
22:32:30 1078  			      AND A.REVISION = sales.REVISION (+)
22:32:30 1079  			      AND A.SET_OF_BOOKS_ID = sales.SET_OF_BOOKS_ID (+)
22:32:30 1080  			      AND A.MONTH = SALES.MONTH(+)
22:32:30 1081  						  AND A.ILR_ID = direct.ILR_ID (+)
22:32:30 1082  						  AND A.REVISION = direct.REVISION (+)
22:32:30 1083  						  AND A.SET_OF_BOOKS_ID = direct.SET_OF_BOOKS_ID (+)
22:32:30 1084  						  AND A.MONTH = direct.MONTH (+)
22:32:30 1085  			      AND A.ILR_ID = CALC.ILR_ID
22:32:30 1086  			      AND A.REVISION = CALC.REVISION
22:32:30 1087  			      AND A.SET_OF_BOOKS_ID = CALC.SET_OF_BOOKS_ID';
22:32:30 1088  
22:32:30 1089  		EXECUTE IMMEDIATE L_SQLS
22:32:30 1090  		INTO L_AMOUNT
22:32:30 1091  		USING A_ILR_ID, A_REVISION, A_MONTH, A_SET_OF_BOOKS_ID;
22:32:30 1092  
22:32:30 1093  	      end if;
22:32:30 1094  
22:32:30 1095  
22:32:30 1096  	       exception when no_data_found then
22:32:30 1097  		RETURN 0 ;
22:32:30 1098  		--REMOVE THIS!!!!!!!!!!!!!!!!!!!!!!!!!!!!!!!!!!!!!!!!!!!!!!!!!!!!!!!!!!!!!!!!!!!!!!!!!!!!!!
22:32:30 1099  		--WHEN zero_divide then return 0;
22:32:30 1100  
22:32:30 1101  	      end;
22:32:30 1102  
22:32:30 1103  
22:32:30 1104  	      return L_AMOUNT;
22:32:30 1105  
22:32:30 1106  	    end F_CALC_ASSET_BUCKET;
22:32:30 1107  
22:32:30 1108  
22:32:30 1109  	  --**************************************************************************
22:32:30 1110  	  --  F_CALC_ASSET_BUCKETS_MONTH_END.
22:32:30 1111  	  -- This function calculates accrual and paid contingent buckets for all assets
22:32:30 1112  	  -- for a given company id. The buckets are then rolled up to the ILRs
22:32:30 1113  	  --**************************************************************************
22:32:30 1114  
22:32:30 1115  	  function F_CALC_ASSET_BUCKETS_MONTH_END(A_COMPANY_ID in number, A_MONTH in date, CALC_TYPE varchar2) return varchar2 is
22:32:30 1116  	      CURSOR c_assets IS
22:32:30 1117  		SELECT lsr_ilr.ilr_id,
22:32:30 1118  		       lsr_asset.lsr_asset_id,
22:32:30 1119  		       lsr_ilr.current_revision,
22:32:30 1120  		       csob.set_of_books_id,
22:32:30 1121  		       ipt.payment_term_id,
22:32:30 1122  		       ptvp.receivable_type,
22:32:30 1123  		       ptvp.bucket_number,
22:32:30 1124  		       ptvp.run_order,
22:32:30 1125  		       ptvp.incl_in_initial_measure,
22:32:30 1126  		       CASE ptvp.incl_in_initial_measure
22:32:30 1127  			 WHEN 1
22:32:30 1128  			   THEN pkg_lessor_var_payments.f_calc_var_payment_initial_amt(ptvp.VARIABLE_PAYMENT_ID, ptvp.ilr_id, ptvp.revision)
22:32:30 1129  			 ELSE NULL
22:32:30 1130  		       END AS initial_var_payment_value,
22:32:30 1131  		       ipt.payment_term_date
22:32:30 1132  		FROM lsr_ilr,
22:32:30 1133  		     company_set_of_books csob,
22:32:30 1134  		     lsr_asset,
22:32:30 1135  		     lsr_ilr_payment_term ipt,
22:32:30 1136  		     lsr_ilr_payment_term_var_pay ptvp,
22:32:30 1137  		   lsr_ilr_approval lia
22:32:30 1138  		WHERE lsr_ilr.company_id = a_company_id
22:32:30 1139  		    AND lsr_ilr.ilr_id = lsr_asset.ilr_id
22:32:30 1140  		    AND lsr_ilr.current_revision = lsr_asset.revision
22:32:30 1141  		    AND csob.company_id = lsr_ilr.company_id
22:32:30 1142  		    AND lsr_asset.revision = lsr_ilr.current_revision
22:32:30 1143  		    AND ipt.ilr_id = lsr_ilr.ilr_id
22:32:30 1144  		    AND ipt.revision = lsr_ilr.current_revision
22:32:30 1145  		    AND ptvp.ilr_id = lsr_ilr.ilr_id
22:32:30 1146  		    AND ptvp.revision = lsr_ilr.current_revision
22:32:30 1147  		    AND lsr_ilr.ilr_id = lia.ilr_id
22:32:30 1148  		    AND lsr_ilr.current_revision = lia.revision
22:32:30 1149  		    AND lia.approval_status_id in (3,6)
22:32:30 1150  		    AND lower(ptvp.receivable_type) = 'contingent'
22:32:30 1151  		    AND ptvp.variable_payment_id IS NOT NULL
22:32:30 1152  		    AND A_MONTH >= ipt.payment_term_date
22:32:30 1153  		    AND A_MONTH < add_months(ipt.payment_term_date, decode(payment_freq_id, 4, 1, 3, 3, 2, 6, 1, 12) * number_of_terms)
22:32:30 1154  		    AND ptvp.payment_term_id IN (
22:32:30 1155  		       SELECT payment_term_id
22:32:30 1156  		       FROM lsr_ilr_payment_term b
22:32:30 1157  		       WHERE b.ilr_id = lsr_ilr.ilr_id
22:32:30 1158  		       AND b.revision = lsr_ilr.current_revision
22:32:30 1159  		       AND A_MONTH >= payment_term_date
22:32:30 1160  		       AND A_MONTH < add_months(payment_term_date, decode(payment_freq_id, 4, 1, 3, 3, 2, 6, 1, 12) * number_of_terms)
22:32:30 1161  		       )
22:32:30 1162  		    order by ilr_id, lsr_asset_id, current_revision, payment_term_id, bucket_number, run_order;
22:32:30 1163  
22:32:30 1164  
22:32:30 1165  	      L_MSG varchar2(100);
22:32:30 1166  	      l_amount number(22,2); L_TEMP_AMOUNT  number(22,2); l_asset_npv NUMBER(22,2);
22:32:30 1167  	      l_sqls varchar2(4000); l_temp_col varchar2(100);
22:32:30 1168  
22:32:30 1169  	      begin
22:32:30 1170  		PKG_PP_LOG.P_WRITE_MESSAGE(' Calculating Variable Payments for assets.');
22:32:30 1171  		for asset in c_assets
22:32:30 1172  		LOOP
22:32:30 1173  			       --pkg_pp_log.p_write_message(' asset.ilr_id: ' || asset.ilr_id || ' asset.asset_id: ' || asset.lsr_asset_id || ' asset.current_revision: ' || asset.current_revision || ' asset.set_of_books_id: ' || asset.set_of_books_id || ' asset.payment_term_id: ' || asset.payment_term_id || ' asset.bucket_number: ' || asset.bucket_number || ' asset.run_order: ' || asset.run_order);
22:32:30 1174  			   -- If running accruals and payments more than once, reset the buckets to their initial values
22:32:30 1175  			   l_sqls := 'update lsr_asset_schedule_tmp ';
22:32:30 1176  		  if lower(calc_type) = 'accruals' then
22:32:30 1177  		    l_temp_col:= 'contingent_accrual';
22:32:30 1178  		  else
22:32:30 1179  		    l_temp_col:= 'contingent_paid';
22:32:30 1180  		  end if;
22:32:30 1181  
22:32:30 1182  		  l_temp_col := l_temp_col || to_char(asset.bucket_number);
22:32:30 1183  
22:32:30 1184  		  l_sqls:= l_sqls || ' set ' || l_temp_col || ' = ' || to_char(nvl(asset.initial_var_payment_value,0)) ;
22:32:30 1185  		  l_sqls:= l_sqls || ' where lsr_asset_id = ' || to_char(asset.lsr_asset_id) ;
22:32:30 1186  		  l_sqls:= l_sqls || ' and revision = ' || to_char(asset.current_revision);
22:32:30 1187  		  l_sqls:= l_sqls || ' and set_of_books_id = ' || to_char(asset.set_of_books_id);
22:32:30 1188  		  l_sqls:= l_sqls || ' and month = ''' || to_char(A_MONTH, 'DD-MON-YYYY') || '''';
22:32:30 1189  
22:32:30 1190  		  begin
22:32:30 1191  		     execute immediate l_sqls;
22:32:30 1192  		  exception
22:32:30 1193  		     when no_data_found then
22:32:30 1194  		     CONTINUE;
22:32:30 1195  
22:32:30 1196  		  end;
22:32:30 1197  
22:32:30 1198  
22:32:30 1199  		   l_temp_amount := F_CALC_ASSET_BUCKET(asset.ilr_id, asset.lsr_asset_id, asset.current_revision, asset.set_of_books_id, asset.payment_term_id, asset.bucket_number, A_MONTH, 'MONTH_END' );
22:32:30 1200  
22:32:30 1201  			  --calculate gain loss if this was included in the initial measure. The initial value for the ILR must be broken based on the asset NPV
22:32:30 1202  
22:32:30 1203  		  if asset.incl_in_initial_measure = 1 then
22:32:30 1204  
22:32:30 1205  		   select nvl(la.fair_market_value,1)/nvl(la.current_lease_cost,1)
22:32:30 1206  		   INTO l_asset_npv
22:32:30 1207  		   from (select  ilr_id,
22:32:30 1208  				 revision,
22:32:30 1209  				 lsr_asset_id,
22:32:30 1210  				 fair_market_value,
22:32:30 1211  				 SUM(fair_market_value) OVER (PARTITION BY ilr_id, revision) AS current_lease_cost
22:32:30 1212  			 FROM lsr_asset la) la
22:32:30 1213  		   JOIN lsr_ilr ilr ON la.ilr_id = ilr.ilr_id AND la.revision = ilr.current_revision
22:32:30 1214  		   JOIN company_set_of_books csob ON ilr.company_id = csob.company_id
22:32:30 1215  		   WHERE la.ilr_id = asset.ilr_id
22:32:30 1216  		   AND la.revision = asset.current_revision
22:32:30 1217  		   AND csob.set_of_books_id = asset.set_of_books_id
22:32:30 1218  		   and la.lsr_asset_id = asset.lsr_asset_id;
22:32:30 1219  
22:32:30 1220  
22:32:30 1221  				 l_amount := l_temp_amount - (asset.initial_var_payment_value * l_asset_npv);
22:32:30 1222  		  else
22:32:30 1223  		     l_amount :=  l_temp_amount;
22:32:30 1224  
22:32:30 1225  		  end if;
22:32:30 1226  
22:32:30 1227  
22:32:30 1228  		  l_sqls := 'update lsr_asset_schedule_tmp ';
22:32:30 1229  		  if lower(calc_type) = 'accruals' then
22:32:30 1230  		    l_temp_col:= 'contingent_accrual';
22:32:30 1231  		  else
22:32:30 1232  		    l_temp_col:= 'contingent_paid';
22:32:30 1233  
22:32:30 1234  		  end if;
22:32:30 1235  
22:32:30 1236  
22:32:30 1237  		  l_temp_col := l_temp_col || to_char(asset.bucket_number);
22:32:30 1238  
22:32:30 1239  		  --l_sqls:= 'set ' || l_temp_col || ' = ' || l_temp_col || ' + ' ||  to_char(l_amount) ;
22:32:30 1240  		  l_sqls:= l_sqls || ' set ' || l_temp_col || ' = ' || to_char(l_amount) ;
22:32:30 1241  		  l_sqls:= l_sqls || ' where lsr_asset_id = ' || to_char(asset.lsr_asset_id) ;
22:32:30 1242  		  l_sqls:= l_sqls || ' and revision = ' || to_char(asset.current_revision);
22:32:30 1243  		  l_sqls:= l_sqls || ' and set_of_books_id = ' || to_char(asset.set_of_books_id);
22:32:30 1244  		  l_sqls:= l_sqls || ' and month = ''' || to_char(A_MONTH, 'DD-MON-YYYY') || '''';
22:32:30 1245  
22:32:30 1246  		  begin
22:32:30 1247  		     execute immediate l_sqls;
22:32:30 1248  		  exception
22:32:30 1249  		     when no_data_found then
22:32:30 1250  		     CONTINUE;
22:32:30 1251  
22:32:30 1252  		  end;
22:32:30 1253  
22:32:30 1254  
22:32:30 1255  		END LOOP;
22:32:30 1256  
22:32:30 1257  
22:32:30 1258  		-- Roll up the asset buckets to ILR level
22:32:30 1259  		L_MSG := F_ROLLUP_ASSETS_BUCKETS_TO_ILR(A_COMPANY_ID, A_MONTH, CALC_TYPE);
22:32:30 1260  		if L_MSG <> 'OK' then
22:32:30 1261  		  return L_MSG;
22:32:30 1262  		end if;
22:32:30 1263  
22:32:30 1264  
22:32:30 1265  	      return 'OK';
22:32:30 1266  	    exception
22:32:30 1267  	       when others then
22:32:30 1268  		L_MSG := SUBSTR(sqlerrm, 1, 2000);
22:32:30 1269  			return L_MSG;
22:32:30 1270  
22:32:30 1271  	  end F_CALC_ASSET_BUCKETS_MONTH_END;
22:32:30 1272  
22:32:30 1273  
22:32:30 1274  	  --**************************************************************************
22:32:30 1275  	  --  F_ROLLUP_ASSETS_BUCKETS_TO_ILR.
22:32:30 1276  	  -- This function rolls up all bucket values from the assets to the ILR level.
22:32:30 1277  	  --
22:32:30 1278  	  --**************************************************************************
22:32:30 1279  
22:32:30 1280  	  function F_ROLLUP_ASSETS_BUCKETS_TO_ILR(A_COMPANY_ID in number, A_MONTH in date, A_CALC_TYPE varchar2) return varchar2 is
22:32:30 1281  	    begin
22:32:30 1282  	      IF LOWER(a_calc_type) = 'accruals' THEN
22:32:30 1283  		update lsr_ilr_schedule LIS set (contingent_accrual1, contingent_accrual2,contingent_accrual3,contingent_accrual4,contingent_accrual5, contingent_accrual6, contingent_accrual7,contingent_accrual8,contingent_accrual9,contingent_accrual10)=
22:32:30 1284  		  (
22:32:30 1285  		    select contingent_accrual1, contingent_accrual2,contingent_accrual3,contingent_accrual4,contingent_accrual5, contingent_accrual6, contingent_accrual7, contingent_accrual8, contingent_accrual9, contingent_accrual10
22:32:30 1286  		    from
22:32:30 1287  			(
22:32:30 1288  			  select la.ilr_id, la.revision, las.set_of_books_id, las.month, sum(contingent_accrual1) contingent_accrual1, sum(contingent_accrual2) contingent_accrual2, sum(contingent_accrual3) contingent_accrual3, sum(contingent_accrual4) contingent_accrual4,
22:32:30 1289  				 SUM(contingent_accrual5) contingent_accrual5, SUM(contingent_accrual6) contingent_accrual6, SUM(contingent_accrual7) contingent_accrual7, SUM(contingent_accrual8) contingent_accrual8, SUM(contingent_accrual9) contingent_accrual9, SUM(contingent_accrual10) contingent_accrual10
22:32:30 1290  			  from lsr_asset_schedule_tmp las, lsr_asset la, lsr_ilr ilr
22:32:30 1291  			  WHERE ilr.ilr_id = la.ilr_id
22:32:30 1292  			    AND  ilr.current_revision = la.revision
22:32:30 1293  			    AND las.revision = ilr.current_revision
22:32:30 1294  			    and la.lsr_asset_id = las.lsr_asset_id
22:32:30 1295  			    and ilr.company_id = A_COMPANY_ID
22:32:30 1296  			    AND las.MONTH = a_month
22:32:30 1297  			  group by la.ilr_id, la.revision, las.set_of_books_id, las.month
22:32:30 1298  			  order by 1, 2, 3, 4
22:32:30 1299  			) DS
22:32:30 1300  		    where LIS.ilr_id = DS.ilr_id and LIS.revision = DS.revision and LIS.set_of_books_id = DS.set_of_books_id and LIS.month = DS.month
22:32:30 1301  		  )
22:32:30 1302  		where (ilr_id, revision) in (select ilr_id, current_revision from lsr_ilr where company_id = A_COMPANY_ID )
22:32:30 1303  		and month = A_MONTH
22:32:30 1304  			AND EXISTS (
22:32:30 1305  			       SELECT 1
22:32:30 1306  			       FROM lsr_asset_schedule_tmp las
22:32:30 1307  			       INNER JOIN lsr_asset la
22:32:30 1308  				       ON la.lsr_asset_id = las.lsr_asset_id
22:32:30 1309  				       AND la.revision = las.revision
22:32:30 1310  			       INNER JOIN lsr_ilr ilr
22:32:30 1311  				       ON ilr.ilr_id = la.ilr_id
22:32:30 1312  				       AND ilr.current_revision = la.revision
22:32:30 1313  			       WHERE lis.ilr_id = ilr.ilr_id
22:32:30 1314  			       AND lis.revision = ilr.current_revision
22:32:30 1315  			       AND lis.set_of_books_id = las.set_of_books_id
22:32:30 1316  			       AND lis.month = las.month
22:32:30 1317  			       AND ilr.company_id = A_COMPANY_ID
22:32:30 1318  			       AND las.MONTH = A_MONTH
22:32:30 1319  		       );
22:32:30 1320  
22:32:30 1321  	      ELSE
22:32:30 1322  			 update lsr_ilr_schedule LIS set (contingent_paid1, contingent_paid2,contingent_paid3,contingent_paid4,contingent_paid5, contingent_paid6, contingent_paid7,contingent_paid8,contingent_paid9,contingent_paid10)=
22:32:30 1323  		  (
22:32:30 1324  		    select contingent_paid1, contingent_paid2,contingent_paid3,contingent_paid4,contingent_paid5, contingent_paid6, contingent_paid7, contingent_paid8, contingent_paid9, contingent_paid10
22:32:30 1325  		    from
22:32:30 1326  			(
22:32:30 1327  			  select la.ilr_id, la.revision, las.set_of_books_id, las.month, sum(contingent_paid1) contingent_paid1, sum(contingent_paid2) contingent_paid2, sum(contingent_paid3) contingent_paid3, sum(contingent_paid4) contingent_paid4,
22:32:30 1328  				 SUM(contingent_paid5) contingent_paid5, SUM(contingent_paid6) contingent_paid6, SUM(contingent_paid7) contingent_paid7, SUM(contingent_paid8) contingent_paid8, SUM(contingent_paid9) contingent_paid9, SUM(contingent_paid10) contingent_paid10
22:32:30 1329  			  from lsr_asset_schedule_tmp las, lsr_asset la, lsr_ilr ilr
22:32:30 1330  			  WHERE ilr.ilr_id = la.ilr_id
22:32:30 1331  			    AND  ilr.current_revision = la.revision
22:32:30 1332  			    AND las.revision = ilr.current_revision
22:32:30 1333  			    AND la.lsr_asset_id = las.lsr_asset_id
22:32:30 1334  			    and la.revision = las.revision
22:32:30 1335  			    and ilr.company_id = A_COMPANY_ID
22:32:30 1336  			    AND las.MONTH = a_month
22:32:30 1337  			  group by la.ilr_id, la.revision, las.set_of_books_id, las.month
22:32:30 1338  			  order by 1, 2, 3, 4
22:32:30 1339  			) DS
22:32:30 1340  		    where LIS.ilr_id = DS.ilr_id and LIS.revision = DS.revision and LIS.set_of_books_id = DS.set_of_books_id and LIS.month = DS.month
22:32:30 1341  		  )
22:32:30 1342  		where (ilr_id, revision) in (select ilr_id, current_revision from lsr_ilr where company_id = A_COMPANY_ID )
22:32:30 1343  		and month = A_MONTH
22:32:30 1344  			AND EXISTS (
22:32:30 1345  			       SELECT 1
22:32:30 1346  			       FROM lsr_asset_schedule_tmp las
22:32:30 1347  			       INNER JOIN lsr_asset la
22:32:30 1348  				       ON la.lsr_asset_id = las.lsr_asset_id
22:32:30 1349  				       AND la.revision = las.revision
22:32:30 1350  			       INNER JOIN lsr_ilr ilr
22:32:30 1351  				       ON ilr.ilr_id = la.ilr_id
22:32:30 1352  				       AND ilr.current_revision = la.revision
22:32:30 1353  			       WHERE lis.ilr_id = ilr.ilr_id
22:32:30 1354  			       AND lis.revision = ilr.current_revision
22:32:30 1355  			       AND lis.set_of_books_id = las.set_of_books_id
22:32:30 1356  			       AND lis.month = las.month
22:32:30 1357  			       AND ilr.company_id = A_COMPANY_ID
22:32:30 1358  			       AND las.MONTH = A_MONTH
22:32:30 1359  		       );
22:32:30 1360  
22:32:30 1361  	      end if;
22:32:30 1362  
22:32:30 1363  	      return 'OK';
22:32:30 1364  	    exception when no_data_found then
22:32:30 1365  	      return 'OK';
22:32:30 1366  	      when others then
22:32:30 1367  		return sqlerrm;
22:32:30 1368  
22:32:30 1369  	    end F_ROLLUP_ASSETS_BUCKETS_TO_ILR;
22:32:30 1370  
22:32:30 1371  
22:32:30 1372  	    function F_CALC_ASSET_PAID_AMOUNT(A_ASSET_ID       number,
22:32:30 1373  					      A_REVISION       number,
22:32:30 1374  					      A_MONTH	       date,
22:32:30 1375  					      A_BUCKET_NUMBER  number,
22:32:30 1376  					      A_SET_OF_BOOKS_ID number) return number is
22:32:30 1377  
22:32:30 1378  	     L_SQLS			    varchar2(2000);
22:32:30 1379  	     L_BUCKET_NAME		    varchar2(35);
22:32:30 1380  	     l_amount			    NUMBER(22,8);
22:32:30 1381  	     L_ILR_ID			    number(22,0);
22:32:30 1382  
22:32:30 1383  	     begin
22:32:30 1384  	       --PKG_PP_LOG.P_WRITE_MESSAGE('	Starting calc for paid amount');
22:32:30 1385  
22:32:30 1386  	       L_BUCKET_NAME := 'CONTINGENT_ACCRUAL' || to_char(A_BUCKET_NUMBER);
22:32:30 1387  
22:32:30 1388  	       l_sqls := 'select amt from (
22:32:30 1389  			   SELECT asset_id, revision, set_of_books_id, MONTH, payment_month, accrual, CASE WHEN MONTH = payment_month THEN Sum(accrual) OVER (PARTITION BY asset_id, revision, set_of_books_id, payment_month) ELSE 0 END as amt
22:32:30 1390  			   FROM (
22:32:30 1391  			       SELECT a.lsr_asset_id AS asset_id, a.revision AS revision, a.set_of_books_id AS set_of_books_id,
22:32:30 1392  				   a.MONTH AS month, Min(payment_month.payment_month) AS payment_month, a.' || L_BUCKET_NAME || ' AS accrual
22:32:30 1393  			       FROM lsr_asset_schedule_tmp a
22:32:30 1394  			       INNER JOIN lsr_ilr_payment_month_tmp payment_month
22:32:30 1395  			       ON payment_month.payment_month >= A.MONTH
22:32:30 1396  			       WHERE a.lsr_asset_id = :asset_id
22:32:30 1397  			       AND a.revision = :revision
22:32:30 1398  			       AND a.set_of_books_id = :set_of_books_id
22:32:30 1399  			       GROUP BY a.lsr_asset_id, a.revision, a.set_of_books_id, a.MONTH, a.' || L_BUCKET_NAME || '
22:32:30 1400  			   )
22:32:30 1401  			   ORDER BY month
22:32:30 1402  			 )
22:32:30 1403  			 where month = :month';
22:32:30 1404  
22:32:30 1405  	     EXECUTE IMMEDIATE L_SQLS
22:32:30 1406  	       INTO l_amount
22:32:30 1407  	       USING A_ASSET_ID, A_REVISION, A_SET_OF_BOOKS_ID, A_MONTH;
22:32:30 1408  
22:32:30 1409  	     return L_AMOUNT;
22:32:30 1410  
22:32:30 1411  	     exception
22:32:30 1412  	       when no_data_found then
22:32:30 1413  	       return 0;
22:32:30 1414  	       when others then
22:32:30 1415  		return sqlerrm;
22:32:30 1416  
22:32:30 1417  	     end F_CALC_ASSET_PAID_AMOUNT;
22:32:30 1418  
22:32:30 1419  
22:32:30 1420  	  function F_UPDATE_SCHEDULE_TABLES(A_ILR_ID		number,
22:32:30 1421  					    A_MONTH		date,
22:32:30 1422  					    A_REVISION		number) return varchar2
22:32:30 1423  	  is
22:32:30 1424  	    L_STATUS			    varchar2(2000);
22:32:30 1425  
22:32:30 1426  	  BEGIN
22:32:30 1427  
22:32:30 1428  	    --update the ILR schedule table using the asset schedule
22:32:30 1429  	    update lsr_ilr_schedule LIS set (contingent_accrual1, contingent_accrual2,contingent_accrual3,contingent_accrual4,contingent_accrual5, contingent_accrual6, contingent_accrual7,contingent_accrual8,contingent_accrual9,contingent_accrual10,
22:32:30 1430  						contingent_paid1, contingent_paid2,contingent_paid3,contingent_paid4,contingent_paid5, contingent_paid6, contingent_paid7, contingent_paid8, contingent_paid9, contingent_paid10)=
22:32:30 1431  		  (
22:32:30 1432  		    select coalesce(contingent_accrual1, 0) as contingent_accrual1,
22:32:30 1433  			   coalesce(contingent_accrual2, 0) as contingent_accrual2,
22:32:30 1434  			   coalesce(contingent_accrual3, 0) as contingent_accrual3,
22:32:30 1435  			   coalesce(contingent_accrual4, 0) as contingent_accrual4,
22:32:30 1436  			   coalesce(contingent_accrual5, 0) as contingent_accrual5,
22:32:30 1437  			   coalesce(contingent_accrual6, 0) as contingent_accrual6,
22:32:30 1438  			   coalesce(contingent_accrual7, 0) as contingent_accrual7,
22:32:30 1439  			   coalesce(contingent_accrual8, 0) as contingent_accrual8,
22:32:30 1440  			   coalesce(contingent_accrual9, 0) as contingent_accrual9,
22:32:30 1441  			   coalesce(contingent_accrual10, 0) as contingent_accrual10,
22:32:30 1442  			   coalesce(contingent_paid1, 0) as contingent_paid1,
22:32:30 1443  			   coalesce(contingent_paid2, 0) as contingent_paid2,
22:32:30 1444  			   coalesce(contingent_paid3, 0) as contingent_paid3,
22:32:30 1445  			   coalesce(contingent_paid4, 0) as contingent_paid4,
22:32:30 1446  			   coalesce(contingent_paid5, 0) as contingent_paid5,
22:32:30 1447  			   coalesce(contingent_paid6, 0) as contingent_paid6,
22:32:30 1448  			   coalesce(contingent_paid7, 0) as contingent_paid7,
22:32:30 1449  			   COALESCE(contingent_paid8, 0) AS contingent_paid8,
22:32:30 1450  			   coalesce(contingent_paid9, 0) as contingent_paid9,
22:32:30 1451  			   coalesce(contingent_paid10, 0) as contingent_paid10
22:32:30 1452  		    from
22:32:30 1453  			(
22:32:30 1454  			  select la.ilr_id, la.revision, las.set_of_books_id, las.month, sum(contingent_accrual1) contingent_accrual1, sum(contingent_accrual2) contingent_accrual2, sum(contingent_accrual3) contingent_accrual3, sum(contingent_accrual4) contingent_accrual4,
22:32:30 1455  				 sum(contingent_accrual5) contingent_accrual5, sum(contingent_accrual6) contingent_accrual6, sum(contingent_accrual7) contingent_accrual7, sum(contingent_accrual8) contingent_accrual8, sum(contingent_accrual9) contingent_accrual9, sum(contingent_accrual10) contingent_accrual10,
22:32:30 1456  				 sum(contingent_paid1) contingent_paid1, sum(contingent_paid2) contingent_paid2, sum(contingent_paid3) contingent_paid3, sum(contingent_paid4) contingent_paid4,
22:32:30 1457  				 SUM(contingent_paid5) contingent_paid5, SUM(contingent_paid6) contingent_paid6, SUM(contingent_paid7) contingent_paid7, SUM(contingent_paid8) contingent_paid8, SUM(contingent_paid9) contingent_paid9, SUM(contingent_paid10) contingent_paid10
22:32:30 1458  			  from lsr_asset_schedule_tmp las, lsr_asset la
22:32:30 1459  			  WHERE las.revision = la.revision
22:32:30 1460  			    and la.lsr_asset_id = las.lsr_asset_id
22:32:30 1461  			    and la.ilr_id = A_ILR_ID
22:32:30 1462  			    AND las.MONTH = a_month
22:32:30 1463  			  group by la.ilr_id, la.revision, las.set_of_books_id, las.month
22:32:30 1464  			  order by 1, 2, 3, 4
22:32:30 1465  			) DS
22:32:30 1466  		    where LIS.ilr_id = DS.ilr_id and LIS.revision = DS.revision and LIS.set_of_books_id = DS.set_of_books_id and LIS.month = DS.month
22:32:30 1467  		  )
22:32:30 1468  		where ilr_id = A_ILR_ID
22:32:30 1469  		AND revision = a_revision
22:32:30 1470  		AND MONTH = a_month;
22:32:30 1471  
22:32:30 1472  
22:32:30 1473  		return 'OK';
22:32:30 1474  	     exception
22:32:30 1475  	       when others then
22:32:30 1476  		return sqlerrm;
22:32:30 1477  	     end F_UPDATE_SCHEDULE_TABLES;
22:32:30 1478  
22:32:30 1479  	       function F_IS_PAYMENT_MONTH_RTN_NUMBER( A_ILR_ID     number,
22:32:30 1480  						 A_REVISION   number,
22:32:30 1481  						 A_MONTH      date) return integer
22:32:30 1482  	       is
22:32:30 1483  	   cnt number;
22:32:30 1484  	       begin
22:32:30 1485  
22:32:30 1486  	   SELECT COUNT(1) into cnt
22:32:30 1487  	   FROM TABLE(pkg_lessor_schedule.f_get_payment_info_from_terms(pkg_lessor_schedule.f_get_payment_terms(a_ilr_id, a_revision)))
22:32:30 1488  	   WHERE MOD(iter, payment_month_frequency) = 0
22:32:30 1489  	   and month = a_month;
22:32:30 1490  
22:32:30 1491  	   RETURN cnt;
22:32:30 1492  
22:32:30 1493  	       end F_IS_PAYMENT_MONTH_RTN_NUMBER;
22:32:30 1494  
22:32:30 1495  
22:32:30 1496  	 FUNCTION f_is_payment_month(a_ilr_id	  NUMBER,
22:32:30 1497  				     A_REVISION   number,
22:32:30 1498  				     A_MONTH	  date) return boolean
22:32:30 1499  	 IS
22:32:30 1500  	 BEGIN
22:32:30 1501  	   IF f_is_payment_month_rtn_number(a_ilr_id, a_revision, a_month) = 0
22:32:30 1502  	     THEN RETURN FALSE;
22:32:30 1503  	     ELSE RETURN TRUE;
22:32:30 1504  	   END IF;
22:32:30 1505  
22:32:30 1506  	 END f_is_payment_month;
22:32:30 1507  
22:32:30 1508  	    function F_GET_FIRST_PAYMENT_TERM_MONTH( A_ILR_ID	  number,
22:32:30 1509  						     A_REVISION   number) return date is
22:32:30 1510  	    L_FIRST_PAYMENT_TERM_MONTH	   date;
22:32:30 1511  
22:32:30 1512  	    begin
22:32:30 1513  
22:32:30 1514  	     SELECT min(payment_term_date) INTO l_first_payment_term_month
22:32:30 1515  	     FROM lsr_ilr_payment_term
22:32:30 1516  	     WHERE ilr_id = a_ilr_id
22:32:30 1517  	     AND revision = a_revision;
22:32:30 1518  
22:32:30 1519  	     return L_FIRST_PAYMENT_TERM_MONTH;
22:32:30 1520  
22:32:30 1521  	    end F_GET_FIRST_PAYMENT_TERM_MONTH;
22:32:30 1522  
22:32:30 1523  END pkg_lessor_var_payments;
22:32:30 1524  /

Package body created.

22:32:30 hopplant> --**************************
22:32:30 hopplant> -- Log the run of the script
22:32:30 hopplant> --**************************
22:32:30 hopplant> insert into PP_SCHEMA_CHANGE_LOG
22:32:30   2  	 (ID, SKIPPED, MAJOR_VERSION, MINOR_VERSION, POINT_VERSION, PATCH_VERSION, MAINT_NUM, SCRIPT_PATH,
22:32:30   3  	  SCRIPT_NAME, SCRIPT_REVISION, DATE_APPLIED, OS_USER, TERMINAL, SERVICE_NAME)
22:32:30   4  values
22:32:30   5  	 (7125, 0, 2017, 4, 0, 0, 0, 'C:\PlasticWKS\PowerPlant\sql\packages', '2017.4.0.0_pkg_lessor_var_payments.sql', 1, SYSTIMESTAMP, SYS_CONTEXT('USERENV', 'OS_USER'), SYS_CONTEXT('USERENV', 'TERMINAL'), SYS_CONTEXT('USERENV', 'SERVICE_NAME'));

1 row created.

22:32:30 hopplant> commit;

Commit complete.

22:32:30 hopplant> SPOOL OFF
