21:45:13 hopplant> @&&PP_SCRIPT_PATH.maint_scripts\2017.1.0.0_maint_048217_lease_01_asset_import_add_contract_currency_ddl.sql
21:45:13 hopplant> /*
21:45:13 hopplant> ||============================================================================
21:45:13 hopplant> || Application: PowerPlan
21:45:13 hopplant> || File Name:   maint_048217_lease_01_asset_import_add_contract_currency_ddl.sql
21:45:13 hopplant> || Copyright (C) 2017 by PowerPlan, Inc. All Rights Reserved.
21:45:13 hopplant> ||============================================================================
21:45:13 hopplant> || Version	 Date	    Revised By	   Reason for Change
21:45:13 hopplant> || --------	 ---------- -------------- --------------------------------------
21:45:13 hopplant> || 2017.1.0.0 06/22/2017 Jared Watkins  Add the contract currency columns to the ls_import_asset table
21:45:13 hopplant> ||============================================================================
21:45:13 hopplant> */
21:45:13 hopplant> 
21:45:13 hopplant> alter table ls_import_asset
21:45:13   2  add contract_currency_id number(22,0);

Table altered.

21:45:13 hopplant> alter table ls_import_asset
21:45:13   2  add contract_currency_xlate varchar2(254);

Table altered.

21:45:13 hopplant> 
21:45:13 hopplant> comment on column ls_import_asset.contract_currency_id is 'The Contract Currency for the Lease Asset.';

Comment created.

21:45:13 hopplant> comment on column ls_import_asset.contract_currency_xlate is 'Translation field for determining Contract Currency.';

Comment created.

21:45:13 hopplant> 
21:45:13 hopplant> alter table ls_import_asset_archive
21:45:13   2  add contract_currency_id number(22,0);

Table altered.

21:45:13 hopplant> alter table ls_import_asset_archive
21:45:13   2  add contract_currency_xlate varchar2(254);

Table altered.

21:45:13 hopplant> 
21:45:13 hopplant> comment on column ls_import_asset_archive.contract_currency_id is 'The Contract Currency for the Lease Asset.';

Comment created.

21:45:13 hopplant> comment on column ls_import_asset_archive.contract_currency_xlate is 'Translation field for determining Contract Currency.';

Comment created.

21:45:13 hopplant> 
21:45:13 hopplant> --****************************************************
21:45:13 hopplant> --Log the run of the script to local PP_SCHEMA_LOG
21:45:13 hopplant> --****************************************************
21:45:13 hopplant> INSERT INTO PP_SCHEMA_CHANGE_LOG
21:45:13   2  	      (ID, SKIPPED, MAJOR_VERSION, MINOR_VERSION, POINT_VERSION, PATCH_VERSION, MAINT_NUM, SCRIPT_PATH,
21:45:13   3  	      SCRIPT_NAME, SCRIPT_REVISION, DATE_APPLIED, OS_USER, TERMINAL, SERVICE_NAME)
21:45:13   4  VALUES
21:45:13   5  	      (3529, 0, 2017, 1, 0, 0, 48217, 'C:\PlasticWks\powerplant\sql\maint_scripts', '2017.1.0.0_maint_048217_lease_01_asset_import_add_contract_currency_ddl.sql', 1,
21:45:13   6  	      SYSTIMESTAMP, SYS_CONTEXT('USERENV', 'OS_USER'), SYS_CONTEXT('USERENV', 'TERMINAL'),
21:45:13   7  	      SYS_CONTEXT('USERENV', 'SERVICE_NAME'));

1 row created.

21:45:13 hopplant> COMMIT;

Commit complete.

21:45:13 hopplant> SPOOL OFF
