22:41:00 hopplant> @&&PP_SCRIPT_PATH.maint_scripts\2018.2.0.0_maint_052346_lessee_04_import_ilr_rev_cleanup_dml.sql
22:41:00 hopplant> /*
22:41:00 hopplant> ||============================================================================
22:41:00 hopplant> || Application: PowerPlan
22:41:00 hopplant> || File Name:  maint_052436_lessee_04_import_ilr_rev_cleanup_dml.sql
22:41:00 hopplant> ||============================================================================
22:41:00 hopplant> || Copyright (C) 2019 by PowerPlan, Inc. All Rights Reserved.
22:41:00 hopplant> ||============================================================================
22:41:00 hopplant> || Version	 Date	    Revised By	     Reason for Change
22:41:00 hopplant> || ---------- ---------- ---------------- ------------------------------------
22:41:00 hopplant> || 2018.2.0.0 3/14/2019	    Shane "C" Ward  Clean up ILR Revision import issues
22:41:00 hopplant> ||============================================================================
22:41:00 hopplant> */
22:41:00 hopplant> 
22:41:00 hopplant> UPDATE pp_import_column
22:41:00   2  SET    import_column_name = 'payment_term_xlate'
22:41:00   3  WHERE  import_type_id = 272
22:41:00   4  AND    column_name = 'payment_term_type_id';

1 row updated.

22:41:00 hopplant> 
22:41:00 hopplant> UPDATE pp_import_column
22:41:00   2  SET    import_column_name = NULL
22:41:00   3  WHERE  import_type_id = 272
22:41:00   4  AND    column_name NOT IN (SELECT column_name
22:41:00   5  				 FROM	pp_import_column_lookup
22:41:00   6  				 WHERE	import_type_id = 272);

27 rows updated.

22:41:00 hopplant> 
22:41:00 hopplant> --***********************************************
22:41:00 hopplant> --Log the run of the script PP_SCHEMA_CHANGE_LOG
22:41:00 hopplant> --***********************************************
22:41:00 hopplant> INSERT INTO PP_SCHEMA_CHANGE_LOG
22:41:00   2  	  (ID, SKIPPED, MAJOR_VERSION, MINOR_VERSION, POINT_VERSION, PATCH_VERSION, MAINT_NUM, SCRIPT_PATH, SCRIPT_NAME, SCRIPT_REVISION, DATE_APPLIED, OS_USER, TERMINAL, SERVICE_NAME)
22:41:00   3  VALUES
22:41:00   4  	  (15842, 0, 2018, 2, 0, 0, 52346, 'C:\PlasticWks\powerplant\sql\maint_scripts', '2018.2.0.0_maint_052346_lessee_04_import_ilr_rev_cleanup_dml.sql', 1, SYSTIMESTAMP, SYS_CONTEXT('USERENV', 'OS_USER'),
22:41:00   5  	      SYS_CONTEXT('USERENV', 'TERMINAL'), SYS_CONTEXT('USERENV', 'SERVICE_NAME'));

1 row created.

22:41:00 hopplant> COMMIT;

Commit complete.

22:41:00 hopplant> SPOOL OFF
