22:40:23 hopplant> @&&PP_SCRIPT_PATH.maint_scripts\2018.2.0.0_maint_049927_taxrpr_ineligible_utility_account_rpr_ddl.sql
22:40:23 hopplant> /*
22:40:23 hopplant> ||============================================================================
22:40:23 hopplant> || Application: PowerPlan
22:40:23 hopplant> || File Name: maint_049927_taxrpr_ineligible_utility_account_rpr_ddl.sql
22:40:23 hopplant> ||============================================================================
22:40:23 hopplant> || Copyright (C) 2017 by PowerPlan, Inc. All Rights Reserved.
22:40:23 hopplant> ||============================================================================
22:40:23 hopplant> || Version	 Date	    Revised By	   Reason for Change
22:40:23 hopplant> || ---------- ---------- -------------- --------------------------------------
22:40:23 hopplant> || 2018.2.0.0 11/10/2017 Eric Berger    DML multi-batch reporting.
22:40:23 hopplant> ||============================================================================
22:40:23 hopplant> */
22:40:23 hopplant> 
22:40:23 hopplant> --add the new column and constraint to repair_schema
22:40:23 hopplant> BEGIN
22:40:23   2  	  EXECUTE IMMEDIATE 'ALTER TABLE repair_schema ADD calc_by_util_acct NUMBER(22,0) DEFAULT 0 NOT NULL';
22:40:23   3  EXCEPTION
22:40:23   4  	  WHEN OTHERS THEN
22:40:23   5  	      Dbms_Output.put_line('Column calc_by_util_acct already exists.');
22:40:23   6  END;
22:40:23   7  /

PL/SQL procedure successfully completed.

22:40:23 hopplant> 
22:40:23 hopplant> BEGIN
22:40:23   2  	  EXECUTE IMMEDIATE 'ALTER TABLE repair_schema ADD CONSTRAINT rs_yn FOREIGN KEY (calc_by_util_acct) REFERENCES yes_no (yes_no_id)';
22:40:23   3  EXCEPTION
22:40:23   4  	  WHEN OTHERS THEN
22:40:23   5  	      Dbms_Output.put_line('Constraint rs_yn already exists.');
22:40:23   6  END;
22:40:23   7  /

PL/SQL procedure successfully completed.

22:40:23 hopplant> 
22:40:23 hopplant> --****************************************************
22:40:23 hopplant> --Log the run of the script to local PP_SCHEMA_LOG
22:40:23 hopplant> --****************************************************
22:40:23 hopplant> INSERT INTO PP_SCHEMA_CHANGE_LOG
22:40:23   2  	      (ID, SKIPPED, MAJOR_VERSION, MINOR_VERSION, POINT_VERSION, PATCH_VERSION, MAINT_NUM, SCRIPT_PATH,
22:40:23   3  	      SCRIPT_NAME, SCRIPT_REVISION, DATE_APPLIED, OS_USER, TERMINAL, SERVICE_NAME)
22:40:23   4  VALUES
22:40:23   5  	      (13737, 0, 2018, 2, 0, 0, 49927, 'C:\PlasticWks\powerplant\sql\maint_scripts', '2018.2.0.0_maint_049927_taxrpr_ineligible_utility_account_rpr_ddl.sql', 1,
22:40:23   6  	      SYSTIMESTAMP, SYS_CONTEXT('USERENV', 'OS_USER'), SYS_CONTEXT('USERENV', 'TERMINAL'),
22:40:23   7  	      SYS_CONTEXT('USERENV', 'SERVICE_NAME'));

1 row created.

22:40:23 hopplant> COMMIT;

Commit complete.

22:40:23 hopplant> SPOOL OFF
