22:42:54 hopplant> @&&PP_SCRIPT_PATH.packages_released\2018.2.0.0_PKG_TAX_INT_RET.sql
22:42:54 hopplant> 
22:42:54 hopplant> create or replace package PKG_TAX_INT_RET as
22:42:54   2  	 /*
22:42:54   3  	 ||============================================================================
22:42:54   4  	 || Application: PowerPlant
22:42:54   5  	 || Object Name: PKG_TAX_INT_RET
22:42:54   6  	 || Description: Moved/Enhanced PowerTax Retirements Interface logic to PLSQL
22:42:54   7  	 ||============================================================================
22:42:54   8  	 || Copyright (C) 2014 by PowerPlan, Inc. All Rights Reserved.
22:42:54   9  	 ||============================================================================
22:42:54  10  	 || Version  Date	Revised By     Reason for Change
22:42:54  11  	 || -------- ---------- -------------- ----------------------------------------
22:42:54  12  	 || 10.4.2.0 10/14/2013 Andrew Scott   Original Version
22:42:54  13  	 || 10.4.2.0 10/24/2013 Andrew Scott   QA changes: removed tax class join,
22:42:54  14  	 ||					 trunc-ed year on tax_book_transactions_grp,
22:42:54  15  	 ||					 audit trail grp.
22:42:54  16  	 || 10.4.2.0 10/29/2013 Andrew Scott   fixed to make FIFO pick from earliest
22:42:54  17  	 || 10.4.2.0 10/30/2013 Andrew Scott   removed tolerance from logic
22:42:54  18  	 || 10.4.2.0 11/20/2013 Andrew Scott   non-FIFO rets issue where sum book > trid book
22:42:54  19  	 ||				       causes allocation ratios to blow up the retirement amount
22:42:54  20  	 || 10.4.2.0 11/25/2013 Andrew Scott   changed decode fix from 11/20 to use sign of tbt.trans_amount
22:42:54  21  	 ||				       instead of trying to compare sum book to trid book.  also changed
22:42:54  22  	 ||				       order by to process negatives first, then by abs of book balance
22:42:54  23  	 || 10.4.2.0 01/14/2014 Andrew Scott   maint-35441  MLP changes merging tax_control,
22:42:54  24  	 ||				       tax_depreciation, tax_depr_adjust all into
22:42:54  25  	 ||				       tax_depreciation.
22:42:54  26  	 || 10.4.2.0 02/05/2014 Andrew Scott   maint-36078  creation of MLP Gui Retirements
22:42:54  27  	 ||				       Interface.  Existing Retirements interface needs
22:42:54  28  	 ||				       to also work.  Specific changes:
22:42:54  29  	 ||				       1. Added space in process name.
22:42:54  30  	 ||
22:42:54  31  	 || PACKAGE RELEASED FOR 10.4.2.0
22:42:54  32  	 ||
22:42:54  33  	 || PP Version	Version    Date 	  Revised By	 Reason for Change
22:42:54  34  	 || ----------	---------  -------------  -------------  -------------------------
22:42:54  35  	 || 10.4.2.1	2.01	   05/15/2014	  Andrew Scott	 maint-37925 : 1. filtering functionality from retire rules
22:42:54  36  	 ||							 was not brought over to pl/sql.  fixed using f_filter_records
22:42:54  37  	 ||							 2. adding the package version similar to run fast packages.
22:42:54  38  	 ||							 This allows us to maintain version history for the package and
22:42:54  39  	 ||							 can more easily patch in the future.  3. retire rules look back
22:42:54  40  	 ||							 was using -1 * look forward, not the look back field.	fixed this.
22:42:54  41  	 ||							 4. tbt group map table altered to have pkey including effective
22:42:54  42  	 ||							 vintage.
22:42:54  43  	 || 10.4.3.0	2.02	   05/29/2014	  Andrew Scott	 Alter adds, rets, xfer intfcs to use
22:42:54  44  	 ||							 asset id if configured for company.
22:42:54  45  	 || 10.4.3.0	2.03	   06/12/2014	  Andrew Scott	 QA items related to asset id changes
22:42:54  46  	 ||							 1. add asset id to audit trails
22:42:54  47  	 ||							 2. speed up batching
22:42:54  48  	 || 10.4.3.0	2.04	   08/13/2014	  Andrew Scott	 maint-38887.  turn off auditing.
22:42:54  49  	 || 2015.2.0	2.05	   09/25/2015	  R Burns	 maint-44843.  join tax depreciation into FFORMAT string.
22:42:54  50  	 ||
22:42:54  51  	 || Version	Date	   Revised By	  Reason for Change
22:42:54  52  	 || --------	---------- -------------- ----------------------------------------
22:42:54  53  	 || 2015.2.0.0	11/30/2015 Andrew Scott   maint-45240.	Update version to be 2015.2.0.0
22:42:54  54  	 ||============================================================================
22:42:54  55  	 */
22:42:54  56  	 G_PKG_VERSION varchar(35) := '2018.2.0.0';
22:42:54  57  	 -- function to get the version of this package.
22:42:54  58  	 function F_GET_VERSION return varchar2;
22:42:54  59  
22:42:54  60  	 type CO_IDS is table of number(22, 0) index by binary_integer;
22:42:54  61  
22:42:54  62  	 G_TAX_RECORD_IDS table_list_id_type;
22:42:54  63  	 G_TRANS_GRP_IDS table_list_id_type;
22:42:54  64  
22:42:54  65  	 -- procedure to backfill tax_book_translate with the new tbt_group_id
22:42:54  66  	 procedure P_BACKFILL_TBT_GROUP;
22:42:54  67  
22:42:54  68  	 -- function to refresh the rows in tax_interface_cos
22:42:54  69  	 function F_REFRESH_INTERFACE_COS(A_CO_IDS	     in CO_IDS,
22:42:54  70  					  A_INTERFACE_OBJECT varchar2) return varchar2;
22:42:54  71  
22:42:54  72  	 -- function the return the process id for retirements interface
22:42:54  73  	 function F_GETPROCESS return number;
22:42:54  74  
22:42:54  75  	 -- function to clear out previously processed retirements
22:42:54  76  	 function F_REMOVE_PRIOR_TRANS(A_VERSION_ID	  number,
22:42:54  77  				       A_TAX_YEAR	  number,
22:42:54  78  				       A_INTERFACE_OBJECT varchar2) return varchar2;
22:42:54  79  
22:42:54  80  	 -- tax retire rules table holds a set of string values that the
22:42:54  81  	 -- older datawindow logic used to filter a subset of tax records
22:42:54  82  	 -- and link them to another filtered set of transactions.  This
22:42:54  83  	 -- cannot exactly be mimiced in the new PL/SQL logic.	The closest,
22:42:54  84  	 -- hopefully fastest way to mimic this will be to use this function,
22:42:54  85  	 -- called from the iteration function, to build out global table
22:42:54  86  	 -- variables of the tax records that can be used and another variable
22:42:54  87  	 -- of the transactions that can be used.  The batch functions will be
22:42:54  88  	 -- modified to join into these table variables.
22:42:54  89  	 function F_FILTER_RECORDS(
22:42:54  90  			      A_TAX_YEAR	 number,
22:42:54  91  			      A_VERSION_ID	 number,
22:42:54  92  			      A_ITERATION	 number,
22:42:54  93  			      A_INTERFACE_OBJECT varchar2) return varchar2;
22:42:54  94  
22:42:54  95  	 -- function to process a batch of data (each iteration could run many batches)
22:42:54  96  	 function F_RUN_BATCH(A_TAX_YEAR	 number,
22:42:54  97  			      A_START_MO	 number,
22:42:54  98  			      A_END_MO		 number,
22:42:54  99  			      A_VERSION_ID	 number,
22:42:54 100  			      A_ITERATION	 number,
22:42:54 101  			      A_BATCH		 number,
22:42:54 102  			      A_INTERFACE_OBJECT varchar2) return varchar2;
22:42:54 103  
22:42:54 104  	 -- function to process the retirements
22:42:54 105  	 function F_RUN_ITERATION(A_TAX_YEAR	     number,
22:42:54 106  				  A_START_MO	     number,
22:42:54 107  				  A_END_MO	     number,
22:42:54 108  				  A_VERSION_ID	     number,
22:42:54 109  				  A_INTERFACE_OBJECT varchar2) return varchar2;
22:42:54 110  
22:42:54 111  	 -- function to start the log, clear out the retirements, process the retirements, end the log
22:42:54 112  	 function F_POWERTAX_RETS(A_TAX_YEAR	     number,
22:42:54 113  				  A_START_MO	     number,
22:42:54 114  				  A_END_MO	     number,
22:42:54 115  				  A_VERSION_ID	     number,
22:42:54 116  				  A_INTERFACE_OBJECT varchar2) return varchar2;
22:42:54 117  
22:42:54 118  end PKG_TAX_INT_RET;
22:42:54 119  /

Package created.

22:42:54 hopplant> 
22:42:54 hopplant> create or replace package body PKG_TAX_INT_RET as
22:42:54   2  
22:42:54   3  	 --****************************************************************************************************
22:42:54   4  	 --		  VARIABLES
22:42:54   5  	 --****************************************************************************************************
22:42:54   6  	 L_PROCESS_ID number;
22:42:54   7  
22:42:54   8  	 --****************************************************************************************************
22:42:54   9  	 --		  Start Body
22:42:54  10  	 --****************************************************************************************************
22:42:54  11  
22:42:54  12  	 -- function to get the version of this package.
22:42:54  13  	 function F_GET_VERSION return varchar2 is
22:42:54  14  	 begin
22:42:54  15  	    return '2015.2.0.0';
22:42:54  16  	 end F_GET_VERSION;
22:42:54  17  
22:42:54  18  	 --****************************************************************************************************
22:42:54  19  	 --		  PROCEDURES
22:42:54  20  	 --****************************************************************************************************
22:42:54  21  
22:42:54  22  	 --procedure grabs the retirements interface process id for the online logs
22:42:54  23  	 procedure P_SETPROCESS is
22:42:54  24  	 begin
22:42:54  25  	    select PROCESS_ID
22:42:54  26  	      into L_PROCESS_ID
22:42:54  27  	      from PP_PROCESSES
22:42:54  28  	     where UPPER(DESCRIPTION) = 'POWERTAX - RETIREMENTS';
22:42:54  29  	 exception
22:42:54  30  	    when others then
22:42:54  31  	       /* this catches all SQL errors, including no_data_found */
22:42:54  32  	       L_PROCESS_ID := -1;
22:42:54  33  	 end P_SETPROCESS;
22:42:54  34  
22:42:54  35  	 --procedure to backfill the tbt_group_id on tax_book_translate.
22:42:54  36  	 procedure P_BACKFILL_TBT_GROUP is
22:42:54  37  
22:42:54  38  	    type TBT_GRP_BACKFILL_STG_REC_TYPE is record(
22:42:54  39  	       TBT_GROUP_ID	  TAX_BOOK_TRANSLATE_GROUP.TBT_GROUP_ID%type,
22:42:54  40  	       COMPANY_ID	  TAX_BOOK_TRANSLATE.COMPANY_ID%type,
22:42:54  41  	       BUS_SEGMENT_ID	  TAX_BOOK_TRANSLATE.BUS_SEGMENT_ID%type,
22:42:54  42  	       UTILITY_ACCOUNT_ID TAX_BOOK_TRANSLATE.UTILITY_ACCOUNT_ID%type,
22:42:54  43  	       SUB_ACCOUNT_ID	  TAX_BOOK_TRANSLATE.SUB_ACCOUNT_ID%type,
22:42:54  44  	       TAX_LOCATION_ID	  TAX_BOOK_TRANSLATE.TAX_LOCATION_ID%type,
22:42:54  45  	       CLASS_CODE_ID	  TAX_BOOK_TRANSLATE.CLASS_CODE_ID%type,
22:42:54  46  	       CLASS_CODE_VALUE   TAX_BOOK_TRANSLATE.CLASS_CODE_VALUE%type,
22:42:54  47  	       GL_ACCOUNT_ID	  TAX_BOOK_TRANSLATE.GL_ACCOUNT_ID%type,
22:42:54  48  	       TAX_DISTINCTION_ID TAX_BOOK_TRANSLATE.TAX_DISTINCTION_ID%type);
22:42:54  49  
22:42:54  50  	    type TBT_GRP_BACKFILL_STG_TBL_TYPE is table of TBT_GRP_BACKFILL_STG_REC_TYPE;
22:42:54  51  
22:42:54  52  	    TBT_GRP_BACKFILL_STG_TBL TBT_GRP_BACKFILL_STG_TBL_TYPE;
22:42:54  53  
22:42:54  54  	 begin
22:42:54  55  
22:42:54  56  	    select TBT_GROUP_ID,
22:42:54  57  		   COMPANY_ID,
22:42:54  58  		   BUS_SEGMENT_ID,
22:42:54  59  		   UTILITY_ACCOUNT_ID,
22:42:54  60  		   SUB_ACCOUNT_ID,
22:42:54  61  		   TAX_LOCATION_ID,
22:42:54  62  		   CLASS_CODE_ID,
22:42:54  63  		   CLASS_CODE_VALUE,
22:42:54  64  		   GL_ACCOUNT_ID,
22:42:54  65  		   TAX_DISTINCTION_ID bulk collect
22:42:54  66  	      into TBT_GRP_BACKFILL_STG_TBL
22:42:54  67  	      from (select distinct TAX_BOOK_TRANSLATE_GROUP.TBT_GROUP_ID, TBT.*
22:42:54  68  		      from TAX_BOOK_TRANSLATE_GROUP,
22:42:54  69  			   (select INSIDE.COMPANY_ID,
22:42:54  70  				   INSIDE.BUS_SEGMENT_ID,
22:42:54  71  				   INSIDE.UTILITY_ACCOUNT_ID,
22:42:54  72  				   INSIDE.SUB_ACCOUNT_ID,
22:42:54  73  				   INSIDE.TAX_LOCATION_ID,
22:42:54  74  				   INSIDE.CLASS_CODE_ID,
22:42:54  75  				   INSIDE.CLASS_CODE_VALUE,
22:42:54  76  				   INSIDE.GL_ACCOUNT_ID,
22:42:54  77  				   INSIDE.TAX_DISTINCTION_ID,
22:42:54  78  				   LISTAGG(TAX_CLASS_ID, ':') WITHIN group(order by TAX_CLASS_ID) TAX_CLASS_ID_AGG,
22:42:54  79  				   LISTAGG(START_EFF_BOOK_VINTAGE, ':') WITHIN group(order by TAX_CLASS_ID) START_EFF_BOOK_VINTAGE_AGG,
22:42:54  80  				   LISTAGG(END_EFF_BOOK_VINTAGE, ':') WITHIN group(order by TAX_CLASS_ID) END_EFF_BOOK_VINTAGE_AGG,
22:42:54  81  				   LISTAGG(ACTIVE, ':') WITHIN group(order by TAX_CLASS_ID) ACTIVE_AGG
22:42:54  82  			      from (select TBT.*,
22:42:54  83  					   TBT_TAX_CLASS.TAX_CLASS_ID,
22:42:54  84  					   TBT_TAX_CLASS.START_EFF_BOOK_VINTAGE,
22:42:54  85  					   TBT_TAX_CLASS.END_EFF_BOOK_VINTAGE,
22:42:54  86  					   TBT_TAX_CLASS.ACTIVE
22:42:54  87  				      from (select ROWNUM TBT_GROUP_ID, INSIDE.*
22:42:54  88  					      from (select distinct COMPANY_ID,
22:42:54  89  								    BUS_SEGMENT_ID,
22:42:54  90  								    UTILITY_ACCOUNT_ID,
22:42:54  91  								    SUB_ACCOUNT_ID,
22:42:54  92  								    TAX_LOCATION_ID,
22:42:54  93  								    CLASS_CODE_ID,
22:42:54  94  								    CLASS_CODE_VALUE,
22:42:54  95  								    GL_ACCOUNT_ID,
22:42:54  96  								    TAX_DISTINCTION_ID
22:42:54  97  						      from TAX_BOOK_TRANSLATE) INSIDE) TBT,
22:42:54  98  					   (select distinct COMPANY_ID,
22:42:54  99  							    BUS_SEGMENT_ID,
22:42:54 100  							    UTILITY_ACCOUNT_ID,
22:42:54 101  							    SUB_ACCOUNT_ID,
22:42:54 102  							    TAX_LOCATION_ID,
22:42:54 103  							    CLASS_CODE_ID,
22:42:54 104  							    CLASS_CODE_VALUE,
22:42:54 105  							    GL_ACCOUNT_ID,
22:42:54 106  							    TAX_DISTINCTION_ID,
22:42:54 107  							    TAX_CLASS_ID,
22:42:54 108  							    START_EFF_BOOK_VINTAGE,
22:42:54 109  							    END_EFF_BOOK_VINTAGE,
22:42:54 110  							    ACTIVE
22:42:54 111  					      from TAX_BOOK_TRANSLATE) TBT_TAX_CLASS
22:42:54 112  				     where TBT.COMPANY_ID = TBT_TAX_CLASS.COMPANY_ID
22:42:54 113  				       and TBT.BUS_SEGMENT_ID = TBT_TAX_CLASS.BUS_SEGMENT_ID
22:42:54 114  				       and TBT.UTILITY_ACCOUNT_ID = TBT_TAX_CLASS.UTILITY_ACCOUNT_ID
22:42:54 115  				       and TBT.SUB_ACCOUNT_ID = TBT_TAX_CLASS.SUB_ACCOUNT_ID
22:42:54 116  				       and TBT.TAX_LOCATION_ID = TBT_TAX_CLASS.TAX_LOCATION_ID
22:42:54 117  				       and TBT.CLASS_CODE_ID = TBT_TAX_CLASS.CLASS_CODE_ID
22:42:54 118  				       and TBT.CLASS_CODE_VALUE = TBT_TAX_CLASS.CLASS_CODE_VALUE
22:42:54 119  				       and TBT.GL_ACCOUNT_ID = TBT_TAX_CLASS.GL_ACCOUNT_ID
22:42:54 120  				       and TBT.TAX_DISTINCTION_ID = TBT_TAX_CLASS.TAX_DISTINCTION_ID) INSIDE
22:42:54 121  			     group by INSIDE.COMPANY_ID,
22:42:54 122  				      INSIDE.BUS_SEGMENT_ID,
22:42:54 123  				      INSIDE.UTILITY_ACCOUNT_ID,
22:42:54 124  				      INSIDE.SUB_ACCOUNT_ID,
22:42:54 125  				      INSIDE.TAX_LOCATION_ID,
22:42:54 126  				      INSIDE.CLASS_CODE_ID,
22:42:54 127  				      INSIDE.CLASS_CODE_VALUE,
22:42:54 128  				      INSIDE.GL_ACCOUNT_ID,
22:42:54 129  				      INSIDE.TAX_DISTINCTION_ID) TBT
22:42:54 130  		     where TAX_BOOK_TRANSLATE_GROUP.TAX_CLASS_ID_AGG = TBT.TAX_CLASS_ID_AGG
22:42:54 131  		       and TAX_BOOK_TRANSLATE_GROUP.START_EFF_BOOK_VINTAGE_AGG =
22:42:54 132  			   TBT.START_EFF_BOOK_VINTAGE_AGG
22:42:54 133  		       and TAX_BOOK_TRANSLATE_GROUP.END_EFF_BOOK_VINTAGE_AGG =
22:42:54 134  			   TBT.END_EFF_BOOK_VINTAGE_AGG
22:42:54 135  		       and TAX_BOOK_TRANSLATE_GROUP.ACTIVE_AGG = TBT.ACTIVE_AGG);
22:42:54 136  
22:42:54 137  	    forall I in TBT_GRP_BACKFILL_STG_TBL.FIRST .. TBT_GRP_BACKFILL_STG_TBL.LAST
22:42:54 138  	    -----only update if the tbt_group_ids have changed
22:42:54 139  	       update TAX_BOOK_TRANSLATE
22:42:54 140  		  set TBT_GROUP_ID = TBT_GRP_BACKFILL_STG_TBL(I).TBT_GROUP_ID
22:42:54 141  		where COMPANY_ID = TBT_GRP_BACKFILL_STG_TBL(I).COMPANY_ID
22:42:54 142  		  and BUS_SEGMENT_ID = TBT_GRP_BACKFILL_STG_TBL(I).BUS_SEGMENT_ID
22:42:54 143  		  and UTILITY_ACCOUNT_ID = TBT_GRP_BACKFILL_STG_TBL(I).UTILITY_ACCOUNT_ID
22:42:54 144  		  and SUB_ACCOUNT_ID = TBT_GRP_BACKFILL_STG_TBL(I).SUB_ACCOUNT_ID
22:42:54 145  		  and TAX_LOCATION_ID = TBT_GRP_BACKFILL_STG_TBL(I).TAX_LOCATION_ID
22:42:54 146  		  and CLASS_CODE_ID = TBT_GRP_BACKFILL_STG_TBL(I).CLASS_CODE_ID
22:42:54 147  		  and CLASS_CODE_VALUE = TBT_GRP_BACKFILL_STG_TBL(I).CLASS_CODE_VALUE
22:42:54 148  		  and GL_ACCOUNT_ID = TBT_GRP_BACKFILL_STG_TBL(I).GL_ACCOUNT_ID
22:42:54 149  		  and TAX_DISTINCTION_ID = TBT_GRP_BACKFILL_STG_TBL(I).TAX_DISTINCTION_ID
22:42:54 150  		  and NVL(TBT_GROUP_ID,0) <> NVL(TBT_GRP_BACKFILL_STG_TBL(I).TBT_GROUP_ID, 0);
22:42:54 151  
22:42:54 152  	 end P_BACKFILL_TBT_GROUP;
22:42:54 153  
22:42:54 154  	 --****************************************************************************************************
22:42:54 155  	 --		   FUNCTIONS
22:42:54 156  	 --****************************************************************************************************
22:42:54 157  
22:42:54 158  
22:42:54 159  	 -- function to refresh the rows in tax_interface_cos
22:42:54 160  	 function F_REFRESH_INTERFACE_COS(A_CO_IDS	     in CO_IDS,
22:42:54 161  					  A_INTERFACE_OBJECT varchar2) return varchar2 is
22:42:54 162  	    L_MSG    varchar2(2000);
22:42:54 163  	    NUM_ROWS number;
22:42:54 164  	 begin
22:42:54 165  
22:42:54 166  	    L_MSG := 'Clearing out tax_interface_cos for interface ' || LOWER(A_INTERFACE_OBJECT) ||
22:42:54 167  		     '...';
22:42:54 168  	    delete from TAX_INTERFACE_COS
22:42:54 169  	     where UPPER(trim(INTERFACE_OBJECT)) = UPPER(trim(A_INTERFACE_OBJECT))
22:42:54 170  	     and USER_ID = USER ;
22:42:54 171  	    NUM_ROWS := sql%rowcount;
22:42:54 172  	    L_MSG    := NUM_ROWS || ' rows deleted.';
22:42:54 173  
22:42:54 174  	    NUM_ROWS := A_CO_IDS.COUNT;
22:42:54 175  
22:42:54 176  	    L_MSG := 'Inserting into tax_interface_cos for interface ' || LOWER(A_INTERFACE_OBJECT) ||
22:42:54 177  		     '...';
22:42:54 178  
22:42:54 179  	    for I in 1 .. NUM_ROWS
22:42:54 180  	    loop
22:42:54 181  	       L_MSG := 'Insert on row:' || I || ', company:' || A_CO_IDS(I) || ', interface object:' ||
22:42:54 182  			A_INTERFACE_OBJECT;
22:42:54 183  	       insert into TAX_INTERFACE_COS
22:42:54 184  		  (COMPANY_ID, INTERFACE_OBJECT, USER_ID)
22:42:54 185  	       values
22:42:54 186  		  (A_CO_IDS(I), A_INTERFACE_OBJECT, USER);
22:42:54 187  	    end loop;
22:42:54 188  
22:42:54 189  	    return 'OK';
22:42:54 190  	 exception
22:42:54 191  	    when others then
22:42:54 192  	       return 'ERROR on ' || L_MSG;
22:42:54 193  	 end F_REFRESH_INTERFACE_COS;
22:42:54 194  
22:42:54 195  	 -- function to return the process id for retirements interface
22:42:54 196  	 function F_GETPROCESS return number is
22:42:54 197  	 begin
22:42:54 198  	    return L_PROCESS_ID;
22:42:54 199  	 end F_GETPROCESS;
22:42:54 200  
22:42:54 201  	 -- function to clear out previously processed retirements
22:42:54 202  	 function F_REMOVE_PRIOR_TRANS(A_VERSION_ID	  number,
22:42:54 203  				       A_TAX_YEAR	  number,
22:42:54 204  				       A_INTERFACE_OBJECT varchar2) return varchar2 is
22:42:54 205  	    L_MSG    varchar2(2000);
22:42:54 206  	    NUM_ROWS number;
22:42:54 207  	 begin
22:42:54 208  
22:42:54 209  	    L_MSG := 'Deleting from basis_amounts...';
22:42:54 210  	    PKG_PP_LOG.P_WRITE_MESSAGE(L_MSG);
22:42:54 211  	    delete from BASIS_AMOUNTS BA
22:42:54 212  	     where TAX_YEAR = A_TAX_YEAR
22:42:54 213  	       and TAX_ACTIVITY_CODE_ID in (2, 4)
22:42:54 214  	       and exists (select 1
22:42:54 215  		      from TAX_RECORD_CONTROL TRC, TAX_INTERFACE_COS TIC
22:42:54 216  		     where TRC.VERSION_ID = A_VERSION_ID
22:42:54 217  		       and TRC.COMPANY_ID = TIC.COMPANY_ID
22:42:54 218  		       and TIC.INTERFACE_OBJECT = A_INTERFACE_OBJECT
22:42:54 219  		       and TIC.USER_ID = USER
22:42:54 220  		       and TRC.TAX_RECORD_ID = BA.TAX_RECORD_ID);
22:42:54 221  	    NUM_ROWS := sql%rowcount;
22:42:54 222  	    L_MSG    := NUM_ROWS || ' rows deleted.';
22:42:54 223  	    PKG_PP_LOG.P_WRITE_MESSAGE(L_MSG);
22:42:54 224  
22:42:54 225  	    L_MSG := 'Deleting from tax_ret_audit_trail_grp...';
22:42:54 226  	    PKG_PP_LOG.P_WRITE_MESSAGE(L_MSG);
22:42:54 227  	    delete from TAX_RET_AUDIT_TRAIL_GRP
22:42:54 228  	     where TAX_YEAR = A_TAX_YEAR
22:42:54 229  	       and TAX_ACTIVITY_CODE_ID in (2, 4)
22:42:54 230  	       and COMPANY_ID in
22:42:54 231  		   (select COMPANY_ID from TAX_INTERFACE_COS where INTERFACE_OBJECT = A_INTERFACE_OBJECT AND USER_ID = USER );
22:42:54 232  	    NUM_ROWS := sql%rowcount;
22:42:54 233  	    L_MSG    := NUM_ROWS || ' rows deleted.';
22:42:54 234  	    PKG_PP_LOG.P_WRITE_MESSAGE(L_MSG);
22:42:54 235  
22:42:54 236  	    L_MSG := 'Updating tax_book_transactions_grp (setting ret status to -99 where applicable)';
22:42:54 237  	    PKG_PP_LOG.P_WRITE_MESSAGE(L_MSG);
22:42:54 238  	    update TAX_BOOK_TRANSACTIONS_GRP
22:42:54 239  	       set RETIREMENT_STATUS = -99, FOUND_IND = 0, AMOUNT_UNPROCESSED = AMOUNT
22:42:54 240  	     where TAX_YEAR = A_TAX_YEAR
22:42:54 241  	       and exists (select 1
22:42:54 242  		      from TAX_INTERFACE_COS TIC
22:42:54 243  		     where TAX_BOOK_TRANSACTIONS_GRP.COMPANY_ID = TIC.COMPANY_ID
22:42:54 244  		       and TIC.INTERFACE_OBJECT = A_INTERFACE_OBJECT
22:42:54 245  		       and TIC.USER_ID = USER);
22:42:54 246  	    NUM_ROWS := sql%rowcount;
22:42:54 247  	    L_MSG    := NUM_ROWS || ' rows updated.';
22:42:54 248  	    PKG_PP_LOG.P_WRITE_MESSAGE(L_MSG);
22:42:54 249  
22:42:54 250  	    L_MSG := 'Updating tax_book_transactions_grp (setting ret status to 0 where applicable)';
22:42:54 251  	    PKG_PP_LOG.P_WRITE_MESSAGE(L_MSG);
22:42:54 252  	    update TAX_BOOK_TRANSACTIONS_GRP
22:42:54 253  	       set RETIREMENT_STATUS = 0
22:42:54 254  	     where AMOUNT = 0
22:42:54 255  	       and TAX_YEAR = A_TAX_YEAR
22:42:54 256  	       and exists (select 1
22:42:54 257  		      from TAX_INTERFACE_COS TIC
22:42:54 258  		     where TAX_BOOK_TRANSACTIONS_GRP.COMPANY_ID = TIC.COMPANY_ID
22:42:54 259  		       and TIC.INTERFACE_OBJECT = A_INTERFACE_OBJECT
22:42:54 260  		       and TIC.USER_ID = USER);
22:42:54 261  	    NUM_ROWS := sql%rowcount;
22:42:54 262  	    L_MSG    := NUM_ROWS || ' rows updated.';
22:42:54 263  	    PKG_PP_LOG.P_WRITE_MESSAGE(L_MSG);
22:42:54 264  
22:42:54 265  	    return 'OK';
22:42:54 266  
22:42:54 267  	 exception
22:42:54 268  	    when others then
22:42:54 269  	       L_MSG := SUBSTR(L_MSG || ': ' || sqlerrm, 1, 2000);
22:42:54 270  	       PKG_PP_LOG.P_WRITE_MESSAGE(L_MSG);
22:42:54 271  	       return L_MSG;
22:42:54 272  	 end F_REMOVE_PRIOR_TRANS;
22:42:54 273  
22:42:54 274  	 -- tax retire rules table holds a set of string values that the
22:42:54 275  	 -- older datawindow logic used to filter a subset of tax records
22:42:54 276  	 -- and link them to another filtered set of transactions.  This
22:42:54 277  	 -- cannot exactly be mimiced in the new PL/SQL logic.	The closest,
22:42:54 278  	 -- hopefully fastest way to mimic this will be to use this function,
22:42:54 279  	 -- called from the iteration function, to build out global table
22:42:54 280  	 -- variables of the tax records that can be used and another variable
22:42:54 281  	 -- of the transactions that can be used.  The batch functions will be
22:42:54 282  	 -- modified to join into these table variables.
22:42:54 283  	 function F_FILTER_RECORDS(
22:42:54 284  			      A_TAX_YEAR	 number,
22:42:54 285  			      A_VERSION_ID	 number,
22:42:54 286  			      A_ITERATION	 number,
22:42:54 287  			      A_INTERFACE_OBJECT varchar2) return varchar2 is
22:42:54 288  	    L_MSG	varchar2(2000);
22:42:54 289  	    SQLS	varchar2(2000);
22:42:54 290  
22:42:54 291  	    L_TAX_RECORD_IDS table_list_id_type;
22:42:54 292  	    L_TRANS_GRP_IDS table_list_id_type;
22:42:54 293  
22:42:54 294  	    type TRR_REC_TYPE is record(
22:42:54 295  	       COMPANY_ID	TAX_RETIRE_RULES.COMPANY_ID%type,
22:42:54 296  	       FFORMAT_STRING	TAX_RETIRE_RULES.FFORMAT_STRING%type,
22:42:54 297  	       GFORMAT_STRING	TAX_RETIRE_RULES.GFORMAT_STRING%type);
22:42:54 298  	    type TRR_TBL_TYPE is table of TRR_REC_TYPE;
22:42:54 299  	    TRR_TBL TRR_TBL_TYPE;
22:42:54 300  
22:42:54 301  	 begin
22:42:54 302  
22:42:54 303  	    ----initialize/reset the global table variables
22:42:54 304  	    G_TAX_RECORD_IDS	 := table_list_id_type(-1);
22:42:54 305  	    G_TAX_RECORD_IDS.delete;
22:42:54 306  	    G_TRANS_GRP_IDS	 := table_list_id_type(-1);
22:42:54 307  	    G_TRANS_GRP_IDS.delete;
22:42:54 308  
22:42:54 309  	    ----initialize/reset the local table variables used in the loops
22:42:54 310  	    L_TAX_RECORD_IDS	 := table_list_id_type(-1);
22:42:54 311  	    L_TAX_RECORD_IDS.delete;
22:42:54 312  	    L_TRANS_GRP_IDS	 := table_list_id_type(-1);
22:42:54 313  	    L_TRANS_GRP_IDS.delete;
22:42:54 314  
22:42:54 315  	    L_MSG := 'Gathering retire rule filters...';
22:42:54 316  	    PKG_PP_LOG.P_WRITE_MESSAGE(L_MSG);
22:42:54 317  
22:42:54 318  	    begin
22:42:54 319  	       select TRR.COMPANY_ID,
22:42:54 320  		      nvl(trim(TRR.FFORMAT_STRING),'1=1') FFORMAT_STRING,
22:42:54 321  		      nvl(trim(TRR.GFORMAT_STRING),'1=1') GFORMAT_STRING bulk collect
22:42:54 322  		 into TRR_TBL
22:42:54 323  		 from TAX_RETIRE_RULES TRR, TAX_INTERFACE_COS TIC
22:42:54 324  		where TRR.COMPANY_ID = TIC.COMPANY_ID
22:42:54 325  		  and TIC.INTERFACE_OBJECT = A_INTERFACE_OBJECT
22:42:54 326  		  and TIC.USER_ID = USER
22:42:54 327  		  and TRR.ITERATION = A_ITERATION
22:42:54 328  		group by TRR.COMPANY_ID,
22:42:54 329  		      TRR.FFORMAT_STRING,
22:42:54 330  		      TRR.GFORMAT_STRING;
22:42:54 331  	    ----this function is entered from 1 to max(iteration).  put an exception catch here
22:42:54 332  	    ----in case the companies selected have fewer iterations than the max.
22:42:54 333  	    exception
22:42:54 334  	       when NO_DATA_FOUND then
22:42:54 335  		  L_MSG := 'No data found.  Continuing without error...';
22:42:54 336  		  PKG_PP_LOG.P_WRITE_MESSAGE(L_MSG);
22:42:54 337  		  return 'OK';
22:42:54 338  	       when others then
22:42:54 339  		  L_MSG := SUBSTR(L_MSG || ': ' || sqlerrm, 1, 2000);
22:42:54 340  		  PKG_PP_LOG.P_WRITE_MESSAGE(L_MSG);
22:42:54 341  		  return L_MSG;
22:42:54 342  	    end;
22:42:54 343  
22:42:54 344  	    L_MSG := 'Gathering tax records to filter...';
22:42:54 345  	    PKG_PP_LOG.P_WRITE_MESSAGE(L_MSG);
22:42:54 346  
22:42:54 347  	    ----loop through the selected retire rules and build out the tax records available to use.
22:42:54 348  	    FOR indx IN 1 .. TRR_TBL.count
22:42:54 349  	    LOOP
22:42:54 350  	       begin
22:42:54 351  		  ----populate the tax record ids for this filter and company into the
22:42:54 352  		  ----local id table
22:42:54 353  		  SQLS :=
22:42:54 354  		     'SELECT DISTINCT TAX_RECORD_CONTROL.TAX_RECORD_ID '||
22:42:54 355  		     'FROM TAX_RECORD_CONTROL, VINTAGE, TAX_DEPRECIATION '||
22:42:54 356  		     'WHERE TAX_RECORD_CONTROL.VINTAGE_ID = VINTAGE.VINTAGE_ID '||
22:42:54 357  		     'AND TAX_RECORD_CONTROL.VERSION_ID = '||A_VERSION_ID||' '||
22:42:54 358  		     'AND TAX_RECORD_CONTROL.COMPANY_ID = '||TRR_TBL(indx).COMPANY_ID||' '||
22:42:54 359  		     'AND TAX_RECORD_CONTROL.TAX_RECORD_ID = TAX_DEPRECIATION.TAX_RECORD_ID ' ||
22:42:54 360  		     'AND TAX_DEPRECIATION.TAX_YEAR = ' || A_TAX_YEAR || ' '||
22:42:54 361  		     'AND TAX_DEPRECIATION.TAX_BOOK_ID = 10 ' ||
22:42:54 362  		     'AND '||TRR_TBL(indx).FFORMAT_STRING;
22:42:54 363  
22:42:54 364  		  EXECUTE IMMEDIATE SQLS
22:42:54 365  		  BULK COLLECT INTO L_TAX_RECORD_IDS;
22:42:54 366  
22:42:54 367  	       ----in case no records come back, put an exception catch here and continue
22:42:54 368  	       exception
22:42:54 369  		  when NO_DATA_FOUND then
22:42:54 370  		     L_MSG := 'No tax records found.  Continuing to next iteration...';
22:42:54 371  		     PKG_PP_LOG.P_WRITE_MESSAGE(L_MSG);
22:42:54 372  		     continue;
22:42:54 373  		  when others then
22:42:54 374  		     L_MSG := 'Error encountered on filtering tax records in retire rules loop '||
22:42:54 375  			indx||', iteration '||A_ITERATION||', company id '||TRR_TBL(indx).COMPANY_ID||','||
22:42:54 376  			' attempted SQLS :"'||SQLS||'".';
22:42:54 377  		     L_MSG := SUBSTR(L_MSG || ': ' || sqlerrm, 1, 2000);
22:42:54 378  		     PKG_PP_LOG.P_WRITE_MESSAGE(L_MSG);
22:42:54 379  		     return L_MSG;
22:42:54 380  	       end;
22:42:54 381  
22:42:54 382  	       L_MSG	:= L_TAX_RECORD_IDS.count || ' tax record ids gathered on retire rules loop '||
22:42:54 383  		  indx||', iteration '||A_ITERATION||', company id '||TRR_TBL(indx).COMPANY_ID||'.';
22:42:54 384  	       PKG_PP_LOG.P_WRITE_MESSAGE(L_MSG);
22:42:54 385  
22:42:54 386  	       ----append the gathered local tax record ids to the global tax record ids
22:42:54 387  	       G_TAX_RECORD_IDS := G_TAX_RECORD_IDS
22:42:54 388  				    MULTISET UNION
22:42:54 389  				   L_TAX_RECORD_IDS;
22:42:54 390  
22:42:54 391  	       L_MSG	:= G_TAX_RECORD_IDS.count || ' : running total of tax records gathered on retire rules loop '||
22:42:54 392  		  indx||', iteration '||A_ITERATION||', company id '||TRR_TBL(indx).COMPANY_ID||'.';
22:42:54 393  	       PKG_PP_LOG.P_WRITE_MESSAGE(L_MSG);
22:42:54 394  
22:42:54 395  	    END LOOP;
22:42:54 396  
22:42:54 397  
22:42:54 398  	    L_MSG := 'Gathering transactions to filter...';
22:42:54 399  	    PKG_PP_LOG.P_WRITE_MESSAGE(L_MSG);
22:42:54 400  
22:42:54 401  	    ----loop through the selected retire rules and build out the transactions available to use.
22:42:54 402  	    FOR indx IN 1 .. TRR_TBL.count
22:42:54 403  	    LOOP
22:42:54 404  	       begin
22:42:54 405  		  ----populate the transaction grp ids for this filter and company into the
22:42:54 406  		  ----local id table
22:42:54 407  		  SQLS :=
22:42:54 408  		     'SELECT TAX_BOOK_TRANSACTIONS_GRP.TRANS_GRP_ID '||
22:42:54 409  		     'FROM TAX_BOOK_TRANSACTIONS_GRP '||
22:42:54 410  		     'WHERE TAX_BOOK_TRANSACTIONS_GRP.TAX_YEAR = '||A_TAX_YEAR||' '||
22:42:54 411  		     'AND TAX_BOOK_TRANSACTIONS_GRP.COMPANY_ID = '||TRR_TBL(indx).COMPANY_ID||' '||
22:42:54 412  		     'AND '||TRR_TBL(indx).GFORMAT_STRING;
22:42:54 413  
22:42:54 414  		  EXECUTE IMMEDIATE SQLS
22:42:54 415  		  BULK COLLECT INTO L_TRANS_GRP_IDS;
22:42:54 416  
22:42:54 417  	       ----in case no records come back, put an exception catch here and continue
22:42:54 418  	       exception
22:42:54 419  		  when NO_DATA_FOUND then
22:42:54 420  		     L_MSG := 'No transaction groupings found.	Continuing to next iteration...';
22:42:54 421  		     PKG_PP_LOG.P_WRITE_MESSAGE(L_MSG);
22:42:54 422  		     continue;
22:42:54 423  		  when others then
22:42:54 424  		     L_MSG := 'Error encountered on filtering transactions in retire rules loop '||
22:42:54 425  			indx||', iteration '||A_ITERATION||', company id '||TRR_TBL(indx).COMPANY_ID||','||
22:42:54 426  			' attempted SQLS :"'||SQLS||'".';
22:42:54 427  		     L_MSG := SUBSTR(L_MSG || ': ' || sqlerrm, 1, 2000);
22:42:54 428  		     PKG_PP_LOG.P_WRITE_MESSAGE(L_MSG);
22:42:54 429  		     return L_MSG;
22:42:54 430  	       end;
22:42:54 431  
22:42:54 432  	       L_MSG	:= L_TRANS_GRP_IDS.count || ' trans group ids gathered on retire rules loop '||
22:42:54 433  		  indx||', iteration '||A_ITERATION||', company id '||TRR_TBL(indx).COMPANY_ID||'.';
22:42:54 434  	       PKG_PP_LOG.P_WRITE_MESSAGE(L_MSG);
22:42:54 435  
22:42:54 436  	       ----append the gathered local trans grp ids to the global trans grps ids
22:42:54 437  	       G_TRANS_GRP_IDS := G_TRANS_GRP_IDS
22:42:54 438  				    MULTISET UNION
22:42:54 439  				   L_TRANS_GRP_IDS;
22:42:54 440  
22:42:54 441  	       L_MSG	:= G_TRANS_GRP_IDS.count || ' : running total of tax records gathered on retire rules loop '||
22:42:54 442  		  indx||', iteration '||A_ITERATION||', company id '||TRR_TBL(indx).COMPANY_ID||'.';
22:42:54 443  	       PKG_PP_LOG.P_WRITE_MESSAGE(L_MSG);
22:42:54 444  
22:42:54 445  	    END LOOP;
22:42:54 446  
22:42:54 447  	    return 'OK';
22:42:54 448  
22:42:54 449  	 exception
22:42:54 450  	    when others then
22:42:54 451  	       L_MSG := SUBSTR(L_MSG || ': ' || sqlerrm, 1, 2000);
22:42:54 452  	       PKG_PP_LOG.P_WRITE_MESSAGE(L_MSG);
22:42:54 453  	       return L_MSG;
22:42:54 454  
22:42:54 455  	 end;
22:42:54 456  
22:42:54 457  	 -- function to process a batch of data (each iteration could run many batches)
22:42:54 458  	 function F_RUN_BATCH(A_TAX_YEAR	 number,
22:42:54 459  			      A_START_MO	 number,
22:42:54 460  			      A_END_MO		 number,
22:42:54 461  			      A_VERSION_ID	 number,
22:42:54 462  			      A_ITERATION	 number,
22:42:54 463  			      A_BATCH		 number,
22:42:54 464  			      A_INTERFACE_OBJECT varchar2) return varchar2 is
22:42:54 465  	    L_MSG	 varchar2(2000);
22:42:54 466  	    NUM_ROWS	 number;
22:42:54 467  	    ANALYZE_CODE number(22, 0);
22:42:54 468  	    type BA_REC_TYPE is record(
22:42:54 469  	       TAX_RECORD_ID	    BASIS_AMOUNTS.TAX_RECORD_ID%type,
22:42:54 470  	       TAX_YEAR 	    BASIS_AMOUNTS.TAX_YEAR%type,
22:42:54 471  	       TAX_ACTIVITY_CODE_ID BASIS_AMOUNTS.TAX_ACTIVITY_CODE_ID%type,
22:42:54 472  	       AMOUNT		    BASIS_AMOUNTS.AMOUNT%type);
22:42:54 473  	    type BA_TBL_TYPE is table of BA_REC_TYPE;
22:42:54 474  	    BA_TBL BA_TBL_TYPE;
22:42:54 475  
22:42:54 476  	 begin
22:42:54 477  
22:42:54 478  	    L_MSG := 'Regathering stats for tax_book_transactions_grp...';
22:42:54 479  	    PKG_PP_LOG.P_WRITE_MESSAGE(L_MSG);
22:42:54 480  	    ANALYZE_CODE := ANALYZE_TABLE('tax_book_transactions_grp');
22:42:54 481  
22:42:54 482  	    L_MSG := 'Regathering stats for basis_amounts...';
22:42:54 483  	    PKG_PP_LOG.P_WRITE_MESSAGE(L_MSG);
22:42:54 484  	    ANALYZE_CODE := ANALYZE_TABLE('basis_amounts');
22:42:54 485  
22:42:54 486  	    L_MSG := 'Inserting into tax_ret_audit_trail_grp...';
22:42:54 487  	    PKG_PP_LOG.P_WRITE_MESSAGE(L_MSG);
22:42:54 488  	    insert into TAX_RET_AUDIT_TRAIL_GRP
22:42:54 489  	       (COMPANY_ID, TAX_ACTIVITY_CODE_ID, IN_SERVICE_YEAR, TAX_YEAR, START_MONTH, END_MONTH,
22:42:54 490  		TRANS_GRP_ID, START_EFF_BOOK_VINTAGE, END_EFF_BOOK_VINTAGE, BOOK_BALANCE,
22:42:54 491  		HOLD_SUM_BOOK_BALANCE, FINAL_AMOUNT, TRANS_AMOUNT, VINTAGE_YEAR, TAX_RECORD_ID,
22:42:54 492  		RETIREMENT_STATUS, TRID_VINTAGE_YEAR, BATCH, ITERATION, TBT_GROUP_ID, ASSET_ID)
22:42:54 493  	       select COMPANY_ID,
22:42:54 494  		      TAX_ACTIVITY_CODE_ID,
22:42:54 495  		      IN_SERVICE_YEAR,
22:42:54 496  		      TAX_YEAR,
22:42:54 497  		      START_MONTH,
22:42:54 498  		      END_MONTH,
22:42:54 499  		      TRANS_GRP_ID,
22:42:54 500  		      START_EFF_BOOK_VINTAGE,
22:42:54 501  		      END_EFF_BOOK_VINTAGE,
22:42:54 502  		      BOOK_BALANCE,
22:42:54 503  		      BALANCE,
22:42:54 504  		      NEW_RETIREMENT,
22:42:54 505  		      TRANS_AMOUNT,
22:42:54 506  		      BOOK_VINTAGE_YEAR,
22:42:54 507  		      TAX_RECORD_ID,
22:42:54 508  		      RETIREMENT_STATUS,
22:42:54 509  		      VINTAGE_YEAR,
22:42:54 510  		      BATCH,
22:42:54 511  		      ITERATION,
22:42:54 512  		      TBT_GROUP_ID,
22:42:54 513  		      ASSET_ID
22:42:54 514  		 from (select COMPANY_ID,
22:42:54 515  			      TAX_ACTIVITY_CODE_ID,
22:42:54 516  			      IN_SERVICE_YEAR,
22:42:54 517  			      TAX_YEAR,
22:42:54 518  			      START_MONTH,
22:42:54 519  			      END_MONTH,
22:42:54 520  			      TRANS_GRP_ID,
22:42:54 521  			      START_EFF_BOOK_VINTAGE,
22:42:54 522  			      END_EFF_BOOK_VINTAGE,
22:42:54 523  			      BOOK_BALANCE,
22:42:54 524  			      BALANCE,
22:42:54 525  			      DECODE(SIGN(TRANS_AMOUNT),
22:42:54 526  				     -1,
22:42:54 527  				     NEW_RETIREMENT,
22:42:54 528  				     DECODE(SIGN(BALANCE - NEW_RETIREMENT),
22:42:54 529  					    -1,
22:42:54 530  					    BALANCE,
22:42:54 531  					    NEW_RETIREMENT)) NEW_RETIREMENT,
22:42:54 532  			      TRANS_AMOUNT,
22:42:54 533  			      BOOK_VINTAGE_YEAR,
22:42:54 534  			      TAX_RECORD_ID,
22:42:54 535  			      DECODE(SIGN(TRANS_AMOUNT),
22:42:54 536  				     -1,
22:42:54 537  				     ITERATION,
22:42:54 538  				     DECODE(SIGN(BALANCE - NEW_RETIREMENT),
22:42:54 539  					    -1,
22:42:54 540  					    -98,
22:42:54 541  					    ITERATION))  RETIREMENT_STATUS,
22:42:54 542  			      VINTAGE_YEAR,
22:42:54 543  			      (A_BATCH) BATCH,
22:42:54 544  			      ITERATION,
22:42:54 545  			      TBT_GROUP_ID,
22:42:54 546  			      ASSET_ID,
22:42:54 547  			      ALLOC_SUBTOTAL,
22:42:54 548  			      FIFO,
22:42:54 549  			      max(TRID_RANK) OVER(partition by TRANS_GRP_ID) TRANS_RANK
22:42:54 550  			 from (select distinct TBT.COMPANY_ID COMPANY_ID,
22:42:54 551  					       TBT.TAX_ACTIVITY_CODE_ID TAX_ACTIVITY_CODE_ID,
22:42:54 552  					       TBT.IN_SERVICE_YEAR IN_SERVICE_YEAR,
22:42:54 553  					       TBT.TAX_YEAR,
22:42:54 554  					       (A_START_MO) START_MONTH,
22:42:54 555  					       (A_END_MO) END_MONTH,
22:42:54 556  					       TBT.TRANS_GRP_ID TRANS_GRP_ID,
22:42:54 557  					       TBX.START_EFF_BOOK_VINTAGE,
22:42:54 558  					       TBX.END_EFF_BOOK_VINTAGE,
22:42:54 559  					       TD.BOOK_BALANCE,
22:42:54 560  					       (NVL(TD.BOOK_BALANCE, 0) + NVL(BA.AMOUNT, 0) + NVL(TDT.BOOK_BALANCE, 0)) BALANCE,
22:42:54 561  					       DECODE(( sum( NVL(TD.BOOK_BALANCE, 0) + NVL(BA.AMOUNT, 0) + NVL(TDT.BOOK_BALANCE, 0) )
22:42:54 562  							  OVER(partition by TRANS_GRP_ID) ) ,
22:42:54 563  							0,
22:42:54 564  							0,
22:42:54 565  							DECODE(TRR.FIFO,
22:42:54 566  							     0,
22:42:54 567  							     decode(
22:42:54 568  								sign(TBT.AMOUNT),
22:42:54 569  								-1,
22:42:54 570  								DECODE(DENSE_RANK()
22:42:54 571  								       OVER(partition by TBT.TRANS_GRP_ID
22:42:54 572  									  order by
22:42:54 573  									   decode(SIGN(TD.BOOK_BALANCE),-1,1,2) ASC,
22:42:54 574  									   abs(TD.BOOK_BALANCE) desc,
22:42:54 575  									   TRC.TAX_RECORD_ID),
22:42:54 576  								       1,
22:42:54 577  								       1,
22:42:54 578  								       0) * TBT.AMOUNT_UNPROCESSED,
22:42:54 579  								( NVL(TD.BOOK_BALANCE, 0) + NVL(BA.AMOUNT, 0) + NVL(TDT.BOOK_BALANCE, 0) ) /
22:42:54 580  								      ( sum( NVL(TD.BOOK_BALANCE, 0) + NVL(BA.AMOUNT, 0) + NVL(TDT.BOOK_BALANCE, 0) )
22:42:54 581  									 OVER(partition by TRANS_GRP_ID) ) * TBT.AMOUNT_UNPROCESSED
22:42:54 582  							      ) ,
22:42:54 583  							      DECODE(DENSE_RANK()
22:42:54 584  								     OVER(partition by TBT.TRANS_GRP_ID
22:42:54 585  									  order by
22:42:54 586  									  V.YEAR,
22:42:54 587  									  ABS(TD.BOOK_BALANCE) desc,
22:42:54 588  									  TRC.TAX_RECORD_ID),
22:42:54 589  								     1,
22:42:54 590  								     1,
22:42:54 591  								     0) * TBT.AMOUNT_UNPROCESSED)) NEW_RETIREMENT,
22:42:54 592  					       TBT.AMOUNT TRANS_AMOUNT,
22:42:54 593  					       TO_NUMBER(TO_CHAR(TBT.IN_SERVICE_YEAR, 'YYYY')) BOOK_VINTAGE_YEAR,
22:42:54 594  					       TRC.TAX_RECORD_ID TAX_RECORD_ID,
22:42:54 595  					       A_ITERATION ITERATION,
22:42:54 596  					       TBT.TBT_GROUP_ID,
22:42:54 597  					       TBT.ASSET_ID,
22:42:54 598  					       V.YEAR VINTAGE_YEAR,
22:42:54 599  					       TBT.AMOUNT_UNPROCESSED,
22:42:54 600  					       sum(NVL(TD.BOOK_BALANCE, 0) + NVL(BA.AMOUNT, 0) +
22:42:54 601  						   NVL(TDT.BOOK_BALANCE, 0)) OVER(partition by TRANS_GRP_ID) ALLOC_SUBTOTAL,
22:42:54 602  					       TRR.FIFO,
22:42:54 603  					       RANK() OVER(partition by TRC.TAX_RECORD_ID order by DECODE(SIGN(TBT.AMOUNT),-1,1,2) ASC, TBT.AMOUNT desc) TRID_RANK
22:42:54 604  				 from TAX_BOOK_TRANSACTIONS_GRP TBT,
22:42:54 605  				      TAX_BOOK_TRANSLATE_GROUP_MAP TBX,
22:42:54 606  				      COMPANY C,
22:42:54 607  				      TAX_INTERFACE_COS TIC,
22:42:54 608  				      (select COMPANY_ID,
22:42:54 609  					      ITERATION,
22:42:54 610  					      VINTAGE_FORWARD,
22:42:54 611  					      VINTAGE_BACK,
22:42:54 612  					      FIFO,
22:42:54 613  					      MIN_VINTAGE
22:42:54 614  					 from TAX_RETIRE_RULES TRR
22:42:54 615  				       union
22:42:54 616  				       select distinct COMPANY_ID,
22:42:54 617  						       1 ITERATION,
22:42:54 618  						       0 VINTAGE_FORWARD,
22:42:54 619  						       0 VINTAGE_BACK,
22:42:54 620  						       0 FIFO,
22:42:54 621  						       1969 MIN_VINTAGE
22:42:54 622  					 from (select distinct COMPANY_ID
22:42:54 623  						 from TAX_BOOK_TRANSACTIONS
22:42:54 624  					       minus
22:42:54 625  					       select COMPANY_ID
22:42:54 626  						 from TAX_RETIRE_RULES)) TRR,
22:42:54 627  				      TAX_DEPRECIATION TD,
22:42:54 628  				      TAX_RECORD_CONTROL TRC,
22:42:54 629  				      VINTAGE V,
22:42:54 630  				      (select BA2.TAX_RECORD_ID,
22:42:54 631  					      BA2.TAX_YEAR,
22:42:54 632  					      sum(NVL(BA2.AMOUNT, 0) * NVL(TAC2.SIGN, 1)) AMOUNT
22:42:54 633  					 from BASIS_AMOUNTS	 BA2,
22:42:54 634  					      TAX_ACTIVITY_CODE  TAC2,
22:42:54 635  					      TAX_RECORD_CONTROL TRC2
22:42:54 636  					where BA2.TAX_ACTIVITY_CODE_ID = TAC2.TAX_ACTIVITY_CODE_ID(+)
22:42:54 637  					  and BA2.TAX_ACTIVITY_CODE_ID <> 12
22:42:54 638  					  and BA2.TAX_RECORD_ID = TRC2.TAX_RECORD_ID
22:42:54 639  					  and TRC2.VERSION_ID = A_VERSION_ID
22:42:54 640  					  and BA2.TAX_YEAR = A_TAX_YEAR
22:42:54 641  					group by BA2.TAX_RECORD_ID, BA2.TAX_YEAR) BA,
22:42:54 642  				      (select TDT2.TAX_RECORD_ID,
22:42:54 643  					      TDT2.TAX_YEAR,
22:42:54 644  					      TDT2.TAX_BOOK_ID,
22:42:54 645  					      sum(NVL(TDT2.BOOK_BALANCE, 0)) BOOK_BALANCE
22:42:54 646  					 from TAX_DEPRECIATION_TRANSFER TDT2, TAX_RECORD_CONTROL TRC2
22:42:54 647  					where TDT2.TAX_RECORD_ID = TRC2.TAX_RECORD_ID
22:42:54 648  					  and TRC2.VERSION_ID = A_VERSION_ID
22:42:54 649  					  and TDT2.TAX_YEAR = A_TAX_YEAR
22:42:54 650  					  and TDT2.TAX_BOOK_ID = 10
22:42:54 651  					group by TDT2.TAX_RECORD_ID, TDT2.TAX_YEAR, TDT2.TAX_BOOK_ID) TDT
22:42:54 652  				where TBT.TBT_GROUP_ID = TBX.TBT_GROUP_ID
22:42:54 653  				  and TBT.TAX_YEAR = A_TAX_YEAR
22:42:54 654  				  and TBT.COMPANY_ID = C.COMPANY_ID
22:42:54 655  				  and TBT.COMPANY_ID = TRR.COMPANY_ID
22:42:54 656  				  and TBT.COMPANY_ID = TIC.COMPANY_ID
22:42:54 657  				  and TIC.INTERFACE_OBJECT = A_INTERFACE_OBJECT
22:42:54 658  				  and TIC.USER_ID = USER
22:42:54 659  				  and TBT.AMOUNT <> 0
22:42:54 660  				  and TBT.TAX_ACTIVITY_CODE_ID in (2, 4)
22:42:54 661  				  and TBT.RETIREMENT_STATUS in (-99, -98)
22:42:54 662  				  and TRR.ITERATION = A_ITERATION
22:42:54 663  				  and TD.TAX_RECORD_ID = TRC.TAX_RECORD_ID
22:42:54 664  				  and TD.TAX_BOOK_ID = 10
22:42:54 665  				  and TRC.COMPANY_ID = C.COMPANY_ID
22:42:54 666  				  and TRC.VINTAGE_ID = V.VINTAGE_ID
22:42:54 667  				  and TD.TAX_RECORD_ID = BA.TAX_RECORD_ID(+)
22:42:54 668  				  and TD.TAX_YEAR = BA.TAX_YEAR(+)
22:42:54 669  				  and TD.TAX_RECORD_ID = TDT.TAX_RECORD_ID(+)
22:42:54 670  				  and TD.TAX_BOOK_ID = TDT.TAX_BOOK_ID(+)
22:42:54 671  				  and TD.TAX_YEAR = TDT.TAX_YEAR(+)
22:42:54 672  				  and TRC.COMPANY_ID = TBT.COMPANY_ID
22:42:54 673  				  and TRC.ASSET_ID = TBT.ASSET_ID
22:42:54 674  				  and TRC.VERSION_ID = A_VERSION_ID
22:42:54 675  				  and TBX.TAX_CLASS_ID = TRC.TAX_CLASS_ID
22:42:54 676  				  and TBT.TAX_YEAR = TD.TAX_YEAR
22:42:54 677  				  and TRC.TAX_RECORD_ID in ( select * from table(G_TAX_RECORD_IDS)) --filter records from retire rules and filter function
22:42:54 678  				  and TBT.TRANS_GRP_ID in ( select * from table(G_TRANS_GRP_IDS)) --filter transactions from retire rules and filter function
22:42:54 679  				  and TO_NUMBER(TO_CHAR(TBT.IN_SERVICE_YEAR,'YYYY')) >= TBX.START_EFF_BOOK_VINTAGE
22:42:54 680  				  and TO_NUMBER(TO_CHAR(TBT.IN_SERVICE_YEAR,'YYYY')) <= TBX.END_EFF_BOOK_VINTAGE
22:42:54 681  				  and V.YEAR <= DECODE(SIGN(TO_NUMBER(TO_CHAR(TBT.IN_SERVICE_YEAR, 'YYYY')) -
22:42:54 682  							    MIN_VINTAGE),
22:42:54 683  						       -1,
22:42:54 684  						       MIN_VINTAGE,
22:42:54 685  						       TO_NUMBER(TO_CHAR(TBT.IN_SERVICE_YEAR, 'YYYY'))) +
22:42:54 686  				      TRR.VINTAGE_FORWARD
22:42:54 687  				  and V.YEAR >= DECODE(SIGN(TO_NUMBER(TO_CHAR(TBT.IN_SERVICE_YEAR, 'YYYY')) -
22:42:54 688  							    MIN_VINTAGE),
22:42:54 689  						       -1,
22:42:54 690  						       MIN_VINTAGE,
22:42:54 691  						       TO_NUMBER(TO_CHAR(TBT.IN_SERVICE_YEAR, 'YYYY'))) -
22:42:54 692  				      TRR.VINTAGE_BACK
22:42:54 693  				  and 1 = DECODE(SIGN(TBT.AMOUNT),
22:42:54 694  						 -1,
22:42:54 695  						 1,
22:42:54 696  						 SIGN(NVL(TD.BOOK_BALANCE, 0) + NVL(BA.AMOUNT, 0) +
22:42:54 697  						      NVL(TDT.BOOK_BALANCE, 0)))
22:42:54 698  				  )
22:42:54 699  			where DECODE(SIGN(TRANS_AMOUNT),
22:42:54 700  				     -1,
22:42:54 701  				     NEW_RETIREMENT,
22:42:54 702  					DECODE(SIGN(BALANCE - NEW_RETIREMENT),
22:42:54 703  					    -1,
22:42:54 704  					    BALANCE,
22:42:54 705  					    NEW_RETIREMENT)) <> 0)
22:42:54 706  		where TRANS_RANK = 1;
22:42:54 707  	    NUM_ROWS := sql%rowcount;
22:42:54 708  	    L_MSG    := NUM_ROWS || ' rows inserted into tax_ret_audit_trail_grp.';
22:42:54 709  	    PKG_PP_LOG.P_WRITE_MESSAGE(L_MSG);
22:42:54 710  
22:42:54 711  	    if NUM_ROWS = 0 then
22:42:54 712  	       L_MSG := 'Exiting function on 0 rows inserts';
22:42:54 713  	       PKG_PP_LOG.P_WRITE_MESSAGE(L_MSG);
22:42:54 714  	       return 'ZERO ROWS';
22:42:54 715  	    end if;
22:42:54 716  
22:42:54 717  	    L_MSG := 'Updating tax_book_transactions_grp...';
22:42:54 718  	    PKG_PP_LOG.P_WRITE_MESSAGE(L_MSG);
22:42:54 719  	    update TAX_BOOK_TRANSACTIONS_GRP TBT
22:42:54 720  	       set RETIREMENT_STATUS = NVL((select max(RETIREMENT_STATUS)
22:42:54 721  					      from TAX_RET_AUDIT_TRAIL_GRP TRAT, TAX_INTERFACE_COS TIC
22:42:54 722  					     where TRAT.TRANS_GRP_ID = TBT.TRANS_GRP_ID
22:42:54 723  					       and TRAT.COMPANY_ID = TBT.COMPANY_ID
22:42:54 724  					       and TRAT.TAX_YEAR = TBT.TAX_YEAR
22:42:54 725  					       and TBT.TAX_YEAR = A_TAX_YEAR
22:42:54 726  					       and TBT.COMPANY_ID = TIC.COMPANY_ID
22:42:54 727  					       and TIC.INTERFACE_OBJECT = A_INTERFACE_OBJECT
22:42:54 728  					       and TIC.USER_ID = USER),
22:42:54 729  					    -99),
22:42:54 730  		   AMOUNT_UNPROCESSED = AMOUNT_UNPROCESSED -
22:42:54 731  					 NVL((select sum(FINAL_AMOUNT)
22:42:54 732  					       from TAX_RET_AUDIT_TRAIL_GRP TRAT, TAX_INTERFACE_COS TIC
22:42:54 733  					      where TRAT.TRANS_GRP_ID = TBT.TRANS_GRP_ID
22:42:54 734  						and TRAT.COMPANY_ID = TBT.COMPANY_ID
22:42:54 735  						and TRAT.TAX_YEAR = TBT.TAX_YEAR
22:42:54 736  						and TRAT.ITERATION = A_ITERATION
22:42:54 737  						and TRAT.BATCH = A_BATCH
22:42:54 738  						and TBT.TAX_YEAR = A_TAX_YEAR
22:42:54 739  						and TRAT.COMPANY_ID = TIC.COMPANY_ID
22:42:54 740  						and TIC.INTERFACE_OBJECT = A_INTERFACE_OBJECT
22:42:54 741  						and TIC.USER_ID = USER),
22:42:54 742  					     0)
22:42:54 743  	     where exists (select 1
22:42:54 744  		      from TAX_INTERFACE_COS TIC
22:42:54 745  		     where TBT.COMPANY_ID = TIC.COMPANY_ID
22:42:54 746  		       and TIC.INTERFACE_OBJECT = A_INTERFACE_OBJECT
22:42:54 747  		       and TIC.USER_ID = USER)
22:42:54 748  	       and TAX_YEAR = A_TAX_YEAR
22:42:54 749  	       and RETIREMENT_STATUS in (-99, -98)
22:42:54 750  	       and exists (select 1
22:42:54 751  		      from TAX_RET_AUDIT_TRAIL_GRP TRAT, TAX_INTERFACE_COS TIC
22:42:54 752  		     where TRAT.TRANS_GRP_ID = TBT.TRANS_GRP_ID
22:42:54 753  		       and TRAT.COMPANY_ID = TBT.COMPANY_ID
22:42:54 754  		       and TRAT.TAX_YEAR = TBT.TAX_YEAR
22:42:54 755  		       and TRAT.ITERATION = A_ITERATION
22:42:54 756  		       and TBT.TAX_YEAR = A_TAX_YEAR
22:42:54 757  		       and TRAT.COMPANY_ID = TIC.COMPANY_ID
22:42:54 758  		       and TIC.INTERFACE_OBJECT = A_INTERFACE_OBJECT
22:42:54 759  		       and TIC.USER_ID = USER);
22:42:54 760  	    NUM_ROWS := sql%rowcount;
22:42:54 761  	    L_MSG    := NUM_ROWS || ' rows updated on tax_book_transactions_grp.';
22:42:54 762  	    PKG_PP_LOG.P_WRITE_MESSAGE(L_MSG);
22:42:54 763  
22:42:54 764  	    L_MSG := 'Updating basis_amounts...';
22:42:54 765  	    PKG_PP_LOG.P_WRITE_MESSAGE(L_MSG);
22:42:54 766  	    select TRAT.TAX_RECORD_ID,
22:42:54 767  		   TRAT.TAX_YEAR,
22:42:54 768  		   TRAT.TAX_ACTIVITY_CODE_ID,
22:42:54 769  		   sum(TRAT.FINAL_AMOUNT) bulk collect
22:42:54 770  	      into BA_TBL
22:42:54 771  	      from TAX_RET_AUDIT_TRAIL_GRP TRAT, TAX_INTERFACE_COS TIC
22:42:54 772  	     where TRAT.COMPANY_ID = TIC.COMPANY_ID
22:42:54 773  	       and TIC.INTERFACE_OBJECT = A_INTERFACE_OBJECT
22:42:54 774  	       and TIC.USER_ID = USER
22:42:54 775  	       and TRAT.TAX_YEAR = A_TAX_YEAR
22:42:54 776  	       and TRAT.ITERATION = A_ITERATION
22:42:54 777  	       and TRAT.BATCH = A_BATCH
22:42:54 778  	     group by TRAT.TAX_RECORD_ID, TRAT.TAX_YEAR, TRAT.TAX_ACTIVITY_CODE_ID;
22:42:54 779  
22:42:54 780  	    forall I in BA_TBL.FIRST .. BA_TBL.LAST
22:42:54 781  	       update BASIS_AMOUNTS
22:42:54 782  		  set AMOUNT = AMOUNT + BA_TBL(I).AMOUNT
22:42:54 783  		where TAX_RECORD_ID = BA_TBL(I).TAX_RECORD_ID
22:42:54 784  		  and TAX_YEAR = BA_TBL(I).TAX_YEAR
22:42:54 785  		  and TAX_ACTIVITY_CODE_ID = BA_TBL(I).TAX_ACTIVITY_CODE_ID
22:42:54 786  		  and TAX_YEAR = A_TAX_YEAR;
22:42:54 787  	    NUM_ROWS := BA_TBL.COUNT;
22:42:54 788  	    L_MSG    := NUM_ROWS || ' rows updated on basis_amounts.';
22:42:54 789  	    PKG_PP_LOG.P_WRITE_MESSAGE(L_MSG);
22:42:54 790  
22:42:54 791  	    L_MSG := 'Inserting into basis_amounts...';
22:42:54 792  	    PKG_PP_LOG.P_WRITE_MESSAGE(L_MSG);
22:42:54 793  	    insert into BASIS_AMOUNTS BA
22:42:54 794  	       (TAX_RECORD_ID, TAX_ACTIVITY_CODE_ID, TAX_YEAR, TAX_INCLUDE_ID, AMOUNT)
22:42:54 795  	       select TRAT.TAX_RECORD_ID,
22:42:54 796  		      TRAT.TAX_ACTIVITY_CODE_ID,
22:42:54 797  		      A_TAX_YEAR,
22:42:54 798  		      1 TAX_INCLUDE_ID,
22:42:54 799  		      sum(TRAT.FINAL_AMOUNT) AMOUNT
22:42:54 800  		 from TAX_RET_AUDIT_TRAIL_GRP TRAT, TAX_INTERFACE_COS TIC
22:42:54 801  		where TRAT.TAX_YEAR = A_TAX_YEAR
22:42:54 802  		  and TRAT.COMPANY_ID = TIC.COMPANY_ID
22:42:54 803  		  and TIC.INTERFACE_OBJECT = A_INTERFACE_OBJECT
22:42:54 804  		  and TIC.USER_ID = USER
22:42:54 805  		  and TRAT.ITERATION = A_ITERATION
22:42:54 806  		  and TRAT.BATCH = A_BATCH
22:42:54 807  		  and not exists (select 1
22:42:54 808  			 from BASIS_AMOUNTS BA
22:42:54 809  			where BA.TAX_RECORD_ID = TRAT.TAX_RECORD_ID
22:42:54 810  			  and BA.TAX_YEAR = TRAT.TAX_YEAR
22:42:54 811  			  and BA.TAX_ACTIVITY_CODE_ID = TRAT.TAX_ACTIVITY_CODE_ID
22:42:54 812  			  and BA.TAX_YEAR = A_TAX_YEAR)
22:42:54 813  		group by TRAT.TAX_RECORD_ID, TRAT.TAX_ACTIVITY_CODE_ID, A_TAX_YEAR;
22:42:54 814  	    NUM_ROWS := sql%rowcount;
22:42:54 815  	    L_MSG    := NUM_ROWS || ' rows inserted into basis_amounts.';
22:42:54 816  	    PKG_PP_LOG.P_WRITE_MESSAGE(L_MSG);
22:42:54 817  
22:42:54 818  	    return 'OK';
22:42:54 819  
22:42:54 820  	 exception
22:42:54 821  	    when others then
22:42:54 822  	       L_MSG := SUBSTR(L_MSG || ': ' || sqlerrm, 1, 2000);
22:42:54 823  	       PKG_PP_LOG.P_WRITE_MESSAGE(L_MSG);
22:42:54 824  	       return L_MSG;
22:42:54 825  	 end F_RUN_BATCH;
22:42:54 826  
22:42:54 827  	 -- function to process the retirements
22:42:54 828  	 function F_RUN_ITERATION(A_TAX_YEAR	     number,
22:42:54 829  				  A_START_MO	     number,
22:42:54 830  				  A_END_MO	     number,
22:42:54 831  				  A_VERSION_ID	     number,
22:42:54 832  				  A_INTERFACE_OBJECT varchar2) return varchar2 is
22:42:54 833  	    L_MSG     varchar2(2000);
22:42:54 834  	    MAX_ITER  number;
22:42:54 835  	    BATCH_NO  number;
22:42:54 836  	    ZERO_ROWS boolean;
22:42:54 837  	 begin
22:42:54 838  
22:42:54 839  	    L_MSG := 'Retrieving max number of iterations to run.';
22:42:54 840  	    PKG_PP_LOG.P_WRITE_MESSAGE(L_MSG);
22:42:54 841  
22:42:54 842  	    select max(NVL(ITERATION, 0))
22:42:54 843  	      into MAX_ITER
22:42:54 844  	      from TAX_RETIRE_RULES TRR, TAX_INTERFACE_COS TIC
22:42:54 845  	     where TRR.COMPANY_ID = TIC.COMPANY_ID
22:42:54 846  	       and TIC.INTERFACE_OBJECT = A_INTERFACE_OBJECT
22:42:54 847  	       and TIC.USER_ID = USER;
22:42:54 848  
22:42:54 849  	    if MAX_ITER < 1 or MAX_ITER is null then
22:42:54 850  	       L_MSG := 'Error on selecting the max iteration from tax retire rules for applicable companies';
22:42:54 851  	       PKG_PP_LOG.P_WRITE_MESSAGE(L_MSG);
22:42:54 852  	       return L_MSG;
22:42:54 853  	    end if;
22:42:54 854  
22:42:54 855  	    for I in 1 .. MAX_ITER
22:42:54 856  	    loop
22:42:54 857  	       L_MSG := 'Entering iteration loop ' || I || ' of ' || MAX_ITER;
22:42:54 858  	       PKG_PP_LOG.P_WRITE_MESSAGE(L_MSG);
22:42:54 859  
22:42:54 860  	       L_MSG := ' ';
22:42:54 861  	       PKG_PP_LOG.P_WRITE_MESSAGE(L_MSG);
22:42:54 862  	       L_MSG := 'Entering filter function. Iteration ' || I || '.';
22:42:54 863  	       PKG_PP_LOG.P_WRITE_MESSAGE(L_MSG);
22:42:54 864  
22:42:54 865  	       L_MSG := F_FILTER_RECORDS(A_TAX_YEAR, A_VERSION_ID, I, A_INTERFACE_OBJECT);
22:42:54 866  	       if L_MSG <> 'OK' then
22:42:54 867  		  PKG_PP_LOG.P_END_LOG();
22:42:54 868  		  return L_MSG;
22:42:54 869  	       end if;
22:42:54 870  
22:42:54 871  	       BATCH_NO  := 1;
22:42:54 872  	       ZERO_ROWS := false;
22:42:54 873  
22:42:54 874  	       while ZERO_ROWS = false
22:42:54 875  	       loop
22:42:54 876  
22:42:54 877  		  if BATCH_NO > 100000 then
22:42:54 878  		     L_MSG := 'Infinite Loop Error Encountered! Exiting!';
22:42:54 879  		     PKG_PP_LOG.P_WRITE_MESSAGE(L_MSG);
22:42:54 880  		     return L_MSG;
22:42:54 881  		  end if;
22:42:54 882  
22:42:54 883  		  L_MSG := ' ';
22:42:54 884  		  PKG_PP_LOG.P_WRITE_MESSAGE(L_MSG);
22:42:54 885  		  L_MSG := 'Entering batch function. Iteration ' || I || ', Batch ' || BATCH_NO || '.';
22:42:54 886  		  PKG_PP_LOG.P_WRITE_MESSAGE(L_MSG);
22:42:54 887  		  L_MSG := F_RUN_BATCH(A_TAX_YEAR,
22:42:54 888  				       A_START_MO,
22:42:54 889  				       A_END_MO,
22:42:54 890  				       A_VERSION_ID,
22:42:54 891  				       I,
22:42:54 892  				       BATCH_NO,
22:42:54 893  				       A_INTERFACE_OBJECT);
22:42:54 894  		  if L_MSG = 'ZERO ROWS' then
22:42:54 895  		     ZERO_ROWS := true;
22:42:54 896  		  elsif L_MSG <> 'OK' then
22:42:54 897  		     PKG_PP_LOG.P_WRITE_MESSAGE(L_MSG);
22:42:54 898  		     return L_MSG;
22:42:54 899  		  end if;
22:42:54 900  
22:42:54 901  		  BATCH_NO := BATCH_NO + 1;
22:42:54 902  
22:42:54 903  	       end loop;
22:42:54 904  
22:42:54 905  	    end loop;
22:42:54 906  
22:42:54 907  	    return 'OK';
22:42:54 908  
22:42:54 909  	 exception
22:42:54 910  	    when others then
22:42:54 911  	       return L_MSG;
22:42:54 912  	       L_MSG := SUBSTR(L_MSG || ': ' || sqlerrm, 1, 2000);
22:42:54 913  	       PKG_PP_LOG.P_WRITE_MESSAGE(L_MSG);
22:42:54 914  	       return L_MSG;
22:42:54 915  	 end F_RUN_ITERATION;
22:42:54 916  
22:42:54 917  	 -- function to start the log, clear out the retirements, process the retirements, end the log
22:42:54 918  	 function F_POWERTAX_RETS(A_TAX_YEAR	     number,
22:42:54 919  				  A_START_MO	     number,
22:42:54 920  				  A_END_MO	     number,
22:42:54 921  				  A_VERSION_ID	     number,
22:42:54 922  				  A_INTERFACE_OBJECT varchar2) return varchar2 is
22:42:54 923  	    L_MSG	   varchar2(2000);
22:42:54 924  	    L_PKG_VERSION  varchar2(2000);
22:42:54 925  	    CO_PARSE_VAR   number;
22:42:54 926  	    I		   number;
22:42:54 927  	    CUR_CO_ID	   number;
22:42:54 928  	    CO_PARSE_COUNT number;
22:42:54 929  	    CO_IDS_STR	   varchar2(2000);
22:42:54 930  	    L_RTN_CODE	   number(22, 0);
22:42:54 931  
22:42:54 932  	    cursor CO_IDS is
22:42:54 933  	       select COMPANY_ID
22:42:54 934  		 from TAX_INTERFACE_COS
22:42:54 935  		where INTERFACE_OBJECT = A_INTERFACE_OBJECT
22:42:54 936  		and USER_ID = USER
22:42:54 937  		order by COMPANY_ID;
22:42:54 938  
22:42:54 939  	 begin
22:42:54 940  
22:42:54 941  	    if L_PROCESS_ID = -1 or L_PROCESS_ID is null then
22:42:54 942  	       P_SETPROCESS();
22:42:54 943  	    end if;
22:42:54 944  
22:42:54 945  	    PKG_PP_LOG.P_START_LOG(L_PROCESS_ID);
22:42:54 946  
22:42:54 947  	    PKG_PP_LOG.P_WRITE_MESSAGE('Process started (PLSQL DB processing) ');
22:42:54 948  
22:42:54 949  	    L_PKG_VERSION := F_GET_VERSION();
22:42:54 950  	    PKG_PP_LOG.P_WRITE_MESSAGE('Retirements Package version : '||L_PKG_VERSION);
22:42:54 951  	    PKG_PP_LOG.P_WRITE_MESSAGE('Processing with the following variable definitions:');
22:42:54 952  	    PKG_PP_LOG.P_WRITE_MESSAGE('Tax Year : ' || A_TAX_YEAR);
22:42:54 953  	    PKG_PP_LOG.P_WRITE_MESSAGE('Start Mo : ' || A_START_MO);
22:42:54 954  	    PKG_PP_LOG.P_WRITE_MESSAGE('End Mo : ' || A_END_MO);
22:42:54 955  	    PKG_PP_LOG.P_WRITE_MESSAGE('Interface Object : ' || A_INTERFACE_OBJECT);
22:42:54 956  
22:42:54 957  	    ---- turn off auditing.
22:42:54 958  	    L_RTN_CODE := AUDIT_TABLE_PKG.SETCONTEXT('audit', 'no');
22:42:54 959  	    PKG_PP_LOG.P_WRITE_MESSAGE('Turn off auditing return code : ' || L_RTN_CODE);
22:42:54 960  
22:42:54 961  	    -- routine to log the company ids being used.  Hard coding the logs to do 10
22:42:54 962  	    -- per line of the logs.
22:42:54 963  	    CO_PARSE_VAR   := 10;
22:42:54 964  	    CO_PARSE_COUNT := 1;
22:42:54 965  	    I		   := 1;
22:42:54 966  	    open CO_IDS;
22:42:54 967  	    loop
22:42:54 968  	       fetch CO_IDS
22:42:54 969  		  into CUR_CO_ID;
22:42:54 970  	       exit when CO_IDS %notfound;
22:42:54 971  
22:42:54 972  	       if CO_PARSE_COUNT <> 1 then
22:42:54 973  		  CO_IDS_STR := CO_IDS_STR || ',' || TO_CHAR(CUR_CO_ID);
22:42:54 974  	       else
22:42:54 975  		  CO_IDS_STR := TO_CHAR(CUR_CO_ID);
22:42:54 976  	       end if;
22:42:54 977  	       if I = 1 then
22:42:54 978  		  CO_IDS_STR := 'Company IDs : ' || CO_IDS_STR;
22:42:54 979  	       end if;
22:42:54 980  
22:42:54 981  	       if CO_PARSE_COUNT = CO_PARSE_VAR then
22:42:54 982  		  PKG_PP_LOG.P_WRITE_MESSAGE(CO_IDS_STR);
22:42:54 983  		  CO_PARSE_COUNT := 0;
22:42:54 984  	       end if;
22:42:54 985  	       CO_PARSE_COUNT := CO_PARSE_COUNT + 1;
22:42:54 986  	       I	      := I + 1;
22:42:54 987  	    end loop;
22:42:54 988  	    close CO_IDS;
22:42:54 989  	    if CO_PARSE_COUNT <> CO_PARSE_VAR + 1 then
22:42:54 990  	       ----after looping through and logging sets of company ids, there may be
22:42:54 991  	       ----an orphaned set of company ids that needs to be logged (the last chunck).
22:42:54 992  	       PKG_PP_LOG.P_WRITE_MESSAGE(CO_IDS_STR);
22:42:54 993  	    end if;
22:42:54 994  
22:42:54 995  	    PKG_PP_LOG.P_WRITE_MESSAGE('Version ID : ' || A_VERSION_ID);
22:42:54 996  	    PKG_PP_LOG.P_WRITE_MESSAGE('Entering resetting function...');
22:42:54 997  	    L_MSG := F_REMOVE_PRIOR_TRANS(A_VERSION_ID, A_TAX_YEAR, A_INTERFACE_OBJECT);
22:42:54 998  	    if L_MSG <> 'OK' then
22:42:54 999  	       PKG_PP_LOG.P_END_LOG();
22:42:54 1000  		return L_MSG;
22:42:54 1001  	     end if;
22:42:54 1002  	     PKG_PP_LOG.P_WRITE_MESSAGE('Function Result : ' || L_MSG);
22:42:54 1003  	     PKG_PP_LOG.P_WRITE_MESSAGE('Entering processing function...');
22:42:54 1004  	     L_MSG := F_RUN_ITERATION(A_TAX_YEAR, A_START_MO, A_END_MO, A_VERSION_ID, A_INTERFACE_OBJECT);
22:42:54 1005  	     if L_MSG <> 'OK' then
22:42:54 1006  		PKG_PP_LOG.P_END_LOG();
22:42:54 1007  		return L_MSG;
22:42:54 1008  	     end if;
22:42:54 1009  	     PKG_PP_LOG.P_WRITE_MESSAGE('Function Result : ' || L_MSG);
22:42:54 1010  
22:42:54 1011  	     ---- turn auditing back on.
22:42:54 1012  	     L_RTN_CODE := AUDIT_TABLE_PKG.SETCONTEXT('audit', 'yes');
22:42:54 1013  	     PKG_PP_LOG.P_WRITE_MESSAGE('Turn on auditing return code : ' || L_RTN_CODE);
22:42:54 1014  
22:42:54 1015  	     PKG_PP_LOG.P_WRITE_MESSAGE('Finished...');
22:42:54 1016  	     PKG_PP_LOG.P_END_LOG();
22:42:54 1017  
22:42:54 1018  
22:42:54 1019  
22:42:54 1020  	     return 'OK';
22:42:54 1021  
22:42:54 1022  	  exception
22:42:54 1023  	     when others then
22:42:54 1024  		L_MSG := SUBSTR(L_MSG || ': ' || sqlerrm, 1, 2000);
22:42:54 1025  		PKG_PP_LOG.P_WRITE_MESSAGE(L_MSG);
22:42:54 1026  		PKG_PP_LOG.P_END_LOG();
22:42:54 1027  		return L_MSG;
22:42:54 1028  	  end F_POWERTAX_RETS;
22:42:54 1029  
22:42:54 1030  end PKG_TAX_INT_RET;
22:42:54 1031  /

Package body created.

22:42:54 hopplant> 
22:42:54 hopplant> --**************************
22:42:54 hopplant> -- Log the run of the script
22:42:54 hopplant> --**************************
22:42:54 hopplant> insert into PP_SCHEMA_CHANGE_LOG
22:42:54   2  	 (ID, SKIPPED, MAJOR_VERSION, MINOR_VERSION, POINT_VERSION, PATCH_VERSION, MAINT_NUM, SCRIPT_PATH,
22:42:54   3  	  SCRIPT_NAME, SCRIPT_REVISION, DATE_APPLIED, OS_USER, TERMINAL, SERVICE_NAME)
22:42:54   4  values
22:42:54   5  	 (16291, 0, 2018, 2, 0, 0, 0, 'c:\plasticwks\powerplant\sql\packages',
22:42:54   6  	  'PKG_TAX_INT_RET.sql', 1, SYSTIMESTAMP, SYS_CONTEXT('USERENV', 'OS_USER'), SYS_CONTEXT('USERENV', 'TERMINAL'), SYS_CONTEXT('USERENV', 'SERVICE_NAME'));

1 row created.

22:42:54 hopplant> commit;

Commit complete.

22:42:54 hopplant> SPOOL OFF
