22:40:14 hopplant> @&&PP_SCRIPT_PATH.maint_scripts\2018.1.0.1_maint_52784_52785_lessor_03_updates_sales_sch_type_ddl.sql
22:40:14 hopplant> /*
22:40:14 hopplant> ||============================================================================
22:40:14 hopplant> || Application: PowerPlan
22:40:14 hopplant> || File Name:   maint_52784_52785_lessor_03_updates_sales_sch_type_ddl.sql
22:40:14 hopplant> ||============================================================================
22:40:14 hopplant> || Copyright (C) 2018 by PowerPlan, Inc. All Rights Reserved.
22:40:14 hopplant> ||============================================================================
22:40:14 hopplant> || Version	 Date	     Revised By       Reason for Change
22:40:14 hopplant> || ---------- ----------  ---------------- --------------------------------------
22:40:14 hopplant> || 2018.1.0.1 12/13/2018  Josh Sandler     Add switch to always include IDC
22:40:14 hopplant> ||============================================================================
22:40:14 hopplant> */
22:40:14 hopplant> drop type LSR_ILR_SALES_SCH_INFO_TAB
22:40:14   2  /

Type dropped.

22:40:14 hopplant> drop type T_LSR_ILR_SALES_DF_PRELIMS
22:40:14   2  /

Type dropped.

22:40:14 hopplant> 
22:40:14 hopplant> CREATE OR REPLACE TYPE LSR_ILR_SALES_SCH_INFO AS OBJECT (carrying_cost NUMBER,
22:40:14   2  							       carrying_cost_company_curr number,
22:40:14   3  							       fair_market_value NUMBER,
22:40:14   4  							       fair_market_value_company_curr number,
22:40:14   5  							       guaranteed_residual NUMBER,
22:40:14   6  							       estimated_residual NUMBER,
22:40:14   7  							       days_in_year NUMBER,
22:40:14   8  							       purchase_option_amount NUMBER,
22:40:14   9  							       termination_amount NUMBER,
22:40:14  10  							       remeasurement_date date,
22:40:14  11  							       investment_amount number,
22:40:14  12  							       original_profit_loss number,
22:40:14  13  							       new_beg_receivable number,
22:40:14  14  							       prior_end_unguaran_residual number,
22:40:14  15  							       remeasure_month_fixed_payment number,
22:40:14  16  							       include_idc_sw number)
22:40:14  17  /

Type created.

22:40:14 hopplant> 
22:40:14 hopplant> CREATE OR REPLACE TYPE T_LSR_ILR_SALES_DF_PRELIMS AS OBJECT ( payment_info lsr_ilr_op_sch_pay_info_tab,
22:40:14   2  								    rates t_lsr_ilr_schedule_all_rates,
22:40:14   3  								    initial_direct_costs lsr_init_direct_cost_info_tab,
22:40:14   4  								    sales_type_info lsr_ilr_sales_sch_info)
22:40:14   5  /

Type created.

22:40:14 hopplant> 
22:40:14 hopplant> create type LSR_ILR_SALES_SCH_INFO_TAB as table of LSR_ILR_SALES_SCH_INFO
22:40:14   2  /

Type created.

22:40:14 hopplant> 
22:40:14 hopplant> --****************************************************
22:40:14 hopplant> --Log the run of the script to local PP_SCHEMA_LOG
22:40:14 hopplant> --****************************************************
22:40:14 hopplant> INSERT INTO PP_SCHEMA_CHANGE_LOG
22:40:14   2  	  (ID, SKIPPED, MAJOR_VERSION, MINOR_VERSION, POINT_VERSION, PATCH_VERSION, MAINT_NUM, SCRIPT_PATH,
22:40:14   3  	  SCRIPT_NAME, SCRIPT_REVISION, DATE_APPLIED, OS_USER, TERMINAL, SERVICE_NAME)
22:40:14   4  VALUES
22:40:14   5  	  (13044, 0, 2018, 1, 0, 1, 52785, 'C:\PlasticWks\powerplant\sql\maint_scripts', '2018.1.0.1_maint_52784_52785_lessor_03_updates_sales_sch_type_ddl.sql', 1,
22:40:14   6  	  SYSTIMESTAMP, SYS_CONTEXT('USERENV', 'OS_USER'), SYS_CONTEXT('USERENV', 'TERMINAL'),
22:40:14   7  	  SYS_CONTEXT('USERENV', 'SERVICE_NAME'));

1 row created.

22:40:14 hopplant> COMMIT;

Commit complete.

22:40:14 hopplant> SPOOL OFF
