22:34:45 hopplant> @&&PP_SCRIPT_PATH.maint_scripts\2018.1.0.0_maint_051996_lessee_01_retire_dynamic_validation_ddl.sql
22:34:45 hopplant> /*
22:34:45 hopplant> ||============================================================================
22:34:45 hopplant> || Application: PowerPlan
22:34:45 hopplant> || Object Name: maint_051996_lessee_01_retire_dynamic_validation_ddl.sql
22:34:45 hopplant> ||============================================================================
22:34:45 hopplant> || Copyright (C) 2018 by PowerPlan Inc. All Rights Reserved.
22:34:45 hopplant> ||============================================================================
22:34:45 hopplant> || Version	 Date	    Revised By	     Reason for Change
22:34:45 hopplant> || ---------- ---------- ---------------- --------------------------------------
22:34:45 hopplant> || 2018.1.0.0 07/16/2018 Crystal Yura     Expand column to allow up to 256 (max allowed by PB)
22:34:45 hopplant> ||============================================================================
22:34:45 hopplant> */
22:34:45 hopplant> 
22:34:45 hopplant> ALTER TABLE wo_validation_type MODIFY FUNCTION  VARCHAR2(256);

Table altered.

22:34:46 hopplant> 
22:34:46 hopplant> --****************************************************
22:34:46 hopplant> --Log the run of the script to local PP_SCHEMA_LOG
22:34:46 hopplant> --****************************************************
22:34:46 hopplant> INSERT INTO PP_SCHEMA_CHANGE_LOG
22:34:46   2  	  (ID, SKIPPED, MAJOR_VERSION, MINOR_VERSION, POINT_VERSION, PATCH_VERSION, MAINT_NUM, SCRIPT_PATH,
22:34:46   3  	  SCRIPT_NAME, SCRIPT_REVISION, DATE_APPLIED, OS_USER, TERMINAL, SERVICE_NAME)
22:34:46   4  VALUES
22:34:46   5  	  (8182, 0, 2018, 1, 0, 0, 51996, 'C:\PlasticWks\powerplant\sql\maint_scripts', '2018.1.0.0_maint_051996_lessee_01_retire_dynamic_validation_ddl.sql', 1,
22:34:46   6  	  SYSTIMESTAMP, SYS_CONTEXT('USERENV', 'OS_USER'), SYS_CONTEXT('USERENV', 'TERMINAL'),
22:34:46   7  	  SYS_CONTEXT('USERENV', 'SERVICE_NAME'));

1 row created.

22:34:46 hopplant> COMMIT;

Commit complete.

22:34:46 hopplant> SPOOL OFF
