13:16:02 hopplant> @&&PP_SCRIPT_PATH.maint_scripts\2015.2.0.0_maint_044167_cpr_close_pp_perform_ddl.sql
13:16:02 hopplant> /*
13:16:02 hopplant> ||============================================================================
13:16:02 hopplant> || Application: PowerPlan
13:16:02 hopplant> || File Name:   maint_044167_cpr_close_pp_perform_ddl.sql
13:16:02 hopplant> ||============================================================================
13:16:02 hopplant> || Copyright (C) 2015 by PowerPlan, Inc. All Rights Reserved.
13:16:02 hopplant> ||============================================================================
13:16:02 hopplant> || Version	 Date	    Revised By	     Reason for Change
13:16:02 hopplant> || ---------- ---------- ---------------- ------------------------------------
13:16:02 hopplant> || 2015.2 06/19/2015 Daniel Mendel		   Add index to speed up Close PowerPlant
13:16:02 hopplant> ||============================================================================
13:16:02 hopplant> */
13:16:02 hopplant> 
13:16:02 hopplant> create index arc_gl_transaction_idx on arc_gl_transaction(gl_trans_id) tablespace PWRPLANT_IDX;

Index created.

13:16:02 hopplant> 
13:16:02 hopplant> --****************************************************
13:16:02 hopplant> --Log the run of the script to local PP_SCHEMA_LOG
13:16:02 hopplant> --****************************************************
13:16:02 hopplant> INSERT INTO PP_SCHEMA_CHANGE_LOG
13:16:02   2  	      (ID, SKIPPED, MAJOR_VERSION, MINOR_VERSION, POINT_VERSION, PATCH_VERSION, MAINT_NUM, SCRIPT_PATH,
13:16:02   3  	      SCRIPT_NAME, SCRIPT_REVISION, DATE_APPLIED, OS_USER, TERMINAL, SERVICE_NAME)
13:16:02   4  VALUES
13:16:02   5  	      (2621, 0, 2015, 2, 0, 0, 044167, 'C:\PlasticWks\powerplant\sql\maint_scripts', '2015.2.0.0_maint_044167_cpr_close_pp_perform_ddl.sql', 1,
13:16:02   6  	      SYSTIMESTAMP, SYS_CONTEXT('USERENV', 'OS_USER'), SYS_CONTEXT('USERENV', 'TERMINAL'),
13:16:02   7  	      SYS_CONTEXT('USERENV', 'SERVICE_NAME'));

1 row created.

13:16:02 hopplant> COMMIT;

Commit complete.

13:16:02 hopplant> SPOOL OFF
