13:18:44 hopplant> @&&PP_SCRIPT_PATH.maint_scripts\2015.2.0.0_maint_044507_reg_layer_group_queries_1_ddl.sql
13:18:44 hopplant> /*
13:18:44 hopplant> ||========================================================================================
13:18:44 hopplant> || Application: PowerPlant
13:18:44 hopplant> || File Name:   maint_044507_reg_layer_group_queries_1_ddl.sql
13:18:44 hopplant> ||========================================================================================
13:18:44 hopplant> || Copyright (C) 2015 by PowerPlan, Inc. All Rights Reserved.
13:18:44 hopplant> ||========================================================================================
13:18:44 hopplant> || Version	 Date	    Revised By		Reason for Change
13:18:44 hopplant> || ---------- ---------- ------------------- ----------------------------------------------
13:18:44 hopplant> || 2015.2.0.0 08/18/2015 Sarah Byers 		   Add layer group to layer views
13:18:44 hopplant> ||========================================================================================
13:18:44 hopplant> */
13:18:44 hopplant> 
13:18:44 hopplant> CREATE OR REPLACE VIEW reg_forecast_ledger_layer_view (
13:18:44   2  	reg_company,
13:18:44   3  	forecast_ledger,
13:18:44   4  	reg_account,
13:18:44   5  	reg_account_type,
13:18:44   6  	sub_account_type,
13:18:44   7  	reg_source,
13:18:44   8  	layer_type,
13:18:44   9  	layer_description,
13:18:44  10  	layer_group,
13:18:44  11  	label,
13:18:44  12  	item,
13:18:44  13  	gl_month,
13:18:44  14  	fcst_amount,
13:18:44  15  	annualized_amt,
13:18:44  16  	adj_amount,
13:18:44  17  	adj_month,
13:18:44  18  	layer_amount,
13:18:44  19  	annualzied_layer_amount,
13:18:44  20  	recon_adj_amount,
13:18:44  21  	recon_adj_comment,
13:18:44  22  	total,
13:18:44  23  	annualized_total,
13:18:44  24  	reg_company_id,
13:18:44  25  	reg_acct_id,
13:18:44  26  	forecast_ledger_id,
13:18:44  27  	reg_source_id,
13:18:44  28  	reg_acct_type_id,
13:18:44  29  	sub_acct_type_id,
13:18:44  30  	incremental_adj_id,
13:18:44  31  	incremental_adj_type_id
13:18:44  32  ) AS
13:18:44  33  (
13:18:44  34  select REG_COMPANY,
13:18:44  35  	     FORECAST_LEDGER,
13:18:44  36  	     REG_ACCOUNT,
13:18:44  37  	     REG_ACCOUNT_TYPE,
13:18:44  38  	     SUB_ACCOUNT_TYPE,
13:18:44  39  	     REG_SOURCE,
13:18:44  40  	     'Ledger' as LAYER_DESCRIPTION,
13:18:44  41  	     '' as LAYER_TYPE,
13:18:44  42  		       '' as LAYER_GROUP,
13:18:44  43  	     '' as LABEL,
13:18:44  44  	     '' as ITEM,
13:18:44  45  	     GL_MONTH,
13:18:44  46  	     NVL(FCST_AMOUNT, 0) FCST_AMOUNT,
13:18:44  47  	     NVL(ANNUALIZED_AMT, 0) ANNUALIZED_AMT,
13:18:44  48  	     NVL(ADJ_AMOUNT, 0) ADJ_AMOUNT,
13:18:44  49  	     ADJ_MONTH,
13:18:44  50  	     0.00 as LAYER_AMOUNT,
13:18:44  51  	     0.00 as ANNUALIZED_LAYER_AMOUNT,
13:18:44  52  	     NVL(RECON_ADJ_AMOUNT, 0) RECON_ADJ_AMOUNT,
13:18:44  53  	     RECON_ADJ_COMMENT,
13:18:44  54  	     NVL(FCST_AMOUNT, 0) + NVL(ADJ_AMOUNT, 0) + NVL(RECON_ADJ_AMOUNT, 0) as TOTAL,
13:18:44  55  	     NVL(ANNUALIZED_AMT, 0) as ANNUALIZED_TOTAL,
13:18:44  56  	     REG_COMPANY_ID,
13:18:44  57  	     s.REG_ACCT_ID,
13:18:44  58  	     FORECAST_LEDGER_ID,
13:18:44  59  	     s.REG_SOURCE_ID,
13:18:44  60  	     t.REG_ACCT_TYPE_ID REG_ACCOUNT_TYPE_ID,
13:18:44  61  	     st.SUB_ACCT_TYPE_ID SUB_ACCOUNT_TYPE_ID,
13:18:44  62  	     -1 as INCREMENTAL_ADJ_ID,
13:18:44  63  	     -1 as INCREMENTAL_ADJ_TYPE_ID
13:18:44  64  	from REG_FORECAST_LEDGER_ID_SV s,
13:18:44  65  		       reg_acct_master m,
13:18:44  66  		       reg_acct_type t,
13:18:44  67  		       reg_sub_acct_type st
13:18:44  68   WHERE s.reg_acct_id = m.reg_acct_id
13:18:44  69  	      AND t.reg_acct_type_id = m.reg_acct_type_default
13:18:44  70  	      AND t.reg_acct_type_id = st.reg_acct_type_id
13:18:44  71  	      AND st.sub_acct_type_id = st.sub_acct_type_id
13:18:44  72  union
13:18:44  73  select RC.DESCRIPTION REG_COMPANY,
13:18:44  74  	     RFV.DESCRIPTION as FORECAST_LEDGER,
13:18:44  75  	     RAM.DESCRIPTION as REG_ACCOUNT,
13:18:44  76  	     RAT.DESCRIPTION as REG_ACCOUNT_TYPE,
13:18:44  77  	     RSAT.DESCRIPTION as SUB_ACCOUNT_TYPE,
13:18:44  78  	     RS.DESCRIPTION as REG_SOURCE,
13:18:44  79  	     RIT.DESCRIPTION as LAYER_TYPE,
13:18:44  80  	     RIA.DESCRIPTION as LAYER_DESCRIPTION,
13:18:44  81  		       NVL((select g.description from reg_incremental_group g where g.incremental_group_id = riag.incremental_group_id),' ') LAYER_GROUP,
13:18:44  82  	     IFAL.DESCRIPTION LABEL,
13:18:44  83  	     IFAI.DESCRIPTION ITEM,
13:18:44  84  	     RFL.GL_MONTH,
13:18:44  85  	     0.00 as FCST_AMOUNT,
13:18:44  86  	     0.00 as ANNUALZIED_AMT,
13:18:44  87  	     0.00 as ADJ_AMOUNT,
13:18:44  88  	     null as ADJ_MONTH,
13:18:44  89  	     RFL.ADJ_AMOUNT as LAYER_AMOUNT,
13:18:44  90  	     RFL.ANNUALIZED_ADJ_AMT as ANNUALIZED_LAYER_AMOUNT,
13:18:44  91  	     0 as RECON_ADJ_AMOUNT,
13:18:44  92  	     '' as RECON_ADJ_COMMENT,
13:18:44  93  	     RFL.ADJ_AMOUNT as TOTAL,
13:18:44  94  	     RFL.ANNUALIZED_ADJ_AMT as ANNUALIZED_TOTAL,
13:18:44  95  	     RFL.REG_COMPANY_ID,
13:18:44  96  	     RFL.REG_ACCT_ID,
13:18:44  97  	     RFL.FORECAST_VERSION_ID as FORECAST_LEDGER_ID,
13:18:44  98  	     RS.REG_SOURCE_ID,
13:18:44  99  	     RAT.REG_ACCT_TYPE_ID AS REG_ACCOUNT_TYPE_ID,
13:18:44 100  	     RSAT.SUB_ACCT_TYPE_ID AS SUB_ACCOUNT_TYPE_ID,
13:18:44 101  	     RIA.INCREMENTAL_ADJ_ID INCREMENTAL_ADJ_ID,
13:18:44 102  	     RIT.INCREMENTAL_ADJ_TYPE_ID INCREMENTAL_ADJ_TYPE_ID
13:18:44 103  	from REG_INCREMENTAL_ADJUSTMENT RIA
13:18:44 104  	join REG_INCREMENTAL_ADJ_VERSION RIAV on RIAV.INCREMENTAL_ADJ_ID = RIA.INCREMENTAL_ADJ_ID
13:18:44 105  	join REG_INCREMENTAL_ADJUST_TYPE RIT on RIA.INCREMENTAL_ADJ_TYPE_ID = RIT.INCREMENTAL_ADJ_TYPE_ID
13:18:44 106  	join REG_FORECAST_VERSION RFV on RIAV.FORECAST_VERSION_ID = RFV.FORECAST_VERSION_ID
13:18:44 107  	join REG_FCST_INC_ADJ_LEDGER RFL on RIAV.FORECAST_VERSION_ID = RFL.FORECAST_VERSION_ID
13:18:44 108  					and RFL.INCREMENTAL_ADJ_ID = RIA.INCREMENTAL_ADJ_ID
13:18:44 109  	join REG_ACCT_MASTER RAM on RAM.REG_ACCT_ID = RFL.REG_ACCT_ID
13:18:44 110  	join REG_ACCT_TYPE RAT on RAM.REG_ACCT_TYPE_DEFAULT = RAT.REG_ACCT_TYPE_ID
13:18:44 111  	join REG_SUB_ACCT_TYPE RSAT on RSAT.SUB_ACCT_TYPE_ID = RAM.SUB_ACCT_TYPE_ID
13:18:44 112  				    AND rsat.reg_acct_type_id = ram.reg_acct_type_default
13:18:44 113  	join REG_SOURCE RS on RFL.REG_SOURCE_ID = RS.REG_SOURCE_ID
13:18:44 114  	join REG_COMPANY RC on RFL.REG_COMPANY_ID = RC.REG_COMPANY_ID
13:18:44 115  	join COMPANY_SETUP CS on RC.REG_COMPANY_ID = CS.REG_COMPANY_ID
13:18:44 116  	join COMPANY C on C.COMPANY_ID = CS.COMPANY_ID
13:18:44 117  	join REG_INCREMENTAL_FP_ADJ_TRANS RIFAT on RFL.REG_ACCT_ID =
13:18:44 118  						   DECODE(RIFAT.OVERRIDE_TRANSLATE,
13:18:44 119  							  0,
13:18:44 120  							  RIFAT.REG_ACCT_ID,
13:18:44 121  							  RIFAT.OVERRIDE_REG_ACCT_ID)
13:18:44 122  					       and RFL.INCREMENTAL_ADJ_ID = RIFAT.INCREMENTAL_ADJ_ID
13:18:44 123  					       and RIFAT.FORECAST_VERSION_ID = RFL.FORECAST_VERSION_ID
13:18:44 124  	join INCREMENTAL_FP_ADJ_ITEM IFAI on RIFAT.ITEM_ID = IFAI.ITEM_ID
13:18:44 125  					 and RIFAT.LABEL_ID = IFAI.LABEL_ID
13:18:44 126  	join INCREMENTAL_FP_ADJ_LABEL IFAL on RIFAT.LABEL_ID = IFAL.LABEL_ID
13:18:44 127  	left join REG_INCREMENTAL_ADJ_GROUP RIAG on RIA.INCREMENTAL_ADJ_ID = RIAG.INCREMENTAL_ADJ_ID
13:18:44 128   where RIAV.STATUS_CODE_ID = 1
13:18:44 129  	      and RIA.INCREMENTAL_ADJ_TYPE_ID in (1,4)
13:18:44 130  union
13:18:44 131  select RC.DESCRIPTION REG_COMPANY,
13:18:44 132  	     RFV.DESCRIPTION as FORECAST_LEDGER,
13:18:44 133  	     RAM.DESCRIPTION as REG_ACCOUNT,
13:18:44 134  	     RAT.DESCRIPTION as REG_ACCOUNT_TYPE,
13:18:44 135  	     RSAT.DESCRIPTION as SUB_ACCOUNT_TYPE,
13:18:44 136  	     RS.DESCRIPTION as REG_SOURCE,
13:18:44 137  	     RIT.DESCRIPTION as LAYER_TYPE,
13:18:44 138  	     RIA.DESCRIPTION as LAYER_DESCRIPTION,
13:18:44 139  		       ' ' as LAYER_GROUP,
13:18:44 140  	     IFAL.DESCRIPTION LABEL,
13:18:44 141  	     IFAI.DESCRIPTION ITEM,
13:18:44 142  	     RFL.GL_MONTH,
13:18:44 143  	     0.00 as FCST_AMOUNT,
13:18:44 144  	     0.00 as ANNUALZIED_AMT,
13:18:44 145  	     0.00 as ADJ_AMOUNT,
13:18:44 146  	     null as ADJ_MONTH,
13:18:44 147  	     RFL.ADJ_AMOUNT as LAYER_AMOUNT,
13:18:44 148  	     RFL.ANNUALIZED_ADJ_AMT as ANNUALIZED_LAYER_AMOUNT,
13:18:44 149  	     0 as RECON_ADJ_AMOUNT,
13:18:44 150  	     '' as RECON_ADJ_COMMENT,
13:18:44 151  	     RFL.ADJ_AMOUNT as TOTAL,
13:18:44 152  	     RFL.ANNUALIZED_ADJ_AMT as ANNUALIZED_TOTAL,
13:18:44 153  	     RFL.REG_COMPANY_ID,
13:18:44 154  	     RFL.REG_ACCT_ID,
13:18:44 155  	     RFL.FORECAST_VERSION_ID as FORECAST_LEDGER_ID,
13:18:44 156  	     RS.REG_SOURCE_ID,
13:18:44 157  	     RAT.REG_ACCT_TYPE_ID AS REG_ACCOUNT_TYPE_ID,
13:18:44 158  	     RSAT.SUB_ACCT_TYPE_ID AS SUB_ACCOUNT_TYPE_ID,
13:18:44 159  	     RIA.INCREMENTAL_ADJ_ID INCREMENTAL_ADJ_ID,
13:18:44 160  	     RIT.INCREMENTAL_ADJ_TYPE_ID INCREMENTAL_ADJ_TYPE_ID
13:18:44 161  	from REG_INCREMENTAL_ADJUSTMENT RIA
13:18:44 162  	join REG_INCREMENTAL_ADJ_VERSION RIAV on RIAV.INCREMENTAL_ADJ_ID = RIA.INCREMENTAL_ADJ_ID
13:18:44 163  	join REG_INCREMENTAL_ADJUST_TYPE RIT on RIA.INCREMENTAL_ADJ_TYPE_ID = RIT.INCREMENTAL_ADJ_TYPE_ID
13:18:44 164  	join REG_FORECAST_VERSION RFV on RIAV.FORECAST_VERSION_ID = RFV.FORECAST_VERSION_ID
13:18:44 165  	join REG_FCST_INC_ADJ_LEDGER RFL on RIAV.FORECAST_VERSION_ID = RFL.FORECAST_VERSION_ID
13:18:44 166  					and RFL.INCREMENTAL_ADJ_ID = RIA.INCREMENTAL_ADJ_ID
13:18:44 167  	join REG_ACCT_MASTER RAM on RAM.REG_ACCT_ID = RFL.REG_ACCT_ID
13:18:44 168  	join REG_ACCT_TYPE RAT on RAM.REG_ACCT_TYPE_DEFAULT = RAT.REG_ACCT_TYPE_ID
13:18:44 169  	join REG_SUB_ACCT_TYPE RSAT on RSAT.SUB_ACCT_TYPE_ID = RAM.SUB_ACCT_TYPE_ID
13:18:44 170  				    AND rsat.reg_acct_type_id = ram.reg_acct_type_default
13:18:44 171  	join REG_SOURCE RS on RFL.REG_SOURCE_ID = RS.REG_SOURCE_ID
13:18:44 172  	join REG_COMPANY RC on RFL.REG_COMPANY_ID = RC.REG_COMPANY_ID
13:18:44 173  	join COMPANY_SETUP CS on RC.REG_COMPANY_ID = CS.REG_COMPANY_ID
13:18:44 174  	join COMPANY C on C.COMPANY_ID = CS.COMPANY_ID
13:18:44 175  	join REG_INCREMENTAL_DEPR_ADJ_TRANS RIFAT on RFL.REG_ACCT_ID =
13:18:44 176  						   DECODE(RIFAT.OVERRIDE_TRANSLATE,
13:18:44 177  							  0,
13:18:44 178  							  RIFAT.REG_ACCT_ID,
13:18:44 179  							  RIFAT.OVERRIDE_REG_ACCT_ID)
13:18:44 180  					       and RFL.INCREMENTAL_ADJ_ID = RIFAT.INCREMENTAL_ADJ_ID
13:18:44 181  					       and RIFAT.FORECAST_VERSION_ID = RFL.FORECAST_VERSION_ID
13:18:44 182  	join INCREMENTAL_FP_ADJ_ITEM IFAI on RIFAT.ITEM_ID = IFAI.ITEM_ID
13:18:44 183  					 and RIFAT.LABEL_ID = IFAI.LABEL_ID
13:18:44 184  	join INCREMENTAL_FP_ADJ_LABEL IFAL on RIFAT.LABEL_ID = IFAL.LABEL_ID
13:18:44 185   where RIAV.STATUS_CODE_ID = 1
13:18:44 186  	      and RIA.INCREMENTAL_ADJ_TYPE_ID in (2,3)
13:18:44 187  union
13:18:44 188  select RC.DESCRIPTION REG_COMPANY,
13:18:44 189  	     RFV.DESCRIPTION as FORECAST_LEDGER,
13:18:44 190  	     RAM.DESCRIPTION as REG_ACCOUNT,
13:18:44 191  	     RAT.DESCRIPTION as REG_ACCOUNT_TYPE,
13:18:44 192  	     RSAT.DESCRIPTION as SUB_ACCOUNT_TYPE,
13:18:44 193  	     RS.DESCRIPTION as REG_SOURCE,
13:18:44 194  	     RIT.DESCRIPTION as LAYER_TYPE,
13:18:44 195  	     RIA.DESCRIPTION as LAYER_DESCRIPTION,
13:18:44 196  		       NVL((select g.description from reg_incremental_group g where g.incremental_group_id = riag.incremental_group_id),' ') LAYER_GROUP,
13:18:44 197  	     IFAL.DESCRIPTION LABEL,
13:18:44 198  	     IFAI.DESCRIPTION ITEM,
13:18:44 199  	     RFL.GL_MONTH,
13:18:44 200  	     0.00 as FCST_AMOUNT,
13:18:44 201  	     0.00 as ANNUALZIED_AMT,
13:18:44 202  	     0.00 as ADJ_AMOUNT,
13:18:44 203  	     null as ADJ_MONTH,
13:18:44 204  	     RFL.ADJ_AMOUNT as LAYER_AMOUNT,
13:18:44 205  	     RFL.ANNUALIZED_ADJ_AMT as ANNUALIZED_LAYER_AMOUNT,
13:18:44 206  	     0 as RECON_ADJ_AMOUNT,
13:18:44 207  	     '' as RECON_ADJ_COMMENT,
13:18:44 208  	     RFL.ADJ_AMOUNT as TOTAL,
13:18:44 209  	     RFL.ANNUALIZED_ADJ_AMT as ANNUALIZED_TOTAL,
13:18:44 210  	     RFL.REG_COMPANY_ID,
13:18:44 211  	     RFL.REG_ACCT_ID,
13:18:44 212  	     RFL.FORECAST_VERSION_ID as FORECAST_LEDGER_ID,
13:18:44 213  	     RS.REG_SOURCE_ID,
13:18:44 214  	     RAT.REG_ACCT_TYPE_ID AS REG_ACCOUNT_TYPE_ID,
13:18:44 215  	     RSAT.SUB_ACCT_TYPE_ID AS SUB_ACCOUNT_TYPE_ID,
13:18:44 216  	     RIA.INCREMENTAL_ADJ_ID INCREMENTAL_ADJ_ID,
13:18:44 217  	     RIT.INCREMENTAL_ADJ_TYPE_ID INCREMENTAL_ADJ_TYPE_ID
13:18:44 218  	from REG_INCREMENTAL_ADJUSTMENT RIA
13:18:44 219  	join REG_INCREMENTAL_ADJ_VERSION RIAV on RIAV.INCREMENTAL_ADJ_ID = RIA.INCREMENTAL_ADJ_ID
13:18:44 220  	join REG_INCREMENTAL_ADJUST_TYPE RIT on RIA.INCREMENTAL_ADJ_TYPE_ID = RIT.INCREMENTAL_ADJ_TYPE_ID
13:18:44 221  	join REG_FORECAST_VERSION RFV on RIAV.FORECAST_VERSION_ID = RFV.FORECAST_VERSION_ID
13:18:44 222  	join REG_FCST_INC_ADJ_LEDGER RFL on RIAV.FORECAST_VERSION_ID = RFL.FORECAST_VERSION_ID
13:18:44 223  					and RFL.INCREMENTAL_ADJ_ID = RIA.INCREMENTAL_ADJ_ID
13:18:44 224  	join REG_ACCT_MASTER RAM on RAM.REG_ACCT_ID = RFL.REG_ACCT_ID
13:18:44 225  	join REG_ACCT_TYPE RAT on RAM.REG_ACCT_TYPE_DEFAULT = RAT.REG_ACCT_TYPE_ID
13:18:44 226  	join REG_SUB_ACCT_TYPE RSAT on RSAT.SUB_ACCT_TYPE_ID = RAM.SUB_ACCT_TYPE_ID
13:18:44 227  				    AND rsat.reg_acct_type_id = ram.reg_acct_type_default
13:18:44 228  	join REG_SOURCE RS on RFL.REG_SOURCE_ID = RS.REG_SOURCE_ID
13:18:44 229  	join REG_COMPANY RC on RFL.REG_COMPANY_ID = RC.REG_COMPANY_ID
13:18:44 230  	join COMPANY_SETUP CS on RC.REG_COMPANY_ID = CS.REG_COMPANY_ID
13:18:44 231  	join COMPANY C on C.COMPANY_ID = CS.COMPANY_ID
13:18:44 232  	join REG_INC_HIST_LAYER_TRANS RIFAT on RFL.REG_ACCT_ID =
13:18:44 233  						   DECODE(RIFAT.OVERRIDE_TRANSLATE,
13:18:44 234  							  0,
13:18:44 235  							  RIFAT.REG_ACCT_ID,
13:18:44 236  							  RIFAT.OVERRIDE_REG_ACCT_ID)
13:18:44 237  					       and RFL.INCREMENTAL_ADJ_ID = RIFAT.INCREMENTAL_ADJ_ID
13:18:44 238  					       and RIFAT.FORECAST_VERSION_ID = RFL.FORECAST_VERSION_ID
13:18:44 239  	join INCREMENTAL_FP_ADJ_ITEM IFAI on RIFAT.ITEM_ID = IFAI.ITEM_ID
13:18:44 240  					 and RIFAT.LABEL_ID = IFAI.LABEL_ID
13:18:44 241  	join INCREMENTAL_FP_ADJ_LABEL IFAL on RIFAT.LABEL_ID = IFAL.LABEL_ID
13:18:44 242  	left join REG_INCREMENTAL_ADJ_GROUP RIAG on RIA.INCREMENTAL_ADJ_ID = RIAG.INCREMENTAL_ADJ_ID
13:18:44 243   where RIAV.STATUS_CODE_ID = 1
13:18:44 244  	      and RIA.INCREMENTAL_ADJ_TYPE_ID = 5
13:18:44 245  )
13:18:44 246  ;

View created.

13:18:44 hopplant> 
13:18:44 hopplant> CREATE OR REPLACE VIEW reg_layer_ea_details_view (
13:18:44   2  	      layer, long_description, layer_group, selected_field, selected_value, as_of_date, start_month, end_month,
13:18:44   3  	      month_year, label, item, amount, label_sort, item_sort
13:18:44   4  ) AS (
13:18:44   5  select layer, long_description, layer_group, selected_field, selected_value, as_of_date, start_month, end_month,
13:18:44   6  		       month_year, label, item, sum(amount) amount, label_sort, item_sort
13:18:44   7  	from (
13:18:44   8  	      select a.description layer,
13:18:44   9  			       a.long_description long_description,
13:18:44  10  			       nvl((select g.description from reg_incremental_group g where g.incremental_group_id = r.incremental_group_id),' ') layer_group,
13:18:44  11  			       decode(h.selected_field, 1, 'Funding Project',
13:18:44  12  												2, 'Work Order',
13:18:44  13  												3, 'Class Code: Value') selected_field,
13:18:44  14  			       decode(h.selected_field, 1, w.work_order_number||': '||w.description,
13:18:44  15  												2, w.work_order_number||': '||w.description,
13:18:44  16  												3, c.description||': '||h.class_code_value) selected_value,
13:18:44  17  			       substr(to_char(h.as_of_date),5,2)||'/'||substr(to_char(h.as_of_date),1,4) as_of_date,
13:18:44  18  			       substr(to_char(h.start_month),5,2)||'/'||substr(to_char(h.start_month),1,4) start_month,
13:18:44  19  			       substr(to_char(h.end_month),5,2)||'/'||substr(to_char(h.end_month),1,4) end_month,
13:18:44  20  			       d.month_year month_year,
13:18:44  21  			       l.description label,
13:18:44  22  			       i.description item,
13:18:44  23  			       d.amount amount,
13:18:44  24  			       l.sort_order label_sort,
13:18:44  25  			       i.sort_order item_sort
13:18:44  26  			      , a.hist_layer_id
13:18:44  27  		from reg_incremental_adjustment a, work_order_control w, class_code c,
13:18:44  28  			       incremental_hist_layer_data d, incremental_fp_adj_label l, incremental_fp_adj_item i,
13:18:44  29  			       (
13:18:44  30  				      select hist_layer_id, funding_project_id, work_order_id, class_code_id, class_code_value,
13:18:44  31  						       decode(nvl(funding_project_id,0), 0, decode(nvl(work_order_id,0), 0, 3, 2), 1) selected_field,
13:18:44  32  						       as_of_date, start_month, end_month
13:18:44  33  					from incremental_hist_layer
13:18:44  34  			       ) h,
13:18:44  35  			       reg_incremental_adj_group r
13:18:44  36  	       where a.incremental_adj_type_id = 5
13:18:44  37  		      and a.hist_layer_id = h.hist_layer_id
13:18:44  38  		      and w.work_order_id (+) = decode(h.selected_field, 1, h.funding_project_id, 2, h.work_order_id)
13:18:44  39  		      and c.class_code_id (+) = decode(h.selected_field, 3, h.class_code_id)
13:18:44  40  		      and a.hist_layer_id = d.hist_layer_id
13:18:44  41  		      and d.label_id = l.label_id
13:18:44  42  		      and d.label_id = i.label_id
13:18:44  43  		      and d.item_id = i.item_id
13:18:44  44  		      and a.incremental_adj_id = r.incremental_adj_id (+))
13:18:44  45   group by layer, long_description, layer_group, selected_field, selected_value, as_of_date, start_month, end_month,
13:18:44  46  			       month_year, label, item, label_sort, item_sort
13:18:44  47  );

View created.

13:18:44 hopplant> 
13:18:44 hopplant> CREATE OR REPLACE VIEW reg_layer_fp_details_view (
13:18:44   2  	      layer, long_description, layer_group, funding_project_number, month_year, label, item,
13:18:44   3  	      original_revision, original_amount, updated_revision, updated_amount, difference,
13:18:44   4  	 wo_description, label_sort, item_sort
13:18:44   5  ) AS (
13:18:44   6  select layer, long_description, layer_group, funding_project_number, month_year, label, item,
13:18:44   7  		       original_revision, sum(original_amount) original_amount, updated_revision, sum(updated_amount) updated_amount,
13:18:44   8  		       sum(nvl(original_amount,0) - nvl(updated_amount,0)) difference,
13:18:44   9  		       wo_description, label_sort, item_sort
13:18:44  10  	from (
13:18:44  11  	      select x.description layer,
13:18:44  12  			       x.long_description long_description,
13:18:44  13  			       nvl((select g.description from reg_incremental_group g where g.incremental_group_id = x.incremental_group_id),' ') layer_group,
13:18:44  14  			       w.work_order_number funding_project_number,
13:18:44  15  			       x.month_year month_year,
13:18:44  16  			       l.description label,
13:18:44  17  			       i.description item,
13:18:44  18  			       x.orig_revision original_revision,
13:18:44  19  			       x.orig_amount original_amount,
13:18:44  20  			       x.updated_revision updated_revision,
13:18:44  21  			       x.updated_amount updated_amount,
13:18:44  22  			       w.description wo_description,
13:18:44  23  			       l.sort_order label_sort,
13:18:54  24  			       i.sort_order item_sort
13:18:54  25  		from incremental_fp_adj_label l, incremental_fp_adj_item i, work_order_control w,
13:18:54  26  			       (
13:18:54  27  				      select a.description, a.long_description,
13:18:54  28  						       a.orig_work_order_id, a.orig_revision, a.updated_work_order_id, a.updated_revision,
13:18:54  29  						       d.label_id, d.item_id,
13:18:54  30  						       d.month_year month_year, d.amount orig_amount, 0 updated_amount, r.incremental_group_id incremental_group_id
13:18:54  31  					from reg_incremental_adjustment a, incremental_fp_adj_data d, reg_incremental_adj_group r
13:18:54  32  				       where a.incremental_adj_type_id in (1, 4)
13:18:54  33  					      and a.orig_work_order_id = d.work_order_id
13:18:54  34  					      and a.orig_revision = d.revision
13:18:54  35  					      and a.orig_budget_version_id = d.budget_version_id
13:18:54  36  					      and a.orig_fcst_depr_version_id = d.fcst_depr_version_id
13:18:54  37  					      and a.orig_version_id = d.version_id
13:18:54  38  					      and a.incremental_adj_id = r.incremental_adj_id (+)
13:18:54  39  				      union
13:18:54  40  				      select a.description, a.long_description,
13:18:54  41  						       a.orig_work_order_id, a.orig_revision, a.updated_work_order_id, a.updated_revision,
13:18:54  42  						       d.label_id, d.item_id,
13:18:54  43  						       d.month_year month_year, 0 orig_amount, d.amount updated_amount, r.incremental_group_id
13:18:54  44  					from reg_incremental_adjustment a, incremental_fp_adj_data d, reg_incremental_adj_group r
13:18:54  45  				       where a.incremental_adj_type_id in (1, 4)
13:18:54  46  					      and a.updated_work_order_id = d.work_order_id
13:18:54  47  					      and a.updated_revision = d.revision
13:18:54  48  					      and a.updated_budget_version_id = d.budget_version_id
13:18:54  49  					      and a.updated_fcst_depr_version_id = d.fcst_depr_version_id
13:18:54  50  					      and a.updated_version_id = d.version_id
13:18:54  51  					      and a.incremental_adj_id = r.incremental_adj_id (+)
13:18:54  52  			       ) x
13:18:54  53  	       where nvl(x.orig_work_order_id,x.updated_work_order_id) = nvl(x.updated_work_order_id,x.orig_work_order_id)
13:18:54  54  		      and x.label_id = l.label_id
13:18:54  55  		      and x.label_id = i.label_id
13:18:54  56  		      and x.item_id = i.item_id
13:18:54  57  		      and nvl(x.orig_work_order_id,x.updated_work_order_id) = w.work_order_id)
13:18:54  58   group by layer, long_description, layer_group, funding_project_number, month_year, label, item,
13:18:54  59  			       original_revision, updated_revision, wo_description, label_sort, item_sort
13:18:54  60  );

View created.

13:18:54 hopplant> 
13:18:54 hopplant> 
13:18:54 hopplant> --****************************************************
13:18:54 hopplant> --Log the run of the script to local PP_SCHEMA_LOG
13:18:54 hopplant> --****************************************************
13:18:54 hopplant> INSERT INTO PP_SCHEMA_CHANGE_LOG
13:18:54   2  	      (ID, SKIPPED, MAJOR_VERSION, MINOR_VERSION, POINT_VERSION, PATCH_VERSION, MAINT_NUM, SCRIPT_PATH,
13:18:54   3  	      SCRIPT_NAME, SCRIPT_REVISION, DATE_APPLIED, OS_USER, TERMINAL, SERVICE_NAME)
13:18:54   4  VALUES
13:18:54   5  	      (2797, 0, 2015, 2, 0, 0, 044507, 'C:\PlasticWks\powerplant\sql\maint_scripts', '2015.2.0.0_maint_044507_reg_layer_group_queries_1_ddl.sql', 1,
13:18:54   6  	      SYSTIMESTAMP, SYS_CONTEXT('USERENV', 'OS_USER'), SYS_CONTEXT('USERENV', 'TERMINAL'),
13:18:54   7  	      SYS_CONTEXT('USERENV', 'SERVICE_NAME'));

1 row created.

13:18:54 hopplant> COMMIT;

Commit complete.

13:18:54 hopplant> SPOOL OFF
