12:39:58 hopplant> @&&PP_SCRIPT_PATH.packages_released\2015.1.1.0_PKG_DEPR_IND_CALC.sql
12:39:58 hopplant> 
12:39:58 hopplant> create or replace package PKG_DEPR_IND_CALC as
12:39:58   2  	      --**********************************************
12:39:58   3  	      --
12:39:58   4  	      --      THIS PACKAGE HOUSES THE CPR DEPR CALCULATIONS
12:39:58   5  	      --      RECORDS SHOULD BE STAGED PRIOR TO THIS PACKAGE
12:39:58   6  	      --      RESULTS SHOULD BE HANDLED AFTER THIS PACKAGE
12:39:58   7  	      --
12:39:58   8  	      --      The package handles:
12:39:58   9  	      --	      106 to 101 adjustments:		      F_NURV
12:39:58  10  	      --	      Trueup for late in service:	      F_TRUEUP
12:39:58  11  	      --	      Calculating Init and rem life:  F_CALCREMLIFE
12:39:58  12  	      --	      NET / GROSS determination:	      F_CALCBASEANDRATE
12:39:58  13  	      --	      Mid Period Convention:		      F_CALCBASEANDRATE
12:39:58  14  	      --
12:39:58  15  	      --      Deprecation Calculations for the following methods:
12:39:58  16  	      --	      SL (Straight Line)
12:39:58  17  	      --	      SLEOL (Straight Line to End Of Life)
12:39:58  18  	      --	      SLE (Straight Line Expense for Leased Assets)
12:39:58  19  	      --	      SOMD (Sum of Months Digits)
12:39:58  20  	      --	      UOPR (Unit of Production Rates)
12:39:58  21  	      --	      RATE (Rates)
12:39:58  22  	      --	      DB150 (Declining Balance 1.5)
12:39:58  23  	      --	      DB200 (Declining Balance 2)
12:39:58  24  	      --	      FERC (FERC depreciation for Leased Assets: Depr Expense = Principal Accrued)
12:39:58  25  	      --	      SCH (Schedule: Different rates for different years with spread factors to the given months)
12:39:58  26  	      --
12:39:58  27  	      -- PP Version  Date	    Revised By	   Reason for Change
12:39:58  28  	      -- ----------  -------------  -------------  -------------------------
12:39:58  29  	      -- 10.4.3.3    02/10/2015     Andrew Scott   maint-42679.  fcst cpr depr high volume performance
12:39:58  30  	      --					   improvements.  Estimated salvage was not carrying forward
12:39:58  31  	      --					   month to month.
12:39:58  32  	      -- 10.4.3.4    03/25/2015     Andrew Scott   maint-43403.  depr base is wrong for xfers. it is summing
12:39:58  33  	      --					   activity 3 and net res trf, when activity 3 includes net res trf
12:39:58  34  	      --					   higher up in the model statement.
12:39:58  35  	      -- 10.4.3.4    04/29/2015     Andrew Scott   maint-43763.  rollforward logic should roll forward 0
12:39:58  36  	      --					   as salvage dollars.	Was carrying forward salvage.
12:39:58  37  	      -- 10.4.3.4    05/07/2015     Andrew Scott   maint-43823.  SOMD (some of months digits) mid period
12:39:58  38  	      --					   method calculation was incorrect.
12:39:58  39  	      --**********************************************
12:39:58  40  
12:39:58  41  	      --
12:39:58  42  	      --      MAIN Depr Calc Call
12:39:58  43  	      --
12:39:58  44  	      procedure P_DEPRCALC
12:39:58  45  	      (
12:39:58  46  		      A_MONTHS		      PKG_PP_COMMON.DATE_TABTYPE,
12:39:58  47  		      A_VERSION_ID    FCST_DEPR_VERSION.FCST_DEPR_VERSION_ID%TYPE
12:39:58  48  	      );
12:39:58  49  
12:39:58  50  	      --
12:39:58  51  	      --      WRAPPERS to CALL depreciation with different arguments
12:39:58  52  	      --
12:39:58  53  	      procedure P_DEPRCALC_LEASE;
12:39:58  54  
12:39:58  55  	      procedure P_DEPRCALC
12:39:58  56  	      (
12:39:58  57  		      A_MONTHS	      PKG_PP_COMMON.DATE_TABTYPE
12:39:58  58  	      );
12:39:58  59  
12:39:58  60  	      procedure P_DEPRCALC
12:39:58  61  	      (
12:39:58  62  		      A_MONTH	      date
12:39:58  63  	      );
12:39:58  64  
12:39:58  65  	      procedure P_DEPRCALC
12:39:58  66  	      (
12:39:58  67  		      A_MONTH		      date,
12:39:58  68  		      A_VERSION_ID    FCST_DEPR_VERSION.FCST_DEPR_VERSION_ID%TYPE
12:39:58  69  	      );
12:39:58  70  	      --
12:39:58  71  	      --      END WRAPPERS
12:39:58  72  	      --
12:39:58  73  end PKG_DEPR_IND_CALC;
12:39:58  74  /

Package created.

12:39:58 hopplant> 
12:39:58 hopplant> 
12:39:58 hopplant> create or replace package body PKG_DEPR_IND_CALC as
12:39:58   2  	      --**************************************************************
12:39:58   3  	      --       VARIABLES
12:39:58   4  	      --**************************************************************
12:39:58   5  	      G_CURRMONTH	      date;
12:39:58   6  
12:39:58   7  	      G_VERSION_ID    FCST_DEPR_VERSION.FCST_DEPR_VERSION_ID%TYPE;
12:39:58   8  	      G_MONTHS		      PKG_PP_COMMON.DATE_TABTYPE;
12:39:58   9  
12:39:58  10  
12:39:58  11  		      --
12:39:58  12  	      --      ARCHIVE
12:39:58  13  	      --
12:39:58  14  	      procedure P_ARCHIVE
12:39:58  15  	      is
12:39:58  16  	      begin
12:39:58  17  
12:39:58  18  		      PKG_PP_ERROR.SET_MODULE_NAME('PKG_DEPR_IND_CALC.P_ARCHIVE');
12:39:58  19  
12:39:58  20  		      --This only archives subledger -100 rows so it's fine to have it run for all actuals calcs
12:39:58  21  		      if G_VERSION_ID is null then
12:39:58  22  			      PKG_PP_CPR_DEPR.P_ARCHIVELEASEDEPR;
12:39:58  23  		      end if;
12:39:58  24  
12:39:58  25  		      -- archive
12:39:58  26  		      delete from cpr_depr_calc_stg_arc a
12:39:58  27  		      where exists (
12:39:58  28  			      select 1
12:39:58  29  			      from cpr_depr_calc_stg b
12:39:58  30  			      where b.asset_id = a.asset_id
12:39:58  31  			      and b.set_of_books_id = a.set_of_books_id
12:39:58  32  			      and b.gl_posting_mo_yr = a.gl_posting_mo_yr
12:39:58  33  		      );
12:39:58  34  
12:39:58  35  		      -- archive
12:39:58  36  		      insert into cpr_depr_calc_stg_arc
12:39:58  37  		      (ASSET_ID, SET_OF_BOOKS_ID, GL_POSTING_MO_YR, TIME_STAMP, USER_ID, INIT_LIFE,
12:39:58  38  		      REMAINING_LIFE, ESTIMATED_SALVAGE, BEG_ASSET_DOLLARS, NET_ADDS_AND_ADJUST, RETIREMENTS,
12:39:58  39  		      TRANSFERS_IN, TRANSFERS_OUT, ASSET_DOLLARS, BEG_RESERVE_MONTH, SALVAGE_DOLLARS, RESERVE_ADJUSTMENT,
12:39:58  40  		      COST_OF_REMOVAL, RESERVE_TRANS_IN, RESERVE_TRANS_OUT, DEPR_EXP_ADJUST, OTHER_CREDITS_AND_ADJUST,
12:39:58  41  		      GAIN_LOSS, DEPRECIATION_BASE, CURR_DEPR_EXPENSE, DEPR_RESERVE, BEG_RESERVE_YEAR, YTD_DEPR_EXPENSE,
12:39:58  42  		      YTD_DEPR_EXP_ADJUST, PRIOR_YTD_DEPR_EXPENSE, PRIOR_YTD_DEPR_EXP_ADJUST, ACCT_DISTRIB, MONTH_RATE,
12:39:58  43  		      COMPANY_ID, MID_PERIOD_METHOD, MID_PERIOD_CONV, DEPR_GROUP_ID, DEPR_EXP_ALLOC_ADJUST, DEPR_METHOD_ID,
12:39:58  44  		      TRUE_UP_CPR_DEPR, SALVAGE_EXPENSE, SALVAGE_EXP_ADJUST, SALVAGE_EXP_ALLOC_ADJUST, IMPAIRMENT_ASSET_AMOUNT,
12:39:58  45  		      IMPAIRMENT_EXPENSE_AMOUNT, DEPRECIATION_INDICATOR, END_OF_LIFE, ENG_IN_SERVICE_YEAR, ESTIMATED_PRODUCTION,
12:39:58  46  		      HAS_CFNU, HAS_NURV, HAS_NURV_LAST_MONTH, NET_GROSS, OVER_DEPR_CHECK, PRODUCTION, RATE, EXISTS_LAST_MONTH,
12:39:58  47  		      EXISTS_TWO_MONTHS, EXISTS_ARO, EFFECTIVE_DATE, TRF_WEIGHT, DEPR_CALC_MESSAGE,
12:39:58  48  		      SUBLEDGER_TYPE_ID, DEPR_CALC_STATUS, NET_TRF, NET_RES_TRF, NET_IMP_AMT, ACTIVITY, BEG_RES_AMT,
12:39:58  49  		      ACTIVITY_3, DEPR_METHOD_SLE_EXP, BEG_BAL_AMT, SCH_RATE, SCH_FACTOR, MIN_MPC, TRUEUP_ADJ, NURV_ADJ,
12:39:58  50  		      OVER_DEPR_ADJ, sch_rate_used)
12:39:58  51  		      select ASSET_ID, SET_OF_BOOKS_ID, GL_POSTING_MO_YR, TIME_STAMP, USER_ID, INIT_LIFE, REMAINING_LIFE, ESTIMATED_SALVAGE, BEG_ASSET_DOLLARS, NET_ADDS_AND_ADJUST, RETIREMENTS, TRANSFERS_IN, TRANSFERS_OUT, ASSET_DOLLARS, BEG_RESERVE_MONTH, SALVAGE_DOLLARS, RESERVE_ADJUSTMENT, COST_OF_REMOVAL, RESERVE_TRANS_IN, RESERVE_TRANS_OUT, DEPR_EXP_ADJUST, OTHER_CREDITS_AND_ADJUST, GAIN_LOSS, DEPRECIATION_BASE, CURR_DEPR_EXPENSE, DEPR_RESERVE, BEG_RESERVE_YEAR, YTD_DEPR_EXPENSE, YTD_DEPR_EXP_ADJUST, PRIOR_YTD_DEPR_EXPENSE, PRIOR_YTD_DEPR_EXP_ADJUST, ACCT_DISTRIB, MONTH_RATE, COMPANY_ID, MID_PERIOD_METHOD, MID_PERIOD_CONV, DEPR_GROUP_ID, DEPR_EXP_ALLOC_ADJUST, DEPR_METHOD_ID, TRUE_UP_CPR_DEPR, SALVAGE_EXPENSE, SALVAGE_EXP_ADJUST, SALVAGE_EXP_ALLOC_ADJUST, IMPAIRMENT_ASSET_AMOUNT, IMPAIRMENT_EXPENSE_AMOUNT, DEPRECIATION_INDICATOR, END_OF_LIFE, ENG_IN_SERVICE_YEAR, ESTIMATED_PRODUCTION, HAS_CFNU, HAS_NURV, HAS_NURV_LAST_MONTH, NET_GROSS, OVER_DEPR_CHECK, PRODUCTION, RATE, EXISTS_LAST_MONTH, EXISTS_TWO_MONTHS, EXISTS_ARO, EFFECTIVE_DATE, TRF_WEIGHT, DEPR_CALC_MESSAGE, SUBLEDGER_TYPE_ID, DEPR_CALC_STATUS, NET_TRF, NET_RES_TRF, NET_IMP_AMT, ACTIVITY, BEG_RES_AMT, ACTIVITY_3, DEPR_METHOD_SLE_EXP, BEG_BAL_AMT, SCH_RATE, SCH_FACTOR, MIN_MPC,
12:39:58  52  		      TRUEUP_ADJ, NURV_ADJ, OVER_DEPR_ADJ, sch_rate_used
12:39:58  53  		      from cpr_depr_calc_stg;
12:39:58  54  
12:39:58  55  		      PKG_PP_ERROR.REMOVE_MODULE_NAME;
12:39:58  56  	      exception
12:39:58  57  		      when others then
12:39:58  58  			      PKG_PP_ERROR.RAISE_ERROR('ERROR','Failed Operation');
12:39:58  59  	      end P_ARCHIVE;
12:39:58  60  
12:39:58  61  	      --**************************************************************************
12:39:58  62  	      --			    F_CALCBASEANDRATE
12:39:58  63  	      --**************************************************************************
12:39:58  64  	      procedure P_CALCBASEANDRATE(A_MONTH date)
12:39:58  65  	      is
12:39:58  66  		      L_STATUS varchar2(255);
12:39:58  67  	      begin
12:39:58  68  
12:39:58  69  		      PKG_PP_ERROR.SET_MODULE_NAME('PKG_DEPR_IND_CALC.F_CALCBASEANDRATE');
12:39:58  70  
12:39:58  71  		      merge into CPR_DEPR_CALC_STG A
12:39:58  72  		      using
12:39:58  73  		      (
12:39:58  74  			      select *
12:39:58  75  			      from CPR_DEPR_CALC_STG B
12:39:58  76  			      where B.DEPR_CALC_STATUS = 2
12:39:58  77  			      and B.GL_POSTING_MO_YR = A_MONTH
12:39:58  78  			      MODEL
12:39:58  79  			      partition by(ASSET_ID, SET_OF_BOOKS_ID, GL_POSTING_MO_YR)
12:39:58  80  			      DIMENSION by(MID_PERIOD_METHOD)
12:39:58  81  			      MEASURES(
12:39:58  82  				      MONTH_RATE, DEPRECIATION_BASE,
12:39:58  83  				      CURR_DEPR_EXPENSE, REMAINING_LIFE,
12:39:58  84  				      NET_GROSS, TRUE_UP_CPR_DEPR,
12:39:58  85  				      MID_PERIOD_CONV, trunc( ENG_IN_SERVICE_YEAR, 'MM' ) as ENG_IN_SERVICE_YEAR,
12:39:58  86  				      PRODUCTION, ESTIMATED_PRODUCTION,
12:39:58  87  				      RATE, INIT_LIFE,
12:39:58  88  				      BEG_ASSET_DOLLARS, NET_ADDS_AND_ADJUST,
12:39:58  89  				      RETIREMENTS, TRANSFERS_IN,
12:39:58  90  				      TRANSFERS_OUT, IMPAIRMENT_ASSET_AMOUNT,
12:39:58  91  				      ESTIMATED_SALVAGE, BEG_RESERVE_MONTH,
12:39:58  92  				      DEPR_EXP_ALLOC_ADJUST, DEPR_EXP_ADJUST,
12:39:58  93  				      SALVAGE_DOLLARS, COST_OF_REMOVAL,
12:39:58  94  				      OTHER_CREDITS_AND_ADJUST, GAIN_LOSS,
12:39:58  95  				      RESERVE_TRANS_IN, RESERVE_TRANS_OUT,
12:39:58  96  				      RESERVE_ADJUSTMENT, IMPAIRMENT_EXPENSE_AMOUNT,
12:39:58  97  				      TRF_WEIGHT, EXISTS_LAST_MONTH,
12:39:58  98  				      HAS_CFNU, DEPR_METHOD_SLE_EXP,
12:39:58  99  				      NET_TRF, NET_RES_TRF,
12:39:58 100  				      NET_IMP_AMT, ACTIVITY,
12:39:58 101  				      BEG_RES_AMT, ACTIVITY_3,
12:39:58 102  				      BEG_BAL_AMT, SCH_RATE,
12:39:58 103  				      NURV_ADJ, IMPAIRMENT_ASSET_ACTIVITY_SALV,
12:39:58 104  				      IMPAIRMENT_ASSET_BEGIN_BALANCE, MIN_MPC
12:39:58 105  			      )
12:39:58 106  			      RULES update
12:39:58 107  			      (
12:39:58 108  				      NET_TRF[any] = TRANSFERS_IN[CV()] + TRANSFERS_OUT[CV()],
12:39:58 109  				      NET_RES_TRF[any] = RESERVE_TRANS_IN[CV()] + RESERVE_TRANS_OUT[CV()],
12:39:58 110  				      NET_IMP_AMT[any] = IMPAIRMENT_EXPENSE_AMOUNT[CV()] + IMPAIRMENT_ASSET_AMOUNT[CV()],
12:39:58 111  				      ACTIVITY[any] = NET_ADDS_AND_ADJUST[CV()] + RETIREMENTS[CV()]
12:39:58 112  						      + IMPAIRMENT_ASSET_AMOUNT[CV()],
12:39:58 113  				      -- check to see if activity includes net trfs
12:39:58 114  				      ACTIVITY [any] =
12:39:58 115  						      case when TRF_WEIGHT[CV()] = 0
12:39:58 116  						      then ACTIVITY[CV()] + NET_TRF[CV()]
12:39:58 117  						      else ACTIVITY[CV()]
12:39:58 118  						      end,
12:39:58 119  				      BEG_BAL_AMT[any] =
12:39:58 120  						      case when TRF_WEIGHT[CV()] = 0
12:39:58 121  						      then BEG_ASSET_DOLLARS[CV()]
12:39:58 122  						      else BEG_ASSET_DOLLARS[CV()] + NET_TRF[CV()]
12:39:58 123  						      end,
12:39:58 124  				      BEG_RES_AMT[any] =
12:39:58 125  						      case when TRF_WEIGHT[CV()] = 0
12:39:58 126  						      then BEG_RESERVE_MONTH[CV()] + DEPR_EXP_ALLOC_ADJUST[CV()]
12:39:58 127  						      else BEG_RESERVE_MONTH[CV()] + DEPR_EXP_ALLOC_ADJUST[CV()]
12:39:58 128  							      + NET_RES_TRF[CV()]
12:39:58 129  						      end,
12:39:58 130  				      ACTIVITY_3[any] = RETIREMENTS[CV()] + DEPR_EXP_ADJUST[CV()]
12:39:58 131  						      + SALVAGE_DOLLARS[CV()] + COST_OF_REMOVAL[CV()]
12:39:58 132  						      + OTHER_CREDITS_AND_ADJUST[CV()] + GAIN_LOSS[CV()]
12:39:58 133  						      + RESERVE_ADJUSTMENT[CV()] + NURV_ADJ[CV()],
12:39:58 134  				      -- check to see if activity includes net trfs
12:39:58 135  				      ACTIVITY_3[any] =
12:39:58 136  						      case when TRF_WEIGHT[CV()] = 0
12:39:58 137  						      then ACTIVITY_3[CV()] + NET_RES_TRF[CV()]
12:39:58 138  						      else ACTIVITY_3[CV()]
12:39:58 139  						      end,
12:39:58 140  				      --Rate calcs
12:39:58 141  				      MONTH_RATE[MID_PERIOD_METHOD in ('sleol', 'sl')] =
12:39:58 142  						      case when REMAINING_LIFE[CV()] >= 1
12:39:58 143  						      then 1 / REMAINING_LIFE[CV()]
12:39:58 144  						      else 1
12:39:58 145  						      end,
12:39:58 146  				      MONTH_RATE[MID_PERIOD_METHOD in ('somd')] =
12:39:58 147  						      case when REMAINING_LIFE[CV()] >= 1
12:39:58 148  						      then REMAINING_LIFE[CV()] / ((REMAINING_LIFE[CV()] * (REMAINING_LIFE[CV()] + 1)) / 2)
12:39:58 149  						      else 1
12:39:58 150  						      end,
12:39:58 151  				      --RO: Added nvl because estimated_production can be null
12:39:58 152  				      MONTH_RATE[MID_PERIOD_METHOD in ('uopr')] =
12:39:58 153  						      case when ESTIMATED_PRODUCTION[CV()] = 0
12:39:58 154  						      then 0
12:39:58 155  						      when PRODUCTION[CV()] > ESTIMATED_PRODUCTION[CV()]
12:39:58 156  						      then 1
12:39:58 157  						      else PRODUCTION[CV()] / ESTIMATED_PRODUCTION[CV()]
12:39:58 158  						      end,
12:39:58 159  				      MONTH_RATE[MID_PERIOD_METHOD in ('rate')]       = RATE[CV()] / 12,
12:39:58 160  				      MONTH_RATE[MID_PERIOD_METHOD in ('db200')]      =
12:39:58 161  						      case when REMAINING_LIFE[CV()] > 0
12:39:58 162  						      then least(1, greatest(2 / INIT_LIFE[CV()], 1 / REMAINING_LIFE[CV()]))
12:39:58 163  						      else 1
12:39:58 164  						      end,
12:39:58 165  				      MONTH_RATE[MID_PERIOD_METHOD in ('db150')] =
12:39:58 166  						      case when REMAINING_LIFE[CV()] > 0
12:39:58 167  						      then least(1, greatest(1.5 / INIT_LIFE[CV()], 1 / REMAINING_LIFE[CV()]))
12:39:58 168  						      else 1
12:39:58 169  						      end,
12:39:58 170  				      MONTH_RATE[MID_PERIOD_METHOD in ('sle', 'ferc')] = 1,
12:39:58 171  				      MONTH_RATE[MID_PERIOD_METHOD in ('sch')] = nvl(SCH_RATE[CV()], 0),
12:39:58 172  
12:39:58 173  				      --Base calcs
12:39:58 174  
12:39:58 175  				      -- SET MID_PERIOD_CONV TO BE A 1 UNLESS one of the following:
12:39:58 176  				      --	      The initial life is the same as the remaining life (ie first month)
12:39:58 177  				      --	      Asset exists last month and the trueup option is not set to trueup every month
12:39:58 178  				      -- RATE AND UOPR GROSS uses real MPC if GROSS
12:39:58 179  				      MID_PERIOD_CONV[MID_PERIOD_METHOD not in ('rate', 'uopr')] =
12:39:58 180  						      -- AND the mid period convention is a 0 but the eng in service is earlier than
12:39:58 181  						      -- current month, then the activity should really be treated as a prior period.  So take into account.
12:39:58 182  						      case when MID_PERIOD_CONV[CV()] = 0
12:39:58 183  						      and MIN_MPC[CV()] = -1
12:39:58 184  						      and EXISTS_LAST_MONTH[CV()] = 0
12:39:58 185  						      and ENG_IN_SERVICE_YEAR[CV()] <= ADD_MONTHS(CV(GL_POSTING_MO_YR), -1)
12:39:58 186  						      then 1
12:39:58 187  						      when (REMAINING_LIFE[CV()] = INIT_LIFE[CV()])
12:39:58 188  							      or (TRUE_UP_CPR_DEPR[CV()] != 1 and EXISTS_LAST_MONTH[CV()] = 1)
12:39:58 189  						      then MID_PERIOD_CONV[CV()]
12:39:58 190  						      else 1
12:39:58 191  						      end,
12:39:58 192  				      MID_PERIOD_CONV[MID_PERIOD_METHOD in ('rate', 'uopr')] =
12:39:58 193  						      -- IF I am not doing trueup:
12:39:58 194  						      -- AND the mid period convention is a 0 but the eng in service is earlier than
12:39:58 195  						      -- current month, then the activity should really be treated as a prior period.  So take into account.
12:39:58 196  						      case when MID_PERIOD_CONV[CV()] = 0
12:39:58 197  						      and MIN_MPC[CV()] = -1
12:39:58 198  						      and EXISTS_LAST_MONTH[CV()] = 0
12:39:58 199  						      and ENG_IN_SERVICE_YEAR[CV()] <= ADD_MONTHS(CV(GL_POSTING_MO_YR), -1)
12:39:58 200  						      and NET_GROSS[CV()] = 1
12:39:58 201  						      then 1
12:39:58 202  						      when ( NET_GROSS[CV()] = 2 and TRUE_UP_CPR_DEPR[CV()] != 1 )
12:39:58 203  							      or (REMAINING_LIFE[CV()] = INIT_LIFE[CV()])
12:39:58 204  							      or (TRUE_UP_CPR_DEPR[CV()] != 1 and EXISTS_LAST_MONTH[CV()] = 1)
12:39:58 205  						      then MID_PERIOD_CONV[CV()]
12:39:58 206  						      else 1
12:39:58 207  						      end,
12:39:58 208  
12:39:58 209  				      -- certain methods are ALWAYS based on net
12:39:58 210  				      NET_GROSS[MID_PERIOD_METHOD in ('sleol', 'sl', 'somd', 'db200', 'db150')] = 1,
12:39:58 211  
12:39:58 212  				      -- certain methods are ALWAYS based on gross
12:39:58 213  				      -- SCH takes into account salvage on GROSS method.
12:39:58 214  				      -- FERC and SLE do not take into account salvage
12:39:58 215  				      NET_GROSS[MID_PERIOD_METHOD in ('sle', 'ferc', 'sch')] = 2,
12:39:58 216  
12:39:58 217  				      -- if GROSS and METHOD is not SCH, then estimate salvage should be 0 since not taken into account
12:39:58 218  				      -- IE RATE, UOPR, SLE, FERC
12:39:58 219  				      ESTIMATED_SALVAGE[MID_PERIOD_METHOD not in ('sch')] =
12:39:58 220  						      case when NET_GROSS[CV()] = 2
12:39:58 221  						      then 0
12:39:58 222  						      else ESTIMATED_SALVAGE[CV()]
12:39:58 223  						      end,
12:39:58 224  
12:39:58 225  
12:39:58 226  				      DEPRECIATION_BASE[ANY] =
12:39:58 227  					      --if net then use this formula
12:39:58 228  					      case when NET_GROSS[CV()] = 1 then
12:39:58 229  						      case when
12:39:58 230  							      (BEG_ASSET_DOLLARS[CV()] + ACTIVITY[CV()])
12:39:58 231  							      * (1 - ESTIMATED_SALVAGE[CV()])
12:39:58 232  							      + ((IMPAIRMENT_ASSET_ACTIVITY_SALV[CV()]
12:39:58 233  								      + IMPAIRMENT_ASSET_BEGIN_BALANCE[CV()]) * ESTIMATED_SALVAGE[CV()])
12:39:58 234  							      - (BEG_RES_AMT[CV()] + ACTIVITY_3[CV()] +
12:39:58 235  								      NET_IMP_AMT[CV()]) = 0
12:39:58 236  						      then 0
12:39:58 237  						      else
12:39:58 238  							      (BEG_ASSET_DOLLARS[CV()] + (ACTIVITY[CV()] * MID_PERIOD_CONV[CV()]))
12:39:58 239  							      * (1 - ESTIMATED_SALVAGE[CV()])
12:39:58 240  							      + ((IMPAIRMENT_ASSET_ACTIVITY_SALV[CV()]
12:39:58 241  								      + IMPAIRMENT_ASSET_BEGIN_BALANCE[CV()]) * ESTIMATED_SALVAGE[CV()])
12:39:58 242  							      - (BEG_RES_AMT[CV()] + NET_IMP_AMT[CV()]
12:39:58 243  								      + ((ACTIVITY_3[CV()]) * MID_PERIOD_CONV[CV()])
12:39:58 244  								      + (NURV_ADJ[CV()] * ( 1 - MID_PERIOD_CONV[CV()]))
12:39:58 245  								      )
12:39:58 246  						      end
12:39:58 247  					      else -- GROSS (SCH, UOPR, RATE, SLE, FERC)
12:39:58 248  						      -- EXCEPT FOR SCH, estimated_salvage is set to be 0, so has no impact on result
12:39:58 249  						      case when (MID_PERIOD_CONV[CV()] = 0)
12:39:58 250  							      and (EXISTS_LAST_MONTH[CV()] != 1)
12:39:58 251  							      and (HAS_CFNU[CV()] = 1)
12:39:58 252  							      and (ENG_IN_SERVICE_YEAR[CV()] <= ADD_MONTHS(CV(GL_POSTING_MO_YR), -1))
12:39:58 253  						      then BEG_ASSET_DOLLARS[CV()] + ACTIVITY[CV()]
12:39:58 254  						      when (BEG_ASSET_DOLLARS[CV()] + ACTIVITY[CV()]) = 0
12:39:58 255  						      then 0
12:39:58 256  						      else (BEG_ASSET_DOLLARS[CV()] + (ACTIVITY[CV()] * MID_PERIOD_CONV[CV()]))
12:39:58 257  							      * (1 - ESTIMATED_SALVAGE[CV()])
12:39:58 258  							      + ((IMPAIRMENT_ASSET_ACTIVITY_SALV[CV()]
12:39:58 259  								      + IMPAIRMENT_ASSET_BEGIN_BALANCE[CV()]) * ESTIMATED_SALVAGE[CV()])
12:39:58 260  						      end
12:39:58 261  					      end,
12:39:58 262  
12:39:58 263  				      -- rate for SLE and FERC is EXPENSE / BASE
12:39:58 264  				      MONTH_RATE[MID_PERIOD_METHOD in ('sle', 'ferc')] =
12:39:58 265  						      case when DEPRECIATION_BASE[CV()] = 0 then 1
12:39:58 266  						      else nvl(DEPR_METHOD_SLE_EXP[CV()], 0) / DEPRECIATION_BASE[CV()] end,
12:39:58 267  
12:39:58 268  				      --Expense calc for all methods
12:39:58 269  				      CURR_DEPR_EXPENSE[MID_PERIOD_METHOD not in ('sle', 'ferc')] =
12:39:58 270  						      DEPRECIATION_BASE[CV()] * MONTH_RATE[CV()],
12:39:58 271  
12:39:58 272  				      -- SET THE lease depr expense
12:39:58 273  				      CURR_DEPR_EXPENSE[MID_PERIOD_METHOD in ('sle', 'ferc')] =
12:39:58 274  					      case when DEPRECIATION_BASE[CV()] = 0 then 0
12:39:58 275  					      else nvl(DEPR_METHOD_SLE_EXP[CV()], 0) end
12:39:58 276  			      )
12:39:58 277  		      ) B
12:39:58 278  		      on (A.ASSET_ID = B.ASSET_ID and A.SET_OF_BOOKS_ID = B.SET_OF_BOOKS_ID and A.GL_POSTING_MO_YR = B.GL_POSTING_MO_YR)
12:39:58 279  		      when matched then
12:39:58 280  		      update
12:39:58 281  		      set DEPRECIATION_BASE = B.DEPRECIATION_BASE, MONTH_RATE = B.MONTH_RATE,
12:39:58 282  			      CURR_DEPR_EXPENSE = B.CURR_DEPR_EXPENSE, NET_GROSS = B.NET_GROSS,
12:39:58 283  			      ACTIVITY = B.ACTIVITY,
12:39:58 284  			      ACTIVITY_3 = B.ACTIVITY_3, BEG_BAL_AMT = B.BEG_BAL_AMT,
12:39:58 285  			      BEG_RES_AMT = B.BEG_RES_AMT, NET_TRF = B.NET_TRF,
12:39:58 286  			      NET_RES_TRF = B.NET_RES_TRF,
12:39:58 287  			      NET_IMP_AMT = B.NET_IMP_AMT,
12:39:58 288  			      MID_PERIOD_CONV = B.MID_PERIOD_CONV,
12:39:58 289  			      DEPR_CALC_MESSAGE = 'Staged';
12:39:58 290  
12:39:58 291  		      PKG_PP_ERROR.REMOVE_MODULE_NAME;
12:39:58 292  	      exception
12:39:58 293  		      when others then
12:39:58 294  			      P_ARCHIVE();
12:39:58 295  			      PKG_PP_ERROR.RAISE_ERROR('ERROR','Failed Operation');
12:39:58 296  	      end P_CALCBASEANDRATE;
12:39:58 297  
12:39:58 298  
12:39:58 299  	      --**************************************************************************
12:39:58 300  	      --			    F_CALCREMLIFE
12:39:58 301  	      --**************************************************************************
12:39:58 302  	      procedure P_CALCREMLIFE
12:39:58 303  	      is
12:39:58 304  		      L_STATUS varchar2(255);
12:39:58 305  	      begin
12:39:58 306  		      --set init life and remaining life for SLEOL for first month
12:39:58 307  		      PKG_PP_ERROR.SET_MODULE_NAME('PKG_DEPR_IND_CALC.P_CALCREMLIFE');
12:39:58 308  
12:39:58 309  		      update cpr_depr_calc_stg a
12:39:58 310  		      set init_life =
12:39:58 311  				      nvl2( a.end_of_life,
12:39:58 312  					      greatest(1, least(a.init_life,
12:39:58 313  									      months_between(to_date(a.end_of_life,'yyyymm'),
12:39:58 314  										      to_date(to_char(a.eng_in_service_year,'yyyymm'),'yyyymm')) + 1
12:39:58 315  								      )
12:39:58 316  							      ),
12:39:58 317  					      a.init_life
12:39:58 318  				      ),
12:39:58 319  			      remaining_life =
12:39:58 320  				      nvl2( a.end_of_life,
12:39:58 321  					      greatest(1, least(a.init_life,
12:39:58 322  									      months_between(to_date(a.end_of_life,'yyyymm'),
12:39:58 323  										      to_date(to_char(a.eng_in_service_year,'yyyymm'),'yyyymm')) + 1
12:39:58 324  								      )
12:39:58 325  							      ),
12:39:58 326  					      a.init_life
12:39:58 327  				      )
12:39:58 328  		      where EXISTS_LAST_MONTH = 0
12:39:58 329  		      and EXISTS_ARO = 0
12:39:58 330  		      and a.mid_period_method = 'sleol'
12:39:58 331  		      ;
12:39:58 332  
12:39:58 333  		      --Set the remaining life on DEPR stg for first months
12:39:58 334  		      update cpr_depr_calc_stg a
12:39:58 335  		      set remaining_life =
12:39:58 336  				      greatest(0,
12:39:58 337  						      least(a.init_life,
12:39:58 338  							      a.init_life + months_between(to_date(to_char(a.eng_in_service_year,'yyyymm'),'yyyymm'),
12:39:58 339  														      a.gl_posting_mo_yr)
12:39:58 340  										      + (1 - a.mid_period_conv)
12:39:58 341  						      )
12:39:58 342  				      )
12:39:58 343  		      where EXISTS_LAST_MONTH = 0
12:39:58 344  		      and EXISTS_ARO = 0
12:39:58 345  		      and a.mid_period_method <> 'custom'
12:39:58 346  		      and true_up_cpr_depr in (1, 2)
12:39:58 347  		      and mid_period_conv > min_mpc
12:39:58 348  		      and remaining_life = init_life
12:39:58 349  		      ;
12:39:58 350  
12:39:58 351  		      --Set the remaining life on DEPR stg for existing assets with 0 mid period conv
12:39:58 352  		      update cpr_depr_calc_stg a
12:39:58 353  		      set remaining_life =
12:39:58 354  				      greatest(0,
12:39:58 355  						      least(a.init_life,
12:39:58 356  							      a.init_life + months_between(to_date(to_char(a.eng_in_service_year,'yyyymm'),'yyyymm'),
12:39:58 357  														      a.gl_posting_mo_yr)
12:39:58 358  										      + (1 - a.mid_period_conv)
12:39:58 359  						      )
12:39:58 360  				      )
12:39:58 361  		      where EXISTS_LAST_MONTH = 1
12:40:27 362  		      and EXISTS_TWO_MONTHS = 0
12:40:27 363  		      and EXISTS_ARO = 0
12:40:27 364  		      and a.mid_period_method <> 'custom'
12:40:27 365  		      and true_up_cpr_depr in (1, 2)
12:40:27 366  		      and mid_period_conv = 0
12:40:27 367  		      and remaining_life = init_life
12:40:27 368  		      ;
12:40:27 369  
12:40:27 370  		      PKG_PP_ERROR.REMOVE_MODULE_NAME;
12:40:27 371  	      exception
12:40:27 372  		      when others then
12:40:27 373  			      P_ARCHIVE();
12:40:27 374  			      PKG_PP_ERROR.RAISE_ERROR('ERROR','Failed Operation');
12:40:27 375  	      end P_CALCREMLIFE;
12:40:27 376  
12:40:27 377  	      --**************************************************************************
12:40:27 378  	      --			    F_TRUEUP
12:40:27 379  	      --      TRUEUP_CPR_DEPR: 1 means cumulative (attempt to trueup every month)
12:40:27 380  	      --				      2 means convention (only trueup first month)
12:40:27 381  	      --**************************************************************************
12:40:27 382  	      procedure P_TRUEUP
12:40:27 383  	      is
12:40:27 384  		      L_STATUS varchar2(255);
12:40:27 385  	      begin
12:40:27 386  
12:40:27 387  		      PKG_PP_ERROR.SET_MODULE_NAME('PKG_DEPR_IND_CALC.F_TRUEUP');
12:40:27 388  
12:40:27 389  		      -- DO NOT TRUEUP records that have NURV ADJS
12:40:27 390  		      merge into CPR_DEPR_CALC_STG A
12:40:27 391  		      using
12:40:27 392  		      (
12:40:27 393  			      select *
12:40:27 394  			      from
12:40:27 395  			      (
12:40:27 396  				      -- TRUEUP records each month if trueup cpr depr option is cumulative (1)
12:40:27 397  				      --      OR trueup cpr depr is convention (2) and it does not exist last month
12:40:27 398  				      select *
12:40:27 399  				      from CPR_DEPR_CALC_STG B
12:40:27 400  				      where B.DEPR_CALC_STATUS = 2
12:40:27 401  				      and ( (exists_last_month = 0 and true_up_cpr_depr = 2)
12:40:27 402  					      or (true_up_cpr_depr = 1) )
12:40:27 403  				      and mid_period_method not in ('sch', 'sle', 'ferc', 'custom')
12:40:27 404  				      and exists_aro = 0
12:40:27 405  				      and has_nurv = 0
12:40:27 406  				      and INIT_LIFE > 0
12:40:27 407  				      and mid_period_conv > min_mpc
12:40:27 408  				      union all
12:40:27 409  				      -- TRUEUP Records in second month if the mid period convention = 0
12:40:27 410  				      --	      AND in the second month if the trueup cpr depr option is convention
12:40:27 411  				      select *
12:40:27 412  				      from CPR_DEPR_CALC_STG
12:40:27 413  				      where DEPR_CALC_STATUS = 2
12:40:27 414  				      and true_up_cpr_depr = 2
12:40:27 415  				      and exists_last_month = 1
12:40:27 416  				      and exists_two_months = 0
12:40:27 417  				      and INIT_LIFE > 0
12:40:27 418  				      and mid_period_method not in ('sch', 'sle', 'ferc', 'custom')
12:40:27 419  				      and exists_aro = 0
12:40:27 420  				      and has_nurv_last_month = 0
12:40:27 421  				      and mid_period_conv = 0
12:40:27 422  				      union all
12:40:27 423  				      -- SCH Always gets included in trueup logic
12:40:27 424  				      select *
12:40:27 425  				      from CPR_DEPR_CALC_STG
12:40:27 426  				      where DEPR_CALC_STATUS = 2
12:40:27 427  				      and INIT_LIFE > 0
12:40:27 428  				      and mid_period_method = 'sch'
12:40:27 429  				      union all
12:40:27 430  				      -- SLE and FERC
12:40:27 431  				      select *
12:40:27 432  				      from CPR_DEPR_CALC_STG
12:40:27 433  				      where DEPR_CALC_STATUS = 2
12:40:27 434  				      and ( (exists_last_month = 0 and true_up_cpr_depr = 2)
12:40:27 435  					      or (true_up_cpr_depr = 1) )
12:40:27 436  				      and INIT_LIFE > 0
12:40:27 437  				      and mid_period_method in ('sle', 'ferc')
12:40:27 438  			      )
12:40:27 439  			      MODEL
12:40:27 440  			      reference DEPR_METHOD_SLE on (select ASSET_ID, SET_OF_BOOKS_ID, GL_POSTING_MO_YR,
12:40:27 441  										      sum(DEPR_EXPENSE)
12:40:27 442  											      over (partition by ASSET_ID, SET_OF_BOOKS_ID order by GL_POSTING_MO_YR)
12:40:27 443  										      - DEPR_EXPENSE as TOTAL_DEPR
12:40:27 444  										      from DEPR_METHOD_SLE)
12:40:27 445  				      DIMENSION BY (ASSET_ID, SET_OF_BOOKS_ID, GL_POSTING_MO_YR)
12:40:27 446  				      MEASURES (TOTAL_DEPR)
12:40:27 447  			      MAIN main_model
12:40:27 448  			      PARTITION BY (ASSET_ID, SET_OF_BOOKS_ID, GL_POSTING_MO_YR)
12:40:27 449  			      DIMENSION by (MID_PERIOD_METHOD)
12:40:27 450  			      MEASURES
12:40:27 451  			      (
12:40:27 452  				      MONTH_RATE, DEPRECIATION_BASE,
12:40:27 453  				      CURR_DEPR_EXPENSE, IMPAIRMENT_ASSET_ACTIVITY_SALV,
12:40:27 454  				      IMPAIRMENT_ASSET_BEGIN_BALANCE, REMAINING_LIFE,
12:40:27 455  				      NET_GROSS, TRUE_UP_CPR_DEPR,
12:40:27 456  				      MID_PERIOD_CONV, ENG_IN_SERVICE_YEAR,
12:40:27 457  				      PRODUCTION, ESTIMATED_PRODUCTION,
12:40:27 458  				      RATE, INIT_LIFE,
12:40:27 459  				      BEG_ASSET_DOLLARS, NET_ADDS_AND_ADJUST,
12:40:27 460  				      RETIREMENTS, TRANSFERS_IN,
12:40:27 461  				      TRANSFERS_OUT, IMPAIRMENT_ASSET_AMOUNT,
12:40:27 462  				      ESTIMATED_SALVAGE, BEG_RESERVE_MONTH,
12:40:27 463  				      DEPR_EXP_ALLOC_ADJUST, DEPR_EXP_ADJUST,
12:40:27 464  				      SALVAGE_DOLLARS, COST_OF_REMOVAL,
12:40:27 465  				      OTHER_CREDITS_AND_ADJUST, GAIN_LOSS,
12:40:27 466  				      RESERVE_TRANS_IN, RESERVE_TRANS_OUT,
12:40:27 467  				      RESERVE_ADJUSTMENT, IMPAIRMENT_EXPENSE_AMOUNT,
12:40:27 468  				      TRF_WEIGHT, EXISTS_LAST_MONTH, EXISTS_TWO_MONTHS,
12:40:27 469  				      HAS_CFNU, DEPR_METHOD_SLE_EXP,
12:40:27 470  				      NET_TRF, NET_RES_TRF,
12:40:27 471  				      NET_IMP_AMT, ACTIVITY,
12:40:27 472  				      BEG_RES_AMT, ACTIVITY_3,
12:40:27 473  				      BEG_BAL_AMT, SCH_RATE_USED,
12:40:27 474  				      TRUEUP_ADJ, 0 as TRUEUP_BASE, 0 as RATE_USED, 0 as RESERVE_TOBE,
12:40:27 475  				      0 as STRAIGHT_LINE_RATE, 0 as FIRST_HALF_RATE, 0 as DEPR_USED_FIRST_HALF, 0 as DB_FACTOR
12:40:27 476  			      )
12:40:27 477  			      RULES update
12:40:27 478  			      (
12:40:27 479  				      ESTIMATED_SALVAGE[MID_PERIOD_METHOD in ('rate', 'uopr')] =
12:40:27 480  						      case when NET_GROSS[CV()] = 2
12:40:27 481  						      then 0
12:40:27 482  						      else ESTIMATED_SALVAGE[CV()]
12:40:27 483  						      end,
12:40:27 484  
12:40:27 485  				      -- generally the formula is
12:40:27 486  				      -- GROSS amount times the rate times the "used life" - reserve
12:40:27 487  				      -- GET THE GROSS PLANT BALANCE
12:40:27 488  				      TRUEUP_BASE[any] =
12:40:27 489  						      (BEG_ASSET_DOLLARS[CV()] + ACTIVITY[CV()]) * (1 - ESTIMATED_SALVAGE[CV()])
12:40:27 490  						      + ((IMPAIRMENT_ASSET_ACTIVITY_SALV[CV()] + IMPAIRMENT_ASSET_BEGIN_BALANCE[CV()])
12:40:27 491  							      * ESTIMATED_SALVAGE[CV()]),
12:40:27 492  
12:40:27 493  				      -- START SETTING THE RATE_USED for each method
12:40:27 494  				      RATE_USED[MID_PERIOD_METHOD in ('sl', 'sleol')] =
12:40:27 495  						      (INIT_LIFE[CV()]-REMAINING_LIFE[CV()]) / INIT_LIFE[CV()],
12:40:27 496  				      RATE_USED['sch'] = SCH_RATE_USED[CV()],
12:40:27 497  				      RATE_USED['somd'] = 1 - (REMAINING_LIFE[CV()] * (REMAINING_LIFE[CV()]+1)
12:40:27 498  										      / (INIT_LIFE[CV()] * (INIT_LIFE[CV()]+1))),
12:40:27 499  
12:40:27 500  				      -- RATE_USED FOR rate and uopr is dependent on whether or not net vs gross
12:40:27 501  				      RATE_USED[MID_PERIOD_METHOD in ('rate', 'uopr')] =
12:40:27 502  					      case when NET_GROSS[CV()] = 2
12:40:27 503  					      then MONTH_RATE[CV()] * (INIT_LIFE[CV()]-REMAINING_LIFE[CV()])
12:40:27 504  					      else 1 - power((1 - MONTH_RATE[CV()]), (INIT_LIFE[CV()]-REMAINING_LIFE[CV()]))
12:40:27 505  					      end,
12:40:27 506  
12:40:27 507  				      --
12:40:27 508  				      --      DB200 and DB150
12:40:27 509  				      --      THE example below is based on DB200.  The factor of 1.5 or 2 will be used in the actual calculation
12:40:27 510  				      -- IF remaining life is greater than half the initial life then the rate used is
12:40:27 511  				      --	      (1 - (2/INIT_LIFE)) ^ (INIT_LIFE - REMAINING_LIFE)
12:40:27 512  				      --      OTHERWISE the rate to use must take into account the "first half" rate and add to it
12:40:27 513  				      --	      the second half rate used (which is straight lined)
12:40:27 514  				      --	      IE: RATE_FIRST_HALF =  (1 - (2/INIT_LIFE)) ^ (INIT_LIFE - (INIT_LIFE/2))
12:40:27 515  				      --		      STRAIGHT_LINE_RATE = (1 - (REMAINING_LIFE / (INIT_LIFE/2) ) )
12:40:27 516  				      --		      DEPR_USED_SECOND_HALF = STRAIGHT_LINE_RATE * (GROSS_PLANT - DEPR_USED_FIRST_HALF)
12:40:27 517  				      --		      RATE_SECOND_HALF = DEPR_USED_SECOND_HALF / GROSS_PLANT
12:40:27 518  				      --	      TOTAL_RATE = RATE_FIRST_HALF + RATE_SECOND_HALF
12:40:27 519  				      DB_FACTOR['db200'] = 2,
12:40:27 520  				      DB_FACTOR['db150'] = 1.5,
12:40:27 521  				      FIRST_HALF_RATE[MID_PERIOD_METHOD in ('db200', 'db150')] =
12:40:27 522  						      1 - power((1 - (DB_FACTOR[CV()]/INIT_LIFE[CV()])),(INIT_LIFE[CV()]-trunc(INIT_LIFE[CV()]/DB_FACTOR[CV()],0))),
12:40:27 523  				      STRAIGHT_LINE_RATE[MID_PERIOD_METHOD in ('db200', 'db150')] =
12:40:27 524  						      1 - (REMAINING_LIFE[CV()] / trunc(INIT_LIFE[CV()]/DB_FACTOR[CV()],0)),
12:40:27 525  				      DEPR_USED_FIRST_HALF[MID_PERIOD_METHOD in ('db200', 'db150')] = TRUEUP_BASE[CV()] * FIRST_HALF_RATE[CV()],
12:40:27 526  				      RATE_USED[MID_PERIOD_METHOD in ('db200', 'db150')] =
12:40:27 527  						      case when sign(REMAINING_LIFE[CV()] - (INIT_LIFE[CV()]/2)) = 1
12:40:27 528  						      then (1 - power((1-(DB_FACTOR[CV()]/INIT_LIFE[CV()])), INIT_LIFE[CV()] - REMAINING_LIFE[CV()]))
12:40:27 529  						      else FIRST_HALF_RATE[CV()]
12:40:27 530  							      + (STRAIGHT_LINE_RATE[CV()] * (TRUEUP_BASE[CV()] - DEPR_USED_FIRST_HALF[CV()]) / TRUEUP_BASE[CV()])
12:40:27 531  						      end,
12:40:27 532  
12:40:27 533  
12:40:27 534  
12:40:27 535  				      RESERVE_TOBE[MID_PERIOD_METHOD in ('sle', 'ferc')] =
12:40:27 536  					      nvl(DEPR_METHOD_SLE.TOTAL_DEPR[CV(ASSET_ID), CV(SET_OF_BOOKS_ID), CV(GL_POSTING_MO_YR) ], 0),
12:40:27 537  
12:40:27 538  				      -- the total reserve that should be is base times rate
12:40:27 539  				      RESERVE_TOBE[MID_PERIOD_METHOD not in ('sle', 'ferc')] = TRUEUP_BASE[CV()] * RATE_USED[CV()],
12:40:27 540  
12:40:27 541  				      -- adjustment is reserve to be minus the (total reserve from prior months plus current month activity)
12:40:27 542  				      TRUEUP_ADJ[any] = RESERVE_TOBE[CV()] - BEG_RESERVE_MONTH[CV()] - ACTIVITY_3[CV()]
12:40:27 543  			      )
12:40:27 544  		      ) B
12:40:27 545  		      on (A.ASSET_ID = B.ASSET_ID and A.SET_OF_BOOKS_ID = B.SET_OF_BOOKS_ID and A.GL_POSTING_MO_YR = B.GL_POSTING_MO_YR)
12:40:27 546  		      when matched then
12:40:27 547  		      update set
12:40:27 548  			      TRUEUP_ADJ = B.TRUEUP_ADJ,
12:40:27 549  			      DEPR_CALC_MESSAGE = 'True Up adjustment calculated.';
12:40:27 550  
12:40:27 551  		      -- if the remaining life is zero then always trueup the expense so fully depreciated
12:40:27 552  		      -- also set the retirements to be the ending asset balance
12:40:27 553  		      update CPR_DEPR_CALC_STG
12:40:27 554  		      set TRUEUP_ADJ = DEPRECIATION_BASE,
12:40:27 555  			      RETIREMENTS = case when G_VERSION_ID is null
12:40:27 556  						      then RETIREMENTS
12:40:27 557  						      else -1 * (BEG_ASSET_DOLLARS + NET_ADDS_AND_ADJUST + TRANSFERS_IN + TRANSFERS_OUT + IMPAIRMENT_ASSET_AMOUNT)
12:40:27 558  						      end
12:40:27 559  		      where DEPR_CALC_STATUS = 2
12:40:27 560  		      and remaining_life = 0
12:40:27 561  		      and net_gross = 1
12:40:27 562  		      and mid_period_method <> 'sch';
12:40:27 563  
12:40:27 564  		      -- decrease the depreciable base by the amount of the trueup adj since the expense should have
12:40:27 565  		      -- occurred in prior months.  Only update for NET methods since GROSS should not be based on reserve
12:40:27 566  		      update CPR_DEPR_CALC_STG
12:40:27 567  		      set DEPRECIATION_BASE = DEPRECIATION_BASE - TRUEUP_ADJ
12:40:27 568  		      where nvl(TRUEUP_ADJ,0) <> 0
12:40:27 569  		      and DEPR_CALC_STATUS = 2
12:40:27 570  		      and NET_GROSS = 1;
12:40:27 571  
12:40:27 572  		      PKG_PP_ERROR.REMOVE_MODULE_NAME;
12:40:27 573  	      exception
12:40:27 574  		      when others then
12:40:27 575  			      P_ARCHIVE();
12:40:27 576  			      PKG_PP_ERROR.RAISE_ERROR('ERROR','Failed Operation');
12:40:27 577  	      end P_TRUEUP;
12:40:27 578  
12:40:27 579  
12:40:27 580  
12:40:27 581  		      --**************************************************************************
12:40:27 582  	      --			    P_OVER_DEPR
12:40:27 583  	      --      over depr for rate and uopr
12:40:27 584  	      --**************************************************************************
12:40:27 585  	      procedure P_OVER_DEPR(A_MONTH date)
12:40:27 586  	      is
12:40:27 587  		      L_STATUS varchar2(255);
12:40:27 588  	      begin
12:40:27 589  
12:40:27 590  		      PKG_PP_ERROR.SET_MODULE_NAME('PKG_DEPR_IND_CALC.P_OVER_DEPR');
12:40:27 591  
12:40:27 592  		      -- decrease the depreciable base by the amount of the trueup adj since the expense should have
12:40:27 593  		      -- occurred in prior months.  Only update for NET methods since GROSS should not be based on reserve
12:40:27 594  		      -- CAP the over depr adjustment to curr_depr_expense.
12:40:27 595  		      update CPR_DEPR_CALC_STG
12:40:27 596  		      set OVER_DEPR_ADJ =
12:40:27 597  				      -1 * sign(asset_dollars) *
12:40:27 598  				      least(
12:40:27 599  					      abs((ASSET_DOLLARS * (1 - ESTIMATED_SALVAGE)
12:40:27 600  					      + ( IMPAIRMENT_ASSET_ACTIVITY_SALV + IMPAIRMENT_ASSET_BEGIN_BALANCE ) * ESTIMATED_SALVAGE
12:40:27 601  					      ) - DEPR_RESERVE),
12:40:27 602  					      abs(CURR_DEPR_EXPENSE))
12:40:27 603  		      where mid_period_method in ('rate', 'uopr')
12:40:27 604  		      and NET_GROSS = 2
12:40:27 605  		      and OVER_DEPR_CHECK = 1
12:40:27 606  		      and abs(ASSET_DOLLARS) * (1 - ESTIMATED_SALVAGE) < abs(DEPR_RESERVE)
12:40:27 607  		      and sign(ASSET_DOLLARS) = sign(DEPR_RESERVE)
12:40:27 608  		      and GL_POSTING_MO_YR = A_MONTH
12:40:27 609  		      ;
12:40:27 610  
12:40:27 611  		      update CPR_DEPR_CALC_STG
12:40:27 612  		      set DEPR_EXP_ALLOC_ADJUST = DEPR_EXP_ALLOC_ADJUST + OVER_DEPR_ADJ,
12:40:27 613  			      DEPR_RESERVE = DEPR_RESERVE + OVER_DEPR_ADJ
12:40:27 614  		      where mid_period_method in ('rate', 'uopr')
12:40:27 615  		      and OVER_DEPR_ADJ <> 0
12:40:27 616  		      and GL_POSTING_MO_YR = A_MONTH
12:40:27 617  		      ;
12:40:27 618  
12:40:27 619  		      PKG_PP_ERROR.REMOVE_MODULE_NAME;
12:40:27 620  	      exception
12:40:27 621  		      when others then
12:40:27 622  			      P_ARCHIVE();
12:40:27 623  			      PKG_PP_ERROR.RAISE_ERROR('ERROR','Failed Operation');
12:40:27 624  	      end P_OVER_DEPR;
12:40:27 625  
12:40:27 626  	      --**************************************************************************
12:40:27 627  	      --			    P_SETDEPREXPENSE
12:40:27 628  	      --**************************************************************************
12:40:27 629  	      procedure P_SETDEPREXPENSE(A_MONTH date)
12:40:27 630  	      is
12:40:27 631  		      L_STATUS varchar2(255);
12:40:27 632  	      begin
12:40:27 633  
12:40:27 634  		      PKG_PP_ERROR.SET_MODULE_NAME('PKG_DEPR_IND_CALC.P_SETDEPREXPENSE');
12:40:27 635  
12:40:27 636  		      -- do not reset the current depr expense for SLE or FERC.
12:40:27 637  		      update CPR_DEPR_CALC_STG
12:40:27 638  		      set CURR_DEPR_EXPENSE = case when mid_period_method in ('sle', 'ferc') then CURR_DEPR_EXPENSE else DEPRECIATION_BASE * MONTH_RATE end,
12:40:27 639  			      DEPR_RESERVE = BEG_RESERVE_MONTH + RETIREMENTS + TRUEUP_ADJ + NURV_ADJ + DEPR_EXP_ADJUST
12:40:27 640  						      + SALVAGE_DOLLARS + COST_OF_REMOVAL + OTHER_CREDITS_AND_ADJUST + GAIN_LOSS
12:40:27 641  						      + RESERVE_TRANS_IN + RESERVE_TRANS_OUT +
12:40:27 642  						      (case when mid_period_method in ('sle', 'ferc') then CURR_DEPR_EXPENSE else DEPRECIATION_BASE * MONTH_RATE end)
12:40:27 643  						      + RESERVE_ADJUSTMENT + IMPAIRMENT_ASSET_AMOUNT + IMPAIRMENT_EXPENSE_AMOUNT,
12:40:27 644  			      ASSET_DOLLARS = BEG_ASSET_DOLLARS + NET_ADDS_AND_ADJUST + RETIREMENTS
12:40:27 645  						      + TRANSFERS_IN + TRANSFERS_OUT + IMPAIRMENT_ASSET_AMOUNT,
12:40:27 646  			      DEPR_CALC_STATUS = 9,
12:40:27 647  			      DEPR_CALC_MESSAGE = 'Expense set.'
12:40:27 648  		      where DEPR_CALC_STATUS = 2
12:40:27 649  		      and GL_POSTING_MO_YR = A_MONTH
12:40:27 650  		      ;
12:40:27 651  
12:40:27 652  		      PKG_PP_ERROR.REMOVE_MODULE_NAME;
12:40:27 653  	      exception
12:40:27 654  		      when others then
12:40:27 655  			      P_ARCHIVE();
12:40:27 656  			      PKG_PP_ERROR.RAISE_ERROR('ERROR','Failed Operation');
12:40:27 657  	      end P_SETDEPREXPENSE;
12:40:27 658  
12:40:27 659  	      --**************************************************************************
12:40:27 660  	      --			    P_ROLLFWD
12:40:27 661  	      --**************************************************************************
12:40:27 662  	      procedure P_ROLLFWD(A_MONTH date)
12:40:27 663  	      is
12:40:27 664  		      L_STATUS varchar2(255);
12:40:27 665  
12:40:27 666  		      type retiredRec is record(
12:40:27 667  			asset_id cpr_depr_calc_stg.asset_id%type,
12:40:27 668  			set_of_books_id cpr_depr_calc_stg.set_of_books_id%type,
12:40:27 669  			gl_posting_mo_yr cpr_depr_calc_stg.gl_posting_mo_yr%type);
12:40:27 670  		      type retiredTable is table of retiredRec index by pls_integer;
12:40:27 671  
12:40:27 672  		      L_retired retiredTable;
12:40:27 673  	      begin
12:40:27 674  
12:40:27 675  		      PKG_PP_ERROR.SET_MODULE_NAME('PKG_DEPR_IND_CALC.P_ROLLFWD: REMOVE FULLY RET');
12:40:27 676  		      PKG_PP_LOG.P_WRITE_MESSAGE('Rolling balances forward');
12:40:27 677  
12:40:27 678  		      select stg.asset_id, stg.set_of_books_id, stg.gl_posting_mo_yr
12:40:27 679  		      bulk collect
12:40:27 680  		      into L_retired
12:40:27 681  		      from cpr_depr_calc_stg stg
12:40:27 682  		      where gl_posting_mo_yr > A_MONTH
12:40:27 683  		      and (stg.asset_id, stg.set_of_books_id) in
12:40:27 684  		      (
12:40:27 685  			      select stg2.asset_id, stg2.set_of_books_id
12:40:27 686  			      from cpr_depr_calc_stg stg2
12:40:27 687  			      where stg2.remaining_life = 0
12:40:27 688  			      and stg2.asset_dollars = 0
12:40:27 689  			      and stg2.depr_reserve = 0
12:40:27 690  			      and stg2.gl_posting_mo_yr = A_MONTH
12:40:27 691  		      );
12:40:27 692  
12:40:27 693  		      if L_retired.COUNT > 0 then
12:40:27 694  			      FORALL ndx IN INDICES OF L_retired
12:40:27 695  				      delete from CPR_DEPR_CALC_STG
12:40:27 696  				      where gl_posting_mo_yr = L_retired( ndx ).gl_posting_mo_yr
12:40:27 697  				      and asset_id = L_retired( ndx ).asset_id
12:40:27 698  				      and set_of_books_id = L_retired( ndx ).set_of_books_id
12:40:27 699  				      ;
12:40:27 700  		      end if;
12:40:27 701  
12:40:27 702  		      PKG_PP_ERROR.REMOVE_MODULE_NAME;
12:40:27 703  		      PKG_PP_ERROR.SET_MODULE_NAME('PKG_DEPR_IND_CALC.P_ROLLFWD: ROLLFWD');
12:40:27 704  	    merge into CPR_DEPR_CALC_STG A
12:40:27 705  	    using (
12:40:27 706  	       select
12:40:27 707  		  B.ASSET_ID,
12:40:27 708  		  B.SET_OF_BOOKS_ID,
12:40:27 709  		  B.GL_POSTING_MO_YR,
12:40:27 710  
12:40:27 711  		  NVL(B.DEPR_RESERVE, 0) NEW_BEG_RESERVE_MONTH,
12:40:27 712  		  NVL(B.ASSET_DOLLARS, 0) NEW_BEG_ASSET_DOLLARS,
12:40:27 713  		  DECODE(TO_NUMBER(TO_CHAR(B.GL_POSTING_MO_YR, 'MM')),
12:40:27 714  			12,
12:40:27 715  			B.CURR_DEPR_EXPENSE,
12:40:27 716  			NVL(B.YTD_DEPR_EXPENSE, 0) + B.CURR_DEPR_EXPENSE) NEW_YTD_DEPR_EXPENSE,
12:40:27 717  		  DECODE(TO_NUMBER(TO_CHAR(B.GL_POSTING_MO_YR, 'MM')),
12:40:27 718  			12,
12:40:27 719  			B.DEPR_EXP_ADJUST,
12:40:27 720  			NVL(B.YTD_DEPR_EXP_ADJUST, 0) + B.DEPR_EXP_ADJUST) NEW_YTD_DEPR_EXP_ADJUST,
12:40:27 721  
12:40:27 722  		  DECODE(TO_NUMBER(TO_CHAR(B.GL_POSTING_MO_YR, 'MM')),
12:40:27 723  			12,
12:40:27 724  			0,
12:40:27 725  			NVL(B.YTD_DEPR_EXPENSE, 0)) NEW_P_YTD_DEPR_EXPENSE,
12:40:27 726  		  DECODE(TO_NUMBER(TO_CHAR(B.GL_POSTING_MO_YR, 'MM')),
12:40:27 727  			12,
12:40:27 728  			0,
12:40:27 729  			NVL(B.YTD_DEPR_EXP_ADJUST, 0)) NEW_P_YTD_DEPR_EXP_ADJUST,
12:40:27 730  
12:40:27 731  		  DECODE(TO_NUMBER(TO_CHAR(B.GL_POSTING_MO_YR, 'MM')),
12:40:27 732  			12,
12:40:27 733  			NVL(B.DEPR_RESERVE, 0),
12:40:27 734  			NVL(B.BEG_RESERVE_YEAR, 0)) NEW_BEG_RESERVE_YEAR,
12:40:27 735  		  GREATEST(B.REMAINING_LIFE -
12:40:27 736  			DECODE(B.INIT_LIFE, B.REMAINING_LIFE, B.MID_PERIOD_CONV, 1),
12:40:27 737  		     0) NEW_REMAINING_LIFE,
12:40:27 738  		  ( B.IMPAIRMENT_ASSET_BEGIN_BALANCE + B.IMPAIRMENT_ASSET_ACTIVITY_SALV ) NEW_IMP_ASSET_BEGIN_BALANCE,
12:40:27 739  
12:40:27 740  		  B.INIT_LIFE,
12:40:27 741  		  B.REMAINING_LIFE,
12:40:27 742  		  B.ESTIMATED_SALVAGE,
12:40:27 743  		  B.BEG_ASSET_DOLLARS,
12:40:27 744  		  B.NET_ADDS_AND_ADJUST,
12:40:27 745  		  B.RETIREMENTS,
12:40:27 746  		  B.TRANSFERS_IN,
12:40:27 747  		  B.TRANSFERS_OUT,
12:40:27 748  		  B.ASSET_DOLLARS,
12:40:27 749  		  B.BEG_RESERVE_MONTH,
12:40:27 750  		  B.SALVAGE_DOLLARS,
12:40:27 751  		  B.RESERVE_ADJUSTMENT,
12:40:27 752  		  B.COST_OF_REMOVAL,
12:40:27 753  		  B.RESERVE_TRANS_IN,
12:40:27 754  		  B.RESERVE_TRANS_OUT,
12:40:27 755  		  B.DEPR_EXP_ADJUST,
12:40:27 756  		  B.OTHER_CREDITS_AND_ADJUST,
12:40:27 757  		  B.GAIN_LOSS,
12:40:27 758  		  B.DEPRECIATION_BASE,
12:40:27 759  		  B.CURR_DEPR_EXPENSE,
12:40:27 760  		  B.DEPR_RESERVE,
12:40:27 761  		  B.BEG_RESERVE_YEAR,
12:40:27 762  		  B.YTD_DEPR_EXPENSE,
12:40:27 763  		  B.YTD_DEPR_EXP_ADJUST,
12:40:27 764  		  B.PRIOR_YTD_DEPR_EXPENSE,
12:40:27 765  		  B.PRIOR_YTD_DEPR_EXP_ADJUST,
12:40:27 766  		  B.ACCT_DISTRIB,
12:40:27 767  		  B.MONTH_RATE,
12:40:27 768  		  B.COMPANY_ID,
12:40:27 769  		  B.MID_PERIOD_METHOD,
12:40:27 770  		  B.MID_PERIOD_CONV,
12:40:27 771  		  B.DEPR_GROUP_ID,
12:40:27 772  		  B.DEPR_EXP_ALLOC_ADJUST,
12:40:27 773  		  B.DEPR_METHOD_ID,
12:40:27 774  		  B.TRUE_UP_CPR_DEPR,
12:40:27 775  		  B.SALVAGE_EXPENSE,
12:40:27 776  		  B.SALVAGE_EXP_ADJUST,
12:40:27 777  		  B.SALVAGE_EXP_ALLOC_ADJUST,
12:40:27 778  		  B.IMPAIRMENT_ASSET_AMOUNT,
12:40:27 779  		  B.IMPAIRMENT_EXPENSE_AMOUNT,
12:40:27 780  		  B.DEPRECIATION_INDICATOR,
12:40:27 781  		  B.END_OF_LIFE,
12:40:27 782  		  B.ENG_IN_SERVICE_YEAR,
12:40:27 783  		  B.ESTIMATED_PRODUCTION,
12:40:27 784  		  B.HAS_CFNU,
12:40:27 785  		  B.HAS_NURV,
12:40:27 786  		  B.HAS_NURV_LAST_MONTH,
12:40:27 787  		  B.NET_GROSS,
12:40:27 788  		  B.OVER_DEPR_CHECK,
12:40:27 789  		  B.PRODUCTION,
12:40:27 790  		  B.RATE,
12:40:27 791  		  B.EXISTS_LAST_MONTH,
12:40:27 792  		  B.EXISTS_TWO_MONTHS,
12:40:27 793  		  B.EXISTS_ARO,
12:40:27 794  		  B.EFFECTIVE_DATE,
12:40:27 795  		  B.TRF_WEIGHT,
12:40:27 796  		  B.DEPR_CALC_MESSAGE,
12:40:27 797  		  B.SUBLEDGER_TYPE_ID,
12:40:27 798  		  B.DEPR_CALC_STATUS,
12:40:27 799  		  B.NET_TRF,
12:40:27 800  		  B.NET_RES_TRF,
12:40:27 801  		  B.NET_IMP_AMT,
12:40:27 802  		  B.ACTIVITY,
12:40:27 803  		  B.BEG_RES_AMT,
12:40:27 804  		  B.ACTIVITY_3,
12:40:27 805  		  B.DEPR_METHOD_SLE_EXP,
12:40:27 806  		  B.BEG_BAL_AMT,
12:40:27 807  		  B.SCH_RATE,
12:40:27 808  		  B.SCH_FACTOR,
12:40:27 809  		  B.MIN_MPC,
12:40:27 810  		  B.TRUEUP_ADJ,
12:40:27 811  		  B.NURV_ADJ,
12:40:27 812  		  B.IMPAIRMENT_ASSET_ACTIVITY_SALV,
12:40:27 813  		  B.IMPAIRMENT_ASSET_BEGIN_BALANCE,
12:40:27 814  		  B.SCH_RATE_USED,
12:40:27 815  		  B.FUNDING_WO_ID,
12:40:27 816  		  B.REVISION,
12:40:27 817  		  B.OVER_DEPR_ADJ,
12:40:27 818  		  DMR_VIEW.END_OF_LIFE DMR_VIEW_END_OF_LIFE,
12:40:27 819  		  DMR_VIEW.NET_GROSS DMR_VIEW_NET_GROSS,
12:40:27 820  		  DMR_VIEW.OVER_DEPR_CHECK DMR_VIEW_OVER_DEPR_CHECK,
12:40:27 821  		  DMR_VIEW.RATE DMR_VIEW_RATE,
12:40:27 822  		  DMR_VIEW.EFFECTIVE_DATE DMR_VIEW_EFFECTIVE_DATE,
12:40:27 823  		  FDGV.MID_PERIOD_CONV FDGV_MID_PERIOD_CONV
12:40:27 824  
12:40:27 825  	       from CPR_DEPR_CALC_STG B,
12:40:27 826  		  (
12:40:27 827  		     select DD.FCST_DEPR_METHOD_ID as DEPR_METHOD_ID,
12:40:27 828  		       DD.SET_OF_BOOKS_ID, DD.EFFECTIVE_DATE, DD.RATE,
12:40:27 829  		       DD.OVER_DEPR_CHECK, DD.NET_GROSS, DD.END_OF_LIFE,
12:40:27 830  		       ROW_NUMBER() OVER(partition by DD.FCST_DEPR_METHOD_ID, DD.SET_OF_BOOKS_ID order by DD.EFFECTIVE_DATE desc) as THE_ROW
12:40:27 831  		     from FCST_DEPR_METHOD_RATES DD
12:40:27 832  		     where DD.EFFECTIVE_DATE <= A_MONTH
12:40:27 833  		     and DD.FCST_DEPR_VERSION_ID = G_VERSION_ID
12:40:27 834  		  ) DMR_VIEW,
12:40:27 835  		 FCST_DEPR_GROUP_VERSION FDGV
12:40:27 836  	       WHERE B.GL_POSTING_MO_YR = A_MONTH
12:40:27 837  	       AND DMR_VIEW.the_row = 1
12:40:27 838  	       AND B.SET_OF_BOOKS_ID = DMR_VIEW.SET_OF_BOOKS_ID
12:40:27 839  	       AND B.DEPR_METHOD_ID = DMR_VIEW.DEPR_METHOD_ID
12:40:27 840  	       AND FDGV.FCST_DEPR_VERSION_ID = G_VERSION_ID
12:40:27 841  	       AND B.DEPR_GROUP_ID = FDGV.FCST_DEPR_GROUP_ID
12:40:27 842  	    ) S
12:40:27 843  	    on (
12:40:27 844  	       A.ASSET_ID = S.ASSET_ID AND
12:40:27 845  	       A.SET_OF_BOOKS_ID = S.SET_OF_BOOKS_ID AND
12:40:27 846  	       A.GL_POSTING_MO_YR = ADD_MONTHS( S.GL_POSTING_MO_YR, 1) AND
12:40:27 847  	       A.EXISTS_LAST_MONTH = 1
12:40:27 848  	    )
12:40:27 849  	    when matched then
12:40:27 850  	       update set
12:40:27 851  		  A.BEG_RESERVE_MONTH = S.NEW_BEG_RESERVE_MONTH,
12:40:27 852  		  A.BEG_ASSET_DOLLARS = S.NEW_BEG_ASSET_DOLLARS,
12:40:27 853  		  A.YTD_DEPR_EXPENSE = S.NEW_YTD_DEPR_EXPENSE,
12:40:27 854  		  A.YTD_DEPR_EXP_ADJUST = S.NEW_YTD_DEPR_EXP_ADJUST,
12:40:27 855  		  A.BEG_RESERVE_YEAR = S.NEW_BEG_RESERVE_YEAR,
12:40:27 856  		  A.REMAINING_LIFE = S.NEW_REMAINING_LIFE,
12:40:27 857  		  A.IMPAIRMENT_ASSET_BEGIN_BALANCE = S.NEW_IMP_ASSET_BEGIN_BALANCE
12:40:27 858  
12:40:27 859  when not matched then
12:40:27 860  	       insert (
12:40:27 861  		  A.ASSET_ID,
12:40:27 862  		  A.SET_OF_BOOKS_ID,
12:40:27 863  		  A.GL_POSTING_MO_YR,
12:40:27 864  		  A.INIT_LIFE,
12:40:27 865  		  A.REMAINING_LIFE,
12:40:27 866  		  A.ESTIMATED_SALVAGE,
12:40:27 867  		  A.BEG_ASSET_DOLLARS,
12:40:27 868  		  A.NET_ADDS_AND_ADJUST,
12:40:27 869  		  A.RETIREMENTS,
12:40:27 870  		  A.TRANSFERS_IN,
12:40:27 871  		  A.TRANSFERS_OUT,
12:40:27 872  		  A.ASSET_DOLLARS,
12:40:27 873  		  A.BEG_RESERVE_MONTH,
12:40:27 874  		  A.SALVAGE_DOLLARS,
12:40:27 875  		  A.RESERVE_ADJUSTMENT,
12:40:27 876  		  A.COST_OF_REMOVAL,
12:40:27 877  		  A.RESERVE_TRANS_IN,
12:40:27 878  		  A.RESERVE_TRANS_OUT,
12:40:27 879  		  A.DEPR_EXP_ADJUST,
12:40:27 880  		  A.OTHER_CREDITS_AND_ADJUST,
12:40:27 881  		  A.GAIN_LOSS,
12:40:27 882  		  A.DEPRECIATION_BASE,
12:40:27 883  		  A.CURR_DEPR_EXPENSE,
12:40:27 884  		  A.DEPR_RESERVE,
12:40:27 885  		  A.BEG_RESERVE_YEAR,
12:40:27 886  		  A.YTD_DEPR_EXPENSE,
12:40:27 887  		  A.YTD_DEPR_EXP_ADJUST,
12:40:27 888  		  A.PRIOR_YTD_DEPR_EXPENSE,
12:40:27 889  		  A.PRIOR_YTD_DEPR_EXP_ADJUST,
12:40:27 890  		  A.ACCT_DISTRIB,
12:40:27 891  		  A.MONTH_RATE,
12:40:27 892  		  A.COMPANY_ID,
12:40:27 893  		  A.MID_PERIOD_METHOD,
12:40:27 894  		  A.MID_PERIOD_CONV,
12:40:27 895  		  A.DEPR_GROUP_ID,
12:40:27 896  		  A.DEPR_EXP_ALLOC_ADJUST,
12:40:27 897  		  A.DEPR_METHOD_ID,
12:40:27 898  		  A.TRUE_UP_CPR_DEPR,
12:40:27 899  		  A.SALVAGE_EXPENSE,
12:40:27 900  		  A.SALVAGE_EXP_ADJUST,
12:40:27 901  		  A.SALVAGE_EXP_ALLOC_ADJUST,
12:40:27 902  		  A.IMPAIRMENT_ASSET_AMOUNT,
12:40:27 903  		  A.IMPAIRMENT_EXPENSE_AMOUNT,
12:40:27 904  		  A.DEPRECIATION_INDICATOR,
12:40:27 905  		  A.END_OF_LIFE,
12:40:27 906  		  A.ENG_IN_SERVICE_YEAR,
12:40:27 907  		  A.ESTIMATED_PRODUCTION,
12:40:27 908  		  A.HAS_CFNU,
12:40:27 909  		  A.HAS_NURV,
12:40:27 910  		  A.HAS_NURV_LAST_MONTH,
12:40:27 911  		  A.NET_GROSS,
12:40:27 912  		  A.OVER_DEPR_CHECK,
12:40:27 913  		  A.PRODUCTION,
12:40:27 914  		  A.RATE,
12:40:27 915  		  A.EXISTS_LAST_MONTH,
12:40:27 916  		  A.EXISTS_TWO_MONTHS,
12:40:27 917  		  A.EXISTS_ARO,
12:40:27 918  		  A.EFFECTIVE_DATE,
12:40:27 919  		  A.TRF_WEIGHT,
12:40:27 920  		  A.DEPR_CALC_MESSAGE,
12:40:27 921  		  A.SUBLEDGER_TYPE_ID,
12:40:27 922  		  A.DEPR_CALC_STATUS,
12:40:27 923  		  A.NET_TRF,
12:40:27 924  		  A.NET_RES_TRF,
12:40:27 925  		  A.NET_IMP_AMT,
12:40:27 926  		  A.ACTIVITY,
12:40:27 927  		  A.BEG_RES_AMT,
12:40:27 928  		  A.ACTIVITY_3,
12:40:27 929  		  A.DEPR_METHOD_SLE_EXP,
12:40:27 930  		  A.BEG_BAL_AMT,
12:40:27 931  		  A.SCH_RATE,
12:40:27 932  		  A.SCH_FACTOR,
12:40:27 933  		  A.MIN_MPC,
12:40:27 934  		  A.TRUEUP_ADJ,
12:40:27 935  		  A.NURV_ADJ,
12:40:27 936  		  A.IMPAIRMENT_ASSET_ACTIVITY_SALV,
12:40:27 937  		  A.IMPAIRMENT_ASSET_BEGIN_BALANCE,
12:40:27 938  		  A.SCH_RATE_USED,
12:40:27 939  		  A.FUNDING_WO_ID,
12:40:27 940  		  A.REVISION,
12:40:27 941  		  A.OVER_DEPR_ADJ   )
12:40:27 942  	       values (
12:40:27 943  		  S.ASSET_ID,
12:40:27 944  		  S.SET_OF_BOOKS_ID,
12:40:27 945  		  ADD_MONTHS( S.GL_POSTING_MO_YR, 1),
12:40:27 946  		  S.INIT_LIFE,
12:40:27 947  		  S.NEW_REMAINING_LIFE, --REMAINING_LIFE,
12:40:27 948  		  S.ESTIMATED_SALVAGE,
12:40:27 949  		  S.NEW_BEG_ASSET_DOLLARS, --BEG_ASSET_DOLLARS,
12:40:27 950  		  0,
12:40:27 951  		  0,
12:40:27 952  		  0,
12:40:27 953  		  0,
12:40:27 954  		  S.ASSET_DOLLARS,
12:40:27 955  		  S.NEW_BEG_RESERVE_MONTH, --BEG_RESERVE_MONTH,
12:40:28 956  		  0, --SALVAGE_DOLLARS
12:40:28 957  		  0,
12:40:28 958  		  0,
12:40:28 959  		  0,
12:40:28 960  		  0,
12:40:28 961  		  0,
12:40:28 962  		  0,
12:40:28 963  		  0,
12:40:28 964  		  S.DEPRECIATION_BASE,
12:40:28 965  		  0,
12:40:28 966  		  S.DEPR_RESERVE,
12:40:28 967  		  S.NEW_BEG_RESERVE_YEAR, --BEG_RESERVE_YEAR,
12:40:28 968  		  S.NEW_YTD_DEPR_EXPENSE, --YTD_DEPR_EXPENSE,
12:40:28 969  		  S.NEW_YTD_DEPR_EXP_ADJUST, --YTD_DEPR_EXP_ADJUST,
12:40:28 970  		  S.NEW_P_YTD_DEPR_EXPENSE, --PRIOR_YTD_DEPR_EXPENSE
12:40:28 971  		  S.NEW_P_YTD_DEPR_EXP_ADJUST, --PRIOR_YTD_DEPR_EXP_ADJUST
12:40:28 972  		  'ROLLFWD',
12:40:28 973  		  S.MONTH_RATE,
12:40:28 974  		  S.COMPANY_ID,
12:40:28 975  		  S.MID_PERIOD_METHOD,
12:40:28 976  		  S.FDGV_MID_PERIOD_CONV, --MID_PERIOD_CONV,
12:40:28 977  		  S.DEPR_GROUP_ID,
12:40:28 978  		  0,
12:40:28 979  		  S.DEPR_METHOD_ID,
12:40:28 980  		  S.TRUE_UP_CPR_DEPR,
12:40:28 981  		  0,
12:40:28 982  		  0,
12:40:28 983  		  0,
12:40:28 984  		  S.IMPAIRMENT_ASSET_AMOUNT,
12:40:28 985  		  S.IMPAIRMENT_EXPENSE_AMOUNT,
12:40:28 986  		  S.DEPRECIATION_INDICATOR,
12:40:28 987  		  S.DMR_VIEW_END_OF_LIFE, --END_OF_LIFE
12:40:28 988  		  S.ENG_IN_SERVICE_YEAR,
12:40:28 989  		  S.ESTIMATED_PRODUCTION,
12:40:28 990  		  S.HAS_CFNU,
12:40:28 991  		  S.HAS_NURV,
12:40:28 992  		  S.HAS_NURV_LAST_MONTH,
12:40:28 993  		  S.DMR_VIEW_NET_GROSS, --NET_GROSS
12:40:28 994  		  S.DMR_VIEW_OVER_DEPR_CHECK, --OVER_DEPR_CHECK
12:40:28 995  		  S.PRODUCTION,
12:40:28 996  		  S.DMR_VIEW_RATE, --RATE
12:40:28 997  		  1, --S.EXISTS_LAST_MONTH, it exists last month
12:40:28 998  		  S.EXISTS_LAST_MONTH, --S.EXISTS_TWO_MONTHS,
12:40:28 999  		  S.EXISTS_ARO,
12:40:28 1000  		   S.DMR_VIEW_EFFECTIVE_DATE, --EFFECTIVE_DATE
12:40:28 1001  		   S.TRF_WEIGHT,
12:40:28 1002  		   S.DEPR_CALC_MESSAGE,
12:40:28 1003  		   S.SUBLEDGER_TYPE_ID,
12:40:28 1004  		   2, --DEPR_CALC_STATUS, new.
12:40:28 1005  		   0,
12:40:28 1006  		   0,
12:40:28 1007  		   0,
12:40:28 1008  		   0,
12:40:28 1009  		   S.BEG_RES_AMT,
12:40:28 1010  		   0,
12:40:28 1011  		   0,
12:40:28 1012  		   S.BEG_BAL_AMT,
12:40:28 1013  		   S.SCH_RATE,
12:40:28 1014  		   S.SCH_FACTOR,
12:40:28 1015  		   S.MIN_MPC,
12:40:28 1016  		   0,
12:40:28 1017  		   0,
12:40:28 1018  		   0,
12:40:28 1019  		   S.NEW_IMP_ASSET_BEGIN_BALANCE, --IMPAIRMENT_ASSET_BEGIN_BALANCE,
12:40:28 1020  		   S.SCH_RATE_USED,
12:40:28 1021  		   S.FUNDING_WO_ID,
12:40:28 1022  		   S.REVISION,
12:40:28 1023  		   0   )
12:40:28 1024  		WHERE (
12:40:28 1025  		      S.ASSET_DOLLARS <> 0
12:40:28 1026  		   OR S.DEPR_RESERVE <> 0
12:40:28 1027  		   ) ;
12:40:28 1028  
12:40:28 1029  
12:40:28 1030  		       PKG_PP_ERROR.REMOVE_MODULE_NAME;
12:40:28 1031  	       exception
12:40:28 1032  		       when others then
12:40:28 1033  			       P_ARCHIVE();
12:40:28 1034  			       PKG_PP_ERROR.RAISE_ERROR('ERROR','Failed Operation');
12:40:28 1035  	       end P_ROLLFWD;
12:40:28 1036  
12:40:28 1037  	       --**************************************************************************
12:40:28 1038  	       --			     P_NURV
12:40:28 1039  	       --**************************************************************************
12:40:28 1040  	       --
12:40:28 1041  	       -- This function does non-unitized reversals
12:40:28 1042  	       -- PREREQS: The staging table cpr_depr_calc_stg is already populated by some other means
12:40:28 1043  	       -- ALLOWING: this function makes the adjustments on DEPR_EXP_ALLOC_ADJUST for non-unitzed reversals
12:40:28 1044  	       --
12:40:28 1045  	       procedure P_NURV
12:40:28 1046  	       is
12:40:28 1047  		       L_STATUS varchar2(255);
12:40:28 1048  	       begin
12:40:28 1049  
12:40:28 1050  		       PKG_PP_ERROR.SET_MODULE_NAME('PKG_DEPR_IND_CALC.P_NURV');
12:40:28 1051  
12:40:28 1052  		       --Adjust reserve down to 0 for 106 assets
12:40:28 1053  		       update CPR_DEPR_CALC_STG
12:40:28 1054  		       set NURV_ADJ =
12:40:28 1055  			       case when BEG_ASSET_DOLLARS = 0 then
12:40:28 1056  				       -(BEG_RESERVE_MONTH + RETIREMENTS + DEPR_EXP_ADJUST + SALVAGE_DOLLARS +
12:40:28 1057  					       COST_OF_REMOVAL + OTHER_CREDITS_AND_ADJUST + GAIN_LOSS + RESERVE_TRANS_IN +
12:40:28 1058  					       RESERVE_TRANS_OUT + RESERVE_ADJUSTMENT + IMPAIRMENT_EXPENSE_AMOUNT +
12:40:28 1059  					       IMPAIRMENT_ASSET_AMOUNT)
12:40:28 1060  			       else
12:40:28 1061  				       (NET_ADDS_AND_ADJUST / BEG_ASSET_DOLLARS) *
12:40:28 1062  				       (BEG_RESERVE_MONTH + RETIREMENTS + DEPR_EXP_ADJUST + SALVAGE_DOLLARS +
12:40:28 1063  					       COST_OF_REMOVAL + OTHER_CREDITS_AND_ADJUST + GAIN_LOSS + RESERVE_TRANS_IN +
12:40:28 1064  					       RESERVE_TRANS_OUT + RESERVE_ADJUSTMENT + IMPAIRMENT_EXPENSE_AMOUNT +
12:40:28 1065  					       IMPAIRMENT_ASSET_AMOUNT)
12:40:28 1066  			       end
12:40:28 1067  		       where EXISTS_ARO = 0
12:40:28 1068  		       and ((HAS_NURV = 1 and MID_PERIOD_CONV > MIN_MPC)
12:40:28 1069  			       or (HAS_NURV_LAST_MONTH = 1 and MID_PERIOD_CONV = 0))
12:40:28 1070  		       and MID_PERIOD_METHOD not in ('custom', 'sch');
12:40:28 1071  
12:40:28 1072  		       --Get our 106 Assets
12:40:28 1073  		       insert into CPR_DEPR_CALC_NURV_STG
12:40:28 1074  		       (ASSET_ID, SET_OF_BOOKS_ID, GL_POSTING_MO_YR, WORK_ORDER_NUMBER, COST)
12:40:28 1075  		       (
12:40:28 1076  			       select distinct CDS.ASSET_ID,
12:40:28 1077  				       CDS.SET_OF_BOOKS_ID,
12:40:28 1078  				       CDS.GL_POSTING_MO_YR,
12:40:28 1079  				       CA.WORK_ORDER_NUMBER,
12:40:28 1080  				       CDS.NURV_ADJ
12:40:28 1081  			       from CPR_DEPR_CALC_STG CDS, CPR_ACTIVITY CA
12:40:28 1082  			       where CDS.ASSET_ID = CA.ASSET_ID
12:40:28 1083  			       and cds.MID_PERIOD_METHOD not in ('custom', 'sch')
12:40:28 1084  			       and ((CDS.GL_POSTING_MO_YR = CA.GL_POSTING_MO_YR and CDS.HAS_NURV = 1)
12:40:28 1085  				       or (CDS.GL_POSTING_MO_YR = add_months(CA.GL_POSTING_MO_YR, 1) and CDS.HAS_NURV_LAST_MONTH = 1))
12:40:28 1086  		       );
12:40:28 1087  
12:40:28 1088  		       --Get our 101 Assets
12:40:28 1089  				       --Get our 101 Assets
12:40:28 1090  		       insert into CPR_DEPR_CALC_CFNU_STG
12:40:28 1091  		       (ASSET_ID, SET_OF_BOOKS_ID, GL_POSTING_MO_YR, WORK_ORDER_NUMBER, COST)
12:40:28 1092  		       (
12:40:28 1093  			       select CDS.ASSET_ID,
12:40:28 1094  			       CDS.SET_OF_BOOKS_ID,
12:40:28 1095  			       CDS.GL_POSTING_MO_YR,
12:40:28 1096  			       CA.WORK_ORDER_NUMBER,
12:40:28 1097  			       sum(ca.activity_cost)
12:40:28 1098  			       from CPR_DEPR_CALC_STG CDS, CPR_ACTIVITY CA
12:40:28 1099  			       where CDS.ASSET_ID = CA.ASSET_ID
12:40:28 1100  			       and cds.MID_PERIOD_METHOD not in ('custom', 'sch')
12:40:28 1101  			       and (CDS.GL_POSTING_MO_YR = CA.GL_POSTING_MO_YR
12:40:28 1102  				       or CDS.GL_POSTING_MO_YR = add_months(CA.GL_POSTING_MO_YR, 1))
12:40:28 1103  			       and CDS.HAS_CFNU = 1
12:40:28 1104  			       and trim(ca.activity_code) = 'CFNU'
12:40:28 1105  			       and CA.WORK_ORDER_NUMBER in
12:40:28 1106  			       (
12:40:28 1107  				       select CDN.WORK_ORDER_NUMBER
12:40:28 1108  				       from CPR_DEPR_CALC_NURV_STG CDN
12:40:28 1109  			       )
12:40:28 1110  			       group by CDS.ASSET_ID,
12:40:28 1111  				       CDS.SET_OF_BOOKS_ID,
12:40:28 1112  				       CDS.GL_POSTING_MO_YR,
12:40:28 1113  				       CA.WORK_ORDER_NUMBER
12:40:28 1114  		       );
12:40:28 1115  
12:40:28 1116  		       --Calculate the NURV Adjustment. This includes a correction for rounding.
12:40:28 1117  		       update CPR_DEPR_CALC_CFNU_STG C2
12:40:28 1118  		       set ADJ =
12:40:28 1119  		       (
12:40:28 1120  			       select NN.AMOUNT
12:40:28 1121  			       from
12:40:28 1122  			       (
12:40:28 1123  				       with THE_SPREAD as
12:40:28 1124  				       (
12:40:28 1125  					       select N.SET_OF_BOOKS_ID,
12:40:28 1126  						       N.WORK_ORDER_NUMBER,
12:40:28 1127  						       C.ASSET_ID,
12:40:28 1128  						       -1 * sum(N.COST) * nvl(RATIO_TO_REPORT(C.COST) OVER(partition by N.WORK_ORDER_NUMBER, N.SET_OF_BOOKS_ID), 0) AMOUNT,
12:40:28 1129  						       sum(N.COST) WO_COST,
12:40:28 1130  						       C.COST,
12:40:28 1131  						       RATIO_TO_REPORT(C.COST) OVER(partition by N.WORK_ORDER_NUMBER, N.SET_OF_BOOKS_ID)
12:40:28 1132  					       from CPR_DEPR_CALC_CFNU_STG C, CPR_DEPR_CALC_NURV_STG N
12:40:28 1133  					       where C.SET_OF_BOOKS_ID = N.SET_OF_BOOKS_ID
12:40:28 1134  					       and C.WORK_ORDER_NUMBER = N.WORK_ORDER_NUMBER
12:40:28 1135  					       group by N.SET_OF_BOOKS_ID, N.WORK_ORDER_NUMBER, C.ASSET_ID, C.COST
12:40:28 1136  				       )
12:40:28 1137  				       select THE_SPREAD.AMOUNT
12:40:28 1138  						       - DECODE(ROW_NUMBER() OVER(partition by THE_SPREAD.WORK_ORDER_NUMBER, THE_SPREAD.SET_OF_BOOKS_ID
12:40:28 1139  													       order by abs(THE_SPREAD.AMOUNT) desc, THE_SPREAD.ASSET_ID desc),
12:40:28 1140  								       1, THE_SPREAD.WO_COST + sum(ROUND(THE_SPREAD.AMOUNT, 2))
12:40:28 1141  														       OVER(partition by THE_SPREAD.WORK_ORDER_NUMBER, THE_SPREAD.SET_OF_BOOKS_ID),
12:40:28 1142  								       0) as AMOUNT,
12:40:28 1143  						       THE_SPREAD.SET_OF_BOOKS_ID,
12:40:28 1144  						       THE_SPREAD.WORK_ORDER_NUMBER,
12:40:28 1145  						       THE_SPREAD.ASSET_ID,
12:40:28 1146  						       THE_SPREAD.WO_COST
12:40:28 1147  				       from THE_SPREAD
12:40:28 1148  			       ) NN, CPR_DEPR_CALC_CFNU_STG C
12:40:28 1149  			       where C.SET_OF_BOOKS_ID = C2.SET_OF_BOOKS_ID
12:40:28 1150  			       and C.ASSET_ID = C2.ASSET_ID
12:40:28 1151  			       and C.WORK_ORDER_NUMBER = C2.WORK_ORDER_NUMBER
12:40:28 1152  			       and NN.ASSET_ID = C.ASSET_ID
12:40:28 1153  			       and NN.SET_OF_BOOKS_ID = C.SET_OF_BOOKS_ID
12:40:28 1154  			       and NN.WORK_ORDER_NUMBER = C.WORK_ORDER_NUMBER
12:40:28 1155  		       );
12:40:28 1156  
12:40:28 1157  		       --Move the NURV Adjustment from the CFNU table to the main calc table.
12:40:28 1158  		       --Also update the remaining life on the 101 Assets to have as much expired life as the 106 Assets.
12:40:28 1159  		       update CPR_DEPR_CALC_STG C1
12:40:28 1160  		       set (C1.NURV_ADJ, C1.REMAINING_LIFE) =
12:40:28 1161  		       (
12:40:28 1162  			       select max(nvl(ADJ, 0)), min(greatest( C1.INIT_LIFE - WO_EXP_LIFE, 0 ))
12:40:28 1163  			       from
12:40:28 1164  			       (
12:40:28 1165  				       with LIFE106 as
12:40:28 1166  				       (
12:40:28 1167  					       select CN.WORK_ORDER_NUMBER, C3.SET_OF_BOOKS_ID,
12:40:28 1168  						       min(GREATEST(0, C3.INIT_LIFE - C3.REMAINING_LIFE)) WO_EXP_LIFE
12:40:28 1169  					       from CPR_DEPR_CALC_STG C3, CPR_DEPR_CALC_NURV_STG CN
12:40:28 1170  					       where CN.ASSET_ID = C3.ASSET_ID
12:40:28 1171  					       group by CN.WORK_ORDER_NUMBER, C3.SET_OF_BOOKS_ID
12:40:28 1172  				       )
12:40:28 1173  				       select CFNU.ADJ, LIFE106.WO_EXP_LIFE,
12:40:28 1174  					       CFNU.ASSET_ID, CFNU.SET_OF_BOOKS_ID,
12:40:28 1175  					       CFNU.GL_POSTING_MO_YR
12:40:28 1176  				       from LIFE106, CPR_DEPR_CALC_CFNU_STG CFNU, CPR_DEPR_CALC_STG C2
12:40:28 1177  				       where LIFE106.WORK_ORDER_NUMBER = CFNU.WORK_ORDER_NUMBER
12:40:28 1178  				       and CFNU.ASSET_ID = C2.ASSET_ID
12:40:28 1179  				       and CFNU.SET_OF_BOOKS_ID = C2.SET_OF_BOOKS_ID
12:40:28 1180  				       and LIFE106.SET_OF_BOOKS_ID = C2.SET_OF_BOOKS_ID
12:40:28 1181  				       and CFNU.GL_POSTING_MO_YR = C2.GL_POSTING_MO_YR
12:40:28 1182  			       ) WO_ARG
12:40:28 1183  			       where WO_ARG.GL_POSTING_MO_YR = C1.GL_POSTING_MO_YR
12:40:28 1184  			       and WO_ARG.ASSET_ID = C1.ASSET_ID
12:40:28 1185  			       and WO_ARG.SET_OF_BOOKS_ID = C1.SET_OF_BOOKS_ID
12:40:28 1186  		       )
12:40:28 1187  		       where exists
12:40:28 1188  		       (
12:40:28 1189  			       select 1
12:40:28 1190  			       from CPR_DEPR_CALC_CFNU_STG CDN
12:40:28 1191  			       where CDN.ASSET_ID = C1.ASSET_ID
12:40:28 1192  			       and CDN.SET_OF_BOOKS_ID = C1.SET_OF_BOOKS_ID
12:40:28 1193  			       and C1.GL_POSTING_MO_YR = CDN.GL_POSTING_MO_YR
12:40:28 1194  		       );
12:40:28 1195  
12:40:28 1196  		       PKG_PP_ERROR.REMOVE_MODULE_NAME;
12:40:28 1197  	       exception
12:40:28 1198  		       when others then
12:40:28 1199  			       P_ARCHIVE();
12:40:28 1200  			       PKG_PP_ERROR.RAISE_ERROR('ERROR','Failed Operation');
12:40:28 1201  	       end P_NURV;
12:40:28 1202  
12:40:28 1203  	       --**************************************************************************
12:40:28 1204  	       --			     P_PREPDEPRCALC
12:40:28 1205  	       --**************************************************************************
12:40:28 1206  	       procedure P_PREPDEPRCALC
12:40:28 1207  	       (
12:40:28 1208  		       L_IS_LEASE      boolean
12:40:28 1209  	       )
12:40:28 1210  	       is
12:40:28 1211  		       L_STATUS varchar2(255);
12:40:28 1212  		       L_RTN	       NUMBER;
12:40:28 1213  	       begin
12:40:28 1214  
12:40:28 1215  		       PKG_PP_ERROR.SET_MODULE_NAME('PKG_DEPR_IND_CALC.P_PREPDEPRCALC');
12:40:28 1216  
12:40:53 1217  
12:40:53 1218  		       --we know all we need to know to set remaining life before calc'ing, so keep it outside the loop
12:40:53 1219  		       P_CALCREMLIFE;
12:40:53 1220  
12:40:53 1221  		       for i in G_MONTHS.first .. G_MONTHS.last loop
12:40:53 1222  			       PKG_PP_LOG.P_WRITE_MESSAGE('Starting individual depr calculation for: '||to_char(G_MONTHS(i)));
12:40:53 1223  			       -- only calc NURV for actuals
12:40:53 1224  			       if G_VERSION_ID is null then
12:40:53 1225  				       P_NURV;
12:40:53 1226  			       end if;
12:40:53 1227  
12:40:53 1228  			       P_CALCBASEANDRATE(G_MONTHS(i));
12:40:53 1229  
12:40:53 1230  			       -- only calc trueup for actuals
12:40:54 1231  			       if G_VERSION_ID is null then
12:40:54 1232  				       P_TRUEUP;
12:40:54 1233  			       end if;
12:40:54 1234  
12:40:54 1235  			       P_SETDEPREXPENSE(G_MONTHS(i));
12:40:54 1236  			       P_OVER_DEPR(G_MONTHS(i));
12:40:54 1237  
12:40:54 1238  			       if i <> G_MONTHS.last then
12:40:54 1239  				       P_ROLLFWD(G_MONTHS(i));
12:40:54 1240  			       end if;
12:40:54 1241  		       end loop;
12:40:54 1242  
12:40:54 1243  		       if not L_IS_LEASE then
12:40:54 1244  			       L_RTN := analyze_table('CPR_DEPR_CALC_STG',100);
12:40:54 1245  		       end if;
12:40:54 1246  
12:40:54 1247  		       PKG_PP_ERROR.REMOVE_MODULE_NAME;
12:40:54 1248  	       exception
12:40:54 1249  		       when others then
12:40:54 1250  			       P_ARCHIVE();
12:40:54 1251  			       PKG_PP_ERROR.RAISE_ERROR('ERROR','Failed Operation');
12:40:54 1252  	       end P_PREPDEPRCALC;
12:40:54 1253  
12:40:54 1254  	       --**************************************************************************
12:40:54 1255  	       --			     P_PREPDEPRCALC
12:40:54 1256  	       --**************************************************************************
12:40:54 1257  	       procedure P_PREPDEPRCALC is
12:40:54 1258  	       begin
12:40:54 1259  		       P_PREPDEPRCALC(false);
12:40:54 1260  	       exception
12:40:54 1261  		       when others then
12:40:54 1262  			       P_ARCHIVE();
12:40:54 1263  			       PKG_PP_ERROR.RAISE_ERROR('ERROR','Failed Operation');
12:40:54 1264  	       end P_PREPDEPRCALC;
12:40:54 1265  
12:40:54 1266  	       --**************************************************************************
12:40:54 1267  	       --			     P_BACKFILL
12:40:54 1268  	       --**************************************************************************
12:40:54 1269  	       procedure P_BACKFILL
12:40:54 1270  	       is
12:40:54 1271  		       L_STATUS varchar2(254);
12:40:54 1272  	       begin
12:40:54 1273  
12:40:54 1274  		       PKG_PP_ERROR.SET_MODULE_NAME('PKG_DEPR_IND_CALC.P_BACKFILL');
12:40:54 1275  
12:40:54 1276  		       --has_cfnu
12:40:54 1277  		       update CPR_DEPR_CALC_STG Z
12:40:54 1278  		       set HAS_CFNU = 1
12:40:54 1279  		       where exists
12:40:54 1280  		       (
12:40:54 1281  			       select 1
12:40:54 1282  			       from CPR_ACTIVITY Y
12:40:54 1283  			       where Y.ASSET_ID = Z.ASSET_ID
12:40:54 1284  			       and Y.GL_POSTING_MO_YR between add_months(Z.GL_POSTING_MO_YR, -1) and Z.GL_POSTING_MO_YR
12:40:54 1285  			       and trim(ACTIVITY_CODE) = 'CFNU'
12:40:54 1286  		       );
12:40:54 1287  
12:40:54 1288  		       --has_nurv
12:40:54 1289  		       update CPR_DEPR_CALC_STG Z
12:40:54 1290  		       set HAS_NURV = 1
12:40:54 1291  		       where exists
12:40:54 1292  		       (
12:40:54 1293  			       select 1
12:40:54 1294  			       from CPR_ACTIVITY Y
12:40:54 1295  			       where Y.ASSET_ID = Z.ASSET_ID
12:40:54 1296  			       and Y.GL_POSTING_MO_YR = Z.GL_POSTING_MO_YR
12:40:54 1297  			       and trim(ACTIVITY_CODE) = 'NURV'
12:40:54 1298  		       );
12:40:54 1299  
12:40:54 1300  		       --has_nurv_last_month
12:40:54 1301  		       update CPR_DEPR_CALC_STG Z
12:40:54 1302  		       set HAS_NURV_LAST_MONTH = 1
12:40:54 1303  		       where exists
12:40:54 1304  		       (
12:40:54 1305  			       select 1
12:40:54 1306  			       from CPR_ACTIVITY Y
12:40:54 1307  			       where Y.ASSET_ID = Z.ASSET_ID
12:40:54 1308  			       and Y.GL_POSTING_MO_YR = ADD_MONTHS(Z.GL_POSTING_MO_YR, -1)
12:40:54 1309  			       and trim(ACTIVITY_CODE) = 'NURV'
12:40:54 1310  		       );
12:40:54 1311  
12:40:54 1312  		       --estimated_production
12:40:54 1313  		       --production
12:40:54 1314  		       update CPR_DEPR_CALC_STG A
12:40:54 1315  		       set (ESTIMATED_PRODUCTION, PRODUCTION) =
12:40:54 1316  		       (
12:40:54 1317  			       select ESTIMATED_PRODUCTION, PRODUCTION
12:40:54 1318  			       from DEPR_METHOD_UOP UOP
12:40:54 1319  			       where UOP.DEPR_METHOD_ID = A.DEPR_METHOD_ID
12:40:54 1320  			       and UOP.SET_OF_BOOKS_ID = A.SET_OF_BOOKS_ID
12:40:54 1321  			       and UOP.GL_POST_MO_YR = A.GL_POSTING_MO_YR
12:40:54 1322  		       )
12:40:54 1323  		       where exists
12:40:54 1324  		       (
12:40:54 1325  			       select 1
12:40:54 1326  			       from DEPR_METHOD_UOP UOP
12:40:54 1327  			       where UOP.DEPR_METHOD_ID = A.DEPR_METHOD_ID
12:40:54 1328  			       and UOP.SET_OF_BOOKS_ID = A.SET_OF_BOOKS_ID
12:40:54 1329  			       and UOP.GL_POST_MO_YR = A.GL_POSTING_MO_YR
12:40:54 1330  		       )
12:40:54 1331  		       and A.MID_PERIOD_METHOD = 'uopr';
12:40:54 1332  
12:40:54 1333  		       --exists_last_month
12:40:54 1334  		       update CPR_DEPR_CALC_STG Z
12:40:54 1335  		       set EXISTS_LAST_MONTH = 1
12:40:54 1336  		       where exists
12:40:54 1337  		       (
12:40:54 1338  			       select 1
12:40:54 1339  			       from CPR_DEPR Y
12:40:54 1340  			       where Y.ASSET_ID = Z.ASSET_ID
12:40:54 1341  			       and Y.SET_OF_BOOKS_ID = Z.SET_OF_BOOKS_ID
12:40:54 1342  			       and Y.GL_POSTING_MO_YR = ADD_MONTHS(Z.GL_POSTING_MO_YR, -1)
12:40:54 1343  		       );
12:40:54 1344  
12:40:54 1345  		       --exists_two_months
12:40:54 1346  		       update CPR_DEPR_CALC_STG Z
12:40:54 1347  		       set EXISTS_TWO_MONTHS = 1
12:40:54 1348  		       where exists
12:40:54 1349  		       (
12:40:54 1350  			       select 1
12:40:54 1351  			       from CPR_DEPR Y
12:40:54 1352  			       where Y.ASSET_ID = Z.ASSET_ID
12:40:54 1353  			       and Y.SET_OF_BOOKS_ID = Z.SET_OF_BOOKS_ID
12:40:54 1354  			       and Y.GL_POSTING_MO_YR = ADD_MONTHS(Z.GL_POSTING_MO_YR, -2)
12:40:54 1355  		       );
12:40:54 1356  
12:40:54 1357  		       --exists_aro
12:40:54 1358  		       update CPR_DEPR_CALC_STG Y
12:40:54 1359  		       set EXISTS_ARO = 1
12:40:54 1360  		       where exists (select 1 from ARO where ARO.ASSET_ID = Y.ASSET_ID);
12:40:54 1361  
12:40:54 1362  		       --depr_method_sle_exp
12:40:54 1363  		       update CPR_DEPR_CALC_STG STG
12:40:54 1364  		       set DEPR_METHOD_SLE_EXP =
12:40:54 1365  		       (
12:40:54 1366  			       select DMS.DEPR_EXPENSE
12:40:54 1367  			       from DEPR_METHOD_SLE DMS
12:40:54 1368  			       where STG.ASSET_ID = DMS.ASSET_ID
12:40:54 1369  			       and STG.SET_OF_BOOKS_ID = DMS.SET_OF_BOOKS_ID
12:40:54 1370  			       and STG.GL_POSTING_MO_YR = DMS.GL_POSTING_MO_YR
12:40:54 1371  		       )
12:40:54 1372  		       where exists
12:40:54 1373  		       (
12:40:54 1374  			       select 1
12:40:54 1375  			       from DEPR_METHOD_SLE DMS
12:40:54 1376  			       where STG.ASSET_ID = DMS.ASSET_ID
12:40:54 1377  			       and STG.SET_OF_BOOKS_ID = DMS.SET_OF_BOOKS_ID
12:40:54 1378  			       and STG.GL_POSTING_MO_YR = DMS.GL_POSTING_MO_YR
12:40:54 1379  		       )
12:40:54 1380  		       and STG.MID_PERIOD_METHOD in ('sle', 'ferc');
12:40:54 1381  
12:40:54 1382  
12:40:54 1383  
12:40:54 1384  		       --stuff for sch
12:40:54 1385  		       --get the yearly rate, divide by 12 to make it monthly, and multiply by the factor
12:40:54 1386  		       -- THIS NEEDS TO TAKE INTO ACCOUNT FISCAL CALENDARS....
12:40:54 1387  		       update CPR_DEPR_CALC_STG STG
12:40:54 1388  		       set (STG.SCH_RATE, STG.SCH_RATE_USED) =
12:40:54 1389  		       (
12:40:54 1390  			       select NVL(S.RATE , 0) *
12:40:54 1391  					       case TO_CHAR(STG.GL_POSTING_MO_YR, 'mm')
12:40:54 1392  					       when '01' then SF.FACTOR_1
12:40:54 1393  					       when '02' then SF.FACTOR_2
12:40:54 1394  					       when '03' then SF.FACTOR_3
12:40:54 1395  					       when '04' then SF.FACTOR_4
12:40:54 1396  					       when '05' then SF.FACTOR_5
12:40:54 1397  					       when '06' then SF.FACTOR_6
12:40:54 1398  					       when '07' then SF.FACTOR_7
12:40:54 1399  					       when '08' then SF.FACTOR_8
12:40:54 1400  					       when '09' then SF.FACTOR_9
12:40:54 1401  					       when '10' then SF.FACTOR_10
12:40:54 1402  					       when '11' then SF.FACTOR_11
12:40:54 1403  					       when '12' then SF.FACTOR_12
12:40:54 1404  					       end,
12:40:54 1405  				       S.TOTAL_RATE -
12:40:54 1406  					       NVL(S.RATE , 0) * case TO_CHAR(STG.GL_POSTING_MO_YR, 'mm')
12:40:54 1407  					       when '01' then SF.FACTOR_1 + SF.FACTOR_2 + SF.FACTOR_3 +
12:40:54 1408  					       SF.FACTOR_4 + SF.FACTOR_5 +
12:40:54 1409  					       SF.FACTOR_6 + SF.FACTOR_7 +
12:40:54 1410  					       SF.FACTOR_8 + SF.FACTOR_9 +
12:40:54 1411  					       SF.FACTOR_10 + SF.FACTOR_11 +
12:40:54 1412  					       SF.FACTOR_12
12:40:54 1413  					       when '02' then SF.FACTOR_2 + SF.FACTOR_3 +
12:40:54 1414  					       SF.FACTOR_4 + SF.FACTOR_5 +
12:40:54 1415  					       SF.FACTOR_6 + SF.FACTOR_7 +
12:40:54 1416  					       SF.FACTOR_8 + SF.FACTOR_9 +
12:40:54 1417  					       SF.FACTOR_10 + SF.FACTOR_11 +
12:40:54 1418  					       SF.FACTOR_12
12:40:54 1419  					       when '03' then SF.FACTOR_3 +
12:40:54 1420  					       SF.FACTOR_4 + SF.FACTOR_5 +
12:40:54 1421  					       SF.FACTOR_6 + SF.FACTOR_7 +
12:40:54 1422  					       SF.FACTOR_8 + SF.FACTOR_9 +
12:40:54 1423  					       SF.FACTOR_10 + SF.FACTOR_11 +
12:40:54 1424  					       SF.FACTOR_12
12:40:54 1425  					       when '04' then SF.FACTOR_4 + SF.FACTOR_5 +
12:40:54 1426  					       SF.FACTOR_6 + SF.FACTOR_7 +
12:40:54 1427  					       SF.FACTOR_8 + SF.FACTOR_9 +
12:40:54 1428  					       SF.FACTOR_10 + SF.FACTOR_11 +
12:40:54 1429  					       SF.FACTOR_12
12:40:54 1430  					       when '05' then SF.FACTOR_5 +
12:40:54 1431  					       SF.FACTOR_6 + SF.FACTOR_7 +
12:40:54 1432  					       SF.FACTOR_8 + SF.FACTOR_9 +
12:40:54 1433  					       SF.FACTOR_10 + SF.FACTOR_11 +
12:40:54 1434  					       SF.FACTOR_12
12:40:54 1435  					       when '06' then SF.FACTOR_6 + SF.FACTOR_7 +
12:40:54 1436  					       SF.FACTOR_8 + SF.FACTOR_9 +
12:40:54 1437  					       SF.FACTOR_10 + SF.FACTOR_11 +
12:40:54 1438  					       SF.FACTOR_12
12:40:54 1439  					       when '07' then SF.FACTOR_7 +
12:40:54 1440  					       SF.FACTOR_8 + SF.FACTOR_9 +
12:40:54 1441  					       SF.FACTOR_10 + SF.FACTOR_11 +
12:40:54 1442  					       SF.FACTOR_12
12:40:54 1443  					       when '08' then SF.FACTOR_8 + SF.FACTOR_9 +
12:40:54 1444  					       SF.FACTOR_10 + SF.FACTOR_11 +
12:40:54 1445  					       SF.FACTOR_12
12:40:54 1446  					       when '09' then SF.FACTOR_9 +
12:40:54 1447  					       SF.FACTOR_10 + SF.FACTOR_11 +
12:40:54 1448  					       SF.FACTOR_12
12:40:54 1449  					       when '10' then SF.FACTOR_10 + SF.FACTOR_11 +
12:40:54 1450  					       SF.FACTOR_12
12:40:54 1451  					       when '11' then SF.FACTOR_11 +
12:40:54 1452  					       SF.FACTOR_12
12:40:54 1453  					       when '12' then SF.FACTOR_12
12:40:54 1454  					       end
12:40:54 1455  			       from DEPR_METHOD_SCHEDULE S, SPREAD_FACTOR SF, DEPR_GROUP DG
12:40:54 1456  			       where SF.FACTOR_ID = DG.FACTOR_ID
12:40:54 1457  			       and DG.DEPR_GROUP_ID = STG.DEPR_GROUP_ID
12:40:54 1458  			       and S.DEPR_METHOD_ID = STG.DEPR_METHOD_ID
12:40:54 1459  			       and S.YEAR = TO_NUMBER(TO_CHAR(STG.GL_POSTING_MO_YR, 'yyyy')) - TO_NUMBER(TO_CHAR(stg.ENG_IN_SERVICE_YEAR, 'yyyy')) + 1
12:40:54 1460  		       )
12:40:54 1461  		       where exists
12:40:54 1462  		       (
12:40:54 1463  			       select 1
12:40:54 1464  			       from DEPR_METHOD_SCHEDULE S, SPREAD_FACTOR SF, DEPR_GROUP DG
12:40:54 1465  			       where SF.FACTOR_ID = DG.FACTOR_ID
12:40:54 1466  			       and DG.DEPR_GROUP_ID = STG.DEPR_GROUP_ID
12:40:54 1467  			       and S.DEPR_METHOD_ID = STG.DEPR_METHOD_ID
12:40:54 1468  			       and S.YEAR = TO_NUMBER(TO_CHAR(STG.GL_POSTING_MO_YR, 'yyyy')) - TO_NUMBER(TO_CHAR(stg.ENG_IN_SERVICE_YEAR, 'yyyy')) + 1
12:40:54 1469  		       )
12:40:54 1470  		       and STG.MID_PERIOD_METHOD = 'sch';
12:40:54 1471  
12:40:54 1472  		       update CPR_DEPR_CALC_STG STG
12:40:54 1473  		       set STG.SCH_RATE = nvl(STG.SCH_RATE, 0),
12:40:54 1474  			       STG.SCH_RATE_USED = nvl(STG.SCH_RATE_USED, 1)
12:40:54 1475  		       where STG.MID_PERIOD_METHOD = 'sch';
12:40:54 1476  
12:40:54 1477  		       PKG_PP_ERROR.REMOVE_MODULE_NAME;
12:40:54 1478  	       exception
12:40:54 1479  		       when others then
12:40:54 1480  			       P_ARCHIVE();
12:40:54 1481  			       PKG_PP_ERROR.RAISE_ERROR('ERROR','Failed Operation');
12:40:54 1482  	       end P_BACKFILL;
12:40:54 1483  
12:40:54 1484  	       --**************************************************************************
12:40:54 1485  	       --			     P_BACKFILL_FCST
12:40:54 1486  	       --**************************************************************************
12:40:54 1487  	       procedure P_BACKFILL_FCST
12:40:54 1488  	       is
12:40:54 1489  		       L_STATUS varchar2(254);
12:40:54 1490  	       begin
12:40:54 1491  
12:40:54 1492  		       PKG_PP_ERROR.SET_MODULE_NAME('PKG_DEPR_IND_CALC.P_BACKFILL_FCST: 1');
12:40:54 1493  
12:40:54 1494  		       --has_nurv_last_month
12:40:54 1495  		       update CPR_DEPR_CALC_STG Z
12:40:54 1496  		       set EXISTS_LAST_MONTH = 0
12:40:54 1497  		       where not exists
12:40:54 1498  		       (
12:40:54 1499  			       select 1
12:40:54 1500  			       from CPR_DEPR_CALC_STG Y
12:40:54 1501  			       where Z.ASSET_ID = Y.ASSET_ID
12:40:54 1502  			       and Z.SET_OF_BOOKS_ID = Y.SET_OF_BOOKS_ID
12:40:54 1503  			       and Y.GL_POSTING_MO_YR = ADD_MONTHS(Z.GL_POSTING_MO_YR, -1)
12:40:54 1504  		       );
12:40:54 1505  
12:40:54 1506  		       --estimated_production
12:40:54 1507  		       --production
12:40:54 1508  		       PKG_PP_ERROR.SET_MODULE_NAME('PKG_DEPR_IND_CALC.P_BACKFILL_FCST: 2');
12:40:54 1509  		       update CPR_DEPR_CALC_STG A
12:40:54 1510  		       set (ESTIMATED_PRODUCTION, PRODUCTION) =
12:40:54 1511  		       (
12:40:54 1512  			       select ESTIMATED_PRODUCTION, PRODUCTION
12:40:54 1513  			       from FCST_DEPR_METHOD_UOP UOP
12:40:54 1514  			       where UOP.FCST_DEPR_METHOD_ID = A.DEPR_METHOD_ID
12:40:54 1515  			       and UOP.SET_OF_BOOKS_ID = A.SET_OF_BOOKS_ID
12:40:54 1516  			       and UOP.GL_POST_MO_YR = A.GL_POSTING_MO_YR
12:40:54 1517  			       and UOP.FCST_DEPR_VERSION_ID = G_VERSION_ID
12:40:54 1518  		       )
12:40:54 1519  		       where exists
12:40:54 1520  		       (
12:40:54 1521  			       select 1
12:40:54 1522  			       from FCST_DEPR_METHOD_UOP UOP
12:40:54 1523  			       where UOP.FCST_DEPR_METHOD_ID = A.DEPR_METHOD_ID
12:40:54 1524  			       and UOP.SET_OF_BOOKS_ID = A.SET_OF_BOOKS_ID
12:40:54 1525  			       and UOP.GL_POST_MO_YR = A.GL_POSTING_MO_YR
12:40:54 1526  			       and UOP.FCST_DEPR_VERSION_ID = G_VERSION_ID
12:40:54 1527  		       )
12:40:54 1528  		       and A.MID_PERIOD_METHOD = 'uopr';
12:40:54 1529  
12:40:54 1530  		       PKG_PP_ERROR.SET_MODULE_NAME('PKG_DEPR_IND_CALC.P_BACKFILL_FCST: 3');
12:40:54 1531  		       --exists_aro
12:40:54 1532  		       update CPR_DEPR_CALC_STG Y
12:40:54 1533  		       set EXISTS_ARO = 1
12:40:54 1534  		       where exists (select 1 from ARO where ARO.ASSET_ID = Y.ASSET_ID);
12:40:54 1535  
12:40:54 1536  		       PKG_PP_ERROR.SET_MODULE_NAME('PKG_DEPR_IND_CALC.P_BACKFILL_FCST: 4');
12:40:54 1537  		       update CPR_DEPR_CALC_STG STG
12:40:54 1538  		       set DEPR_METHOD_SLE_EXP =
12:40:54 1539  		       (
12:40:54 1540  			       select DMS.DEPR_EXPENSE
12:40:54 1541  			       from DEPR_METHOD_SLE DMS
12:40:54 1542  			       where STG.ASSET_ID = DMS.ASSET_ID
12:40:54 1543  			       and STG.SET_OF_BOOKS_ID = DMS.SET_OF_BOOKS_ID
12:40:54 1544  			       and STG.GL_POSTING_MO_YR = DMS.GL_POSTING_MO_YR
12:40:54 1545  		       )
12:40:54 1546  		       where exists
12:40:54 1547  		       (
12:40:54 1548  			       select 1
12:40:54 1549  			       from DEPR_METHOD_SLE DMS
12:40:54 1550  			       where STG.ASSET_ID = DMS.ASSET_ID
12:40:54 1551  			       and STG.SET_OF_BOOKS_ID = DMS.SET_OF_BOOKS_ID
12:40:54 1552  			       and STG.GL_POSTING_MO_YR = DMS.GL_POSTING_MO_YR
12:40:54 1553  		       )
12:40:54 1554  		       and STG.MID_PERIOD_METHOD in ('sle', 'ferc');
12:40:54 1555  
12:40:54 1556  		       PKG_PP_ERROR.REMOVE_MODULE_NAME;
12:40:54 1557  	       exception
12:40:54 1558  		       when others then
12:40:54 1559  			       P_ARCHIVE();
12:40:54 1560  			       PKG_PP_ERROR.RAISE_ERROR('ERROR','Failed Operation');
12:40:54 1561  	       end P_BACKFILL_FCST;
12:40:54 1562  
12:40:54 1563  	       --**************************************************************************
12:40:54 1564  	       --		      P_DEPRCALC
12:40:54 1565  	       --**************************************************************************
12:40:54 1566  	       --
12:40:54 1567  	       --  Start a depr calc for an array of companies and an array of months
12:40:54 1568  	       -- Start Logging
12:40:54 1569  	       -- Load Global Temp Staging table
12:40:54 1570  	       -- Calculate Deprecation
12:40:54 1571  	       -- Backfill results to depr ledger
12:40:54 1572  	       -- End logging
12:40:54 1573  	       --
12:40:54 1574  	       procedure P_DEPRCALC
12:40:54 1575  	       (
12:40:54 1576  		       A_MONTHS 	       PKG_PP_COMMON.DATE_TABTYPE,
12:40:54 1577  		       A_VERSION_ID    FCST_DEPR_VERSION.FCST_DEPR_VERSION_ID%TYPE
12:40:54 1578  	       )
12:40:54 1579  	       is
12:40:54 1580  	       begin
12:40:54 1581  		       PKG_PP_ERROR.SET_MODULE_NAME('PKG_DEPR_IND_CALC.P_DEPRCALC');
12:40:54 1582  		       -- set global variables
12:40:54 1583  		       G_VERSION_ID := A_VERSION_ID;
12:40:54 1584  		       G_MONTHS := A_MONTHS;
12:40:54 1585  
12:40:54 1586  		       if G_VERSION_ID is not null then
12:40:54 1587  			       P_BACKFILL_FCST;
12:40:54 1588  		       else
12:40:54 1589  			       P_BACKFILL;
12:40:54 1590  		       end if;
12:40:54 1591  
12:40:54 1592  		       P_PREPDEPRCALC();
12:40:54 1593  		       P_ARCHIVE();
12:40:54 1594  
12:40:54 1595  		       --
12:40:54 1596  		       --  END LOGGING
12:40:54 1597  		       --
12:40:54 1598  		       PKG_PP_LOG.P_WRITE_MESSAGE('DONE');
12:40:54 1599  		       PKG_PP_ERROR.REMOVE_MODULE_NAME;
12:40:54 1600  	       exception
12:40:54 1601  		       when others then
12:40:54 1602  			       P_ARCHIVE();
12:40:54 1603  			       PKG_PP_ERROR.RAISE_ERROR('ERROR','Failed Operation');
12:40:54 1604  	       end P_DEPRCALC;
12:40:54 1605  
12:40:54 1606  	       --**************************************************************************
12:40:54 1607  	       --		      P_DEPRCALC
12:40:54 1608  	       --**************************************************************************
12:40:54 1609  	       --      WRAPPER
12:40:54 1610  	       --
12:40:54 1611  	       procedure P_DEPRCALC
12:40:54 1612  	       (
12:40:54 1613  		       A_MONTHS        PKG_PP_COMMON.DATE_TABTYPE
12:40:54 1614  	       )
12:40:54 1615  	       is
12:40:54 1616  		       L_VERSION       FCST_DEPR_VERSION.FCST_DEPR_VERSION_ID%TYPE;
12:40:54 1617  	       begin
12:40:54 1618  		       --don't register wrappers with the call stack
12:40:54 1619  		       L_VERSION       := null;
12:40:54 1620  
12:40:54 1621  		       P_DEPRCALC(A_MONTHS, L_VERSION);
12:40:54 1622  	       end P_DEPRCALC;
12:40:54 1623  
12:40:54 1624  	       --**************************************************************************
12:40:54 1625  	       --		      P_DEPRCALC
12:40:54 1626  	       --**************************************************************************
12:40:54 1627  	       --
12:40:54 1628  	       -- WRAPPER for the start depr calc to allow single month depr calculations
12:40:54 1629  	       --
12:40:54 1630  	       procedure P_DEPRCALC
12:40:54 1631  	       (
12:40:54 1632  		       A_MONTH	       date
12:40:54 1633  	       )
12:40:54 1634  	       is
12:40:54 1635  		       L_MONTHS        PKG_PP_COMMON.DATE_TABTYPE;
12:40:54 1636  		       L_VERSION       FCST_DEPR_VERSION.FCST_DEPR_VERSION_ID%TYPE;
12:40:54 1637  	       begin
12:40:54 1638  		       --don't register wrappers with the call stack
12:40:54 1639  		       L_MONTHS(1) := A_MONTH;
12:40:54 1640  		       L_VERSION       := null;
12:40:54 1641  
12:40:54 1642  		       P_DEPRCALC(L_MONTHS, L_VERSION);
12:40:54 1643  
12:40:54 1644  	       end P_DEPRCALC;
12:40:54 1645  
12:40:54 1646  	       --**************************************************************************
12:40:54 1647  	       --			     P_FCSTDEPR
12:40:54 1648  	       --**************************************************************************
12:40:54 1649  	       --
12:40:54 1650  	       -- WRAPPER for the fcst depr calc to allow single month depr calculations
12:40:54 1651  	       --
12:40:54 1652  	       procedure P_DEPRCALC
12:40:54 1653  	       (
12:40:54 1654  		       A_MONTH		       date,
12:40:54 1655  		       A_VERSION_ID    FCST_DEPR_VERSION.FCST_DEPR_VERSION_ID%TYPE
12:40:54 1656  	       )
12:40:54 1657  	       is
12:40:54 1658  		       L_MONTHS PKG_PP_COMMON.DATE_TABTYPE;
12:40:54 1659  	       begin
12:40:54 1660  		       --don't register wrappers with the callstack
12:40:54 1661  		       L_MONTHS(1) := A_MONTH;
12:40:54 1662  		       P_DEPRCALC(L_MONTHS, A_VERSION_ID);
12:40:54 1663  	       end P_DEPRCALC;
12:40:54 1664  
12:40:54 1665  	       --
12:40:54 1666  	       -- WRAPPER for the fcst lease depr calc
12:40:54 1667  	       --
12:40:54 1668  	       procedure P_DEPRCALC_LEASE
12:40:54 1669  	       is
12:40:54 1670  		       L_MONTHS PKG_PP_COMMON.DATE_TABTYPE;
12:40:54 1671  	       begin
12:40:54 1672  		       select distinct GL_POSTING_MO_YR
12:40:54 1673  		       bulk collect
12:40:54 1674  		       into L_MONTHS
12:40:54 1675  		       from CPR_DEPR_CALC_STG
12:40:54 1676  		       order by GL_POSTING_MO_YR
12:40:54 1677  		       ;
12:40:54 1678  
12:40:54 1679  		       G_VERSION_ID := null;
12:40:54 1680  		       G_MONTHS := L_MONTHS;
12:40:54 1681  
12:40:54 1682  		       P_PREPDEPRCALC(true);
12:40:54 1683  	       end P_DEPRCALC_LEASE;
12:40:54 1684  
12:40:54 1685  end PKG_DEPR_IND_CALC;
12:40:54 1686  /

Package body created.

12:40:54 hopplant> 
12:40:54 hopplant> --**************************
12:40:54 hopplant> -- Log the run of the script
12:40:54 hopplant> --**************************
12:40:54 hopplant> 
12:40:54 hopplant> insert into PP_SCHEMA_CHANGE_LOG
12:40:54   2  	 (ID, SKIPPED, MAJOR_VERSION, MINOR_VERSION, POINT_VERSION, PATCH_VERSION, MAINT_NUM, SCRIPT_PATH,
12:40:54   3  	  SCRIPT_NAME, SCRIPT_REVISION, DATE_APPLIED, OS_USER, TERMINAL, SERVICE_NAME)
12:40:54   4  values
12:40:54   5  	 (2557, 0, 2015, 1, 1, 0, 0, 'C:\PlasticWks\PowerPlant\sql\packages', '2015.1.1.0_PKG_DEPR_IND_CALC.sql', 1, SYSTIMESTAMP, SYS_CONTEXT('USERENV', 'OS_USER'), SYS_CONTEXT('USERENV', 'TERMINAL'), SYS_CONTEXT('USERENV', 'SERVICE_NAME'));

1 row created.

12:40:54 hopplant> commit;

Commit complete.

12:40:54 hopplant> SPOOL OFF
