13:39:36 hopplant> @&&PP_SCRIPT_PATH.maint_scripts\2015.2.2.0_maint_045420_lease_make_conv_date_nullable_ddl.sql
13:39:36 hopplant> /*
13:39:36 hopplant> ||============================================================================
13:39:36 hopplant> || Application: PowerPlan
13:39:36 hopplant> || File Name:   maint_045420_lease_make_conv_date_nullable_ddl.sql
13:39:36 hopplant> || Copyright (C) 2016 by PowerPlan, Inc. All Rights Reserved.
13:39:36 hopplant> ||============================================================================
13:39:36 hopplant> || Version	 Date	    Revised By	   Reason for Change
13:39:36 hopplant> || --------	 ---------- -------------- --------------------------------------
13:39:36 hopplant> || 2016.1.0.0 02/17/2016 Sarah Byers     Change ls_forecast_version.conversion_date to nullable
13:39:36 hopplant> || 2015.2.2.0 04/14/2016 David Haupt     Backport to 2015.2.2
13:39:36 hopplant> ||============================================================================
13:39:36 hopplant> */
13:39:36 hopplant> 
13:39:36 hopplant> alter table ls_forecast_version modify (conversion_date date null);

Table altered.

13:39:36 hopplant> 
13:39:36 hopplant> --****************************************************
13:39:36 hopplant> --Log the run of the script to local PP_SCHEMA_LOG
13:39:36 hopplant> --****************************************************
13:39:36 hopplant> INSERT INTO PP_SCHEMA_CHANGE_LOG
13:39:36   2  	      (ID, SKIPPED, MAJOR_VERSION, MINOR_VERSION, POINT_VERSION, PATCH_VERSION, MAINT_NUM, SCRIPT_PATH,
13:39:36   3  	      SCRIPT_NAME, SCRIPT_REVISION, DATE_APPLIED, OS_USER, TERMINAL, SERVICE_NAME)
13:39:36   4  VALUES
13:39:36   5  	      (3062, 0, 2015, 2, 2, 0, 045420, 'C:\PlasticWks\powerplant\sql\maint_scripts', '2015.2.2.0_maint_045420_lease_make_conv_date_nullable_ddl.sql', 1,
13:39:36   6  	      SYSTIMESTAMP, SYS_CONTEXT('USERENV', 'OS_USER'), SYS_CONTEXT('USERENV', 'TERMINAL'),
13:39:36   7  	      SYS_CONTEXT('USERENV', 'SERVICE_NAME'));

1 row created.

13:39:36 hopplant> COMMIT;

Commit complete.

13:39:36 hopplant> SPOOL OFF
