12:20:41 hopplant> @&&PP_SCRIPT_PATH.maint_scripts\2015.1.0.0_maint_043159_pcm_dml.sql
12:20:41 hopplant> /*
12:20:41 hopplant> ||============================================================================
12:20:41 hopplant> || Application: PowerPlan
12:20:41 hopplant> || File Name:   maint_043159_pcm.sql
12:20:41 hopplant> ||============================================================================
12:20:41 hopplant> || Copyright (C) 2015 by PowerPlan, Inc. All Rights Reserved.
12:20:41 hopplant> ||============================================================================
12:20:41 hopplant> || Version	 Date	    Revised By	   Reason for Change
12:20:41 hopplant> || ---------- ---------- -------------- --------------------------------------
12:20:41 hopplant> || 2015.1	 03/16/2015 Mallory Smyth  Point Release
12:20:41 hopplant> ||============================================================================
12:20:41 hopplant> */
12:20:41 hopplant> update wo_validation_type
12:20:41   2  set find_company= 'select case
12:20:41   3  	       when lower(<arg2>) = ''budget_monthly_data'' then
12:20:41   4  		(select nvl(min(company_id), -1)
12:20:41   5  		   from budget, wo_est_processing_temp
12:20:41   6  		  where budget.budget_id = wo_est_processing_temp.work_order_id)
12:20:41   7  	       else
12:20:41   8  		(select nvl(min(company_id), -1)
12:20:41   9  		   from work_order_control, wo_est_processing_temp
12:20:41  10  		  where work_order_control.work_order_id =
12:20:41  11  			wo_est_processing_temp.work_order_id)
12:20:41  12  	     end case
12:20:41  13  	from dual'
12:20:41  14  where wo_validation_type_id = 81;

1 row updated.

12:20:41 hopplant> update wo_validation_type
12:20:41   2  set find_company = 'select case
12:20:41   3  	       when lower(<arg2>) = ''budget_monthly_data'' then
12:20:41   4  		(select nvl(min(company_id), -1)
12:20:41   5  		   from budget, wo_est_processing_temp
12:20:41   6  		  where budget.budget_id = wo_est_processing_temp.work_order_id)
12:20:41   7  	       else
12:20:41   8  		(select nvl(min(company_id), -1)
12:20:41   9  		   from work_order_control, wo_est_processing_temp
12:20:41  10  		  where work_order_control.work_order_id =
12:20:41  11  			wo_est_processing_temp.work_order_id)
12:20:41  12  	     end case
12:20:41  13  	from dual'
12:20:41  14  where wo_validation_type_id = 82;

1 row updated.

12:20:41 hopplant> update wo_validation_type
12:20:41   2  set find_company = 'select case
12:20:41   3  	       when lower(<arg2>) = ''bi'' then
12:20:41   4  		(select nvl(company_id, -1)
12:20:41   5  		   from budget_version
12:20:41   6  		  where budget_version_id = <arg3>)
12:20:41   7  	       else
12:20:41   8  		(select nvl(min(company_id), -1)
12:20:41   9  		   from work_order_control, wo_est_processing_temp
12:20:41  10  		  where work_order_control.work_order_id = wo_est_processing_temp.work_order_id)
12:20:41  11  	     end case
12:20:41  12  	from dual'
12:20:41  13  where wo_validation_type_id = 83;

1 row updated.

12:20:41 hopplant> update wo_validation_type
12:20:41   2  set find_company = 'select case
12:20:41   3  	       when lower(<arg2>) = ''bi'' then
12:20:41   4  		(select nvl(min(company_id), -1)
12:20:41   5  		   from budget, wo_est_processing_temp
12:20:41   6  		  where budget.budget_id = wo_est_processing_temp.work_order_id)
12:20:41   7  	       else
12:20:41   8  		(select nvl(min(company_id), -1)
12:20:41   9  		   from work_order_control, wo_est_processing_temp
12:20:41  10  		  where work_order_control.work_order_id =
12:20:41  11  			wo_est_processing_temp.work_order_id)
12:20:41  12  	     end case
12:20:41  13  	from dual'
12:20:41  14  where wo_validation_type_id = 87;

1 row updated.

12:20:41 hopplant> 
12:20:41 hopplant> 
12:20:41 hopplant> 
12:20:41 hopplant> --****************************************************
12:20:41 hopplant> --Log the run of the script to local PP_SCHEMA_LOG
12:20:41 hopplant> --****************************************************
12:20:41 hopplant> INSERT INTO PP_SCHEMA_CHANGE_LOG
12:20:41   2  	      (ID, SKIPPED, MAJOR_VERSION, MINOR_VERSION, POINT_VERSION, PATCH_VERSION, MAINT_NUM, SCRIPT_PATH,
12:20:41   3  	      SCRIPT_NAME, SCRIPT_REVISION, DATE_APPLIED, OS_USER, TERMINAL, SERVICE_NAME)
12:20:41   4  VALUES
12:20:41   5  	      (2389, 0, 2015, 1, 0, 0, 43159, 'C:\PlasticWks\powerplant\sql\maint_scripts', '2015.1.0.0_maint_043159_pcm_dml.sql', 1,
12:20:41   6  	      SYSTIMESTAMP, SYS_CONTEXT('USERENV', 'OS_USER'), SYS_CONTEXT('USERENV', 'TERMINAL'),
12:20:41   7  	      SYS_CONTEXT('USERENV', 'SERVICE_NAME'));

1 row created.

12:20:41 hopplant> COMMIT;

Commit complete.

12:20:41 hopplant> SPOOL OFF
