12:20:58 hopplant> @&&PP_SCRIPT_PATH.maint_scripts\2015.1.0.0_maint_042730_06_lease_indices_ddl.sql
12:20:58 hopplant> /*
12:20:58 hopplant> ||==========================================================================================
12:20:58 hopplant> || Application: PowerPlan
12:20:58 hopplant> || Module:		   LESSEE
12:20:58 hopplant> || File Name:   maint_042730_06_lease_indices_ddl.sql
12:20:58 hopplant> ||==========================================================================================
12:20:58 hopplant> || Copyright (C) 2015 by PowerPlan, Inc. All Rights Reserved.
12:20:58 hopplant> ||==========================================================================================
12:20:58 hopplant> || Version	 Date	    Revised By		Reason for Change
12:20:58 hopplant> || ---------- ---------- ------------------- -----------------------------------------------
12:20:58 hopplant> || [FROMPREF] 03/23/2015 [YOUR NAME] 	    [DESCRIPTION]
12:20:58 hopplant> ||==========================================================================================
12:20:58 hopplant> */
12:20:58 hopplant> 
12:20:58 hopplant> CREATE INDEX ls_asset_schedule_idx on
12:20:58   2  ls_asset_schedule(ls_asset_id, revision, set_of_books_id)
12:20:58   3  	TABLESPACE pwrplant_idx
12:20:58   4  /

Index created.

12:20:58 hopplant> 
12:20:58 hopplant> 
12:20:58 hopplant> CREATE INDEX ls_ilr_schedule_idx on
12:20:58   2  ls_ilr_schedule(ilr_id, revision, set_of_books_id)
12:20:58   3  	TABLESPACE pwrplant_idx
12:20:58   4  /

Index created.

12:20:58 hopplant> 
12:20:58 hopplant> CREATE INDEX ASSET_idx
12:20:58   2  ON ls_cpr_asset_map (
12:20:58   3  asset_id
12:20:58   4  )
12:20:58   5  TABLESPACE pwrplant_idx
12:20:58   6  /

Index created.

12:20:58 hopplant> 
12:20:58 hopplant> 
12:20:58 hopplant> 
12:20:58 hopplant> 
12:20:58 hopplant> --****************************************************
12:20:58 hopplant> --Log the run of the script to local PP_SCHEMA_LOG
12:20:58 hopplant> --****************************************************
12:20:58 hopplant> INSERT INTO PP_SCHEMA_CHANGE_LOG
12:20:58   2  	      (ID, SKIPPED, MAJOR_VERSION, MINOR_VERSION, POINT_VERSION, PATCH_VERSION, MAINT_NUM, SCRIPT_PATH,
12:20:58   3  	      SCRIPT_NAME, SCRIPT_REVISION, DATE_APPLIED, OS_USER, TERMINAL, SERVICE_NAME)
12:20:58   4  VALUES
12:20:58   5  	      (2413, 0, 2015, 1, 0, 0, 042730, 'C:\PlasticWks\powerplant\sql\maint_scripts', '2015.1.0.0_maint_042730_06_lease_indices_ddl.sql', 1,
12:20:58   6  	      SYSTIMESTAMP, SYS_CONTEXT('USERENV', 'OS_USER'), SYS_CONTEXT('USERENV', 'TERMINAL'),
12:20:58   7  	      SYS_CONTEXT('USERENV', 'SERVICE_NAME'));

1 row created.

12:20:58 hopplant> COMMIT;

Commit complete.

12:20:58 hopplant> SPOOL OFF
