12:23:55 hopplant> @&&PP_SCRIPT_PATH.maint_scripts\2015.1.0.0_maint_043452_lease_010_backfill_gl_account_id_dml.sql
12:23:55 hopplant> /*
12:23:55 hopplant> ||==========================================================================================
12:23:55 hopplant> || Application: PowerPlan
12:23:55 hopplant> || Module:		   LESSEE
12:23:55 hopplant> || File Name:   maint_043452_lease_010_backfill_gl_account_id_dml.sql
12:23:55 hopplant> ||==========================================================================================
12:23:55 hopplant> || Copyright (C) 2015 by PowerPlan, Inc. All Rights Reserved.
12:23:55 hopplant> ||==========================================================================================
12:23:55 hopplant> || Version	 Date	    Revised By		Reason for Change
12:23:55 hopplant> || ---------- ---------- ------------------- -----------------------------------------------
12:23:55 hopplant> || 2015.1.0.0 04/08/2015 Charlie Shilling	backfill gl_account_id so we can make it NOT NULL
12:23:55 hopplant> ||==========================================================================================
12:23:55 hopplant> */
12:23:55 hopplant> 
12:23:55 hopplant> UPDATE ls_asset a
12:23:55   2  SET a.gl_account_id = (
12:23:55   3  	      SELECT ilra.cap_asset_account_id
12:23:55   4  	      FROM ls_ilr_account ilra
12:23:55   5  	      WHERE ilra.ilr_id = a.ilr_id)
12:23:55   6  WHERE a.gl_account_id IS NULL;

0 rows updated.

12:23:55 hopplant> 
12:23:55 hopplant> --****************************************************
12:23:55 hopplant> --Log the run of the script to local PP_SCHEMA_LOG
12:23:55 hopplant> --****************************************************
12:23:55 hopplant> INSERT INTO PP_SCHEMA_CHANGE_LOG
12:23:55   2  	      (ID, SKIPPED, MAJOR_VERSION, MINOR_VERSION, POINT_VERSION, PATCH_VERSION, MAINT_NUM, SCRIPT_PATH,
12:23:55   3  	      SCRIPT_NAME, SCRIPT_REVISION, DATE_APPLIED, OS_USER, TERMINAL, SERVICE_NAME)
12:23:55   4  VALUES
12:23:55   5  	      (2495, 0, 2015, 1, 0, 0, 043452, 'C:\PlasticWks\powerplant\sql\maint_scripts', '2015.1.0.0_maint_043452_lease_010_backfill_gl_account_id_dml.sql', 1,
12:23:55   6  	      SYSTIMESTAMP, SYS_CONTEXT('USERENV', 'OS_USER'), SYS_CONTEXT('USERENV', 'TERMINAL'),
12:23:55   7  	      SYS_CONTEXT('USERENV', 'SERVICE_NAME'));

1 row created.

12:23:55 hopplant> COMMIT;

Commit complete.

12:24:08 hopplant> SPOOL OFF
