13:17:14 hopplant> @&&PP_SCRIPT_PATH.maint_scripts\2015.2.0.0_maint_044286_pwrtax_add_column_to_table_maint_dml.sql
13:17:14 hopplant> /*
13:17:14 hopplant> ||============================================================================
13:17:14 hopplant> || Application: PowerPlan
13:17:14 hopplant> || File Name:   maint_044286_pwrtax_add_column_to_table_maint_dml.sql
13:17:14 hopplant> ||============================================================================
13:17:14 hopplant> || Copyright (C) 2015 by PowerPlan, Inc. All Rights Reserved.
13:17:14 hopplant> ||============================================================================
13:17:14 hopplant> || Version  Date	  Revised By	 Reason for Change
13:17:14 hopplant> || -------- ---------- -------------- ----------------------------------------
13:17:14 hopplant> || 2015.2   07/06/2015 Daniel Motter  Creation
13:17:14 hopplant> ||============================================================================
13:17:14 hopplant> */
13:17:14 hopplant> 
13:17:14 hopplant> delete from powerplant_columns
13:17:14   2  where column_name = 'k1_export_gen_include'
13:17:14   3  and table_name = 'tax_reconcile_item';

0 rows deleted.

13:17:14 hopplant> 
13:17:14 hopplant> insert into powerplant_columns
13:17:14   2  (column_name, table_name, dropdown_name, pp_edit_type_id, description, column_rank, read_only)
13:17:14   3  values
13:17:14   4  ('k1_export_gen_include', 'tax_reconcile_item', 'yes_no', 'p', 'K1 Export Gen Include', 10, 0);

1 row created.

13:17:14 hopplant> 
13:17:14 hopplant> --****************************************************
13:17:14 hopplant> --Log the run of the script to local PP_SCHEMA_LOG
13:17:14 hopplant> --****************************************************
13:17:14 hopplant> INSERT INTO PP_SCHEMA_CHANGE_LOG
13:17:14   2  	      (ID, SKIPPED, MAJOR_VERSION, MINOR_VERSION, POINT_VERSION, PATCH_VERSION, MAINT_NUM, SCRIPT_PATH,
13:17:14   3  	      SCRIPT_NAME, SCRIPT_REVISION, DATE_APPLIED, OS_USER, TERMINAL, SERVICE_NAME)
13:17:14   4  VALUES
13:17:14   5  	      (2677, 0, 2015, 2, 0, 0, 044286, 'C:\PlasticWks\powerplant\sql\maint_scripts', '2015.2.0.0_maint_044286_pwrtax_add_column_to_table_maint_dml.sql', 1,
13:17:14   6  	      SYSTIMESTAMP, SYS_CONTEXT('USERENV', 'OS_USER'), SYS_CONTEXT('USERENV', 'TERMINAL'),
13:17:14   7  	      SYS_CONTEXT('USERENV', 'SERVICE_NAME'));

1 row created.

13:17:14 hopplant> COMMIT;

Commit complete.

13:17:14 hopplant> SPOOL OFF
