12:21:20 hopplant> @&&PP_SCRIPT_PATH.maint_scripts\2015.1.0.0_maint_042730_27_lease_import_new_ddl.sql
12:21:20 hopplant> /*
12:21:20 hopplant> ||==========================================================================================
12:21:20 hopplant> || Application: PowerPlan
12:21:20 hopplant> || Module:		   LESSEE
12:21:20 hopplant> || File Name:   maint_042730_27_lease_import_new_ddl.sql
12:21:20 hopplant> ||==========================================================================================
12:21:20 hopplant> || Copyright (C) 2015 by PowerPlan, Inc. All Rights Reserved.
12:21:20 hopplant> ||==========================================================================================
12:21:20 hopplant> || Version	 Date	    Revised By		Reason for Change
12:21:20 hopplant> || ---------- ---------- ------------------- -----------------------------------------------
12:21:20 hopplant> || [FROMPREF] 03/23/2015 [YOUR NAME] 	    [DESCRIPTION]
12:21:20 hopplant> ||==========================================================================================
12:21:20 hopplant> */
12:21:20 hopplant> 
12:21:20 hopplant> alter table ls_import_lease
12:21:20   2  add (lease_end_date varchar2(254), days_in_month_sw varchar2(35))
12:21:20   3  ;

Table altered.

12:21:20 hopplant> 
12:21:20 hopplant> alter table ls_import_lease_archive
12:21:20   2  add (lease_end_date varchar2(254), days_in_month_sw varchar2(35))
12:21:20   3  ;

Table altered.

12:21:20 hopplant> 
12:21:20 hopplant> COMMENT ON COLUMN ls_import_lease.lease_end_date IS 'End date for any associated ILR payment terms to be within.';

Comment created.

12:21:20 hopplant> COMMENT ON COLUMN ls_import_lease.days_in_month_sw IS 'Switch indicating number of days in month used for interim interest. 0 is 30 days, 1 is actual days in month';

Comment created.

12:21:20 hopplant> 
12:21:20 hopplant> COMMENT ON COLUMN ls_import_lease_archive.lease_end_date IS 'End date for any associated ILR payment terms to be within.';

Comment created.

12:21:20 hopplant> COMMENT ON COLUMN ls_import_lease_archive.days_in_month_sw IS 'Switch indicating number of days in month used for interim interest. 0 is 30 days, 1 is actual days in month';

Comment created.

12:21:20 hopplant> 
12:21:20 hopplant> 
12:21:20 hopplant> 
12:21:20 hopplant> 
12:21:20 hopplant> 
12:21:20 hopplant> --****************************************************
12:21:20 hopplant> --Log the run of the script to local PP_SCHEMA_LOG
12:21:20 hopplant> --****************************************************
12:21:20 hopplant> INSERT INTO PP_SCHEMA_CHANGE_LOG
12:21:20   2  	      (ID, SKIPPED, MAJOR_VERSION, MINOR_VERSION, POINT_VERSION, PATCH_VERSION, MAINT_NUM, SCRIPT_PATH,
12:21:20   3  	      SCRIPT_NAME, SCRIPT_REVISION, DATE_APPLIED, OS_USER, TERMINAL, SERVICE_NAME)
12:21:20   4  VALUES
12:21:20   5  	      (2423, 0, 2015, 1, 0, 0, 042730, 'C:\PlasticWks\powerplant\sql\maint_scripts', '2015.1.0.0_maint_042730_27_lease_import_new_ddl.sql', 1,
12:21:20   6  	      SYSTIMESTAMP, SYS_CONTEXT('USERENV', 'OS_USER'), SYS_CONTEXT('USERENV', 'TERMINAL'),
12:21:20   7  	      SYS_CONTEXT('USERENV', 'SERVICE_NAME'));

1 row created.

12:21:20 hopplant> COMMIT;

Commit complete.

12:21:20 hopplant> SPOOL OFF
