12:19:20 hopplant> @&&PP_SCRIPT_PATH.maint_scripts\2015.1.0.0_maint_042897_pcm_tax_visibility_dml.sql
12:19:20 hopplant> /*
12:19:20 hopplant> ||==========================================================================================
12:19:20 hopplant> || Application: PowerPlan
12:19:20 hopplant> || Module:		   PCM
12:19:20 hopplant> || File Name:   maint_042897_pcm_tax_visibility_dml.sql
12:19:20 hopplant> ||==========================================================================================
12:19:20 hopplant> || Copyright (C) 2015 by PowerPlan, Inc. All Rights Reserved.
12:19:20 hopplant> ||==========================================================================================
12:19:20 hopplant> || Version	 Date	    Revised By		Reason for Change
12:19:20 hopplant> || ---------- ---------- ------------------- -----------------------------------------------
12:19:20 hopplant> || 2015.1	     2/12/2015	Ryan Oliveria	    Convert Tax Status system control to menu item
12:19:20 hopplant> ||==========================================================================================
12:19:20 hopplant> */
12:19:20 hopplant> 
12:19:20 hopplant> update PPBASE_MENU_ITEMS
12:19:20   2  	 set ENABLE_YN = decode((select lower(trim(CONTROL_VALUE)) from PP_SYSTEM_CONTROL where upper(trim(CONTROL_NAME)) = 'TAX EXPENSE USER OBJECT'), 'no', 0, 1)
12:19:20   3   where MODULE = 'pcm'
12:19:20   4  	 and MENU_IDENTIFIER = 'fp_maint_tax_status';

1 row updated.

12:19:21 hopplant> 
12:19:21 hopplant> update PPBASE_MENU_ITEMS
12:19:21   2  	 set ENABLE_YN = decode((select lower(trim(CONTROL_VALUE)) from PP_SYSTEM_CONTROL where upper(trim(CONTROL_NAME)) = 'TAX EXPENSE USER OBJECT - WO'), 'no', 0, 1)
12:19:21   3   where MODULE = 'pcm'
12:19:21   4  	 and MENU_IDENTIFIER = 'wo_maint_tax_status';

1 row updated.

12:19:21 hopplant> 
12:19:21 hopplant> --****************************************************
12:19:21 hopplant> --Log the run of the script to local PP_SCHEMA_LOG
12:19:21 hopplant> --****************************************************
12:19:21 hopplant> INSERT INTO PP_SCHEMA_CHANGE_LOG
12:19:21   2  	      (ID, SKIPPED, MAJOR_VERSION, MINOR_VERSION, POINT_VERSION, PATCH_VERSION, MAINT_NUM, SCRIPT_PATH,
12:19:21   3  	      SCRIPT_NAME, SCRIPT_REVISION, DATE_APPLIED, OS_USER, TERMINAL, SERVICE_NAME)
12:19:21   4  VALUES
12:19:21   5  	      (2290, 0, 2015, 1, 0, 0, 042897, 'C:\PlasticWks\powerplant\sql\maint_scripts', '2015.1.0.0_maint_042897_pcm_tax_visibility_dml.sql', 1,
12:19:21   6  	      SYSTIMESTAMP, SYS_CONTEXT('USERENV', 'OS_USER'), SYS_CONTEXT('USERENV', 'TERMINAL'),
12:19:21   7  	      SYS_CONTEXT('USERENV', 'SERVICE_NAME'));

1 row created.

12:19:21 hopplant> COMMIT;

Commit complete.

12:19:21 hopplant> SPOOL OFF
