13:17:12 hopplant> @&&PP_SCRIPT_PATH.maint_scripts\2015.2.0.0_maint_044206_budgetcap_process_level_dml.sql
13:17:12 hopplant> /*
13:17:12 hopplant> ||============================================================================
13:17:12 hopplant> || Application: PowerPlan
13:17:12 hopplant> || File Name:   maint_044206_budgetcap_process_level_dml.sql
13:17:12 hopplant> ||============================================================================
13:17:12 hopplant> || Copyright (C) 2015 by PowerPlan, Inc. All Rights Reserved.
13:17:12 hopplant> ||============================================================================
13:17:12 hopplant> || Version  Date	  Revised By	 Reason for Change
13:17:12 hopplant> || -------- ---------- -------------- ----------------------------------------
13:17:12 hopplant> || 2015.2   07/02/2015 Alex P.	 Creation
13:17:12 hopplant> ||============================================================================
13:17:12 hopplant> */
13:17:12 hopplant> 
13:17:12 hopplant> -- Update null budget_version.process_level with the values from the system control for specific companies.
13:17:12 hopplant> update budget_version bv
13:17:12   2  set process_level = (select control_value
13:17:12   3  			   from pp_system_control_company pscc
13:17:12   4  			   where lower(trim(control_name)) = 'budget processing level'
13:17:12   5  			     and bv.company_id = pscc.company_id
13:17:12   6  			   )
13:17:12   7  where bv.process_level is null
13:17:12   8  	and exists (select control_value
13:17:12   9  		     from pp_system_control_company pscc
13:17:12  10  		     where lower(trim(control_name)) = 'budget processing level'
13:17:12  11  		       and bv.company_id = pscc.company_id
13:17:12  12  		       );

0 rows updated.

13:17:12 hopplant> 
13:17:12 hopplant> -- Update null budget_version.process_level with the values from the system control for all companies.
13:17:12 hopplant> update budget_version bv
13:17:12   2  set process_level = (select control_value
13:17:12   3  			   from pp_system_control_company pscc
13:17:12   4  			   where lower(trim(control_name)) = 'budget processing level'
13:17:12   5  			     and pscc.company_id = -1
13:17:12   6  			   )
13:17:12   7  where bv.process_level is null;

0 rows updated.

13:17:12 hopplant> 
13:17:12 hopplant> -- Delete obsolete 'Budget Processing Level' system control.
13:17:12 hopplant> delete from pp_system_control_company where lower(control_name) = 'budget processing level';

1 row deleted.

13:17:12 hopplant> 
13:17:12 hopplant> 
13:17:12 hopplant> --****************************************************
13:17:12 hopplant> --Log the run of the script to local PP_SCHEMA_LOG
13:17:12 hopplant> --****************************************************
13:17:12 hopplant> INSERT INTO PP_SCHEMA_CHANGE_LOG
13:17:12   2  	      (ID, SKIPPED, MAJOR_VERSION, MINOR_VERSION, POINT_VERSION, PATCH_VERSION, MAINT_NUM, SCRIPT_PATH,
13:17:12   3  	      SCRIPT_NAME, SCRIPT_REVISION, DATE_APPLIED, OS_USER, TERMINAL, SERVICE_NAME)
13:17:12   4  VALUES
13:17:12   5  	      (2668, 0, 2015, 2, 0, 0, 044206, 'C:\PlasticWks\powerplant\sql\maint_scripts', '2015.2.0.0_maint_044206_budgetcap_process_level_dml.sql', 1,
13:17:12   6  	      SYSTIMESTAMP, SYS_CONTEXT('USERENV', 'OS_USER'), SYS_CONTEXT('USERENV', 'TERMINAL'),
13:17:12   7  	      SYS_CONTEXT('USERENV', 'SERVICE_NAME'));

1 row created.

13:17:12 hopplant> COMMIT;

Commit complete.

13:17:12 hopplant> SPOOL OFF
