13:39:48 hopplant> @&&PP_SCRIPT_PATH.packages_released\2015.2.2.0_PKG_LEASE_DEPR.sql
13:39:48 hopplant> CREATE OR REPLACE package pkg_lease_depr as
13:39:48   2  	 /*
13:39:48   3  	 ||============================================================================
13:39:48   4  	 || Application: PowerPlant
13:39:48   5  	 || Object Name: PKG_LEASE_DEPR
13:39:48   6  	 || Description:
13:39:48   7  	 ||============================================================================
13:39:48   8  	 || Copyright (C) 2015 by PowerPlan, Inc. All Rights Reserved.
13:39:48   9  	 ||============================================================================
13:39:48  10  	 || Version  Date	Revised By	Reason for Change
13:39:48  11  	 || -------- ---------- --------------	----------------------------------------
13:39:48  12  	 || 10.4.3.0 06/25/2014 B.Beck		Original Version
13:39:48  13  	 || 10.4.3.0 07/07/2014 Charlie Shilling
13:39:48  14  	 || 2015.2.0 09/29/2015 Andrew Scott	maint-45012.  Change how SL is calced for performance.
13:39:48  15  	 || 2016.1.0 02/26/2016 Anand R 	maint-45470.
13:39:48  16  	 ||============================================================================
13:39:48  17  	 */
13:39:48  18  	      procedure P_DEPR_SLE( A_LS_ASSET_ID in number, A_REVISION in number,
13:39:48  19  			A_ASSET_ID in number, A_SOB_ID in number,
13:39:48  20  			A_MONTH date, A_LIFE number, A_MSG out varchar2);
13:39:48  21  
13:39:48  22  	      procedure P_DEPR_SL( A_LS_ASSET_ID in number, A_REVISION in number,
13:39:48  23  			A_ASSET_ID in number, A_SOB_ID in number,
13:39:48  24  			A_MONTH date, A_LIFE number, A_MSG out varchar2);
13:39:48  25  
13:39:48  26  	      procedure P_DEPR_FERC( A_LS_ASSET_ID in number, A_REVISION in number,
13:39:48  27  			A_ASSET_ID in number, A_SOB_ID in number,
13:39:48  28  			A_MONTH date, A_MSG out varchar2);
13:39:48  29  
13:39:48  30  	      procedure P_FCST_LEASE(A_ILR_ID in number, A_REVISION in number);
13:39:48  31  
13:39:48  32  	      procedure P_GET_LEASE_DEPR(A_ILR_ID in number, A_REVISION in number);
13:39:48  33  
13:39:48  34  end PKG_LEASE_DEPR;
13:39:48  35  /

Package created.

13:39:48 hopplant> 
13:39:48 hopplant> CREATE OR REPLACE package body pkg_lease_depr as
13:39:48   2  	 /*
13:39:48   3  	 ||============================================================================
13:39:48   4  	 || Application: PowerPlant
13:39:48   5  	 || Object Name: PKG_LEASE_DEPR
13:39:48   6  	 || Description:
13:39:48   7  	 ||============================================================================
13:39:48   8  	 || Copyright (C) 2013 by PowerPlan Consultants, Inc. All Rights Reserved.
13:39:48   9  	 ||============================================================================
13:39:48  10  	 || Version  Date	Revised By	Reason for Change
13:39:48  11  	 || -------- ---------- --------------	----------------------------------------
13:39:48  12  	 || 10.4.3.0 06/25/2014 B.Beck		Original Version
13:39:48  13  	 || 10.4.3.0 07/07/2014 Charlie Shilling
13:39:48  14  	 || 2015.2.0 09/29/2015 Andrew Scott	maint-45012.  Change how SL is calced for performance.
13:39:48  15  	 || 2016.1.0 02/26/2016 Anand R 	maint-45470.
13:39:48  16  	 ||============================================================================
13:39:48  17  	 */
13:39:48  18  
13:39:48  19  	      --**************************************************************************
13:39:48  20  	      --			    Start Body
13:39:48  21  	      --**************************************************************************
13:39:48  22  	      --**************************************************************************
13:39:48  23  	      --			    PROCEDURES
13:39:48  24  	      --**************************************************************************
13:39:48  25  		 procedure P_DEPR_SLE( A_LS_ASSET_ID in number, A_REVISION in number,
13:39:48  26  			A_ASSET_ID in number, A_SOB_ID in number,
13:39:48  27  			A_MONTH date, A_LIFE number, A_MSG out varchar2, A_IS_FCST number)
13:39:48  28  	 is
13:39:48  29  	    L_MONTHLY_OBL number(22,2);
13:39:48  30  	    L_TOTAL_OBL number(22,2);
13:39:48  31  	    L_TOTAL_CHECK number(22, 2);
13:39:48  32  	    L_NUM_MONTHS number(22,0);
13:39:48  33  	    L_ROUND number(22,2);
13:39:48  34  	  L_MAX_MONTH  LS_ASSET_SCHEDULE."MONTH"%type;
13:39:48  35  	  L_CUR_MONTH  LS_ASSET_SCHEDULE."MONTH"%type;
13:39:48  36  	  L_START_MONTH  LS_ASSET_SCHEDULE."MONTH"%type;
13:39:48  37  	  L_MONTHLOOP number;
13:39:48  38  	      l_is_om number;
13:39:48  39  	 begin
13:39:48  40  		      if a_is_fcst = 0 then
13:39:48  41  			A_MSG := 'DELETING from depr_method_sle for current month through end of lease';
13:39:48  42  			delete from DEPR_METHOD_SLE
13:39:48  43  			where ASSET_ID = A_ASSET_ID
13:39:48  44  			and SET_OF_BOOKS_ID = A_SOB_ID
13:39:48  45  			;
13:39:48  46  		      end if;
13:39:48  47  
13:39:48  48  	    a_msg := 'GET number of months';
13:39:48  49  	    PKG_PP_LOG.P_WRITE_MESSAGE(A_MSG);
13:39:48  50  		begin
13:39:48  51  		      select abc."MONTH",  add_months( abc."MONTH", A_LIFE), num_months, total_expense, abc.is_om
13:39:48  52  		      into L_START_MONTH, L_MAX_MONTH, L_NUM_MONTHS, L_TOTAL_OBL, l_is_om
13:39:48  53  		      from
13:39:48  54  		      (
13:39:48  55  			      select
13:39:48  56  					      las.month, las.is_om,
13:39:48  57  					      count(1) over() as num_months,
13:39:48  58  					      sum(las.INTEREST_PAID) over() +
13:39:48  59  					      las.end_capital_cost - /* WMD */
13:39:48  60  					      case when la.estimated_residual = 0 and lower(trim(pkg_pp_system_control.f_pp_system_control_company('Lease Amort to Guaranteed Residual', la.COMPANY_ID))) = 'yes'
13:39:48  61  		      then nvl(la.guaranteed_residual_amount, 0)
13:39:48  62  		      else la.fmv * la.estimated_residual end as total_expense, row_number() over(order by month) as the_row
13:39:48  63  				      from ls_asset_schedule las, ls_asset la
13:39:48  64  				      where las.ls_asset_id = A_LS_ASSET_ID
13:39:48  65  				      and las.set_of_books_id = A_SOB_ID
13:39:48  66  				      and las.revision = A_REVISION
13:39:48  67  				      and la.ls_asset_id = A_LS_ASSET_ID
13:39:48  68  		      and las.is_om = 0
13:39:48  69  			      ) abc
13:39:48  70  			      where the_row = 1;
13:39:48  71  		EXCEPTION
13:39:48  72  		      WHEN no_data_found THEN
13:39:48  73  			      a_msg:='OK';
13:39:48  74  			      RETURN;
13:39:48  75  		END;
13:39:48  76  
13:39:48  77  	    if A_LIFE > 0 then
13:39:48  78  	       L_MONTHLY_OBL := round( L_TOTAL_OBL / L_NUM_MONTHS, 2);
13:39:48  79  	       L_TOTAL_CHECK := A_LIFE * L_MONTHLY_OBL;
13:39:48  80  	       L_ROUND := L_TOTAL_OBL - L_TOTAL_CHECK;
13:39:48  81  
13:39:48  82  
13:39:48  83  		       if a_is_fcst = 0 then
13:39:48  84  		A_MSG := 'INSERTING depreciation expense for SLE Method';
13:39:48  85  		PKG_PP_LOG.P_WRITE_MESSAGE(A_MSG);
13:39:48  86  			       insert into DEPR_METHOD_SLE
13:39:48  87  			       (ASSET_ID, SET_OF_BOOKS_ID, GL_POSTING_MO_YR, DEPR_EXPENSE)
13:39:48  88  			       select A_ASSET_ID, A_SOB_ID, LAS."MONTH",
13:39:48  89  					      decode(las.is_om, 1, 0,
13:39:48  90  						      case when LAS."MONTH" <> L_MAX_MONTH then L_MONTHLY_OBL - LAS.INTEREST_ACCRUAL
13:39:48  91  						      else L_MONTHLY_OBL - LAS.INTEREST_ACCRUAL + L_ROUND
13:39:48  92  						      end)
13:39:48  93  			       from LS_ASSET_SCHEDULE LAS
13:39:48  94  			       where LAS.LS_ASSET_ID = A_LS_ASSET_ID
13:39:48  95  			       and LAS.REVISION = A_REVISION
13:39:48  96  			       and LAS.SET_OF_BOOKS_ID = A_SOB_ID
13:39:48  97  			       ;
13:39:48  98  		PKG_PP_LOG.P_WRITE_MESSAGE(sql%rowcount||' rows inserted into DEPR_METHOD_SLE.');
13:39:48  99  		      else
13:39:48 100  		A_MSG := 'INSERTING depreciation expense for SLE Method';
13:39:48 101  		PKG_PP_LOG.P_WRITE_MESSAGE(A_MSG);
13:39:48 102  			       insert into LS_DEPR_FORECAST
13:39:48 103  			      (LS_ASSET_ID, SET_OF_BOOKS_ID, REVISION, MONTH, begin_reserve, depr_expense, depr_exp_alloc_adjust, end_reserve)
13:39:48 104  			      select las.ls_asset_id, las.set_of_books_id, las.revision, las."MONTH",
13:39:48 105  				      sum( case when LAS."MONTH" <> L_MAX_MONTH then L_MONTHLY_OBL - LAS.INTEREST_ACCRUAL
13:39:48 106  					 else L_MONTHLY_OBL - LAS.INTEREST_ACCRUAL + L_ROUND
13:39:48 107  					 end ) over(partition by  las.ls_asset_id,  las.set_of_books_id,  las.revision order by  las.month) -
13:39:48 108  					       case when LAS."MONTH" <> L_MAX_MONTH then L_MONTHLY_OBL - LAS.INTEREST_ACCRUAL
13:39:48 109  					 else L_MONTHLY_OBL - LAS.INTEREST_ACCRUAL + L_ROUND
13:39:48 110  					 end as begin_reserve,
13:39:48 111  				       case when LAS."MONTH" <> L_MAX_MONTH then L_MONTHLY_OBL - LAS.INTEREST_ACCRUAL
13:39:48 112  					 else L_MONTHLY_OBL - LAS.INTEREST_ACCRUAL + L_ROUND
13:39:48 113  					 end as depr_expense, 0 as depr_exp_alloc_adjust,
13:39:48 114  				      sum( case when LAS."MONTH" <> L_MAX_MONTH then L_MONTHLY_OBL - LAS.INTEREST_ACCRUAL
13:39:48 115  					 else L_MONTHLY_OBL - LAS.INTEREST_ACCRUAL + L_ROUND
13:39:48 116  					 end) over(partition by  las.ls_asset_id,  las.set_of_books_id,  las.revision order by	las.month) as end_reserve
13:39:48 117  			      from ls_asset_schedule las
13:39:48 118  			      where LAS.LS_ASSET_ID = A_LS_ASSET_ID
13:39:48 119  			       and LAS.REVISION = A_REVISION
13:39:48 120  			       and LAS.SET_OF_BOOKS_ID = A_SOB_ID
13:39:48 121  			       and las.is_om = 0
13:39:48 122  			       ;
13:39:48 123  		PKG_PP_LOG.P_WRITE_MESSAGE(sql%rowcount||' rows inserted into LS_DEPR_FORECAST.');
13:39:48 124  		      end if;
13:39:48 125  
13:39:48 126  	     -- add extra months if A_LIFE > L_NUM_MONTHS.  This is the portion after the lease term
13:39:48 127  	     -- and when the asset is "an owned asset"
13:39:48 128  	     if A_LIFE > L_NUM_MONTHS and A_REVISION > 0 then
13:39:48 129  	      for L_MONTHLOOP in L_NUM_MONTHS .. (A_LIFE - 1) loop
13:39:48 130  			      L_CUR_MONTH := add_months( L_START_MONTH, L_MONTHLOOP );
13:39:48 131  
13:39:48 132  			      if a_is_fcst = 0 then
13:39:48 133  				      insert into DEPR_METHOD_SLE
13:39:48 134  				      (ASSET_ID, SET_OF_BOOKS_ID, GL_POSTING_MO_YR, DEPR_EXPENSE)
13:39:48 135  				      values (A_ASSET_ID, A_SOB_ID, L_CUR_MONTH,
13:39:48 136  					      decode(l_is_om, 1, 0, CASE WHEN L_MONTHLOOP <> (A_LIFE - 1) then L_MONTHLY_OBL else L_MONTHLY_OBL + L_ROUND end));
13:39:48 137  			      else
13:39:48 138  				      if l_is_om = 0 then
13:39:48 139  					      insert into LS_DEPR_FORECAST
13:39:48 140  					      (LS_ASSET_ID, SET_OF_BOOKS_ID, REVISION, MONTH, begin_reserve, depr_expense, depr_exp_alloc_adjust, end_reserve)
13:39:48 141  					      select LS_ASSET_ID, SET_OF_BOOKS_ID, REVISION, L_CUR_MONTH, dg.end_reserve,
13:39:48 142  						      CASE WHEN L_MONTHLOOP <> (A_LIFE - 1) then L_MONTHLY_OBL else L_MONTHLY_OBL + L_ROUND end, 0,
13:39:48 143  						      dg.end_reserve + CASE WHEN L_MONTHLOOP <> (A_LIFE - 1) then L_MONTHLY_OBL else L_MONTHLY_OBL + L_ROUND end
13:39:48 144  					      from LS_DEPR_FORECAST dg
13:39:48 145  					      where dg.LS_ASSET_ID = A_LS_ASSET_ID
13:39:48 146  					      and dg.REVISION = A_REVISION
13:39:48 147  					      and dg.SET_OF_BOOKS_ID = A_SOB_ID
13:39:48 148  					      and dg."MONTH" = add_months(L_CUR_MONTH, -1)
13:39:48 149  					      ;
13:39:48 150  				      end if;
13:39:48 151  			      end if;
13:39:48 152  	      end loop;
13:39:48 153  	     end if;
13:39:48 154  	    end if;
13:39:48 155  
13:39:48 156  	    A_MSG := 'OK';
13:39:48 157  	 end P_DEPR_SLE;
13:39:48 158  
13:39:48 159  	      procedure P_DEPR_SL( A_LS_ASSET_ID in number, A_REVISION in number,
13:39:48 160  			A_ASSET_ID in number, A_SOB_ID in number,
13:39:48 161  			A_MONTH date, A_LIFE number, A_MSG out varchar2)
13:39:48 162  	 is
13:39:48 163  	    L_MONTHLY_EXP number(22,2);
13:39:48 164  	    L_TOTAL_EXP number(22,2);
13:39:48 165  	    L_TOTAL_CHECK number(22, 2);
13:39:48 166  	    L_NUM_MONTHS number(22,0);
13:39:48 167  	    L_ROUND number(22,2);
13:39:48 168  	  L_MAX_MONTH  LS_ASSET_SCHEDULE."MONTH"%type;
13:39:48 169  	  L_CUR_MONTH  LS_ASSET_SCHEDULE."MONTH"%type;
13:39:48 170  	  L_START_MONTH  LS_ASSET_SCHEDULE."MONTH"%type;
13:39:48 171  	  L_MONTHLOOP number;
13:39:48 172  	 begin
13:39:48 173  
13:39:48 174  	    a_msg := 'GET number of months';
13:39:48 175  	    PKG_PP_LOG.P_WRITE_MESSAGE(A_MSG);
13:39:48 176  		begin
13:39:48 177  			select abc."MONTH",  add_months( abc."MONTH", A_LIFE), num_months, total_expense
13:39:48 178  			 into L_START_MONTH, L_MAX_MONTH, L_NUM_MONTHS, L_TOTAL_EXP
13:39:48 179  			from
13:39:48 180  			(
13:39:48 181  			       select
13:39:48 182  				      las.month,
13:39:48 183  				      count(1) over() as num_months,
13:39:48 184  				      row_number() over(order by month) as the_row,
13:39:48 185  				      (end_capital_cost - residual_amount) as total_expense
13:39:48 186  				      from ls_asset_schedule las, ls_asset la, ls_ilr_payment_term ilrpt
13:39:48 187  				      where las.ls_asset_id = A_LS_ASSET_ID
13:39:48 188  				      and las.set_of_books_id = A_SOB_ID
13:39:48 189  				      and las.revision = A_REVISION
13:39:48 190  				      and la.ls_asset_id = A_LS_ASSET_ID
13:39:48 191  			       and la.ilr_id = ilrpt.ilr_id
13:39:48 192  			       and ilrpt.revision = A_REVISION
13:39:48 193  			       and ilrpt.payment_term_id = 1
13:39:48 194  			       and las.is_om = 0 --wmd
13:39:48 195  			       and las.month >= trunc(ilrpt.payment_term_date, 'month')
13:39:48 196  			) abc
13:39:48 197  			where the_row = 1;
13:39:48 198  		 exception
13:39:48 199  			      when no_data_found then
13:39:48 200  				      a_msg := 'OK';
13:39:48 201  				      return;
13:39:48 202  		      end ;
13:39:48 203  
13:39:48 204  	    if A_LIFE > 0 then
13:39:48 205  	       L_MONTHLY_EXP := round( L_TOTAL_EXP / L_NUM_MONTHS, 2);
13:39:48 206  	       L_TOTAL_CHECK := A_LIFE * L_MONTHLY_EXP;
13:39:48 207  	       L_ROUND := L_TOTAL_EXP - L_TOTAL_CHECK;
13:39:48 208  
13:39:48 209  	       PKG_PP_LOG.P_WRITE_MESSAGE('L_MAX_MONTH : '||L_MAX_MONTH);
13:39:48 210  	       PKG_PP_LOG.P_WRITE_MESSAGE('L_NUM_MONTHS : '||L_NUM_MONTHS);
13:39:48 211  	       PKG_PP_LOG.P_WRITE_MESSAGE('L_TOTAL_EXP : '||L_TOTAL_EXP);
13:39:48 212  	       PKG_PP_LOG.P_WRITE_MESSAGE('L_MONTHLY_EXP : '||L_MONTHLY_EXP);
13:39:48 213  	       PKG_PP_LOG.P_WRITE_MESSAGE('L_TOTAL_CHECK : '||L_TOTAL_CHECK);
13:39:48 214  	       PKG_PP_LOG.P_WRITE_MESSAGE('L_ROUND : '||L_ROUND);
13:39:48 215  
13:39:48 216  			      A_MSG := 'INSERTING depreciation expense for SL Method';
13:39:48 217  	       PKG_PP_LOG.P_WRITE_MESSAGE(A_MSG);
13:39:48 218  	       insert into LS_DEPR_FORECAST
13:39:48 219  			      (LS_ASSET_ID, SET_OF_BOOKS_ID, REVISION, MONTH, begin_reserve, depr_expense, depr_exp_alloc_adjust, end_reserve)
13:39:48 220  			      select las.ls_asset_id, las.set_of_books_id, las.revision, las."MONTH",
13:39:48 221  				      sum( case when LAS."MONTH" <> L_MAX_MONTH then L_MONTHLY_EXP
13:39:48 222  					 else L_MONTHLY_EXP + L_ROUND
13:39:48 223  					 end ) over(partition by  las.ls_asset_id,  las.set_of_books_id,  las.revision order by  las.month) -
13:39:48 224  					       case when LAS."MONTH" <> L_MAX_MONTH then L_MONTHLY_EXP
13:39:48 225  					 else L_MONTHLY_EXP + L_ROUND
13:39:48 226  					 end as begin_reserve,
13:39:48 227  				       case when LAS."MONTH" <> L_MAX_MONTH then L_MONTHLY_EXP
13:39:48 228  					 else L_MONTHLY_EXP + L_ROUND
13:39:48 229  					 end as depr_expense, 0 as depr_exp_alloc_adjust,
13:39:48 230  				      sum( case when LAS."MONTH" <> L_MAX_MONTH then L_MONTHLY_EXP
13:39:48 231  					 else L_MONTHLY_EXP + L_ROUND
13:39:48 232  					 end) over(partition by  las.ls_asset_id,  las.set_of_books_id,  las.revision order by	las.month) as end_reserve
13:39:48 233  			      from ls_asset_schedule las, ls_ilr_payment_term ilrpt, ls_asset la
13:39:48 234  			      where LAS.LS_ASSET_ID = A_LS_ASSET_ID
13:39:48 235  			       and LAS.REVISION = A_REVISION
13:39:48 236  			       and LAS.SET_OF_BOOKS_ID = A_SOB_ID
13:39:48 237  			       and las.ls_asset_id = la.ls_asset_id
13:39:48 238  			       and la.ilr_id = ilrpt.ilr_id
13:39:48 239  			       and ilrpt.revision = A_REVISION
13:39:48 240  			       and ilrpt.payment_term_id = 1
13:39:48 241  		   and las.is_om = 0 -- wmd
13:39:48 242  			       and las.month >=trunc(ilrpt.payment_term_date, 'month');
13:39:48 243  		PKG_PP_LOG.P_WRITE_MESSAGE(sql%rowcount||' rows inserted into LS_DEPR_FORECAST.');
13:39:48 244  	    end if;
13:39:48 245  
13:39:48 246  	    A_MSG := 'OK';
13:39:48 247  	 end P_DEPR_SL;
13:39:48 248  
13:39:48 249  	 procedure P_DEPR_FERC( A_LS_ASSET_ID in number, A_REVISION in number,
13:39:48 250  			A_ASSET_ID in number, A_SOB_ID in number,
13:39:48 251  			A_MONTH date, A_MSG out varchar2)
13:39:48 252  	 is
13:39:48 253  	 begin
13:39:48 254  	    A_MSG := 'DELETING from depr_method_sle for current month through end of lease';
13:39:48 255  	    delete from DEPR_METHOD_SLE
13:39:48 256  	    where ASSET_ID = A_ASSET_ID
13:39:48 257  	    and SET_OF_BOOKS_ID = A_SOB_ID;
13:39:48 258  
13:39:48 259  	  A_MSG := 'INSERTING depreciation expense for FERC Method';
13:39:48 260  	  insert into DEPR_METHOD_SLE
13:39:48 261  	    (ASSET_ID, SET_OF_BOOKS_ID, GL_POSTING_MO_YR, DEPR_EXPENSE)
13:39:48 262  	    select A_ASSET_ID, A_SOB_ID, LAS."MONTH", decode(las.is_om, 1, 0, LAS.PRINCIPAL_ACCRUAL)
13:39:48 263  	     from LS_ASSET_SCHEDULE LAS
13:39:48 264  	    where LAS.LS_ASSET_ID = A_LS_ASSET_ID
13:39:48 265  	      and LAS.REVISION = A_REVISION
13:39:48 266  	      and LAS.SET_OF_BOOKS_ID = A_SOB_ID;
13:39:48 267  
13:39:48 268  
13:39:48 269  	    A_MSG := 'OK';
13:39:48 270  	 end P_DEPR_FERC;
13:39:48 271  
13:39:48 272  
13:39:48 273  	 procedure P_DEPR_SLE( A_LS_ASSET_ID in number, A_REVISION in number,
13:39:48 274  			A_ASSET_ID in number, A_SOB_ID in number,
13:39:48 275  			A_MONTH date, A_LIFE number, A_MSG out varchar2)
13:39:48 276  	 is
13:39:48 277  	 begin
13:39:48 278  	    P_DEPR_SLE( A_LS_ASSET_ID, A_REVISION, A_ASSET_ID, A_SOB_ID, A_MONTH, A_LIFE, A_MSG, 0);
13:39:48 279  	 end P_DEPR_SLE;
13:39:48 280  
13:39:48 281  
13:39:48 282  
13:39:48 283  
13:39:48 284  	 procedure P_DEPR_FERC_FCST( A_ILR_ID in number, A_REVISION in number )
13:39:48 285  	 is
13:39:48 286  	 begin
13:39:48 287  		      PKG_PP_ERROR.SET_MODULE_NAME('PKG_LEASE_DEPR.P_DEPR_FERC_FCST');
13:39:48 288  
13:39:48 289  		      insert into LS_DEPR_FORECAST
13:39:48 290  		      (LS_ASSET_ID, SET_OF_BOOKS_ID, REVISION, MONTH, begin_reserve, depr_expense, depr_exp_alloc_adjust, end_reserve)
13:39:48 291  		      select las.ls_asset_id, las.set_of_books_id,  las.revision,  las.month,
13:39:48 292  			      sum( las.principal_accrual) over(partition by  las.ls_asset_id,  las.set_of_books_id,  las.revision order by  las.month) -
13:39:48 293  				       las.principal_accrual as begin_reserve,
13:39:48 294  			       las.principal_accrual as depr_expense, 0 as depr_exp_alloc_adjust,
13:39:48 295  			      sum( las.principal_accrual) over(partition by  las.ls_asset_id,  las.set_of_books_id,  las.revision order by  las.month) as end_reserve
13:39:48 296  		      from ls_asset_schedule las, ls_asset la, depr_group dg, ls_ilr_options lio, ls_fasb_cap_type_sob_map sob_map
13:39:48 297  		      where la.depr_group_id = dg.depr_group_id
13:39:48 298  		      and lower(dg.mid_period_method) = 'ferc'
13:39:48 299  		      and las.ls_asset_id = la.ls_asset_id
13:39:48 300  		      AND lio.ilr_id = A_ILR_ID
13:39:48 301  		      AND lio.revision = A_REVISION
13:39:48 302  		      and las.revision = A_REVISION
13:39:48 303  		      and la.ilr_id = A_ILR_ID
13:39:48 304  		      AND sob_map.lease_cap_type_id = lio.lease_cap_type_id
13:39:48 305  		      AND sob_map.set_of_books_id = las.set_of_books_id
13:39:48 306  		      and las.is_om = 0
13:39:48 307  		      and sob_map.fasb_cap_type_id <> 2  --fasb_cap_type_id 2 = Type B, which always uses SLE method, regardless of depr group setting.
13:39:48 308  		      ;
13:39:48 309  	    PKG_PP_LOG.P_WRITE_MESSAGE(sql%rowcount||' rows inserted into LS_DEPR_FORECAST.');
13:39:48 310  
13:39:48 311  		      PKG_PP_ERROR.REMOVE_MODULE_NAME;
13:39:48 312  	      end P_DEPR_FERC_FCST;
13:39:48 313  
13:39:48 314  	      procedure P_GET_LEASE_DEPR( A_ILR_ID in number, A_REVISION in number)
13:39:48 315  	      is
13:39:48 316  		      L_DG_ID DEPR_GROUP.DEPR_GROUP_ID%TYPE;
13:39:48 317  		      L_MSG varchar2(2000);
13:39:48 318  
13:39:48 319  		      type ASSET_REC is record(
13:39:48 320  			      LS_ASSET_ID LS_ASSET.LS_ASSET_ID%type,
13:39:48 321  			      COMPANY_ID COMPANY_SETUP.COMPANY_ID%type,
13:39:48 322  			      GL_ACCOUNT_ID GL_ACCOUNT.GL_ACCOUNT_ID%type,
13:39:48 323  			      MAJOR_LOCATION_ID MAJOR_LOCATION.MAJOR_LOCATION_ID%type,
13:39:48 324  			      UTILITY_ACCOUNT_ID UTILITY_ACCOUNT.UTILITY_ACCOUNT_ID%type,
13:39:48 325  			      BUS_SEGMENT_ID BUSINESS_SEGMENT.BUS_SEGMENT_ID%type,
13:39:48 326  			      SUB_ACCOUNT_ID SUB_ACCOUNT.SUB_ACCOUNT_ID%type,
13:39:48 327  			      VINTAGE number,
13:39:48 328  			      ASSET_LOCATION_ID ASSET_LOCATION.ASSET_LOCATION_ID%type,
13:39:48 329  			      LOCATION_TYPE_ID LOCATION_TYPE.LOCATION_TYPE_ID%type,
13:39:48 330  			      RETIREMENT_UNIT_ID RETIREMENT_UNIT.RETIREMENT_UNIT_ID%type,
13:39:48 331  			      PROPERTY_UNIT_ID PROPERTY_UNIT.PROPERTY_UNIT_ID%type
13:39:48 332  		      );
13:39:48 333  
13:39:48 334  		      type ASSET_TABLE is table of ASSET_REC index by pls_integer;
13:39:48 335  		      L_ASSET_TABLE ASSET_TABLE;
13:39:48 336  	      begin
13:39:48 337  	    --start log back up again
13:39:48 338  	    PKG_PP_LOG.P_START_LOG(P_PROCESS_ID => PKG_LEASE_COMMON.F_GETPROCESS());
13:39:48 339  
13:39:48 340  		      L_MSG   := 'Finding depr group';
13:39:48 341  	    PKG_PP_LOG.P_WRITE_MESSAGE(L_MSG);
13:39:48 342  
13:39:48 343  		      -- get attributes required to find depreciation group and calc depreciation
13:39:48 344  	  /* WMD */
13:39:48 345  
13:39:48 346  		      select LA.LS_ASSET_ID, LA.COMPANY_ID, IA.CAP_ASSET_ACCOUNT_ID AS GL_ACCOUNT_ID,
13:39:48 347  			      AL.MAJOR_LOCATION_ID, LA.UTILITY_ACCOUNT_ID, LA.BUS_SEGMENT_ID,
13:39:48 348  			      LA.SUB_ACCOUNT_ID, TO_NUMBER(TO_CHAR(LI.EST_IN_SVC_DATE, 'YYYY')),
13:39:48 349  			      LA.ASSET_LOCATION_ID, ML.LOCATION_TYPE_ID, LA.RETIREMENT_UNIT_ID,
13:39:48 350  			      RU.PROPERTY_UNIT_ID
13:39:48 351  		      bulk collect
13:39:48 352  		      into L_ASSET_TABLE
13:39:48 353  		      from LS_ILR_ACCOUNT IA, LS_ASSET LA, ASSET_LOCATION AL, MAJOR_LOCATION ML,
13:39:48 354  			      LS_ILR LI, RETIREMENT_UNIT RU
13:39:48 355  		      where IA.ILR_ID = A_ILR_ID
13:39:48 356  		      and LI.ILR_ID = A_ILR_ID
13:39:48 357  	       and LA.ILR_ID = A_ILR_ID
13:39:48 358  		      and LA.ASSET_LOCATION_ID = AL.ASSET_LOCATION_ID
13:39:48 359  		      and AL.MAJOR_LOCATION_ID = ML.MAJOR_LOCATION_ID
13:39:48 360  		      and LA.RETIREMENT_UNIT_ID = RU.RETIREMENT_UNIT_ID
13:39:48 361  		      ;
13:39:48 362  
13:39:48 363  
13:39:48 364  		      L_MSG   := 'Updating Depr Group on LS Asset';
13:39:48 365  	    PKG_PP_LOG.P_WRITE_MESSAGE(L_MSG);
13:39:48 366  
13:39:48 367  	    forall ndx in indices of L_ASSET_TABLE
13:39:48 368  			      update ls_asset la
13:39:48 369  			      set depr_group_id = PP_DEPR_PKG.F_FIND_DEPR_GROUP
13:39:48 370  									      (
13:39:48 371  										      L_ASSET_TABLE(ndx).COMPANY_ID,
13:39:48 372  										      L_ASSET_TABLE(ndx).GL_ACCOUNT_ID,
13:39:48 373  										      L_ASSET_TABLE(ndx).MAJOR_LOCATION_ID,
13:39:48 374  										      L_ASSET_TABLE(ndx).UTILITY_ACCOUNT_ID,
13:39:48 375  										      L_ASSET_TABLE(ndx).BUS_SEGMENT_ID,
13:39:48 376  										      L_ASSET_TABLE(ndx).SUB_ACCOUNT_ID,
13:39:48 377  										      -100, --SUBLEDGER_TYPE_ID
13:39:48 378  										      L_ASSET_TABLE(ndx).VINTAGE,
13:39:48 379  										      L_ASSET_TABLE(ndx).ASSET_LOCATION_ID,
13:39:48 380  										      L_ASSET_TABLE(ndx).LOCATION_TYPE_ID,
13:39:48 381  										      L_ASSET_TABLE(ndx).RETIREMENT_UNIT_ID,
13:39:48 382  										      L_ASSET_TABLE(ndx).PROPERTY_UNIT_ID,
13:39:48 383  										      -1, --A_CLASS_CODE_ID
13:39:48 384  										      'NO CLASS CODE'
13:39:48 385  									      )
13:39:48 386  			      where la.ls_asset_id = L_ASSET_TABLE(ndx).LS_ASSET_ID
13:39:48 387  			      AND PP_DEPR_PKG.F_FIND_DEPR_GROUP
13:39:48 388  									      (
13:39:48 389  										      L_ASSET_TABLE(ndx).COMPANY_ID,
13:39:48 390  										      L_ASSET_TABLE(ndx).GL_ACCOUNT_ID,
13:39:48 391  										      L_ASSET_TABLE(ndx).MAJOR_LOCATION_ID,
13:39:48 392  										      L_ASSET_TABLE(ndx).UTILITY_ACCOUNT_ID,
13:39:48 393  										      L_ASSET_TABLE(ndx).BUS_SEGMENT_ID,
13:39:48 394  										      L_ASSET_TABLE(ndx).SUB_ACCOUNT_ID,
13:39:48 395  										      -100, --SUBLEDGER_TYPE_ID
13:39:48 396  										      L_ASSET_TABLE(ndx).VINTAGE,
13:39:48 397  										      L_ASSET_TABLE(ndx).ASSET_LOCATION_ID,
13:39:48 398  										      L_ASSET_TABLE(ndx).LOCATION_TYPE_ID,
13:39:48 399  										      L_ASSET_TABLE(ndx).RETIREMENT_UNIT_ID,
13:39:48 400  										      L_ASSET_TABLE(ndx).PROPERTY_UNIT_ID,
13:39:48 401  										      -1, --A_CLASS_CODE_ID
13:39:48 402  										      'NO CLASS CODE'
13:39:48 403  									      ) > 0
13:39:48 404  			      ;
13:39:48 405  
13:39:48 406  	    PKG_PP_LOG.P_WRITE_MESSAGE(sql%rowcount||' rows on ls_asset updating with a depr group.');
13:39:48 407  
13:39:48 408  	      end P_GET_LEASE_DEPR;
13:39:48 409  
13:39:48 410  	      function f_lease_stg(A_ILR_ID in number, A_REVISION in number)
13:39:48 411  	      return number
13:39:48 412  	      is
13:39:48 413  	    NUM_ROWS	 number;
13:39:48 414  	      begin
13:39:48 415  		      PKG_PP_ERROR.SET_MODULE_NAME('PKG_LEASE_DEPR.f_lease_stg');
13:39:48 416  		      --
13:39:48 417  		      insert into CPR_DEPR_CALC_STG
13:39:48 418  		      (ASSET_ID, SET_OF_BOOKS_ID, GL_POSTING_MO_YR, INIT_LIFE, REMAINING_LIFE,
13:39:48 419  		       ESTIMATED_SALVAGE, BEG_ASSET_DOLLARS, NET_ADDS_AND_ADJUST, RETIREMENTS,
13:39:48 420  		       DEPR_CALC_STATUS, TRANSFERS_IN, TRANSFERS_OUT, ASSET_DOLLARS, BEG_RESERVE_MONTH,
13:39:48 421  		       SALVAGE_DOLLARS, RESERVE_ADJUSTMENT, COST_OF_REMOVAL, RESERVE_TRANS_IN,
13:39:48 422  		       RESERVE_TRANS_OUT, DEPR_EXP_ADJUST, OTHER_CREDITS_AND_ADJUST, GAIN_LOSS,
13:39:48 423  		       DEPRECIATION_BASE, CURR_DEPR_EXPENSE, DEPR_RESERVE, BEG_RESERVE_YEAR, YTD_DEPR_EXPENSE,
13:39:48 424  		       YTD_DEPR_EXP_ADJUST, PRIOR_YTD_DEPR_EXPENSE, PRIOR_YTD_DEPR_EXP_ADJUST, ACCT_DISTRIB,
13:39:48 425  		       MONTH_RATE, COMPANY_ID, MID_PERIOD_METHOD, MID_PERIOD_CONV, DEPR_GROUP_ID,
13:39:48 426  		       DEPR_EXP_ALLOC_ADJUST, DEPR_METHOD_ID, TRUE_UP_CPR_DEPR, SALVAGE_EXPENSE,
13:39:48 427  		       SALVAGE_EXP_ADJUST, SALVAGE_EXP_ALLOC_ADJUST, IMPAIRMENT_ASSET_AMOUNT,
13:39:48 428  		       IMPAIRMENT_EXPENSE_AMOUNT, END_OF_LIFE, NET_GROSS, OVER_DEPR_CHECK, RATE,
13:39:48 429  		       EFFECTIVE_DATE, SUBLEDGER_TYPE_ID, ENG_IN_SERVICE_YEAR, TRF_WEIGHT, MIN_MPC, TRUEUP_ADJ,
13:39:48 430  		       NET_TRF, ACTIVITY, ACTIVITY_3, BEG_RES_AMT, NET_IMP_AMT, EXISTS_TWO_MONTHS, EXISTS_ARO, HAS_CFNU,
13:39:48 431  		       HAS_NURV, HAS_NURV_LAST_MONTH, EXISTS_LAST_MONTH, NURV_ADJ,
13:39:48 432  		       IMPAIRMENT_ASSET_ACTIVITY_SALV, IMPAIRMENT_ASSET_BEGIN_BALANCE)
13:39:48 433  		      with lease_assets as
13:39:48 434  		      (
13:39:48 435  			      select las.ls_asset_id, las.set_of_books_id, las.revision, las.month, las.end_capital_cost, la.depr_group_id, la.economic_life, /* WMD */
13:39:48 436  				      dg.mid_period_conv, dg.mid_period_method, la.company_id, dg.depr_method_id,
13:39:48 437  				       case when la.ESTIMATED_RESIDUAL = 0 and lower(trim(pkg_pp_system_control.f_pp_system_control_company('Lease Amort to Guaranteed Residual', la.COMPANY_ID))) = 'yes'
13:39:48 438  					      then la.GUARANTEED_RESIDUAL_AMOUNT
13:39:48 439  					      else round(la.ESTIMATED_RESIDUAL * la.FMV, 2) end / las.end_capital_cost as estimated_salvage, /* WMD */
13:39:48 440  				      min("MONTH") over(partition by las.ls_asset_id, las.set_of_books_id, las.revision) as in_service,
13:39:48 441  				      count(1) over(partition by las.ls_asset_id, las.set_of_books_id, las.revision) as init_life,
13:39:48 442  				      count(1) over(partition by las.ls_asset_id, las.set_of_books_id, las.revision) -
13:39:48 443  				      row_number() over(partition by las.ls_asset_id, las.set_of_books_id, las.revision order by las.month) + 1 as remaining_life
13:39:48 444  			      from ls_asset_schedule las, ls_asset la, depr_group dg
13:39:48 445  			      where la.depr_group_id = dg.depr_group_id
13:39:48 446  			      and lower(dg.mid_period_method) not in ('sle', 'ferc', 'sl')
13:39:48 447  			      and dg.subledger_type_id = -100
13:39:48 448  			      and las.ls_asset_id = la.ls_asset_id
13:39:48 449  			      and la.ilr_id = a_ilr_id
13:39:48 450  			      and las.revision = a_revision
13:39:48 451  			      and las.is_om = 0
13:39:48 452  			      and las.end_capital_cost <> 0 /* WMD */
13:39:48 453  		      ), DEPR_METHOD_RATES_VIEW as
13:39:48 454  		       (select DD.DEPR_METHOD_ID as DEPR_METHOD_ID,
13:39:48 455  			       DD.SET_OF_BOOKS_ID,
13:39:48 456  			       DD.EFFECTIVE_DATE,
13:39:48 457  			       DD.RATE,
13:39:48 458  			       DD.OVER_DEPR_CHECK,
13:39:48 459  			       DD.NET_GROSS,
13:39:48 460  			       DD.END_OF_LIFE,
13:39:48 461  			       ROW_NUMBER() OVER(partition by DD.DEPR_METHOD_ID, DD.SET_OF_BOOKS_ID order by DD.EFFECTIVE_DATE desc) as THE_ROW
13:39:48 462  			from DEPR_METHOD_RATES DD
13:39:48 463  			 where DD.EFFECTIVE_DATE <= sysdate)
13:39:48 464  		      select la.ls_asset_id,
13:39:48 465  			       la.SET_OF_BOOKS_ID,
13:39:48 466  			       la."MONTH",
13:39:48 467  			       nvl(la.INIT_LIFE,0),
13:39:48 468  			       nvl(la.REMAINING_LIFE,0),
13:39:48 469  			       nvl(la.ESTIMATED_SALVAGE,0),
13:39:48 470  			       nvl(la.end_capital_cost,0), /* WMD */
13:39:48 471  			       0, 0, 2,0,0,
13:39:48 472  			       nvl(la.end_capital_cost,0), /* WMD */
13:39:48 473  			       0,0,0,0,0,0,0,0,0,
13:39:48 474  			       0,--A.DEPRECIATION_BASE,
13:39:48 475  			       0,--CURR_DEPR_EXPENSE
13:39:48 476  			       0,0,0,0,0,0,
13:39:48 477  			       null,
13:39:48 478  			       0,
13:39:48 479  			       la.COMPANY_ID,
13:39:48 480  			       lower(trim(la.MID_PERIOD_METHOD)),
13:39:48 481  			       la.mid_period_conv MID_PERIOD_CONV,
13:39:48 482  			       la.depr_group_id DEPR_GROUP_ID,
13:39:48 483  			       0,--DEPR_EXP_ALLOC_ADJUST,
13:39:48 484  			       la.depr_method_id DEPR_METHOD_ID,
13:39:48 485  			       0 TRUE_UP_CPR_DEPR,
13:39:48 486  			       0,--A.SALVAGE_EXPENSE,
13:39:48 487  			       0, 0,--SALVAGE_EXP_ALLOC_ADJUST,
13:39:48 488  			       0, 0,
13:39:48 489  			       c.END_OF_LIFE, c.NET_GROSS, c.OVER_DEPR_CHECK, nvl(c.RATE,0), c.EFFECTIVE_DATE,
13:39:48 490  			       -100,
13:39:48 491  			       la.in_service,
13:39:48 492  			       DECODE(LOWER(NVL(PKG_PP_SYSTEM_CONTROL.F_PP_SYSTEM_CONTROL_COMPANY('Transfers In Est Adds',
13:39:48 493  												la.COMPANY_ID),
13:39:48 494  					      'no')),
13:39:48 495  				      'no',
13:39:48 496  				      1,
13:39:48 497  				      0),
13:39:48 498  			 DECODE(LOWER(NVL(PKG_PP_SYSTEM_CONTROL.F_PP_SYSTEM_CONTROL_COMPANY('CPR DEPR: Allow Exp in Month Added',
13:39:48 499  												la.COMPANY_ID),
13:39:48 500  					      'yes')),
13:39:48 501  				      'no',
13:39:48 502  				      0,
13:39:48 503  				      -1
13:39:48 504  				      ),
13:39:48 505  			      0,--TRUEUP_ADJ
13:39:48 506  			      0,0,0,0,0,
13:39:48 507  			      0,--EXISTS_TWO_MONTHS
13:39:48 508  			      0,--EXISTS_ARO
13:39:48 509  			      0, --HAS_CFNU
13:39:48 510  			      0, --HAS_NURV
13:39:48 511  			      0, --HAS_NURV_LAST_MONTH
13:39:48 512  			      case when la.remaining_life = la.init_life then 0 else 1 end, --EXISTS_LAST_MONTH
13:39:48 513  			      0, --NuRV_ADJ
13:39:48 514  			      0, 0
13:39:48 515  			from DEPR_METHOD_RATES_VIEW c, lease_assets la
13:39:48 516  		       where la.depr_method_id = c.depr_method_id
13:39:48 517  		       and la.set_of_books_id = c.set_of_books_id
13:39:48 518  		       and c.THE_ROW = 1;
13:39:48 519  
13:39:48 520  	     NUM_ROWS := sql%rowcount;
13:39:48 521  
13:39:48 522  	     PKG_PP_LOG.P_WRITE_MESSAGE(NUM_ROWS||' rows inserted into CPR_DEPR_CALC_STG.');
13:39:48 523  
13:39:48 524  		       return NUM_ROWS;
13:39:48 525  
13:39:48 526  		       PKG_PP_ERROR.REMOVE_MODULE_NAME;
13:39:48 527  	      end f_lease_stg;
13:39:48 528  
13:39:48 529  	      procedure p_lease_calc
13:39:48 530  	      is
13:39:48 531  	      begin
13:39:48 532  		      --
13:39:48 533  		      PKG_DEPR_IND_CALC.P_DEPRCALC_LEASE();
13:39:48 534  	      end p_lease_calc;
13:39:48 535  
13:39:48 536  	      procedure p_lease_results(A_ILR_ID in number, A_REVISION in number)
13:39:48 537  	      is
13:39:48 538  	      begin
13:39:48 539  		      --
13:39:48 540  		      PKG_PP_ERROR.SET_MODULE_NAME('PKG_LEASE_DEPR.p_lease_results');
13:39:48 541  
13:39:48 542  		      insert into LS_DEPR_FORECAST
13:39:48 543  		      (LS_ASSET_ID, SET_OF_BOOKS_ID, REVISION, MONTH, begin_reserve, depr_expense, depr_exp_alloc_adjust, end_reserve)
13:39:48 544  		      select c.asset_id, c.set_of_books_id, a_revision, c.gl_posting_mo_yr,
13:39:48 545  			      c.beg_reserve_month, c.curr_depr_expense, c.depr_exp_alloc_adjust, c.depr_reserve
13:39:48 546  		      from cpr_depr_calc_stg c
13:39:48 547  		      ;
13:39:48 548  	    PKG_PP_LOG.P_WRITE_MESSAGE(sql%rowcount||' rows inserted into LS_DEPR_FORECAST.');
13:39:48 549  
13:39:48 550  		      delete from cpr_depr_calc_stg;
13:39:48 551  	    PKG_PP_LOG.P_WRITE_MESSAGE(sql%rowcount||' rows deleted from cpr_depr_calc_stg.');
13:39:48 552  
13:39:48 553  		      PKG_PP_ERROR.REMOVE_MODULE_NAME;
13:39:48 554  	      end p_lease_results;
13:39:48 555  
13:39:48 556  	      procedure P_FCST_LEASE(A_ILR_ID in number, A_REVISION in number)
13:39:48 557  	      is
13:39:48 558  		      l_msg varchar2(2000);
13:39:48 559  		      l_check number;
13:39:48 560  		      L_MID_PERIOD_METHOD DEPR_GROUP.MID_PERIOD_METHOD%TYPE;
13:39:48 561  		      l_init_life number;
13:39:48 562  		      l_proc_id number;
13:39:48 563  		      l_num number;
13:39:48 564  	      begin
13:39:48 565  		      PKG_PP_ERROR.SET_MODULE_NAME('PKG_LEASE_DEPR.P_FCST_LEASE');
13:39:48 566  
13:39:48 567  	    --start log back up again
13:39:48 568  	    PKG_PP_LOG.P_START_LOG(P_PROCESS_ID => PKG_LEASE_COMMON.F_GETPROCESS());
13:39:48 569  	    PKG_PP_LOG.P_WRITE_MESSAGE('A_ILR_ID : '||A_ILR_ID);
13:39:48 570  	    PKG_PP_LOG.P_WRITE_MESSAGE('A_REVISION : '||A_REVISION);
13:39:48 571  
13:39:48 572  		      delete from LS_DEPR_FORECAST
13:39:48 573  		      where revision = a_revision
13:39:48 574  		      and ls_asset_id in
13:39:48 575  		      (
13:39:48 576  			      select la.ls_asset_id
13:39:48 577  			      from ls_asset la
13:39:48 578  			      where la.ilr_id = a_ilr_id
13:39:48 579  		      );
13:39:48 580  	    PKG_PP_LOG.P_WRITE_MESSAGE(sql%rowcount||' rows deleted from LS_DEPR_FORECAST.');
13:39:48 581  
13:39:48 582  		      -- calc ferc
13:39:48 583  	    PKG_PP_LOG.P_WRITE_MESSAGE('FERC Calc');
13:39:48 584  	    PKG_PP_LOG.P_WRITE_MESSAGE('Entering P_DEPR_FERC_FCST');
13:39:48 585  		      P_DEPR_FERC_FCST( A_ILR_ID, A_REVISION );
13:39:48 586  
13:39:48 587  		      -- calc sle
13:39:48 588  	    PKG_PP_LOG.P_WRITE_MESSAGE('SLE Calc');
13:39:48 589  		      for l_calc_depr in
13:39:48 590  		      (
13:39:48 591  			      select *
13:39:48 592  			      from
13:39:48 593  			      (
13:39:48 594  				      select las.ls_asset_id, las.set_of_books_id, las.revision, las.month, las.end_capital_cost, la.depr_group_id, la.economic_life, /* WMD */
13:39:48 595  					      row_number() over(partition by las.ls_asset_id, las.set_of_books_id, las.revision order by las.month) as the_row
13:39:48 596  				      from ls_asset_schedule las, ls_asset la, ls_ilr_options lio, ls_fasb_cap_type_sob_map sob_map
13:39:48 597  				      where las.ls_asset_id = la.ls_asset_id
13:39:48 598  				      and la.ilr_id = A_ILR_ID
13:39:48 599  				      and las.revision = A_REVISION
13:39:48 600  				      AND lio.ilr_id = A_ILR_ID
13:39:48 601  				      AND lio.revision = A_REVISION
13:39:48 602  				      AND sob_map.lease_cap_type_id = lio.lease_cap_type_id
13:39:48 603  				      AND sob_map.set_of_books_id = las.set_of_books_id
13:39:48 604  				      and sob_map.fasb_cap_type_id = 2	--fasb_cap_type_id 2 = Type B, which always uses SLE method, regardless of depr group setting.
13:39:48 605  			      )
13:39:48 606  			      where the_row = 1
13:39:48 607  		      )
13:39:48 608  		      loop
13:39:48 609  	       PKG_PP_LOG.P_WRITE_MESSAGE('Getting init life');
13:39:48 610  			      l_init_life := pkg_lease_common.f_get_init_life(l_calc_depr.ls_asset_id, l_calc_depr.revision,
13:39:48 611  																	      a_ilr_id, l_calc_depr.economic_life);
13:39:48 612  	       PKG_PP_LOG.P_WRITE_MESSAGE('init life : '||l_init_life);
13:39:48 613  
13:39:48 614  	       PKG_PP_LOG.P_WRITE_MESSAGE('Entering P_DEPR_SLE');
13:39:48 615  			      P_DEPR_SLE( l_calc_depr.ls_asset_id, l_calc_depr.revision, 0, l_calc_depr.SET_OF_BOOKS_ID,
13:39:48 616  						      l_calc_depr.MONTH, l_init_life, L_MSG, 1 );
13:39:48 617  		      end loop;
13:39:48 618  
13:39:48 619  		      -- calc sl
13:39:48 620  	    PKG_PP_LOG.P_WRITE_MESSAGE('SL Calc');
13:39:48 621  		      for l_calc_depr in
13:39:48 622  		      (
13:39:48 623  			      select *
13:39:48 624  			      from
13:39:48 625  			      (
13:39:48 626  				      select las.ls_asset_id, las.set_of_books_id, las.revision, las.month, las.end_capital_cost, la.depr_group_id, la.economic_life, /* WMD */
13:39:48 627  					      row_number() over(partition by las.ls_asset_id, las.set_of_books_id, las.revision order by las.month) as the_row
13:39:48 628  				      from ls_asset_schedule las, ls_asset la, depr_group dg, ls_ilr_options lio, ls_fasb_cap_type_sob_map sob_map
13:39:48 629  				      where la.depr_group_id = dg.depr_group_id
13:39:48 630  				      and lower(dg.mid_period_method) = 'sl'
13:39:48 631  				      and las.ls_asset_id = la.ls_asset_id
13:39:48 632  				      and la.ilr_id = A_ILR_ID
13:39:48 633  				      and las.revision = A_REVISION
13:39:48 634  				      AND lio.ilr_id = A_ILR_ID
13:39:48 635  				      AND lio.revision = A_REVISION
13:39:48 636  				      AND sob_map.lease_cap_type_id = lio.lease_cap_type_id
13:39:48 637  				      AND sob_map.set_of_books_id = las.set_of_books_id
13:39:48 638  				      and sob_map.fasb_cap_type_id <> 2  --fasb_cap_type_id 2 = Type B, which always uses SLE method, regardless of depr group setting.
13:39:48 639  			      )
13:39:48 640  			      where the_row = 1
13:39:48 641  		      )
13:39:48 642  		      loop
13:39:48 643  	       PKG_PP_LOG.P_WRITE_MESSAGE('Getting init life');
13:39:48 644  			      l_init_life := pkg_lease_common.f_get_init_life(l_calc_depr.ls_asset_id, l_calc_depr.revision,
13:39:48 645  																	      a_ilr_id, l_calc_depr.economic_life);
13:39:48 646  	       PKG_PP_LOG.P_WRITE_MESSAGE('init life : '||l_init_life);
13:39:48 647  
13:39:48 648  	       PKG_PP_LOG.P_WRITE_MESSAGE('Entering P_DEPR_SL');
13:39:48 649  			      P_DEPR_SL( l_calc_depr.ls_asset_id, l_calc_depr.revision, 0, l_calc_depr.SET_OF_BOOKS_ID,
13:39:48 650  						      l_calc_depr.MONTH, l_init_life, L_MSG);
13:39:48 651  		      end loop;
13:39:48 652  
13:39:48 653  		      -- calc rest of depr
13:39:48 654  	    PKG_PP_LOG.P_WRITE_MESSAGE('Remaining Depr Methods Calc');
13:39:48 655  	    PKG_PP_LOG.P_WRITE_MESSAGE('Entering f_lease_stg');
13:39:48 656  		      l_num := f_lease_stg( a_ilr_id, a_revision);
13:39:48 657  		      if l_num > 0 then
13:39:48 658  	       PKG_PP_LOG.P_WRITE_MESSAGE('Entering p_lease_calc');
13:39:48 659  			      p_lease_calc();
13:39:48 660  	       PKG_PP_LOG.P_WRITE_MESSAGE('Entering p_lease_results');
13:39:48 661  			      p_lease_results( a_ilr_id, a_revision);
13:39:48 662  		      end if;
13:39:48 663  
13:39:48 664  		      PKG_PP_ERROR.REMOVE_MODULE_NAME;
13:39:48 665  	 exception
13:39:48 666  	  when others then
13:39:48 667  	    PKG_PP_ERROR.RAISE_ERROR('ERROR','Failed Operation');
13:39:48 668  	      end P_FCST_LEASE;
13:39:48 669  
13:39:48 670  end PKG_LEASE_DEPR;
13:39:48 671  /

Package body created.

13:39:48 hopplant> 
13:39:48 hopplant> GRANT EXECUTE ON pkg_lease_depr TO pwrplant_role_dev;

Grant succeeded.

13:39:48 hopplant> 
13:39:48 hopplant> --**************************
13:39:48 hopplant> -- Log the run of the script
13:39:48 hopplant> --**************************
13:39:48 hopplant> 
13:39:48 hopplant> insert into PP_SCHEMA_CHANGE_LOG
13:39:48   2  	 (ID, SKIPPED, MAJOR_VERSION, MINOR_VERSION, POINT_VERSION, PATCH_VERSION, MAINT_NUM, SCRIPT_PATH,
13:39:48   3  	  SCRIPT_NAME, SCRIPT_REVISION, DATE_APPLIED, OS_USER, TERMINAL, SERVICE_NAME)
13:39:48   4  values
13:39:48   5  	 (3166, 0, 2015, 2, 2, 0, 0, 'C:\PlasticWks\PowerPlant\sql\packages', '2015.2.2.0_PKG_LEASE_DEPR.sql', 1, SYSTIMESTAMP, SYS_CONTEXT('USERENV', 'OS_USER'), SYS_CONTEXT('USERENV', 'TERMINAL'), SYS_CONTEXT('USERENV', 'SERVICE_NAME'));

1 row created.

13:39:48 hopplant> commit;

Commit complete.

13:39:48 hopplant> SPOOL OFF
