12:15:11 hopplant> @&&PP_SCRIPT_PATH.maint_scripts\2015.1.0.0_maint_041990_ds_import_ddl_1.sql
12:15:11 hopplant> /*
12:15:11 hopplant> ||============================================================================
12:15:11 hopplant> || Application: PowerPlan
12:15:11 hopplant> || File Name: maint_041990_ds_import_ddl_1.sql
12:15:11 hopplant> ||============================================================================
12:15:11 hopplant> || Copyright (C) 2014 by PowerPlan, Inc. All Rights Reserved.
12:15:11 hopplant> ||============================================================================
12:15:11 hopplant> || Version  Date	  Revised By	   Reason for Change
12:15:11 hopplant> || -------- ---------- --------------   ----------------------------------------
12:15:11 hopplant> || 2015.1   01/12/2015 A Scott	   Import tool setup for depr studies
12:15:11 hopplant> ||============================================================================
12:15:11 hopplant> */
12:15:11 hopplant> 
12:15:11 hopplant> 
12:15:11 hopplant> SET SERVEROUTPUT ON
12:15:11 hopplant> 
12:15:11 hopplant> begin
12:15:11   2  	 execute immediate 'drop table ds_import_plant';
12:15:11   3  exception
12:15:11   4  	 when others then
12:15:11   5  	    DBMS_OUTPUT.PUT_LINE('Table ds_import_plant does not exist or drop table priv not granted.');
12:15:11   6  end;
12:15:11   7  /
Table ds_import_plant does not exist or drop table priv not granted.            

PL/SQL procedure successfully completed.

12:15:11 hopplant> 
12:15:11 hopplant> begin
12:15:11   2  	 execute immediate 'drop table ds_import_plant_arc';
12:15:11   3  exception
12:15:11   4  	 when others then
12:15:11   5  	    DBMS_OUTPUT.PUT_LINE('Table ds_import_plant_arc does not exist or drop table priv not granted.');
12:15:11   6  end;
12:15:11   7  /
Table ds_import_plant_arc does not exist or drop table priv not granted.        

PL/SQL procedure successfully completed.

12:15:11 hopplant> 
12:15:11 hopplant> begin
12:15:11   2  	 execute immediate 'drop table ds_import_reserve';
12:15:11   3  exception
12:15:11   4  	 when others then
12:15:11   5  	    DBMS_OUTPUT.PUT_LINE('Table ds_import_reserve does not exist or drop table priv not granted.');
12:15:11   6  end;
12:15:11   7  /
Table ds_import_reserve does not exist or drop table priv not granted.          

PL/SQL procedure successfully completed.

12:15:11 hopplant> 
12:15:11 hopplant> begin
12:15:11   2  	 execute immediate 'drop table ds_import_reserve_arc';
12:15:11   3  exception
12:15:11   4  	 when others then
12:15:11   5  	    DBMS_OUTPUT.PUT_LINE('Table ds_import_reserve_arc does not exist or drop table priv not granted.');
12:15:11   6  end;
12:15:11   7  /
Table ds_import_reserve_arc does not exist or drop table priv not granted.      

PL/SQL procedure successfully completed.

12:15:11 hopplant> 
12:15:11 hopplant> begin
12:15:11   2  	 execute immediate 'drop table ds_import_data_account';
12:15:11   3  exception
12:15:11   4  	 when others then
12:15:11   5  	    DBMS_OUTPUT.PUT_LINE('Table ds_import_data_account does not exist or drop table priv not granted.');
12:15:11   6  end;
12:15:11   7  /
Table ds_import_data_account does not exist or drop table priv not granted.     

PL/SQL procedure successfully completed.

12:15:11 hopplant> 
12:15:11 hopplant> begin
12:15:11   2  	 execute immediate 'drop table ds_import_data_account_arc';
12:15:11   3  exception
12:15:11   4  	 when others then
12:15:11   5  	    DBMS_OUTPUT.PUT_LINE('Table ds_import_data_account_arc does not exist or drop table priv not granted.');
12:15:11   6  end;
12:15:11   7  /
Table ds_import_data_account_arc does not exist or drop table priv not granted. 

PL/SQL procedure successfully completed.

12:15:11 hopplant> 
12:15:11 hopplant> begin
12:15:11   2  	 execute immediate 'drop table ds_import_depr_group';
12:15:11   3  exception
12:15:11   4  	 when others then
12:15:11   5  	    DBMS_OUTPUT.PUT_LINE('Table ds_import_depr_group does not exist or drop table priv not granted.');
12:15:11   6  end;
12:15:11   7  /
Table ds_import_depr_group does not exist or drop table priv not granted.       

PL/SQL procedure successfully completed.

12:15:11 hopplant> 
12:15:11 hopplant> begin
12:15:11   2  	 execute immediate 'drop table ds_import_depr_group_arc';
12:15:11   3  exception
12:15:11   4  	 when others then
12:15:11   5  	    DBMS_OUTPUT.PUT_LINE('Table ds_import_depr_group_arc does not exist or drop table priv not granted.');
12:15:11   6  end;
12:15:11   7  /
Table ds_import_depr_group_arc does not exist or drop table priv not granted.   

PL/SQL procedure successfully completed.

12:15:11 hopplant> 
12:15:11 hopplant> ----ds_import_plant
12:15:11 hopplant> create table ds_import_plant
12:15:11   2  (
12:15:11   3  	import_run_id		  NUMBER(22,0) not null,
12:15:11   4  	line_id 		  NUMBER(22,0) not null,
12:15:11   5  	time_stamp		  DATE,
12:15:11   6  	user_id 		  VARCHAR2(18),
12:15:11   7  	ds_trans_id		  NUMBER(22,0),
12:15:11   8  	ds_data_account_xlate	  VARCHAR2(254),
12:15:11   9  	ds_data_account_id	  NUMBER(22,0),
12:15:11  10  	company_xlate		  VARCHAR2(254),
12:15:11  11  	company_id		  NUMBER(22,0),
12:15:11  12  	analysis_trans_xlate	  VARCHAR2(254),
12:15:11  13  	analysis_trans_id	  NUMBER(22,0),
12:15:11  14  	vintage 		  VARCHAR2(35),
12:15:11  15  	activity_year		  VARCHAR2(35),
12:15:11  16  	adjustment_year 	  VARCHAR2(35),
12:15:11  17  	effective_date		  DATE,
12:15:11  18  	amount			  VARCHAR2(35),
12:15:11  19  	sum_factor		  NUMBER(22,8),
12:15:11  20  	final_amount		  NUMBER(22,2),
12:15:11  21  	quantity		  VARCHAR2(35),
12:15:11  22  	transaction_input_type_id NUMBER(22,0),
12:15:11  23  	description		  VARCHAR2(254),
12:15:11  24  	set_of_books_id 	  NUMBER(22,0),
12:15:11  25  	set_of_books_id_xlate	  VARCHAR2(254),
12:15:11  26  	is_modified		  NUMBER(22,0),
12:15:11  27  	error_message		  VARCHAR2(4000)
12:15:11  28  );

Table created.

12:15:11 hopplant> 
12:15:11 hopplant> comment on table ds_import_plant is '(O and C) [05] The DS Import Plant table is a staging table into which data from a run of the DS Import Plant process is loaded and, then, processed.  Once the import process completes successfully, the data for a successful run is moved to the DS Import Plant Archive table.';

Comment created.

12:15:11 hopplant> comment on column ds_import_plant.import_run_id is 'System-assigned identifier of an import run occurrence.';

Comment created.

12:15:11 hopplant> comment on column ds_import_plant.line_id is 'Line number corresponding to the row of this data in the original import file.';

Comment created.

12:15:12 hopplant> comment on column ds_import_plant.time_stamp is 'Standard system-assigned timestamp used for audit purposes.';

Comment created.

12:15:12 hopplant> comment on column ds_import_plant.user_id is 'Standard system-assigned user id used for audit purposes.';

Comment created.

12:15:12 hopplant> comment on column ds_import_plant.ds_trans_id is 'Unique identifier for final table DS data transaction.  Populated with the pwrplant1.nextval sequence during import processing.';

Comment created.

12:15:12 hopplant> comment on column ds_import_plant.ds_data_account_xlate is 'Field provided by the user on the import file used to translate ds data account id.';

Comment created.

12:15:12 hopplant> comment on column ds_import_plant.ds_data_account_id is 'System-assigned identifier of the ds data account.';

Comment created.

12:15:12 hopplant> comment on column ds_import_plant.company_xlate is 'Field provided by the user on the import file used to translate company id.';

Comment created.

12:15:12 hopplant> comment on column ds_import_plant.company_id is 'System-assigned identifier of a company.';

Comment created.

12:15:12 hopplant> comment on column ds_import_plant.analysis_trans_xlate is 'Field provided by the user on the import file used to translate analysis trans id';

Comment created.

12:15:12 hopplant> comment on column ds_import_plant.analysis_trans_id is 'System-assigned identifier of an analysis transaction code.';

Comment created.

12:15:12 hopplant> comment on column ds_import_plant.vintage is 'Vintage of the plant transaction';

Comment created.

12:15:12 hopplant> comment on column ds_import_plant.activity_year is 'Activity year of the plant transaction';

Comment created.

12:15:12 hopplant> comment on column ds_import_plant.adjustment_year is 'Adjustment year of the plant transaction';

Comment created.

12:15:12 hopplant> comment on column ds_import_plant.effective_date is 'Effective date of the plant transaction.  Calculated as June of the activity year.';

Comment created.

12:15:12 hopplant> comment on column ds_import_plant.amount is 'Amount imported from file.';

Comment created.

12:15:12 hopplant> comment on column ds_import_plant.sum_factor is 'Sum factor populated from the analysis transaction code.';

Comment created.

12:15:12 hopplant> comment on column ds_import_plant.final_amount is 'Amount imported from file times the sum factor field from the corresponding analysis transaction code.';

Comment created.

12:15:12 hopplant> comment on column ds_import_plant.quantity is 'Quantity imported from file.';

Comment created.

12:15:12 hopplant> comment on column ds_import_plant.transaction_input_type_id is 'System-assigned identifier of the transaction input type.  Set to 2/"External" during import processing.';

Comment created.

12:15:12 hopplant> comment on column ds_import_plant.description is 'Description of the transaction being imported.';

Comment created.

12:15:12 hopplant> comment on column ds_import_plant.set_of_books_id is 'System-assigned identifier of a set of books.';

Comment created.

12:15:12 hopplant> comment on column ds_import_plant.set_of_books_id_xlate is 'Field provided by the user on the import file used to translate set of books id';

Comment created.

12:15:12 hopplant> comment on column ds_import_plant.is_modified is 'Yes (1) / No (0) switch indicating if the data for this record has been changed in the file, compared to what is currently in the database.';

Comment created.

12:15:12 hopplant> comment on column ds_import_plant.error_message is 'Error message encountered while importing / translating / loading this row of data during the import process.';

Comment created.

12:15:12 hopplant> 
12:15:12 hopplant> alter table ds_import_plant
12:15:12   2  	add constraint ds_import_plant_pk primary key (IMPORT_RUN_ID, LINE_ID)
12:15:12   3  	using index
12:15:12   4  	tablespace PWRPLANT_IDX;

Table altered.

12:15:12 hopplant> 
12:15:12 hopplant> alter table ds_import_plant
12:15:12   2  	add constraint ds_import_plant_run_fk foreign key (IMPORT_RUN_ID)
12:15:12   3  	references PP_IMPORT_RUN (IMPORT_RUN_ID);

Table altered.

12:15:12 hopplant> 
12:15:12 hopplant> ----ds_import_plant_arc
12:15:12 hopplant> create table ds_import_plant_arc
12:15:12   2  (
12:15:12   3  	import_run_id		  NUMBER(22,0) not null,
12:15:12   4  	line_id 		  NUMBER(22,0) not null,
12:15:12   5  	time_stamp		  DATE,
12:15:12   6  	user_id 		  VARCHAR2(18),
12:15:12   7  	ds_trans_id		  NUMBER(22,0),
12:15:12   8  	ds_data_account_xlate	  VARCHAR2(254),
12:15:12   9  	ds_data_account_id	  NUMBER(22,0),
12:15:12  10  	company_xlate		  VARCHAR2(254),
12:15:12  11  	company_id		  NUMBER(22,0),
12:15:12  12  	analysis_trans_xlate	  VARCHAR2(254),
12:15:12  13  	analysis_trans_id	  NUMBER(22,0),
12:15:12  14  	vintage 		  VARCHAR2(35),
12:15:12  15  	activity_year		  VARCHAR2(35),
12:15:12  16  	adjustment_year 	  VARCHAR2(35),
12:15:12  17  	effective_date		  DATE,
12:15:12  18  	amount			  VARCHAR2(35),
12:15:12  19  	sum_factor		  NUMBER(22,8),
12:15:12  20  	final_amount		  NUMBER(22,2),
12:15:12  21  	quantity		  VARCHAR2(35),
12:15:12  22  	transaction_input_type_id NUMBER(22,0),
12:15:12  23  	description		  VARCHAR2(254),
12:15:12  24  	set_of_books_id 	  NUMBER(22,0),
12:15:12  25  	set_of_books_id_xlate	  VARCHAR2(254),
12:15:12  26  	is_modified		  NUMBER(22,0)
12:15:12  27  );

Table created.

12:15:12 hopplant> 
12:15:12 hopplant> comment on table ds_import_plant_arc is '(O and C) [05] The DS Import Plant Archive is where run data of the DS Import Plant process is archived.';

Comment created.

12:15:12 hopplant> comment on column ds_import_plant_arc.import_run_id is 'System-assigned identifier of an import run occurrence.';

Comment created.

12:15:12 hopplant> comment on column ds_import_plant_arc.line_id is 'Line number corresponding to the row of this data in the original import file.';

Comment created.

12:15:12 hopplant> comment on column ds_import_plant_arc.time_stamp is 'Standard system-assigned timestamp used for audit purposes.';

Comment created.

12:15:12 hopplant> comment on column ds_import_plant_arc.user_id is 'Standard system-assigned user id used for audit purposes.';

Comment created.

12:15:12 hopplant> comment on column ds_import_plant_arc.ds_trans_id is 'Unique identifier for final table DS data transaction.  Populated with the pwrplant1.nextval sequence during import processing.';

Comment created.

12:15:12 hopplant> comment on column ds_import_plant_arc.ds_data_account_xlate is 'Field provided by the user on the import file used to translate ds data account id.';

Comment created.

12:15:12 hopplant> comment on column ds_import_plant_arc.ds_data_account_id is 'System-assigned identifier of the ds data account.';

Comment created.

12:15:12 hopplant> comment on column ds_import_plant_arc.company_xlate is 'Field provided by the user on the import file used to translate company id.';

Comment created.

12:15:12 hopplant> comment on column ds_import_plant_arc.company_id is 'System-assigned identifier of a company.';

Comment created.

12:15:12 hopplant> comment on column ds_import_plant_arc.analysis_trans_xlate is 'Field provided by the user on the import file used to translate analysis trans id';

Comment created.

12:15:13 hopplant> comment on column ds_import_plant_arc.analysis_trans_id is 'System-assigned identifier of an analysis transaction code.';

Comment created.

12:15:13 hopplant> comment on column ds_import_plant_arc.vintage is 'Vintage of the plant transaction';

Comment created.

12:15:13 hopplant> comment on column ds_import_plant_arc.activity_year is 'Activity year of the plant transaction';

Comment created.

12:15:13 hopplant> comment on column ds_import_plant_arc.adjustment_year is 'Adjustment year of the plant transaction';

Comment created.

12:15:13 hopplant> comment on column ds_import_plant_arc.effective_date is 'Effective date of the plant transaction.  Calculated as June of the activity year.';

Comment created.

12:15:13 hopplant> comment on column ds_import_plant_arc.amount is 'Amount imported from file.';

Comment created.

12:15:13 hopplant> comment on column ds_import_plant_arc.sum_factor is 'Sum factor populated from the analysis transaction code.';

Comment created.

12:15:13 hopplant> comment on column ds_import_plant_arc.final_amount is 'Amount imported from file times the sum factor field from the corresponding analysis transaction code.';

Comment created.

12:15:13 hopplant> comment on column ds_import_plant_arc.quantity is 'Quantity imported from file.';

Comment created.

12:15:13 hopplant> comment on column ds_import_plant_arc.transaction_input_type_id is 'System-assigned identifier of the transaction input type.  Set to 2/"External" during import processing.';

Comment created.

12:15:13 hopplant> comment on column ds_import_plant_arc.description is 'Description of the transaction being imported.';

Comment created.

12:15:13 hopplant> comment on column ds_import_plant_arc.set_of_books_id is 'System-assigned identifier of a set of books.';

Comment created.

12:15:13 hopplant> comment on column ds_import_plant_arc.set_of_books_id_xlate is 'Field provided by the user on the import file used to translate set of books id';

Comment created.

12:15:13 hopplant> comment on column ds_import_plant_arc.is_modified is 'Yes (1) / No (0) switch indicating if the data for this record has been changed in the file, compared to what is currently in the database.';

Comment created.

12:15:13 hopplant> 
12:15:13 hopplant> alter table ds_import_plant_arc
12:15:13   2  	add constraint ds_import_plant_arc_pk primary key (IMPORT_RUN_ID, LINE_ID)
12:15:13   3  	using index
12:15:13   4  	tablespace PWRPLANT_IDX;

Table altered.

12:15:13 hopplant> 
12:15:13 hopplant> alter table ds_import_plant_arc
12:15:13   2  	add constraint ds_import_plant_run_arc_fk foreign key (IMPORT_RUN_ID)
12:15:13   3  	references PP_IMPORT_RUN (IMPORT_RUN_ID);

Table altered.

12:15:13 hopplant> 
12:15:13 hopplant> ----ds_import_reserve
12:15:13 hopplant> create table ds_import_reserve
12:15:13   2  (
12:15:13   3  	import_run_id		  NUMBER(22,0) not null,
12:15:13   4  	line_id 		  NUMBER(22,0) not null,
12:15:13   5  	time_stamp		  DATE,
12:15:13   6  	user_id 		  VARCHAR2(18),
12:15:13   7  	ds_trans_id		  NUMBER(22,0),
12:15:13   8  	depr_group_xlate	  VARCHAR2(254),
12:15:13   9  	depr_group_id		  NUMBER(22,0),
12:15:13  10  	company_xlate		  VARCHAR2(254),
12:15:13  11  	company_id		  NUMBER(22,0),
12:15:13  12  	analysis_trans_xlate	  VARCHAR2(254),
12:15:13  13  	analysis_trans_id	  NUMBER(22,0),
12:15:13  14  	activity_year		  VARCHAR2(35),
12:15:13  15  	effective_date		  DATE,
12:15:13  16  	amount			  VARCHAR2(35),
12:15:13  17  	quantity		  VARCHAR2(35),
12:15:13  18  	transaction_input_type_id NUMBER(22,0),
12:15:13  19  	description		  VARCHAR2(254),
12:15:13  20  	set_of_books_id 	  NUMBER(22,0),
12:15:13  21  	set_of_books_id_xlate	  VARCHAR2(254),
12:15:13  22  	is_modified		  NUMBER(22,0),
12:15:13  23  	error_message		  VARCHAR2(4000)
12:15:13  24  );

Table created.

12:15:13 hopplant> 
12:15:13 hopplant> comment on table ds_import_reserve is '(O and C) [05] The DS Import Reserve table is a staging table into which data from a run of the DS Import Plant process is loaded and, then, processed.  Once the import process completes successfully, the data for a successful run is moved to the DS Import Reserve Archive table.';

Comment created.

12:15:13 hopplant> comment on column ds_import_reserve.import_run_id is 'System-assigned identifier of an import run occurrence.';

Comment created.

12:15:13 hopplant> comment on column ds_import_reserve.line_id is 'Line number corresponding to the row of this data in the original import file.';

Comment created.

12:15:13 hopplant> comment on column ds_import_reserve.time_stamp is 'Standard system-assigned timestamp used for audit purposes.';

Comment created.

12:15:13 hopplant> comment on column ds_import_reserve.user_id is 'Standard system-assigned user id used for audit purposes.';

Comment created.

12:15:13 hopplant> comment on column ds_import_reserve.ds_trans_id is 'Unique identifier for final table DS data transaction.  Populated with the pwrplant1.nextval sequence during import processing.';

Comment created.

12:15:13 hopplant> comment on column ds_import_reserve.depr_group_xlate is 'Field provided by the user on the import file used to translate depr group.';

Comment created.

12:15:13 hopplant> comment on column ds_import_reserve.depr_group_id is 'System-assigned identifier of the depr group.';

Comment created.

12:15:13 hopplant> comment on column ds_import_reserve.company_xlate is 'Field provided by the user on the import file used to translate company id.';

Comment created.

12:15:13 hopplant> comment on column ds_import_reserve.company_id is 'System-assigned identifier of a company.';

Comment created.

12:15:13 hopplant> comment on column ds_import_reserve.analysis_trans_xlate is 'Field provided by the user on the import file used to translate analysis trans id';

Comment created.

12:15:13 hopplant> comment on column ds_import_reserve.analysis_trans_id is 'System-assigned identifier of an analysis transaction code.';

Comment created.

12:15:13 hopplant> comment on column ds_import_reserve.activity_year is 'Activity year of the reserve transaction';

Comment created.

12:15:13 hopplant> comment on column ds_import_reserve.effective_date is 'Effective date of the plant transaction.  Calculated as June of the activity year.';

Comment created.

12:15:13 hopplant> comment on column ds_import_reserve.amount is 'Amount imported from file.';

Comment created.

12:15:13 hopplant> comment on column ds_import_reserve.quantity is 'Quantity imported from file.';

Comment created.

12:15:13 hopplant> comment on column ds_import_reserve.transaction_input_type_id is 'System-assigned identifier of the transaction input type.	Set to 2/"External" during import processing.';

Comment created.

12:15:13 hopplant> comment on column ds_import_reserve.description is 'Description of the transaction being imported.';

Comment created.

12:15:13 hopplant> comment on column ds_import_reserve.set_of_books_id is 'System-assigned identifier of a set of books.';

Comment created.

12:15:13 hopplant> comment on column ds_import_reserve.set_of_books_id_xlate is 'Field provided by the user on the import file used to translate set of books id';

Comment created.

12:15:13 hopplant> comment on column ds_import_reserve.is_modified is 'Yes (1) / No (0) switch indicating if the data for this record has been changed in the file, compared to what is currently in the database.';

Comment created.

12:15:13 hopplant> comment on column ds_import_reserve.error_message is 'Error message encountered while importing / translating / loading this row of data during the import process.';

Comment created.

12:15:13 hopplant> 
12:15:13 hopplant> alter table ds_import_reserve
12:15:13   2  	add constraint ds_import_reserve_pk primary key (IMPORT_RUN_ID, LINE_ID)
12:15:13   3  	using index
12:15:13   4  	tablespace PWRPLANT_IDX;

Table altered.

12:15:14 hopplant> 
12:15:14 hopplant> alter table ds_import_reserve
12:15:14   2  	add constraint ds_import_reserve_run_fk foreign key (IMPORT_RUN_ID)
12:15:14   3  	references PP_IMPORT_RUN (IMPORT_RUN_ID);

Table altered.

12:15:14 hopplant> 
12:15:14 hopplant> ----ds_import_reserve_arc
12:15:14 hopplant> create table ds_import_reserve_arc
12:15:14   2  (
12:15:14   3  	import_run_id		  NUMBER(22,0) not null,
12:15:14   4  	line_id 		  NUMBER(22,0) not null,
12:15:14   5  	time_stamp		  DATE,
12:15:14   6  	user_id 		  VARCHAR2(18),
12:15:14   7  	ds_trans_id		  NUMBER(22,0),
12:15:14   8  	depr_group_xlate	  VARCHAR2(254),
12:15:14   9  	depr_group_id		  NUMBER(22,0),
12:15:14  10  	company_xlate		  VARCHAR2(254),
12:15:14  11  	company_id		  NUMBER(22,0),
12:15:14  12  	analysis_trans_xlate	  VARCHAR2(254),
12:15:14  13  	analysis_trans_id	  NUMBER(22,0),
12:15:14  14  	activity_year		  VARCHAR2(35),
12:15:14  15  	effective_date		  DATE,
12:15:14  16  	amount			  VARCHAR2(35),
12:15:14  17  	quantity		  VARCHAR2(35),
12:15:14  18  	transaction_input_type_id NUMBER(22,0),
12:15:14  19  	description		  VARCHAR2(254),
12:15:14  20  	set_of_books_id 	  NUMBER(22,0),
12:15:14  21  	set_of_books_id_xlate	  VARCHAR2(254),
12:15:14  22  	is_modified		  NUMBER(22,0)
12:15:14  23  );

Table created.

12:15:14 hopplant> 
12:15:14 hopplant> comment on table ds_import_reserve_arc is '(O and C) [05] The DS Import Reserve Archive table is where run data of the DS Import Reserve process is archived.';

Comment created.

12:15:14 hopplant> comment on column ds_import_reserve_arc.import_run_id is 'System-assigned identifier of an import run occurrence.';

Comment created.

12:15:14 hopplant> comment on column ds_import_reserve_arc.line_id is 'Line number corresponding to the row of this data in the original import file.';

Comment created.

12:15:14 hopplant> comment on column ds_import_reserve_arc.time_stamp is 'Standard system-assigned timestamp used for audit purposes.';

Comment created.

12:15:14 hopplant> comment on column ds_import_reserve_arc.user_id is 'Standard system-assigned user id used for audit purposes.';

Comment created.

12:15:14 hopplant> comment on column ds_import_reserve_arc.ds_trans_id is 'Unique identifier for final table DS data transaction.  Populated with the pwrplant1.nextval sequence during import processing.';

Comment created.

12:15:14 hopplant> comment on column ds_import_reserve_arc.depr_group_xlate is 'Field provided by the user on the import file used to translate depr group.';

Comment created.

12:15:14 hopplant> comment on column ds_import_reserve_arc.depr_group_id is 'System-assigned identifier of the depr group.';

Comment created.

12:15:14 hopplant> comment on column ds_import_reserve_arc.company_xlate is 'Field provided by the user on the import file used to translate company id.';

Comment created.

12:15:14 hopplant> comment on column ds_import_reserve_arc.company_id is 'System-assigned identifier of a company.';

Comment created.

12:15:14 hopplant> comment on column ds_import_reserve_arc.analysis_trans_xlate is 'Field provided by the user on the import file used to translate analysis trans id';

Comment created.

12:15:14 hopplant> comment on column ds_import_reserve_arc.analysis_trans_id is 'System-assigned identifier of an analysis transaction code.';

Comment created.

12:15:14 hopplant> comment on column ds_import_reserve_arc.activity_year is 'Activity year of the reserve transaction';

Comment created.

12:15:14 hopplant> comment on column ds_import_reserve_arc.effective_date is 'Effective date of the plant transaction.	Calculated as June of the activity year.';

Comment created.

12:15:14 hopplant> comment on column ds_import_reserve_arc.amount is 'Amount imported from file.';

Comment created.

12:15:14 hopplant> comment on column ds_import_reserve_arc.quantity is 'Quantity imported from file.';

Comment created.

12:15:14 hopplant> comment on column ds_import_reserve_arc.transaction_input_type_id is 'System-assigned identifier of the transaction input type.  Set to 2/"External" during import processing.';

Comment created.

12:15:14 hopplant> comment on column ds_import_reserve_arc.description is 'Description of the transaction being imported.';

Comment created.

12:15:14 hopplant> comment on column ds_import_reserve_arc.set_of_books_id is 'System-assigned identifier of a set of books.';

Comment created.

12:15:14 hopplant> comment on column ds_import_reserve_arc.set_of_books_id_xlate is 'Field provided by the user on the import file used to translate set of books id';

Comment created.

12:15:14 hopplant> comment on column ds_import_reserve_arc.is_modified is 'Yes (1) / No (0) switch indicating if the data for this record has been changed in the file, compared to what is currently in the database.';

Comment created.

12:15:14 hopplant> 
12:15:14 hopplant> alter table ds_import_reserve_arc
12:15:14   2  	add constraint ds_import_reserve_arc_pk primary key (IMPORT_RUN_ID, LINE_ID)
12:15:14   3  	using index
12:15:14   4  	tablespace PWRPLANT_IDX;

Table altered.

12:15:14 hopplant> 
12:15:14 hopplant> alter table ds_import_reserve_arc
12:15:14   2  	add constraint ds_import_reserve_arc_run_fk foreign key (IMPORT_RUN_ID)
12:15:14   3  	references PP_IMPORT_RUN (IMPORT_RUN_ID);

Table altered.

12:15:14 hopplant> 
12:15:14 hopplant> ----ds_import_data_account
12:15:14 hopplant> create table ds_import_data_account
12:15:14   2  (
12:15:14   3  	import_run_id		  NUMBER(22,0) not null,
12:15:14   4  	line_id 		  NUMBER(22,0) not null,
12:15:14   5  	time_stamp		  DATE,
12:15:14   6  	user_id 		  VARCHAR2(18),
12:15:14   7  	ds_data_account_xlate	  VARCHAR2(254),
12:15:14   8  	ds_data_account_id	  NUMBER(22,0),
12:15:14   9  	company_xlate		  VARCHAR2(254),
12:15:14  10  	company_id		  NUMBER(22,0),
12:15:14  11  	data_account_class_id	  NUMBER(22,0),
12:15:14  12  	description		  VARCHAR2(254),
12:15:14  13  	long_description	  VARCHAR2(254),
12:15:14  14  	status_code_id		  NUMBER(22,0),
12:15:14  15  	status_code_xlate	  VARCHAR2(254),
12:15:14  16  	is_modified		  NUMBER(22,0),
12:15:14  17  	error_message		  VARCHAR2(4000)
12:15:14  18  );

Table created.

12:15:14 hopplant> 
12:15:14 hopplant> comment on table ds_import_data_account is '(O and C) [05] The DS Import Data Account table is a staging table into which data from a run of the DS Import Data Account process is loaded and, then, processed.  Once the import process completes successfully, the data for a successful run is moved to the DS Import Data Account Archive table.';

Comment created.

12:15:14 hopplant> comment on column ds_import_data_account.import_run_id is 'System-assigned identifier of an import run occurrence.';

Comment created.

12:15:14 hopplant> comment on column ds_import_data_account.line_id is 'Line number corresponding to the row of this data in the original import file.';

Comment created.

12:15:14 hopplant> comment on column ds_import_data_account.time_stamp is 'Standard system-assigned timestamp used for audit purposes.';

Comment created.

12:15:14 hopplant> comment on column ds_import_data_account.user_id is 'Standard system-assigned user id used for audit purposes.';

Comment created.

12:15:14 hopplant> comment on column ds_import_data_account.ds_data_account_xlate is 'Field provided by the user on the import file used to translate ds data account id.';

Comment created.

12:15:14 hopplant> comment on column ds_import_data_account.ds_data_account_id is 'System-assigned identifier of the ds data account.';

Comment created.

12:15:14 hopplant> comment on column ds_import_data_account.company_xlate is 'Field provided by the user on the import file used to translate company id.';

Comment created.

12:15:14 hopplant> comment on column ds_import_data_account.company_id is 'System-assigned identifier of a company.';

Comment created.

12:15:14 hopplant> comment on column ds_import_data_account.data_account_class_id is 'System-assigned identifier of a ds data account class.  Automatically set to be -1 (Default).';

Comment created.

12:15:14 hopplant> comment on column ds_import_data_account.description is 'Description of the ds data account being imported.';

Comment created.

12:15:14 hopplant> comment on column ds_import_data_account.long_description is 'Long Description of the ds data account being imported.';

Comment created.

12:15:14 hopplant> comment on column ds_import_data_account.status_code_id is 'System-assigned identifier of a status code.';

Comment created.

12:15:14 hopplant> comment on column ds_import_data_account.status_code_xlate is 'Field provided by the user on the import file used to translate status code.';

Comment created.

12:15:15 hopplant> comment on column ds_import_data_account.is_modified is 'Yes (1) / No (0) switch indicating if the data for this record has been changed in the file, compared to what is currently in the database.';

Comment created.

12:15:15 hopplant> comment on column ds_import_data_account.error_message is 'Error message encountered while importing / translating / loading this row of data during the import process.';

Comment created.

12:15:15 hopplant> 
12:15:15 hopplant> alter table ds_import_data_account
12:15:15   2  	add constraint ds_import_data_account_pk primary key (IMPORT_RUN_ID, LINE_ID)
12:15:15   3  	using index
12:15:15   4  	tablespace PWRPLANT_IDX;

Table altered.

12:15:15 hopplant> 
12:15:15 hopplant> alter table ds_import_data_account
12:15:15   2  	add constraint ds_import_data_account_run_fk foreign key (IMPORT_RUN_ID)
12:15:15   3  	references PP_IMPORT_RUN (IMPORT_RUN_ID);

Table altered.

12:15:15 hopplant> 
12:15:15 hopplant> 
12:15:15 hopplant> ----ds_import_data_account_arc
12:15:15 hopplant> create table ds_import_data_account_arc
12:15:15   2  (
12:15:15   3  	import_run_id		  NUMBER(22,0) not null,
12:15:15   4  	line_id 		  NUMBER(22,0) not null,
12:15:15   5  	time_stamp		  DATE,
12:15:15   6  	user_id 		  VARCHAR2(18),
12:15:15   7  	ds_data_account_xlate	  VARCHAR2(254),
12:15:15   8  	ds_data_account_id	  NUMBER(22,0),
12:15:15   9  	company_xlate		  VARCHAR2(254),
12:15:15  10  	company_id		  NUMBER(22,0),
12:15:15  11  	data_account_class_id	  NUMBER(22,0),
12:15:15  12  	description		  VARCHAR2(254),
12:15:15  13  	long_description	  VARCHAR2(254),
12:15:15  14  	status_code_id		  NUMBER(22,0),
12:15:15  15  	status_code_xlate	  VARCHAR2(254),
12:15:15  16  	is_modified		  NUMBER(22,0)
12:15:15  17  );

Table created.

12:15:15 hopplant> 
12:15:15 hopplant> comment on table ds_import_data_account_arc is '(O and C) [05] The DS Import Data Account Archive table is where run data of the DS Import Data Account process is archived.';

Comment created.

12:15:15 hopplant> comment on column ds_import_data_account_arc.import_run_id is 'System-assigned identifier of an import run occurrence.';

Comment created.

12:15:15 hopplant> comment on column ds_import_data_account_arc.line_id is 'Line number corresponding to the row of this data in the original import file.';

Comment created.

12:15:15 hopplant> comment on column ds_import_data_account_arc.time_stamp is 'Standard system-assigned timestamp used for audit purposes.';

Comment created.

12:15:15 hopplant> comment on column ds_import_data_account_arc.user_id is 'Standard system-assigned user id used for audit purposes.';

Comment created.

12:15:15 hopplant> comment on column ds_import_data_account_arc.ds_data_account_xlate is 'Field provided by the user on the import file used to translate ds data account id.';

Comment created.

12:15:15 hopplant> comment on column ds_import_data_account_arc.ds_data_account_id is 'System-assigned identifier of the ds data account.';

Comment created.

12:15:15 hopplant> comment on column ds_import_data_account_arc.company_xlate is 'Field provided by the user on the import file used to translate company id.';

Comment created.

12:15:15 hopplant> comment on column ds_import_data_account_arc.company_id is 'System-assigned identifier of a company.';

Comment created.

12:15:15 hopplant> comment on column ds_import_data_account_arc.data_account_class_id is 'System-assigned identifier of a ds data account class.  Automatically set to be -1 (Default).';

Comment created.

12:15:15 hopplant> comment on column ds_import_data_account_arc.description is 'Description of the ds data account being imported.';

Comment created.

12:15:15 hopplant> comment on column ds_import_data_account_arc.long_description is 'Long Description of the ds data account being imported.';

Comment created.

12:15:15 hopplant> comment on column ds_import_data_account_arc.status_code_id is 'System-assigned identifier of a status code.';

Comment created.

12:15:15 hopplant> comment on column ds_import_data_account_arc.status_code_xlate is 'Field provided by the user on the import file used to translate status code.';

Comment created.

12:15:15 hopplant> comment on column ds_import_data_account_arc.is_modified is 'Yes (1) / No (0) switch indicating if the data for this record has been changed in the file, compared to what is currently in the database.';

Comment created.

12:15:15 hopplant> 
12:15:15 hopplant> alter table ds_import_data_account_arc
12:15:15   2  	add constraint ds_import_data_account_arc_pk primary key (IMPORT_RUN_ID, LINE_ID)
12:15:15   3  	using index
12:15:15   4  	tablespace PWRPLANT_IDX;

Table altered.

12:15:15 hopplant> 
12:15:15 hopplant> alter table ds_import_data_account_arc
12:15:15   2  	add constraint ds_import_data_acct_arc_run_fk foreign key (IMPORT_RUN_ID)
12:15:15   3  	references PP_IMPORT_RUN (IMPORT_RUN_ID);

Table altered.

12:15:15 hopplant> 
12:15:15 hopplant> ----ds_import_depr_group
12:15:15 hopplant> create table ds_import_depr_group
12:15:15   2  (
12:15:15   3  	import_run_id		  NUMBER(22,0) not null,
12:15:15   4  	line_id 		  NUMBER(22,0) not null,
12:15:15   5  	time_stamp		  DATE,
12:15:15   6  	user_id 		  VARCHAR2(18),
12:15:15   7  	depr_group_xlate	  VARCHAR2(254),
12:15:15   8  	depr_group_id		  NUMBER(22,0),
12:15:15   9  	company_xlate		  VARCHAR2(254),
12:15:15  10  	company_id		  NUMBER(22,0),
12:15:15  11  	subledger_type_id	  NUMBER(22,0),
12:15:15  12  	mid_period_conv 	  NUMBER(22,0),
12:15:15  13  	mid_period_method	  VARCHAR2(254),
12:15:15  14  	description		  VARCHAR2(254),
12:15:15  15  	external_depr_code	  VARCHAR2(254),
12:15:15  16  	is_modified		  NUMBER(22,0),
12:15:15  17  	error_message		  VARCHAR2(4000)
12:15:15  18  );

Table created.

12:15:15 hopplant> 
12:15:15 hopplant> comment on table ds_import_depr_group is '(O and C) [05] The DS Import Depr Group table is a staging table into which data from a run of the DS Import Depr Group process is loaded and, then, processed.  Once the import process completes successfully, the data for a successful run is moved to the DS Import Depr Group Archive table.';

Comment created.

12:15:15 hopplant> comment on column ds_import_depr_group.import_run_id is 'System-assigned identifier of an import run occurrence.';

Comment created.

12:15:15 hopplant> comment on column ds_import_depr_group.line_id is 'Line number corresponding to the row of this data in the original import file.';

Comment created.

12:15:15 hopplant> comment on column ds_import_depr_group.time_stamp is 'Standard system-assigned timestamp used for audit purposes.';

Comment created.

12:15:15 hopplant> comment on column ds_import_depr_group.user_id is 'Standard system-assigned user id used for audit purposes.';

Comment created.

12:15:15 hopplant> comment on column ds_import_depr_group.depr_group_xlate is 'Field provided by the user on the import file used to translate depr group.';

Comment created.

12:15:15 hopplant> comment on column ds_import_depr_group.depr_group_id is 'System-assigned identifier of the depr group.';

Comment created.

12:15:15 hopplant> comment on column ds_import_depr_group.company_xlate is 'Field provided by the user on the import file used to translate company id.';

Comment created.

12:15:15 hopplant> comment on column ds_import_depr_group.company_id is 'System-assigned identifier of a company.';

Comment created.

12:15:15 hopplant> comment on column ds_import_depr_group.subledger_type_id is 'System-assigned identifier of a subledger type.  Automatically set to be 0.';

Comment created.

12:15:15 hopplant> comment on column ds_import_depr_group.mid_period_conv is 'System-assigned identifier of a mid period convention.  Automatically set to be 0.5.';

Comment created.

12:15:15 hopplant> comment on column ds_import_depr_group.mid_period_method is 'System-assigned identifier of a mid period method.  Automatically set to be "Monthly".';

Comment created.

12:15:15 hopplant> comment on column ds_import_depr_group.description is 'Description of the depr group being imported.';

Comment created.

12:15:15 hopplant> comment on column ds_import_depr_group.external_depr_code is 'External depr code of the depr group being imported.';

Comment created.

12:15:15 hopplant> comment on column ds_import_depr_group.is_modified is 'Yes (1) / No (0) switch indicating if the data for this record has been changed in the file, compared to what is currently in the database.';

Comment created.

12:15:15 hopplant> comment on column ds_import_depr_group.error_message is 'Error message encountered while importing / translating / loading this row of data during the import process.';

Comment created.

12:15:16 hopplant> 
12:15:16 hopplant> alter table ds_import_depr_group
12:15:16   2  	add constraint ds_import_depr_group_pk primary key (IMPORT_RUN_ID, LINE_ID)
12:15:16   3  	using index
12:15:16   4  	tablespace PWRPLANT_IDX;

Table altered.

12:15:16 hopplant> 
12:15:16 hopplant> alter table ds_import_depr_group
12:15:16   2  	add constraint ds_import_depr_group_run_fk foreign key (IMPORT_RUN_ID)
12:15:16   3  	references PP_IMPORT_RUN (IMPORT_RUN_ID);

Table altered.

12:15:16 hopplant> 
12:15:16 hopplant> 
12:15:16 hopplant> ----ds_import_depr_group_arc
12:15:16 hopplant> create table ds_import_depr_group_arc
12:15:16   2  (
12:15:16   3  	import_run_id		  NUMBER(22,0) not null,
12:15:16   4  	line_id 		  NUMBER(22,0) not null,
12:15:16   5  	time_stamp		  DATE,
12:15:16   6  	user_id 		  VARCHAR2(18),
12:15:16   7  	depr_group_xlate	  VARCHAR2(254),
12:15:16   8  	depr_group_id		  NUMBER(22,0),
12:15:16   9  	company_xlate		  VARCHAR2(254),
12:15:16  10  	company_id		  NUMBER(22,0),
12:15:16  11  	subledger_type_id	  NUMBER(22,0),
12:15:16  12  	mid_period_conv 	  NUMBER(22,0),
12:15:16  13  	mid_period_method	  VARCHAR2(254),
12:15:16  14  	description		  VARCHAR2(254),
12:15:16  15  	external_depr_code	  VARCHAR2(254),
12:15:16  16  	is_modified		  NUMBER(22,0)
12:15:16  17  );

Table created.

12:15:16 hopplant> 
12:15:16 hopplant> comment on table ds_import_depr_group_arc is '(O and C) [05] The DS Import Depr Group Archive table is where run data of the DS Import Depr Group process is archived.';

Comment created.

12:15:16 hopplant> comment on column ds_import_depr_group_arc.import_run_id is 'System-assigned identifier of an import run occurrence.';

Comment created.

12:15:16 hopplant> comment on column ds_import_depr_group_arc.line_id is 'Line number corresponding to the row of this data in the original import file.';

Comment created.

12:15:16 hopplant> comment on column ds_import_depr_group_arc.time_stamp is 'Standard system-assigned timestamp used for audit purposes.';

Comment created.

12:15:16 hopplant> comment on column ds_import_depr_group_arc.user_id is 'Standard system-assigned user id used for audit purposes.';

Comment created.

12:15:16 hopplant> comment on column ds_import_depr_group_arc.depr_group_xlate is 'Field provided by the user on the import file used to translate depr group.';

Comment created.

12:15:16 hopplant> comment on column ds_import_depr_group_arc.depr_group_id is 'System-assigned identifier of the depr group.';

Comment created.

12:15:16 hopplant> comment on column ds_import_depr_group_arc.company_xlate is 'Field provided by the user on the import file used to translate company id.';

Comment created.

12:15:16 hopplant> comment on column ds_import_depr_group_arc.company_id is 'System-assigned identifier of a company.';

Comment created.

12:15:16 hopplant> comment on column ds_import_depr_group_arc.subledger_type_id is 'System-assigned identifier of a subledger type.  Automatically set to be 0.';

Comment created.

12:15:16 hopplant> comment on column ds_import_depr_group_arc.mid_period_conv is 'System-assigned identifier of a mid period convention.  Automatically set to be 0.5.';

Comment created.

12:15:16 hopplant> comment on column ds_import_depr_group_arc.mid_period_method is 'System-assigned identifier of a mid period method.	Automatically set to be "Monthly".';

Comment created.

12:15:16 hopplant> comment on column ds_import_depr_group_arc.description is 'Description of the depr group being imported.';

Comment created.

12:15:16 hopplant> comment on column ds_import_depr_group_arc.external_depr_code is 'External depr code of the depr group being imported.';

Comment created.

12:15:16 hopplant> comment on column ds_import_depr_group_arc.is_modified is 'Yes (1) / No (0) switch indicating if the data for this record has been changed in the file, compared to what is currently in the database.';

Comment created.

12:15:16 hopplant> 
12:15:16 hopplant> alter table ds_import_depr_group_arc
12:15:16   2  	add constraint ds_import_depr_grp_arc_arc_pk primary key (IMPORT_RUN_ID, LINE_ID)
12:15:16   3  	using index
12:15:16   4  	tablespace PWRPLANT_IDX;

Table altered.

12:15:16 hopplant> 
12:15:16 hopplant> alter table ds_import_depr_group_arc
12:15:16   2  	add constraint ds_import_depr_grp_arc_run_fk foreign key (IMPORT_RUN_ID)
12:15:16   3  	references PP_IMPORT_RUN (IMPORT_RUN_ID);

Table altered.

12:15:16 hopplant> 
12:15:16 hopplant> 
12:15:16 hopplant> --****************************************************
12:15:16 hopplant> --Log the run of the script to local PP_SCHEMA_LOG
12:15:16 hopplant> --****************************************************
12:15:16 hopplant> INSERT INTO PP_SCHEMA_CHANGE_LOG
12:15:16   2  	      (ID, SKIPPED, MAJOR_VERSION, MINOR_VERSION, POINT_VERSION, PATCH_VERSION, MAINT_NUM, SCRIPT_PATH,
12:15:16   3  	      SCRIPT_NAME, SCRIPT_REVISION, DATE_APPLIED, OS_USER, TERMINAL, SERVICE_NAME)
12:15:16   4  VALUES
12:15:16   5  	      (2162, 0, 2015, 1, 0, 0, 41990, 'C:\PlasticWks\powerplant\sql\maint_scripts', '2015.1.0.0_maint_041990_ds_import_ddl_1.sql', 1,
12:15:16   6  	      SYSTIMESTAMP, SYS_CONTEXT('USERENV', 'OS_USER'), SYS_CONTEXT('USERENV', 'TERMINAL'),
12:15:16   7  	      SYS_CONTEXT('USERENV', 'SERVICE_NAME'));

1 row created.

12:15:16 hopplant> COMMIT;

Commit complete.

12:15:16 hopplant> SPOOL OFF
