13:39:34 hopplant> @&&PP_SCRIPT_PATH.maint_scripts\2015.2.2.0_maint_045376_lease_add_ls_summary_forecast_ddl.sql
13:39:34 hopplant> /*
13:39:34 hopplant> ||==========================================================================================
13:39:34 hopplant> || Application: PowerPlan
13:39:34 hopplant> || File Name:   maint_045376_lease_add_ls_summary_forecast_ddl.sql
13:39:34 hopplant> ||==========================================================================================
13:39:34 hopplant> || Copyright (C) 2016 by PowerPlan, Inc. All Rights Reserved.
13:39:34 hopplant> ||==========================================================================================
13:39:34 hopplant> || Version	 Date	    Revised By		 Reason for Change
13:39:34 hopplant> || ---------- ---------- -------------------  -----------------------------------------------
13:39:34 hopplant> || 2016.1	 02/04/2016 Khamchanh Sisouphanh Add Table for Summary Forecast
13:39:34 hopplant> || 2015.2.2.0 04/14/2016 David Haupt 	    Backporting to 2015.2.2
13:39:34 hopplant> ||==========================================================================================
13:39:34 hopplant> */
13:39:34 hopplant> 
13:39:34 hopplant> CREATE TABLE ls_summary_forecast (
13:39:34   2  	company_id		      NUMBER(22,0)    NOT NULL,
13:39:34   3  	revision			      NUMBER(22,0)    NOT NULL,
13:39:34   4  	set_of_books_id 	      NUMBER(22,0)    NOT NULL,
13:39:34   5  	month				      DATE		      NOT NULL,
13:39:34   6  	user_id 			      VARCHAR2(18)    NULL,
13:39:34   7  	time_stamp		      DATE		      NULL,
13:39:34   8  	type_a_expense		      NUMBER(22,0)    NOT NULL,
13:39:34   9  	type_b_expense		      NUMBER(22,0)    NOT NULL,
13:39:34  10  	residual_amount       NUMBER(22,2)    NULL,
13:39:34  11  	term_penalty	      NUMBER(22,2)    NULL,
13:39:34  12  	bpo_price	      NUMBER(22,2)    NULL,
13:39:34  13  	beg_capital_cost      NUMBER(22,2)    NULL,
13:39:34  14  	end_capital_cost      NUMBER(22,2)    NULL,
13:39:34  15  	beg_obligation	      NUMBER(22,2)    NULL,
13:39:34  16  	end_obligation	      NUMBER(22,2)    NULL,
13:39:34  17  	beg_lt_obligation     NUMBER(22,2)    NULL,
13:39:34  18  	end_lt_obligation     NUMBER(22,2)    NULL,
13:39:34  19  	interest_accrual      NUMBER(22,2)    NULL,
13:39:34  20  	principal_accrual     NUMBER(22,2)    NULL,
13:39:34  21  	interest_paid	      NUMBER(22,2)    NULL,
13:39:34  22  	principal_paid	      NUMBER(22,2)    NULL,
13:39:34  23  	executory_accrual1    NUMBER(22,2)    NULL,
13:39:34  24  	executory_accrual2    NUMBER(22,2)    NULL,
13:39:34  25  	executory_accrual3    NUMBER(22,2)    NULL,
13:39:34  26  	executory_accrual4    NUMBER(22,2)    NULL,
13:39:34  27  	executory_accrual5    NUMBER(22,2)    NULL,
13:39:34  28  	executory_accrual6    NUMBER(22,2)    NULL,
13:39:34  29  	executory_accrual7    NUMBER(22,2)    NULL,
13:39:34  30  	executory_accrual8    NUMBER(22,2)    NULL,
13:39:34  31  	executory_accrual9    NUMBER(22,2)    NULL,
13:39:34  32  	executory_accrual10   NUMBER(22,2)    NULL,
13:39:34  33  	executory_paid1       NUMBER(22,2)    NULL,
13:39:34  34  	executory_paid2       NUMBER(22,2)    NULL,
13:39:34  35  	executory_paid3       NUMBER(22,2)    NULL,
13:39:34  36  	executory_paid4       NUMBER(22,2)    NULL,
13:39:34  37  	executory_paid5       NUMBER(22,2)    NULL,
13:39:34  38  	executory_paid6       NUMBER(22,2)    NULL,
13:39:34  39  	executory_paid7       NUMBER(22,2)    NULL,
13:39:34  40  	executory_paid8       NUMBER(22,2)    NULL,
13:39:34  41  	executory_paid9       NUMBER(22,2)    NULL,
13:39:34  42  	executory_paid10      NUMBER(22,2)    NULL,
13:39:34  43  	contingent_accrual1   NUMBER(22,2)    NULL,
13:39:34  44  	contingent_accrual2   NUMBER(22,2)    NULL,
13:39:34  45  	contingent_accrual3   NUMBER(22,2)    NULL,
13:39:34  46  	contingent_accrual4   NUMBER(22,2)    NULL,
13:39:34  47  	contingent_accrual5   NUMBER(22,2)    NULL,
13:39:34  48  	contingent_accrual6   NUMBER(22,2)    NULL,
13:39:34  49  	contingent_accrual7   NUMBER(22,2)    NULL,
13:39:34  50  	contingent_accrual8   NUMBER(22,2)    NULL,
13:39:34  51  	contingent_accrual9   NUMBER(22,2)    NULL,
13:39:34  52  	contingent_accrual10  NUMBER(22,2)    NULL,
13:39:34  53  	contingent_paid1      NUMBER(22,2)    NULL,
13:39:34  54  	contingent_paid2      NUMBER(22,2)    NULL,
13:39:34  55  	contingent_paid3      NUMBER(22,2)    NULL,
13:39:34  56  	contingent_paid4      NUMBER(22,2)    NULL,
13:39:34  57  	contingent_paid5      NUMBER(22,2)    NULL,
13:39:34  58  	contingent_paid6      NUMBER(22,2)    NULL,
13:39:34  59  	contingent_paid7      NUMBER(22,2)    NULL,
13:39:34  60  	contingent_paid8      NUMBER(22,2)    NULL,
13:39:34  61  	contingent_paid9      NUMBER(22,2)    NULL,
13:39:34  62  	contingent_paid10     NUMBER(22,2)    NULL,
13:39:34  63  	current_lease_cost    NUMBER(22,2)    NULL);

Table created.

13:39:34 hopplant> 
13:39:34 hopplant> alter table ls_summary_forecast add (
13:39:34   2  constraint pk_ls_summary_forecast primary key (company_id,revision, set_of_books_id, month) using index tablespace pwrplant_idx);

Table altered.

13:39:34 hopplant> 
13:39:34 hopplant> COMMENT ON TABLE ls_summary_forecast is '(S) [06] A reporting table to show the financial outputs of lessee forecasting';

Comment created.

13:39:34 hopplant> COMMENT ON COLUMN ls_summary_forecast.type_a_expense is 'Total expense incurred for FASB Type A leases';

Comment created.

13:39:34 hopplant> COMMENT ON COLUMN ls_summary_forecast.type_b_expense is 'Total expense incurred for FASB Type B leases';

Comment created.

13:39:34 hopplant> COMMENT ON COLUMN ls_summary_forecast.company_id is 'The system assigned identifier for a company within PowerPlant';

Comment created.

13:39:34 hopplant> COMMENT ON COLUMN ls_summary_forecast.revision IS 'The revision.';

Comment created.

13:39:34 hopplant> COMMENT ON COLUMN ls_summary_forecast.set_of_books_id IS 'The internal set of books id within PowerPlant.';

Comment created.

13:39:34 hopplant> COMMENT ON COLUMN ls_summary_forecast.month IS 'The month being processed.';

Comment created.

13:39:34 hopplant> COMMENT ON COLUMN ls_summary_forecast.residual_amount IS 'The guaranteed residual amount.';

Comment created.

13:39:34 hopplant> COMMENT ON COLUMN ls_summary_forecast.term_penalty IS 'The termination penalty amount.';

Comment created.

13:39:34 hopplant> COMMENT ON COLUMN ls_summary_forecast.bpo_price IS 'The bargain purchase amount.';

Comment created.

13:39:34 hopplant> COMMENT ON COLUMN ls_summary_forecast.beg_capital_cost IS 'The capital amount.';

Comment created.

13:39:34 hopplant> COMMENT ON COLUMN ls_summary_forecast.end_capital_cost IS 'The capital amount.';

Comment created.

13:39:34 hopplant> COMMENT ON COLUMN ls_summary_forecast.beg_obligation IS 'The beginning obligation for the period.';

Comment created.

13:39:34 hopplant> COMMENT ON COLUMN ls_summary_forecast.end_obligation IS 'The ending obligation for the period.';

Comment created.

13:39:34 hopplant> COMMENT ON COLUMN ls_summary_forecast.beg_lt_obligation IS 'The beginning long term obligation for the period.';

Comment created.

13:39:34 hopplant> COMMENT ON COLUMN ls_summary_forecast.end_lt_obligation IS 'The ending long term obligation for the period.';

Comment created.

13:39:34 hopplant> COMMENT ON COLUMN ls_summary_forecast.interest_accrual IS 'The amount of interest accrued in this period .';

Comment created.

13:39:34 hopplant> COMMENT ON COLUMN ls_summary_forecast.principal_accrual IS 'The amount of principal accrued in this period.';

Comment created.

13:39:34 hopplant> COMMENT ON COLUMN ls_summary_forecast.interest_paid IS 'The amount of interest paid in this period .';

Comment created.

13:39:34 hopplant> COMMENT ON COLUMN ls_summary_forecast.principal_paid IS 'The amount of principal paid in this period. This will cause a reduction in the obligation.';

Comment created.

13:39:34 hopplant> COMMENT ON COLUMN ls_summary_forecast.executory_accrual1 IS 'The amount of executory costs accrued in this period.';

Comment created.

13:39:34 hopplant> COMMENT ON COLUMN ls_summary_forecast.executory_accrual2 IS 'The amount of executory costs accrued in this period.';

Comment created.

13:39:34 hopplant> COMMENT ON COLUMN ls_summary_forecast.executory_accrual3 IS 'The amount of executory costs accrued in this period.';

Comment created.

13:39:34 hopplant> COMMENT ON COLUMN ls_summary_forecast.executory_accrual4 IS 'The amount of executory costs accrued in this period.';

Comment created.

13:39:34 hopplant> COMMENT ON COLUMN ls_summary_forecast.executory_accrual5 IS 'The amount of executory costs accrued in this period.';

Comment created.

13:39:34 hopplant> COMMENT ON COLUMN ls_summary_forecast.executory_accrual6 IS 'The amount of executory costs accrued in this period.';

Comment created.

13:39:34 hopplant> COMMENT ON COLUMN ls_summary_forecast.executory_accrual7 IS 'The amount of executory costs accrued in this period.';

Comment created.

13:39:34 hopplant> COMMENT ON COLUMN ls_summary_forecast.executory_accrual8 IS 'The amount of executory costs accrued in this period.';

Comment created.

13:39:34 hopplant> COMMENT ON COLUMN ls_summary_forecast.executory_accrual9 IS 'The amount of executory costs accrued in this period.';

Comment created.

13:39:34 hopplant> COMMENT ON COLUMN ls_summary_forecast.executory_accrual10 IS 'The amount of executory costs accrued in this period.';

Comment created.

13:39:34 hopplant> COMMENT ON COLUMN ls_summary_forecast.executory_paid1 IS 'The executory paid amount associated with the executory bucket number 1.';

Comment created.

13:39:35 hopplant> COMMENT ON COLUMN ls_summary_forecast.executory_paid2 IS 'The executory paid amount associated with the executory bucket number 2.';

Comment created.

13:39:35 hopplant> COMMENT ON COLUMN ls_summary_forecast.executory_paid3 IS 'The executory paid amount associated with the executory bucket number 3.';

Comment created.

13:39:35 hopplant> COMMENT ON COLUMN ls_summary_forecast.executory_paid4 IS 'The executory paid amount associated with the executory bucket number 4.';

Comment created.

13:39:35 hopplant> COMMENT ON COLUMN ls_summary_forecast.executory_paid5 IS 'The executory paid amount associated with the executory bucket number 5.';

Comment created.

13:39:35 hopplant> COMMENT ON COLUMN ls_summary_forecast.executory_paid6 IS 'The executory paid amount associated with the executory bucket number 6.';

Comment created.

13:39:35 hopplant> COMMENT ON COLUMN ls_summary_forecast.executory_paid7 IS 'The executory paid amount associated with the executory bucket number 7.';

Comment created.

13:39:35 hopplant> COMMENT ON COLUMN ls_summary_forecast.executory_paid8 IS 'The executory paid amount associated with the executory bucket number 8.';

Comment created.

13:39:35 hopplant> COMMENT ON COLUMN ls_summary_forecast.executory_paid9 IS 'The executory paid amount associated with the executory bucket number 9.';

Comment created.

13:39:35 hopplant> COMMENT ON COLUMN ls_summary_forecast.executory_paid10 IS 'The executory paid amount associated with the executory bucket number 10.';

Comment created.

13:39:35 hopplant> COMMENT ON COLUMN ls_summary_forecast.contingent_accrual1 IS 'The amount of contingent costs accrued in this period.';

Comment created.

13:39:35 hopplant> COMMENT ON COLUMN ls_summary_forecast.contingent_accrual2 IS 'The amount of contingent costs accrued in this period.';

Comment created.

13:39:35 hopplant> COMMENT ON COLUMN ls_summary_forecast.contingent_accrual3 IS 'The amount of contingent costs accrued in this period.';

Comment created.

13:39:35 hopplant> COMMENT ON COLUMN ls_summary_forecast.contingent_accrual4 IS 'The amount of contingent costs accrued in this period.';

Comment created.

13:39:35 hopplant> COMMENT ON COLUMN ls_summary_forecast.contingent_accrual5 IS 'The amount of contingent costs accrued in this period.';

Comment created.

13:39:35 hopplant> COMMENT ON COLUMN ls_summary_forecast.contingent_accrual6 IS 'The amount of contingent costs accrued in this period.';

Comment created.

13:39:35 hopplant> COMMENT ON COLUMN ls_summary_forecast.contingent_accrual7 IS 'The amount of contingent costs accrued in this period.';

Comment created.

13:39:35 hopplant> COMMENT ON COLUMN ls_summary_forecast.contingent_accrual8 IS 'The amount of contingent costs accrued in this period.';

Comment created.

13:39:35 hopplant> COMMENT ON COLUMN ls_summary_forecast.contingent_accrual9 IS 'The amount of contingent costs accrued in this period.';

Comment created.

13:39:35 hopplant> COMMENT ON COLUMN ls_summary_forecast.contingent_accrual10 IS 'The amount of contingent costs accrued in this period.';

Comment created.

13:39:35 hopplant> COMMENT ON COLUMN ls_summary_forecast.contingent_paid1 IS 'The contingent paid amount associated with the contingent bucket number 1.';

Comment created.

13:39:35 hopplant> COMMENT ON COLUMN ls_summary_forecast.contingent_paid2 IS 'The contingent paid amount associated with the contingent bucket number 2.';

Comment created.

13:39:35 hopplant> COMMENT ON COLUMN ls_summary_forecast.contingent_paid3 IS 'The contingent paid amount associated with the contingent bucket number 3.';

Comment created.

13:39:35 hopplant> COMMENT ON COLUMN ls_summary_forecast.contingent_paid4 IS 'The contingent paid amount associated with the contingent bucket number 4.';

Comment created.

13:39:35 hopplant> COMMENT ON COLUMN ls_summary_forecast.contingent_paid5 IS 'The contingent paid amount associated with the contingent bucket number 5.';

Comment created.

13:39:35 hopplant> COMMENT ON COLUMN ls_summary_forecast.contingent_paid6 IS 'The contingent paid amount associated with the contingent bucket number 6.';

Comment created.

13:39:35 hopplant> COMMENT ON COLUMN ls_summary_forecast.contingent_paid7 IS 'The contingent paid amount associated with the contingent bucket number 7.';

Comment created.

13:39:35 hopplant> COMMENT ON COLUMN ls_summary_forecast.contingent_paid8 IS 'The contingent paid amount associated with the contingent bucket number 8.';

Comment created.

13:39:35 hopplant> COMMENT ON COLUMN ls_summary_forecast.contingent_paid9 IS 'The contingent paid amount associated with the contingent bucket number 9.';

Comment created.

13:39:35 hopplant> COMMENT ON COLUMN ls_summary_forecast.contingent_paid10 IS 'The contingent paid amount associated with the contingent bucket number 10.';

Comment created.

13:39:35 hopplant> COMMENT ON COLUMN ls_summary_forecast.user_id IS 'Standard system-assigned user id used for audit purposes.';

Comment created.

13:39:35 hopplant> COMMENT ON COLUMN ls_summary_forecast.time_stamp IS 'Standard system-assigned timestamp used for audit purposes.';

Comment created.

13:39:35 hopplant> COMMENT ON COLUMN ls_summary_forecast.current_lease_cost IS 'The total amount funded on the leased asset in the given month';

Comment created.

13:39:35 hopplant> 
13:39:35 hopplant> 
13:39:35 hopplant> --****************************************************
13:39:35 hopplant> --Log the run of the script to local PP_SCHEMA_LOG
13:39:35 hopplant> --****************************************************
13:39:35 hopplant> INSERT INTO PP_SCHEMA_CHANGE_LOG
13:39:35   2  	      (ID, SKIPPED, MAJOR_VERSION, MINOR_VERSION, POINT_VERSION, PATCH_VERSION, MAINT_NUM, SCRIPT_PATH,
13:39:35   3  	      SCRIPT_NAME, SCRIPT_REVISION, DATE_APPLIED, OS_USER, TERMINAL, SERVICE_NAME)
13:39:35   4  VALUES
13:39:35   5  	      (3040, 0, 2015, 2, 2, 0, 045376, 'C:\PlasticWks\powerplant\sql\maint_scripts', '2015.2.2.0_maint_045376_lease_add_ls_summary_forecast_ddl.sql', 1,
13:39:35   6  	      SYSTIMESTAMP, SYS_CONTEXT('USERENV', 'OS_USER'), SYS_CONTEXT('USERENV', 'TERMINAL'),
13:39:35   7  	      SYS_CONTEXT('USERENV', 'SERVICE_NAME'));

1 row created.

13:39:35 hopplant> COMMIT;

Commit complete.

13:39:35 hopplant> SPOOL OFF
