16:14:31 hopplant> @&&PP_SCRIPT_PATH.maint_scripts\2017.3.0.0_maint_050386_lessor_01_add_accrual_jes_dml.sql
16:14:31 hopplant> /*
16:14:31 hopplant> ||============================================================================
16:14:31 hopplant> || Application: PowerPlan
16:14:31 hopplant> || File Name: maint_050386_lessor_01_add_accrual_jes_dml.sql
16:14:31 hopplant> ||============================================================================
16:14:31 hopplant> || Copyright (C) 2018 by PowerPlan, Inc. All Rights Reserved.
16:14:31 hopplant> ||============================================================================
16:14:31 hopplant> || Version	 Date	    Revised By	   Reason for Change
16:14:31 hopplant> || ---------- ---------- -------------- ----------------------------------------
16:14:31 hopplant> || 2017.3.0.0 03/06/2018 Anand R	   Add JE trans type for Lessor Accruals
16:14:31 hopplant> ||============================================================================
16:14:31 hopplant> */
16:14:31 hopplant> 
16:14:31 hopplant> insert into JE_TRANS_TYPE (TRANS_TYPE, DESCRIPTION)
16:14:31   2  values (4010, 'Lessor Monthly Interest Accrual Debit');

1 row created.

16:14:31 hopplant> 
16:14:31 hopplant> insert into JE_TRANS_TYPE (TRANS_TYPE, DESCRIPTION)
16:14:31   2  values (4011, 'Lessor Monthly Interest Accrual Credit');

1 row created.

16:14:31 hopplant> 
16:14:31 hopplant> insert into JE_TRANS_TYPE (TRANS_TYPE, DESCRIPTION)
16:14:31   2  values (4012, 'Lessor Monthly Executory Accrual Debit');

1 row created.

16:14:31 hopplant> 
16:14:31 hopplant> insert into JE_TRANS_TYPE (TRANS_TYPE, DESCRIPTION)
16:14:31   2  values (4013, 'Lessor Monthly Executory Accrual Credit');

1 row created.

16:14:31 hopplant> 
16:14:31 hopplant> insert into JE_TRANS_TYPE (TRANS_TYPE, DESCRIPTION)
16:14:31   2  values (4014, 'Lessor Monthly Contingent Accrual Debit');

1 row created.

16:14:31 hopplant> 
16:14:31 hopplant> insert into JE_TRANS_TYPE (TRANS_TYPE, DESCRIPTION)
16:14:31   2  values (4015, 'Lessor Monthly Contingent Accrual Credit');

1 row created.

16:14:31 hopplant> 
16:14:31 hopplant> insert into JE_TRANS_TYPE (TRANS_TYPE, DESCRIPTION)
16:14:31   2  values (4016, 'Lessor Unguaranteed Residual Accretion Debit');

1 row created.

16:14:31 hopplant> 
16:14:31 hopplant> insert into JE_TRANS_TYPE (TRANS_TYPE, DESCRIPTION)
16:14:31   2  values (4017, 'Lessor Unguaranteed Residual Accretion Credit');

1 row created.

16:14:31 hopplant> 
16:14:31 hopplant> insert into JE_TRANS_TYPE (TRANS_TYPE, DESCRIPTION)
16:14:31   2  values (4056, 'Lessor Deferred Selling Profit Debit');

1 row created.

16:14:31 hopplant> 
16:14:31 hopplant> insert into JE_TRANS_TYPE (TRANS_TYPE, DESCRIPTION)
16:14:31   2  values (4057, 'Lessor Recognize Selling Profit Credit');

1 row created.

16:14:32 hopplant> 
16:14:32 hopplant> /* Add GL_JE_CODE for Lessor Accruals  */
16:14:32 hopplant> 
16:14:32 hopplant> insert into standard_journal_entries (JE_ID, GL_JE_CODE, EXTERNAL_JE_CODE, DESCRIPTION, LONG_DESCRIPTION)
16:14:32   2  values ( (select nvl((max(je_id) + 1),1) from standard_journal_entries), 'Lessor Accruals', 'Lessor Accruals', 'Lessor Accruals', 'Lessor Accruals');

1 row created.

16:14:32 hopplant> 
16:14:32 hopplant> insert into gl_je_control (PROCESS_ID, JE_ID, JE_TABLE, JE_COLUMN, DR_TABLE, DR_COLUMN, CR_TABLE, CR_COLUMN, CUSTOM_CALC, DR_ACCOUNT, CR_ACCOUNT)
16:14:32   2  values ('Lessor Accruals', (select max(je_id) from standard_journal_entries ), null, null, 'NONE', 'NONE', 'NONE', 'NONE', null, null, null);

1 row created.

16:14:32 hopplant> 
16:14:32 hopplant> 
16:14:32 hopplant> --****************************************************
16:14:32 hopplant> --Log the run of the script to local PP_SCHEMA_LOG
16:14:32 hopplant> --****************************************************
16:14:32 hopplant> INSERT INTO PP_SCHEMA_CHANGE_LOG
16:14:32   2  	      (ID, SKIPPED, MAJOR_VERSION, MINOR_VERSION, POINT_VERSION, PATCH_VERSION, MAINT_NUM, SCRIPT_PATH,
16:14:32   3  	      SCRIPT_NAME, SCRIPT_REVISION, DATE_APPLIED, OS_USER, TERMINAL, SERVICE_NAME)
16:14:32   4  VALUES
16:14:32   5  	      (4168, 0, 2017, 3, 0, 0, 50386, 'C:\PlasticWks\powerplant\sql\maint_scripts', '2017.3.0.0_maint_050386_lessor_01_add_accrual_jes_dml.sql', 1,
16:14:32   6  	      SYSTIMESTAMP, SYS_CONTEXT('USERENV', 'OS_USER'), SYS_CONTEXT('USERENV', 'TERMINAL'),
16:14:32   7  	      SYS_CONTEXT('USERENV', 'SERVICE_NAME'));

1 row created.

16:14:32 hopplant> COMMIT;

Commit complete.

16:14:32 hopplant> 
16:14:32 hopplant> SPOOL OFF
