15:49:52 hopplant> @&&PP_SCRIPT_PATH.maint_scripts\2017.1.0.0_maint_047037_lease_import_vp_var_formula_comp_amount_dml.sql
15:49:52 hopplant> /*
15:49:52 hopplant> ||============================================================================
15:49:52 hopplant> || Application: PowerPlan
15:49:52 hopplant> || File Name:   maint_047037_lease_import_vp_var_formula_comp_amount_dml.sql
15:49:52 hopplant> ||============================================================================
15:49:52 hopplant> || Copyright (C) 2017 by PowerPlan, Inc. All Rights Reserved.
15:49:52 hopplant> ||============================================================================
15:49:52 hopplant> || Version	 Date	    Revised By	     Reason for Change
15:49:52 hopplant> || ---------- ---------- ---------------- ------------------------------------
15:49:52 hopplant> || 2017.1.0.0 05/16/2017 David H	     create new import for VP variable component amounts
15:49:52 hopplant> ||============================================================================
15:49:52 hopplant> */
15:49:52 hopplant> 
15:49:52 hopplant> --Create new import type
15:49:52 hopplant> insert into pp_import_type(import_type_id, description, long_description,
15:49:52   2  	import_table_name, archive_table_name, allow_updates_on_add, delegate_object_name)
15:49:52   3  values(264, 'Add: Var Payment Variable Amounts', 'VP Variable Components Amounts Add',
15:49:52   4  	'ls_import_vp_var_comp_amt', 'ls_import_vp_var_comp_amt_arch', 1, 'nvo_ls_logic_import')
15:49:52   5  ;

1 row created.

15:49:52 hopplant> 
15:49:52 hopplant> --relate the import type to the lease subsystem
15:49:52 hopplant> insert into pp_import_type_subsystem(import_type_id, import_subsystem_id)
15:49:52   2  values(264, 8)
15:49:52   3  ;

1 row created.

15:49:52 hopplant> 
15:49:52 hopplant> --insert the columns we will need to use in the import
15:49:52 hopplant> insert into pp_import_column(import_type_id, column_name, description, import_column_name,
15:49:52   2  	is_required, processing_order, column_type, parent_table, parent_table_pk_column)
15:49:52   3  values(264, 'formula_component_id', 'Formula Component Identifier', 'formula_component_xlate',
15:49:52   4  	1, 1, 'number(22,0)', 'ls_formula_component', 'formula_component_id')
15:49:52   5  ;

1 row created.

15:49:52 hopplant> 
15:49:52 hopplant> --insert the columns we will need to use in the import
15:49:52 hopplant> insert into pp_import_column(import_type_id, column_name, description, import_column_name,
15:49:52   2  	is_required, processing_order, column_type, parent_table, parent_table_pk_column)
15:49:52   3  values(264, 'ilr_id', 'ILR Identifier', 'ilr_xlate',
15:49:52   4  	1, 1, 'number(22,0)', 'ls_asset', 'ilr_id')
15:49:52   5  ;

1 row created.

15:49:52 hopplant> 
15:49:52 hopplant> --insert the columns we will need to use in the import
15:49:52 hopplant> insert into pp_import_column(import_type_id, column_name, description, import_column_name,
15:49:52   2  	is_required, processing_order, column_type, parent_table, parent_table_pk_column)
15:49:52   3  values(264, 'ls_asset_id', 'LS Asset Identifier', 'ls_asset_xlate',
15:49:52   4  	1, 1, 'number(22,0)', 'ls_asset', 'ls_asset_id')
15:49:52   5  ;

1 row created.

15:49:52 hopplant> 
15:49:52 hopplant> insert into pp_import_column(import_type_id, column_name, description, import_column_name,
15:49:52   2  	is_required, processing_order, column_type, parent_table, parent_table_pk_column)
15:49:52   3  values(264, 'incurred_month_number', 'Month', NULL,
15:49:52   4  	1, 1, 'number(6,0)', NULL, NULL)
15:49:52   5  ;

1 row created.

15:49:52 hopplant> 
15:49:52 hopplant> insert into pp_import_column(import_type_id, column_name, description, import_column_name,
15:49:52   2  	is_required, processing_order, column_type, parent_table, parent_table_pk_column)
15:49:52   3  values(264, 'amount', 'Amount', NULL,
15:49:52   4  	0, 1, 'number(28,8)', NULL, NULL)
15:49:52   5  ;

1 row created.

15:49:52 hopplant> 
15:49:52 hopplant> --add the new lookup for ILR ID into the database
15:49:52 hopplant> insert into pp_import_lookup(import_lookup_id, description, long_description,
15:49:52   2  	column_name, lookup_sql,
15:49:52   3  	is_derived, lookup_table_name, lookup_column_name)
15:49:52   4  values(2505, 'LS_ILR.ILR_Number', 'The passed in value corresponds to ILR Number field',
15:49:52   5  	'ilr_id', '( select b.ilr_id from ls_ilr b where upper( trim( <importfield> ) ) = upper( trim( b.ilr_number ) ) )',
15:49:52   6  	0, 'ls_ilr', 'ilr_number')
15:49:52   7  ;

1 row created.

15:49:52 hopplant> 
15:49:52 hopplant> --add the new lookup for LS Asset ID into the database
15:49:52 hopplant> insert into pp_import_lookup(import_lookup_id, description, long_description,
15:49:52   2  	column_name, lookup_sql,
15:49:52   3  	is_derived, lookup_table_name, lookup_column_name)
15:49:52   4  values(2506, 'LS_Asset.Leased_Asset_Number', 'The passed in value corresponds to Leased Asset Number field',
15:49:52   5  	'ls_asset_id', '( select b.ls_asset_id from ls_asset b where upper( trim( <importfield> ) ) = upper( trim( b.leased_asset_number ) ) )',
15:49:52   6  	0, 'ls_asset', 'leased_asset_number')
15:49:52   7  ;

1 row created.

15:49:52 hopplant> 
15:49:52 hopplant> --associate the column in the import with the lookup translation
15:49:52 hopplant> insert into pp_import_column_lookup(import_type_id, column_name, import_lookup_id)
15:49:52   2  values(264, 'formula_component_id', 2504);

1 row created.

15:49:52 hopplant> 
15:49:52 hopplant> insert into pp_import_column_lookup(import_type_id, column_name, import_lookup_id)
15:49:52   2  values(264, 'ilr_id', 2505);

1 row created.

15:49:52 hopplant> 
15:49:52 hopplant> insert into pp_import_column_lookup(import_type_id, column_name, import_lookup_id)
15:49:52   2  values(264, 'ls_asset_id', 2506);

1 row created.

15:49:52 hopplant> 
15:49:52 hopplant> --add the import template (based on max ID + 1) and the fields for the template
15:49:52 hopplant> declare
15:49:52   2  	templateID number ;
15:49:52   3  begin
15:49:52   4  	templateID := pp_import_template_seq.nextval;
15:49:52   5  	--add the specific template into the DB
15:49:52   6  	insert into pp_import_template(import_template_id, import_type_id, description,
15:49:52   7  	  long_description, created_by, created_date, do_update_with_add)
15:49:52   8  	 values( templateID, 264, 'VP Var Component Amounts Add',
15:49:52   9  	  'VP Var Component Amounts Add', 'PWRPLANT', SYSDATE, 1
15:49:52  10  	);
15:49:52  11  
15:49:52  12  	--add the fields for the template into the DB
15:49:52  13  	insert into pp_import_template_fields(import_template_id, field_id, import_type_id, column_name, import_lookup_id)
15:49:52  14  	values(templateID, 1, 264, 'formula_component_id', 2504)
15:49:52  15  	;
15:49:52  16  
15:49:52  17  	insert into pp_import_template_fields(import_template_id, field_id, import_type_id, column_name, import_lookup_id)
15:49:52  18  	values(templateID, 2, 264, 'ilr_id', 2505)
15:49:52  19  	;
15:49:52  20  
15:49:52  21  	insert into pp_import_template_fields(import_template_id, field_id, import_type_id, column_name, import_lookup_id)
15:49:52  22  	values(templateID, 3, 264, 'ls_asset_id', 2506)
15:49:52  23  	;
15:49:52  24  
15:49:52  25  	insert into pp_import_template_fields(import_template_id, field_id, import_type_id, column_name, import_lookup_id)
15:49:52  26  	values(templateID, 4, 264, 'incurred_month_number', NULL)
15:49:52  27  	;
15:49:52  28  
15:49:52  29  	insert into pp_import_template_fields(import_template_id, field_id, import_type_id, column_name, import_lookup_id)
15:49:52  30  	values(templateID, 5, 264, 'amount', NULL)
15:49:52  31  	;
15:49:52  32  end;
15:49:52  33  /

PL/SQL procedure successfully completed.

15:49:52 hopplant> 
15:49:52 hopplant> --****************************************************
15:49:52 hopplant> --Log the run of the script to local PP_SCHEMA_LOG
15:49:52 hopplant> --****************************************************
15:49:52 hopplant> INSERT INTO PP_SCHEMA_CHANGE_LOG
15:49:52   2  	  (ID, SKIPPED, MAJOR_VERSION, MINOR_VERSION, POINT_VERSION, PATCH_VERSION, MAINT_NUM, SCRIPT_PATH,
15:49:52   3  	  SCRIPT_NAME, SCRIPT_REVISION, DATE_APPLIED, OS_USER, TERMINAL, SERVICE_NAME)
15:49:52   4  VALUES
15:49:52   5  	  (3503, 0, 2017, 1, 0, 0, 47037, 'C:\PlasticWks\powerplant\sql\maint_scripts', '2017.1.0.0_maint_047037_lease_import_vp_var_formula_comp_amount_dml.sql', 1,
15:49:52   6  	  SYSTIMESTAMP, SYS_CONTEXT('USERENV', 'OS_USER'), SYS_CONTEXT('USERENV', 'TERMINAL'),
15:49:52   7  	  SYS_CONTEXT('USERENV', 'SERVICE_NAME'));

1 row created.

15:49:52 hopplant> COMMIT;

Commit complete.

15:49:52 hopplant> SPOOL OFF
