15:54:42 hopplant> @&&PP_SCRIPT_PATH.maint_scripts\2017.1.0.0_maint_049488_lessor_01_add_variable_payment_menu_items_dml.sql
15:54:42 hopplant> /*
15:54:42 hopplant> ||============================================================================
15:54:42 hopplant> || Application: PowerPlan
15:54:42 hopplant> || File Name: maint_049488_lessor_01_add_variable_payment_menu_items_dml.sql
15:54:42 hopplant> ||============================================================================
15:54:42 hopplant> || Copyright (C) 2017 by PowerPlan, Inc. All Rights Reserved.
15:54:42 hopplant> ||============================================================================
15:54:42 hopplant> || Version	 Date	    Revised By	   Reason for Change
15:54:42 hopplant> || ---------- ---------- -------------- ----------------------------------------
15:54:42 hopplant> || 2017.1.0.0 10/20/2017 Jared Watkins  Add Lessor menu items/workspaces for Variable Payments
15:54:42 hopplant> ||============================================================================
15:54:42 hopplant> */
15:54:42 hopplant> 
15:54:42 hopplant> --create the workspaces to link with the VP menu items
15:54:42 hopplant> insert into ppbase_workspace(module, workspace_identifier, label, workspace_uo_name, minihelp, object_type_id)
15:54:42   2  values ('LESSOR', 'manage_var_payments', 'Manage Variable Payments', 'uo_lsr_var_payments_wksp', 'Manage Variable Payments', 1);

1 row created.

15:54:42 hopplant> 
15:54:42 hopplant> insert into ppbase_workspace(module, workspace_identifier, label, workspace_uo_name, minihelp, object_type_id)
15:54:42   2  values ('LESSOR', 'manage_formula_components', 'Manage Formula Components', 'uo_lsr_var_payments_formula_components_wksp', 'Manage Formula Components', 1);

1 row created.

15:54:42 hopplant> 
15:54:42 hopplant> insert into ppbase_workspace(module, workspace_identifier, label, workspace_uo_name, minihelp, object_type_id)
15:54:42   2  values ('LESSOR', 'manage_formula_comp_amounts', 'Formula Component Amts', 'uo_lsr_var_payments_component_amounts_wksp', 'Formula Component Amts', 1);

1 row created.

15:54:42 hopplant> 
15:54:42 hopplant> --insert top-level VPs menu item
15:54:42 hopplant> insert into ppbase_menu_items(module, menu_identifier, menu_level, item_order, label, minihelp, parent_menu_identifier, workspace_identifier, enable_yn)
15:54:42   2  values ('LESSOR', 'menu_wksp_var_payments', 1, 9, 'Variable Payments', 'Variable Payments', null, null, 1);

1 row created.

15:54:42 hopplant> 
15:54:42 hopplant> --insert workspace-level VP menu items
15:54:42 hopplant> insert into ppbase_menu_items(module, menu_identifier, menu_level, item_order, label, minihelp, parent_menu_identifier, workspace_identifier, enable_yn)
15:54:42   2  values ('LESSOR', 'manage_var_payments', 2, 1, 'Manage Variable Payments', 'Manage Variable Payments', 'menu_wksp_var_payments', 'manage_var_payments', 1);

1 row created.

15:54:42 hopplant> 
15:54:42 hopplant> insert into ppbase_menu_items(module, menu_identifier, menu_level, item_order, label, minihelp, parent_menu_identifier, workspace_identifier, enable_yn)
15:54:42   2  values ('LESSOR', 'manage_formula_components', 2, 2, 'Formula Components', 'Manage Formula Components', 'menu_wksp_var_payments', 'manage_formula_components', 1);

1 row created.

15:54:42 hopplant> 
15:54:42 hopplant> insert into ppbase_menu_items(module, menu_identifier, menu_level, item_order, label, minihelp, parent_menu_identifier, workspace_identifier, enable_yn)
15:54:42   2  values ('LESSOR', 'manage_formula_comp_amounts', 2, 3, 'Component Amounts', 'Formula Component Amounts', 'menu_wksp_var_payments', 'manage_formula_comp_amounts', 1);

1 row created.

15:54:42 hopplant> 
15:54:42 hopplant> 
15:54:42 hopplant> --****************************************************
15:54:42 hopplant> --Log the run of the script to local PP_SCHEMA_LOG
15:54:42 hopplant> --****************************************************
15:54:42 hopplant> INSERT INTO PP_SCHEMA_CHANGE_LOG
15:54:42   2  	      (ID, SKIPPED, MAJOR_VERSION, MINOR_VERSION, POINT_VERSION, PATCH_VERSION, MAINT_NUM, SCRIPT_PATH,
15:54:42   3  	      SCRIPT_NAME, SCRIPT_REVISION, DATE_APPLIED, OS_USER, TERMINAL, SERVICE_NAME)
15:54:42   4  VALUES
15:54:42   5  	      (3802, 0, 2017, 1, 0, 0, 49488, 'C:\PlasticWks\powerplant\sql\maint_scripts', '2017.1.0.0_maint_049488_lessor_01_add_variable_payment_menu_items_dml.sql', 1,
15:54:42   6  	      SYSTIMESTAMP, SYS_CONTEXT('USERENV', 'OS_USER'), SYS_CONTEXT('USERENV', 'TERMINAL'),
15:54:42   7  	      SYS_CONTEXT('USERENV', 'SERVICE_NAME'));

1 row created.

15:54:42 hopplant> COMMIT;

Commit complete.

15:54:42 hopplant> SPOOL OFF
