16:32:56 hopplant> @&&PP_SCRIPT_PATH.maint_scripts\2017.4.0.0_maint_051459_lessee_01_alter_npv_columns_ddl.sql
16:32:56 hopplant> /*
16:32:56 hopplant> ||============================================================================
16:32:56 hopplant> || Application: PowerPlan
16:32:56 hopplant> || File Name:   maint_051459_lessee_01_alter_npv_columns_ddl.sql
16:32:56 hopplant> ||============================================================================
16:32:56 hopplant> || Copyright (C) 2018 by PowerPlan, Inc. All Rights Reserved.
16:32:56 hopplant> ||============================================================================
16:32:56 hopplant> || Version	 Date	    Revised By	     Reason for Change
16:32:56 hopplant> || ---------- ---------- ---------------- ------------------------------------
16:32:56 hopplant> || 2017.4.0.0 05/23/2018 Josh Sandler     Alter table data type
16:32:56 hopplant> ||============================================================================
16:32:56 hopplant> */
16:32:56 hopplant> 
16:32:56 hopplant> alter table LS_ILR_SCHEDULE_STG modify NPV NUMBER (32,12);

Table altered.

16:32:57 hopplant> alter table LS_ILR_ASSET_SCHEDULE_STG modify NPV NUMBER(32,12);

Table altered.

16:32:57 hopplant> alter table LS_ILR_ASSET_SCHEDULE_CALC_STG modify NPV NUMBER(32,12);

Table altered.

16:32:57 hopplant> 
16:32:57 hopplant> 
16:32:57 hopplant> --****************************************************
16:32:57 hopplant> --Log the run of the script to local PP_SCHEMA_LOG
16:32:57 hopplant> --****************************************************
16:32:57 hopplant> INSERT INTO PP_SCHEMA_CHANGE_LOG
16:32:57   2  	  (ID, SKIPPED, MAJOR_VERSION, MINOR_VERSION, POINT_VERSION, PATCH_VERSION, MAINT_NUM, SCRIPT_PATH,
16:32:57   3  	  SCRIPT_NAME, SCRIPT_REVISION, DATE_APPLIED, OS_USER, TERMINAL, SERVICE_NAME)
16:32:57   4  VALUES
16:32:57   5  	  (5945, 0, 2017, 4, 0, 0, 51459, 'C:\PlasticWks\powerplant\sql\maint_scripts', '2017.4.0.0_maint_051459_lessee_01_alter_npv_columns_ddl.sql', 1,
16:32:57   6  	  SYSTIMESTAMP, SYS_CONTEXT('USERENV', 'OS_USER'), SYS_CONTEXT('USERENV', 'TERMINAL'),
16:32:57   7  	  SYS_CONTEXT('USERENV', 'SERVICE_NAME'));

1 row created.

16:32:57 hopplant> COMMIT;

Commit complete.

16:33:05 hopplant> SPOOL OFF
