16:35:24 hopplant> @&&PP_SCRIPT_PATH.maint_scripts\2017.4.0.0_maint_051707_lessee_02_add_depr_calc_method_import_dml.sql
16:35:24 hopplant> /*
16:35:24 hopplant> ||============================================================================
16:35:24 hopplant> || Application: PowerPlan
16:35:24 hopplant> || File Name:   maint_051707_lessee_02_add_depr_calc_method_import_dml.sql
16:35:24 hopplant> ||============================================================================
16:35:24 hopplant> || Copyright (C) 2018 by PowerPlan, Inc. All Rights Reserved.
16:35:24 hopplant> ||============================================================================
16:35:24 hopplant> || Version	 Date	    Revised By	     Reason for Change
16:35:24 hopplant> || ---------- ---------- ---------------- ------------------------------------
16:35:24 hopplant> || 2017.4.0.0 06/19/2018 Sarah Byers      Add depr calc method to ILR import
16:35:24 hopplant> ||============================================================================
16:35:24 hopplant> */
16:35:24 hopplant> 
16:35:24 hopplant> INSERT INTO pp_import_column
16:35:24   2  (IMPORT_TYPE_ID, COLUMN_NAME, DESCRIPTION, IS_REQUIRED, PROCESSING_ORDER, COLUMN_TYPE,IS_ON_TABLE)
16:35:24   3  SELECT   import_type_id,
16:35:24   4  	       'depr_calc_method',
16:35:24   5  	       'Depr Calc Method',
16:35:24   6  	       0,
16:35:24   7  	       1,
16:35:24   8  	       'number(12,0)',
16:35:24   9  	       1
16:35:24  10  from pp_import_type a where lower(import_table_name) = 'ls_import_ilr'
16:35:24  11  and not exists (select 1 from pp_import_column b where a.import_type_id = b.import_type_id and lower(b.column_name) = 'depr_calc_method');

1 row created.

16:35:24 hopplant> 
16:35:24 hopplant> insert into pp_import_template_fields
16:35:24   2  (import_template_id, field_id, import_type_id, column_name)
16:35:24   3  select t.import_template_id, max(nvl(f.field_id,0)) + 1, a.import_type_id, 'depr_calc_method'
16:35:24   4  	from pp_import_type a, pp_import_template t, pp_import_template_fields f
16:35:24   5   where lower(a.import_table_name) = 'ls_import_ilr'
16:35:24   6  	 and a.import_type_id = t.import_type_id
16:35:24   7  	 and t.import_type_id = f.import_type_id
16:35:24   8  	 and t.import_template_id = f.import_template_id
16:35:24   9  	 and not exists (select 1 from pp_import_template_fields b where a.import_type_id = b.import_type_id and lower(b.column_name) = 'depr_calc_method')
16:35:24  10   group by t.import_template_id, a.import_type_id;

2 rows created.

16:35:24 hopplant> 
16:35:24 hopplant> 
16:35:24 hopplant> --****************************************************
16:35:24 hopplant> --Log the run of the script to local PP_SCHEMA_LOG
16:35:24 hopplant> --****************************************************
16:35:24 hopplant> INSERT INTO PP_SCHEMA_CHANGE_LOG
16:35:24   2  	  (ID, SKIPPED, MAJOR_VERSION, MINOR_VERSION, POINT_VERSION, PATCH_VERSION, MAINT_NUM, SCRIPT_PATH,
16:35:24   3  	  SCRIPT_NAME, SCRIPT_REVISION, DATE_APPLIED, OS_USER, TERMINAL, SERVICE_NAME)
16:35:24   4  VALUES
16:35:24   5  	  (6824, 0, 2017, 4, 0, 0, 51707, 'C:\PlasticWks\powerplant\sql\maint_scripts', '2017.4.0.0_maint_051707_lessee_02_add_depr_calc_method_import_dml.sql', 1,
16:35:24   6  	  SYSTIMESTAMP, SYS_CONTEXT('USERENV', 'OS_USER'), SYS_CONTEXT('USERENV', 'TERMINAL'),
16:35:24   7  	  SYS_CONTEXT('USERENV', 'SERVICE_NAME'));

1 row created.

16:35:24 hopplant> COMMIT;

Commit complete.

16:35:24 hopplant> SPOOL OFF
