16:50:08 hopplant> @&&PP_SCRIPT_PATH.maint_scripts\2017.4.0.0_maint_052036_lessee_01_asset_ilr_mc_schedule_ddl.sql
16:50:08 hopplant> /*
16:50:08 hopplant> ||============================================================================
16:50:08 hopplant> || Application: PowerPlan
16:50:08 hopplant> || File Name:   maint_052036_lessee_01_asset_ilr_mc_schedule_ddl.sql
16:50:08 hopplant> ||============================================================================
16:50:08 hopplant> || Copyright (C) 2018 by PowerPlan, Inc. All Rights Reserved.
16:50:08 hopplant> ||============================================================================
16:50:08 hopplant> || Version	 Date	    Revised By	      Reason for Change
16:50:08 hopplant> || ---------- ---------- ----------------  ------------------------------------
16:50:08 hopplant> || 2017.4.0.0 07/20/2018 Sarah Byers       Add reclass amounts to currency gain/loss
16:50:08 hopplant> ||============================================================================
16:50:08 hopplant> */
16:50:08 hopplant> 
16:50:08 hopplant> CREATE OR REPLACE FORCE VIEW V_LS_ASSET_SCHEDULE_FX_VW AS
16:50:08   2  WITH cur
16:50:08   3  	     AS ( SELECT ls_currency_type_id AS ls_cur_type,
16:50:08   4  			 currency_id,
16:50:08   5  			 currency_display_symbol,
16:50:08   6  			 iso_code,
16:50:08   7  			 CASE ls_currency_type_id
16:50:08   8  			   WHEN 1 THEN 1
16:50:08   9  			   ELSE NULL
16:50:08  10  			 END		     AS contract_approval_rate
16:50:08  11  		  FROM	 CURRENCY
16:50:08  12  			 cross join LS_LEASE_CURRENCY_TYPE ),
16:50:08  13  	     open_month
16:50:08  14  	     AS ( SELECT company_id,
16:50:08  15  			 Min( gl_posting_mo_yr ) open_month
16:50:08  16  		  FROM	 LS_PROCESS_CONTROL
16:50:08  17  		  WHERE  open_next IS NULL
16:50:08  18  		  GROUP  BY company_id ),
16:50:08  19  	     calc_rate
16:50:08  20  	     AS ( SELECT a.company_id,
16:50:08  21  			 a.contract_currency_id,
16:50:08  22  			 a.company_currency_id,
16:50:08  23  			 a.accounting_month,
16:50:08  24  			 a.exchange_date,
16:50:08  25  			 a.rate,
16:50:08  26  			 b.rate prev_rate
16:50:08  27  		  FROM	 LS_LEASE_CALCULATED_DATE_RATES a
16:50:08  28  			 left outer join LS_LEASE_CALCULATED_DATE_RATES b
16:50:08  29  				      ON a.company_id = b.company_id AND
16:50:08  30  					 a.contract_currency_id = b.contract_currency_id AND
16:50:08  31  					 a.accounting_month = Add_months( b.accounting_month, 1 )
16:50:08  32  		  WHERE a.exchange_rate_type_id = 1 and b.exchange_rate_type_id = 1),
16:50:08  33  	     cr_now
16:50:08  34  	     AS ( SELECT currency_from,
16:50:08  35  			 currency_to,
16:50:08  36  			 rate
16:50:08  37  		  FROM	 ( SELECT currency_from,
16:50:08  38  				  currency_to,
16:50:08  39  				  rate,
16:50:08  40  				  Row_number( )
16:50:08  41  				    over(
16:50:08  42  				      PARTITION BY currency_from, currency_to
16:50:08  43  				      ORDER BY exchange_date DESC ) AS rn
16:50:08  44  			   FROM   CURRENCY_RATE_DEFAULT_DENSE
16:50:08  45  			   WHERE  Trunc( exchange_date, 'MONTH' ) <= Trunc( SYSDATE, 'MONTH' ) AND
16:50:08  46  				  exchange_rate_type_id = 1 )
16:50:08  47  		  WHERE  rn = 1 ),
16:50:08  48  	     calc_avg_rate
16:50:08  49  	     AS ( SELECT a.company_id,
16:50:08  50  			 a.contract_currency_id,
16:50:08  51  			 a.company_currency_id,
16:50:08  52  			 a.accounting_month,
16:50:08  53  			 a.exchange_date,
16:50:08  54  			 a.rate,
16:50:08  55  			 b.rate prev_rate
16:50:08  56  		  FROM	 LS_LEASE_CALCULATED_DATE_RATES a
16:50:08  57  			 left outer join LS_LEASE_CALCULATED_DATE_RATES b
16:50:08  58  				      ON a.company_id = b.company_id AND
16:50:08  59  					 a.contract_currency_id = b.contract_currency_id AND
16:50:08  60  					 a.accounting_month = Add_months( b.accounting_month, 1 ) AND
16:50:08  61  									 b.exchange_rate_type_id = 4
16:50:08  62  		  WHERE a.exchange_rate_type_id = 4 ),
16:50:08  63  	     war
16:50:08  64  	     AS ( SELECT war.ilr_id,
16:50:08  65  			 war.revision,
16:50:08  66  			 war.set_of_books_id,
16:50:08  67  			 war.gross_weighted_avg_rate,
16:50:08  68  			 war.net_weighted_avg_rate,
16:50:08  69  			 lio.in_service_exchange_rate,
16:50:08  70  			 Trunc(Nvl(lio.remeasurement_date, ilr.est_in_svc_date), 'month') effective_month
16:50:08  71  		  FROM ls_ilr_weighted_avg_rates war
16:50:08  72  		       JOIN ls_ilr ilr ON war.ilr_id = ilr.ilr_id
16:50:08  73  		       JOIN ls_ilr_options lio ON lio.ilr_id = war.ilr_id AND lio.revision = war.revision
16:50:08  74  		 ),
16:50:08  75  	    ilr_dates AS (
16:50:08  76  	      SELECT lio.ilr_id, lio.revision,
16:50:08  77  	      Trunc(Nvl(lio.remeasurement_date, ilr.est_in_svc_date), 'month') effective_month,
16:50:08  78  	      lio.in_service_exchange_rate
16:50:08  79  	      FROM ls_ilr_options lio
16:50:08  80  		JOIN ls_ilr ilr ON ilr.ilr_id = lio.ilr_id
16:50:08  81  		JOIN ls_ilr_approval lia ON lia.ilr_id = lio.ilr_id AND lia.revision = lio.revision
16:50:08  82  	      WHERE lia.approval_status_id <> 1
16:50:08  83  	    ),
16:50:08  84  	    ilr_effective_rates AS (
16:50:08  85  	      SELECT id2.ilr_id, id1.revision,
16:50:08  86  	      id2.effective_month,
16:50:08  87  	      Nvl(Add_Months(lead(id2.effective_month,1) OVER(PARTITION BY id2.ilr_id, id1.revision ORDER BY id2.effective_month), -1), To_Date('999912', 'yyyymm')) end_effective_month,
16:50:08  88  	      id2.in_service_exchange_rate
16:50:08  89  	      FROM ilr_dates id1
16:50:08  90  		JOIN ilr_dates id2 ON id1.ilr_id = id2.ilr_id AND id1.effective_month >= id2.effective_month
16:50:08  91  	    )
16:50:08  92  	SELECT las.ilr_id																		ilr_id,
16:50:08  93  	       las.ls_asset_id																		ls_asset_id,
16:50:08  94  	       las.revision																		revision,
16:50:08  95  	       las.set_of_books_id																	set_of_books_id,
16:50:08  96  	       las.month																		month,
16:50:08  97  	       OPEN_MONTH.company_id																	company_id,
16:50:08  98  	       OPEN_MONTH.open_month																	open_month,
16:50:08  99  	       CUR.ls_cur_type																		ls_cur_type,
16:50:08 100  	       cr.exchange_date 																	exchange_date,
16:50:08 101  	       CALC_RATE.exchange_date																	prev_exchange_date,
16:50:08 102  	       las.contract_currency_id 																contract_currency_id,
16:50:08 103  	       CUR.currency_id																		currency_id,
16:50:08 104  	       cr.rate																			rate,
16:50:08 105  	       CALC_RATE.rate																		calculated_rate,
16:50:08 106  	       CALC_RATE.prev_rate																	previous_calculated_rate,
16:50:08 107  	       CALC_AVG_RATE.rate																	calculated_average_rate,
16:50:08 108  	       CALC_AVG_RATE.prev_rate																	previous_calculated_avg_rate,
16:50:08 109  	       Decode(lower(sc.CONTROL_VALUE), 'yes', CALC_AVG_RATE.rate, CALC_RATE.rate)										average_rate,
16:50:08 110  	       las.effective_in_svc_rate,
16:50:08 111  	       original_in_svc_rate,
16:50:08 112  	       CUR.iso_code																		iso_code,
16:50:08 113  	       CUR.currency_display_symbol																currency_display_symbol,
16:50:08 114  	       las.residual_amount * Nvl( CALC_RATE.rate, cr.rate )													residual_amount,
16:50:08 115  	       las.term_penalty * Nvl( CALC_RATE.rate, cr.rate )													term_penalty,
16:50:08 116  	       las.bpo_price * Nvl( CALC_RATE.rate, cr.rate )													   bpo_price,
16:50:08 117  	       las.beg_capital_cost * Nvl( Nvl( CUR.contract_approval_rate, prior_war.gross_weighted_avg_rate), CR_NOW.rate )					   beg_capital_cost,
16:50:08 118  	       las.end_capital_cost * Nvl( Nvl( CUR.contract_approval_rate, war.gross_weighted_avg_rate), CR_NOW.rate ) 					   end_capital_cost,
16:50:08 119  	       las.beg_obligation * Nvl( CALC_RATE.prev_rate, cr.rate ) 											   beg_obligation,
16:50:08 120  	       las.end_obligation * Nvl( CALC_RATE.rate, cr.rate )												   end_obligation,
16:50:08 121  	       las.beg_lt_obligation * Nvl( CALC_RATE.prev_rate, cr.rate )											   beg_lt_obligation,
16:50:08 122  	       las.end_lt_obligation * Nvl( CALC_RATE.rate, cr.rate )												   end_lt_obligation,
16:50:08 123  	       las.principal_remeasurement * Nvl( Nvl( CUR.contract_approval_rate, las.effective_in_svc_rate), CR_NOW.rate )					   principal_remeasurement,
16:50:08 124  	       las.beg_liability * Nvl( CALC_RATE.prev_rate, cr.rate )													beg_liability,
16:50:08 125  	       las.end_liability * Nvl( CALC_RATE.rate, cr.rate )												   end_liability,
16:50:08 126  	       las.beg_lt_liability * Nvl( CALC_RATE.prev_rate, cr.rate )												beg_lt_liability,
16:50:08 127  	       las.end_lt_liability * Nvl( CALC_RATE.rate, cr.rate )												   end_lt_liability,
16:50:08 128  	       las.liability_remeasurement * Nvl( Nvl( CUR.contract_approval_rate, las.effective_in_svc_rate), CR_NOW.rate )					   liability_remeasurement,
16:50:08 129  	       las.interest_accrual	 * Decode(lower(sc.CONTROL_VALUE), 'yes', Nvl( CALC_AVG_RATE.rate, cr_avg.rate ), Nvl( CALC_RATE.rate, cr.rate ))  interest_accrual,
16:50:08 130  	       las.principal_accrual	 * Decode(lower(sc.CONTROL_VALUE), 'yes', Nvl( CALC_AVG_RATE.rate, cr_avg.rate ), Nvl( CALC_RATE.rate, cr.rate ))  principal_accrual,
16:50:08 131  	       las.interest_paid	 * Decode(lower(sc.CONTROL_VALUE), 'yes', Nvl( CALC_AVG_RATE.rate, cr_avg.rate ), Nvl( CALC_RATE.rate, cr.rate ))  interest_paid,
16:50:08 132  	       las.principal_paid	 * Decode(lower(sc.CONTROL_VALUE), 'yes', Nvl( CALC_AVG_RATE.rate, cr_avg.rate ), Nvl( CALC_RATE.rate, cr.rate ))  principal_paid,
16:50:08 133  	       las.executory_accrual1	 * Decode(lower(sc.CONTROL_VALUE), 'yes', Nvl( CALC_AVG_RATE.rate, cr_avg.rate ), Nvl( CALC_RATE.rate, cr.rate ))  executory_accrual1,
16:50:08 134  	       las.executory_accrual2	 * Decode(lower(sc.CONTROL_VALUE), 'yes', Nvl( CALC_AVG_RATE.rate, cr_avg.rate ), Nvl( CALC_RATE.rate, cr.rate ))  executory_accrual2,
16:50:08 135  	       las.executory_accrual3	 * Decode(lower(sc.CONTROL_VALUE), 'yes', Nvl( CALC_AVG_RATE.rate, cr_avg.rate ), Nvl( CALC_RATE.rate, cr.rate ))  executory_accrual3,
16:50:08 136  	       las.executory_accrual4	 * Decode(lower(sc.CONTROL_VALUE), 'yes', Nvl( CALC_AVG_RATE.rate, cr_avg.rate ), Nvl( CALC_RATE.rate, cr.rate ))  executory_accrual4,
16:50:08 137  	       las.executory_accrual5	 * Decode(lower(sc.CONTROL_VALUE), 'yes', Nvl( CALC_AVG_RATE.rate, cr_avg.rate ), Nvl( CALC_RATE.rate, cr.rate ))  executory_accrual5,
16:50:08 138  	       las.executory_accrual6	 * Decode(lower(sc.CONTROL_VALUE), 'yes', Nvl( CALC_AVG_RATE.rate, cr_avg.rate ), Nvl( CALC_RATE.rate, cr.rate ))  executory_accrual6,
16:50:08 139  	       las.executory_accrual7	 * Decode(lower(sc.CONTROL_VALUE), 'yes', Nvl( CALC_AVG_RATE.rate, cr_avg.rate ), Nvl( CALC_RATE.rate, cr.rate ))  executory_accrual7,
16:50:08 140  	       las.executory_accrual8	 * Decode(lower(sc.CONTROL_VALUE), 'yes', Nvl( CALC_AVG_RATE.rate, cr_avg.rate ), Nvl( CALC_RATE.rate, cr.rate ))  executory_accrual8,
16:50:08 141  	       las.executory_accrual9	 * Decode(lower(sc.CONTROL_VALUE), 'yes', Nvl( CALC_AVG_RATE.rate, cr_avg.rate ), Nvl( CALC_RATE.rate, cr.rate ))  executory_accrual9,
16:50:08 142  	       las.executory_accrual10	 * Decode(lower(sc.CONTROL_VALUE), 'yes', Nvl( CALC_AVG_RATE.rate, cr_avg.rate ), Nvl( CALC_RATE.rate, cr.rate ))  executory_accrual10,
16:50:08 143  	       las.executory_paid1	 * Decode(lower(sc.CONTROL_VALUE), 'yes', Nvl( CALC_AVG_RATE.rate, cr_avg.rate ), Nvl( CALC_RATE.rate, cr.rate ))  executory_paid1,
16:50:08 144  	       las.executory_paid2	 * Decode(lower(sc.CONTROL_VALUE), 'yes', Nvl( CALC_AVG_RATE.rate, cr_avg.rate ), Nvl( CALC_RATE.rate, cr.rate ))  executory_paid2,
16:50:08 145  	       las.executory_paid3	 * Decode(lower(sc.CONTROL_VALUE), 'yes', Nvl( CALC_AVG_RATE.rate, cr_avg.rate ), Nvl( CALC_RATE.rate, cr.rate ))  executory_paid3,
16:50:08 146  	       las.executory_paid4	 * Decode(lower(sc.CONTROL_VALUE), 'yes', Nvl( CALC_AVG_RATE.rate, cr_avg.rate ), Nvl( CALC_RATE.rate, cr.rate ))  executory_paid4,
16:50:08 147  	       las.executory_paid5	 * Decode(lower(sc.CONTROL_VALUE), 'yes', Nvl( CALC_AVG_RATE.rate, cr_avg.rate ), Nvl( CALC_RATE.rate, cr.rate ))  executory_paid5,
16:50:08 148  	       las.executory_paid6	 * Decode(lower(sc.CONTROL_VALUE), 'yes', Nvl( CALC_AVG_RATE.rate, cr_avg.rate ), Nvl( CALC_RATE.rate, cr.rate ))  executory_paid6,
16:50:08 149  	       las.executory_paid7	 * Decode(lower(sc.CONTROL_VALUE), 'yes', Nvl( CALC_AVG_RATE.rate, cr_avg.rate ), Nvl( CALC_RATE.rate, cr.rate ))  executory_paid7,
16:50:08 150  	       las.executory_paid8	 * Decode(lower(sc.CONTROL_VALUE), 'yes', Nvl( CALC_AVG_RATE.rate, cr_avg.rate ), Nvl( CALC_RATE.rate, cr.rate ))  executory_paid8,
16:50:08 151  	       las.executory_paid9	 * Decode(lower(sc.CONTROL_VALUE), 'yes', Nvl( CALC_AVG_RATE.rate, cr_avg.rate ), Nvl( CALC_RATE.rate, cr.rate ))  executory_paid9,
16:50:08 152  	       las.executory_paid10	 * Decode(lower(sc.CONTROL_VALUE), 'yes', Nvl( CALC_AVG_RATE.rate, cr_avg.rate ), Nvl( CALC_RATE.rate, cr.rate ))  executory_paid10,
16:50:08 153  	       las.contingent_accrual1	 * Decode(lower(sc.CONTROL_VALUE), 'yes', Nvl( CALC_AVG_RATE.rate, cr_avg.rate ), Nvl( CALC_RATE.rate, cr.rate ))  contingent_accrual1,
16:50:08 154  	       las.contingent_accrual2	 * Decode(lower(sc.CONTROL_VALUE), 'yes', Nvl( CALC_AVG_RATE.rate, cr_avg.rate ), Nvl( CALC_RATE.rate, cr.rate ))  contingent_accrual2,
16:50:08 155  	       las.contingent_accrual3	 * Decode(lower(sc.CONTROL_VALUE), 'yes', Nvl( CALC_AVG_RATE.rate, cr_avg.rate ), Nvl( CALC_RATE.rate, cr.rate ))  contingent_accrual3,
16:50:08 156  	       las.contingent_accrual4	 * Decode(lower(sc.CONTROL_VALUE), 'yes', Nvl( CALC_AVG_RATE.rate, cr_avg.rate ), Nvl( CALC_RATE.rate, cr.rate ))  contingent_accrual4,
16:50:08 157  	       las.contingent_accrual5	 * Decode(lower(sc.CONTROL_VALUE), 'yes', Nvl( CALC_AVG_RATE.rate, cr_avg.rate ), Nvl( CALC_RATE.rate, cr.rate ))  contingent_accrual5,
16:50:08 158  	       las.contingent_accrual6	 * Decode(lower(sc.CONTROL_VALUE), 'yes', Nvl( CALC_AVG_RATE.rate, cr_avg.rate ), Nvl( CALC_RATE.rate, cr.rate ))  contingent_accrual6,
16:50:08 159  	       las.contingent_accrual7	 * Decode(lower(sc.CONTROL_VALUE), 'yes', Nvl( CALC_AVG_RATE.rate, cr_avg.rate ), Nvl( CALC_RATE.rate, cr.rate ))  contingent_accrual7,
16:50:08 160  	       las.contingent_accrual8	 * Decode(lower(sc.CONTROL_VALUE), 'yes', Nvl( CALC_AVG_RATE.rate, cr_avg.rate ), Nvl( CALC_RATE.rate, cr.rate ))  contingent_accrual8,
16:50:08 161  	       las.contingent_accrual9	 * Decode(lower(sc.CONTROL_VALUE), 'yes', Nvl( CALC_AVG_RATE.rate, cr_avg.rate ), Nvl( CALC_RATE.rate, cr.rate ))  contingent_accrual9,
16:50:08 162  	       las.contingent_accrual10  * Decode(lower(sc.CONTROL_VALUE), 'yes', Nvl( CALC_AVG_RATE.rate, cr_avg.rate ), Nvl( CALC_RATE.rate, cr.rate ))  contingent_accrual10,
16:50:08 163  	       las.contingent_paid1	 * Decode(lower(sc.CONTROL_VALUE), 'yes', Nvl( CALC_AVG_RATE.rate, cr_avg.rate ), Nvl( CALC_RATE.rate, cr.rate ))  contingent_paid1,
16:50:08 164  	       las.contingent_paid2	 * Decode(lower(sc.CONTROL_VALUE), 'yes', Nvl( CALC_AVG_RATE.rate, cr_avg.rate ), Nvl( CALC_RATE.rate, cr.rate ))  contingent_paid2,
16:50:08 165  	       las.contingent_paid3	 * Decode(lower(sc.CONTROL_VALUE), 'yes', Nvl( CALC_AVG_RATE.rate, cr_avg.rate ), Nvl( CALC_RATE.rate, cr.rate ))  contingent_paid3,
16:50:08 166  	       las.contingent_paid4	 * Decode(lower(sc.CONTROL_VALUE), 'yes', Nvl( CALC_AVG_RATE.rate, cr_avg.rate ), Nvl( CALC_RATE.rate, cr.rate ))  contingent_paid4,
16:50:08 167  	       las.contingent_paid5	 * Decode(lower(sc.CONTROL_VALUE), 'yes', Nvl( CALC_AVG_RATE.rate, cr_avg.rate ), Nvl( CALC_RATE.rate, cr.rate ))  contingent_paid5,
16:50:08 168  	       las.contingent_paid6	 * Decode(lower(sc.CONTROL_VALUE), 'yes', Nvl( CALC_AVG_RATE.rate, cr_avg.rate ), Nvl( CALC_RATE.rate, cr.rate ))  contingent_paid6,
16:50:08 169  	       las.contingent_paid7	 * Decode(lower(sc.CONTROL_VALUE), 'yes', Nvl( CALC_AVG_RATE.rate, cr_avg.rate ), Nvl( CALC_RATE.rate, cr.rate ))  contingent_paid7,
16:50:08 170  	       las.contingent_paid8	 * Decode(lower(sc.CONTROL_VALUE), 'yes', Nvl( CALC_AVG_RATE.rate, cr_avg.rate ), Nvl( CALC_RATE.rate, cr.rate ))  contingent_paid8,
16:50:08 171  	       las.contingent_paid9	 * Decode(lower(sc.CONTROL_VALUE), 'yes', Nvl( CALC_AVG_RATE.rate, cr_avg.rate ), Nvl( CALC_RATE.rate, cr.rate ))  contingent_paid9,
16:50:08 172  	       las.contingent_paid10	 * Decode(lower(sc.CONTROL_VALUE), 'yes', Nvl( CALC_AVG_RATE.rate, cr_avg.rate ), Nvl( CALC_RATE.rate, cr.rate ))  contingent_paid10,
16:50:08 173  	       las.current_lease_cost	 * Nvl( Nvl( CUR.contract_approval_rate, original_in_svc_rate), CR_NOW.rate ) current_lease_cost,
16:50:08 174  	       las.beg_deferred_rent	 * Nvl( CALC_RATE.prev_rate, cr.rate )									       beg_deferred_rent,
16:50:08 175  	       las.deferred_rent	 * Decode(lower(sc.CONTROL_VALUE), 'yes', Nvl( CALC_AVG_RATE.rate, cr_avg.rate ), Nvl( CALC_RATE.rate, cr.rate ))  deferred_rent,
16:50:08 176  	       las.end_deferred_rent	 * Nvl( CALC_RATE.rate, cr.rate )									  end_deferred_rent,
16:50:08 177  	       las.beg_st_deferred_rent  * Nvl( CALC_RATE.prev_rate, cr.rate )										    beg_st_deferred_rent,
16:50:08 178  	       las.end_st_deferred_rent  * Nvl( CALC_RATE.rate, cr.rate )									       end_st_deferred_rent,
16:50:08 179  	       las.initial_direct_cost	 * Decode(lower(sc.CONTROL_VALUE), 'yes', Nvl( CALC_AVG_RATE.rate, cr_avg.rate ), Nvl( CALC_RATE.rate, cr.rate ))  initial_direct_cost,
16:50:08 180  	       las.incentive_amount	 * Decode(lower(sc.CONTROL_VALUE), 'yes', Nvl( CALC_AVG_RATE.rate, cr_avg.rate ), Nvl( CALC_RATE.rate, cr.rate ))  incentive_amount,
16:50:08 181  	       las.depr_expense 	 * Nvl( Nvl( CUR.contract_approval_rate, war.net_weighted_avg_rate ), CR_NOW.rate )			    depr_expense,
16:50:08 182  	       las.begin_reserve	 * Nvl( Nvl( CUR.contract_approval_rate, prior_war.net_weighted_avg_rate ), CR_NOW.rate )			  begin_reserve,
16:50:08 183  	       las.end_reserve		 * Nvl( Nvl( CUR.contract_approval_rate, war.net_weighted_avg_rate ), CR_NOW.rate )			    end_reserve,
16:50:08 184  	       las.depr_exp_alloc_adjust * Nvl( Nvl( CUR.contract_approval_rate, war.net_weighted_avg_rate ), CR_NOW.rate )			    depr_exp_alloc_adjust,
16:50:08 185  	       las.asset_description														       asset_description,
16:50:08 186  	       las.leased_asset_number														       leased_asset_number,
16:50:08 187  	       las.fmv * Nvl( Nvl( CUR.contract_approval_rate, original_in_svc_rate), CR_NOW.rate )						       fmv,
16:50:08 188  	       las.is_om															       is_om,
16:50:08 189  	       las.approved_revision														       approved_revision,
16:50:08 190  	       las.lease_cap_type_id														       lease_cap_type_id,
16:50:08 191  	       las.ls_asset_status_id														       ls_asset_status_id,
16:50:08 192  	       las.retirement_date														       retirement_date,
16:50:08 193  	       las.beg_prepaid_rent	 * Nvl( CALC_RATE.prev_rate, cr.rate )									       beg_prepaid_rent,
16:50:08 194  	       las.prepay_amortization	 * Decode(lower(sc.CONTROL_VALUE), 'yes', Nvl( CALC_AVG_RATE.rate, cr_avg.rate ), Nvl( CALC_RATE.rate, cr.rate ))  prepay_amortization,
16:50:08 195  	       las.prepaid_rent 	 * Decode(lower(sc.CONTROL_VALUE), 'yes', Nvl( CALC_AVG_RATE.rate, cr_avg.rate ), Nvl( CALC_RATE.rate, cr.rate ))  prepaid_rent,
16:50:08 196  	       las.end_prepaid_rent	 * Nvl( CALC_RATE.rate, cr.rate )									       end_prepaid_rent,
16:50:08 197  	       Nvl(las.beg_net_rou_asset * Nvl( Nvl( CUR.contract_approval_rate, prior_war.net_weighted_avg_rate ), CR_NOW.rate ), 0)		       beg_net_rou_asset,
16:50:08 198  	       Nvl(las.end_net_rou_asset * Nvl( Nvl( CUR.contract_approval_rate, war.net_weighted_avg_rate ), CR_NOW.rate ), 0) 		       end_net_rou_asset,
16:50:08 199  	       las.actual_residual_amount * Nvl( CALC_RATE.rate, cr.rate )									       actual_residual_amount,
16:50:08 200  	       las.guaranteed_residual_amount * Nvl( CALC_RATE.rate, cr.rate )									       guaranteed_residual_amount,
16:50:08 201  	       (las.fmv * las.estimated_residual) * Nvl( CALC_RATE.rate, cr.rate )								       estimated_residual,
16:50:08 202  	       nvl(las.rou_asset_remeasurement * Nvl( Nvl( CUR.contract_approval_rate, las.effective_in_svc_rate), CR_NOW.rate ),0)		       rou_asset_remeasurement,
16:50:08 203  	       nvl(las.PARTIAL_TERM_GAIN_LOSS * Nvl( Nvl( CUR.contract_approval_rate, las.effective_in_svc_rate), CR_NOW.rate ),0)		       partial_term_gain_loss,
16:50:08 204  	       las.beg_arrears_accrual * Nvl( CALC_RATE.prev_rate, cr.rate )									       beg_arrears_accrual,
16:50:08 205  	       las.arrears_accrual * Decode(lower(sc.CONTROL_VALUE), 'yes', Nvl( CALC_AVG_RATE.rate, cr_avg.rate ), Nvl( CALC_RATE.rate, cr.rate ))    arrears_accrual,
16:50:08 206  	       las.end_arrears_accrual * Nvl( CALC_RATE.rate, cr.rate ) 									       end_arrears_accrual,
16:50:08 207  	       nvl(las.EXECUTORY_ADJUST * Decode(lower(sc.CONTROL_VALUE), 'yes', Nvl( CALC_AVG_RATE.rate, cr_avg.rate ), Nvl( CALC_RATE.rate, cr.rate )),0)   executory_adjust,
16:50:08 208  	       nvl(las.CONTINGENT_ADJUST * Decode(lower(sc.CONTROL_VALUE), 'yes', Nvl( CALC_AVG_RATE.rate, cr_avg.rate ), Nvl( CALC_RATE.rate, cr.rate )),0)  contingent_adjust,
16:50:08 209  	       (
16:50:08 210  		      (las.end_liability * Nvl( CALC_RATE.rate, cr.rate ))
16:50:08 211  		    - (las.beg_liability * Nvl( CALC_RATE.prev_rate, cr.rate ))
16:50:08 212  		    - (las.interest_accrual * Decode(lower(sc.CONTROL_VALUE), 'yes', Nvl( CALC_AVG_RATE.rate, cr_avg.rate ), Nvl( CALC_RATE.rate, cr.rate )))
16:50:08 213  		    + (las.interest_paid * Decode(lower(sc.CONTROL_VALUE), 'yes', Nvl( CALC_AVG_RATE.rate, cr_avg.rate ), Nvl( CALC_RATE.rate, cr.rate )))
16:50:08 214  		    + (las.principal_paid * Decode(lower(sc.CONTROL_VALUE), 'yes', Nvl( CALC_AVG_RATE.rate, cr_avg.rate ), Nvl( CALC_RATE.rate, cr.rate )))
16:50:08 215  		  ) gain_loss_fx,
16:50:08 216  		  (
16:50:08 217  		    ((las.end_liability * Nvl( CALC_RATE.rate, cr.rate )) - (las.end_lt_liability * Nvl( CALC_RATE.rate, cr.rate )))
16:50:08 218  		    - ((las.beg_liability * Nvl( CALC_RATE.prev_rate, cr.rate )) - (las.beg_lt_liability * Nvl( CALC_RATE.prev_rate, cr.rate )))
16:50:08 219  		    - (las.interest_accrual *  Decode(lower(sc.CONTROL_VALUE), 'yes', Nvl( CALC_AVG_RATE.rate, cr_avg.rate ), Nvl( CALC_RATE.rate, cr.rate )))
16:50:08 220  		    + (las.interest_paid * Decode(lower(sc.CONTROL_VALUE), 'yes', Nvl( CALC_AVG_RATE.rate, cr_avg.rate ), Nvl( CALC_RATE.rate, cr.rate )))
16:50:08 221  		    + (las.principal_paid * Decode(lower(sc.CONTROL_VALUE), 'yes', Nvl( CALC_AVG_RATE.rate, cr_avg.rate ), Nvl( CALC_RATE.rate, cr.rate )))
16:50:08 222  		    - ((las.beg_lt_liability - las.end_lt_liability) * NVL( CALC_RATE.rate, cr.rate))
16:50:08 223  		  ) st_currency_gain_loss,
16:50:08 224  		  (
16:50:08 225  		      (las.end_lt_liability * Nvl( CALC_RATE.rate, cr.rate ))
16:50:08 226  		    - (las.beg_lt_liability * Nvl( CALC_RATE.prev_rate, cr.rate ))
16:50:08 227  		     + ((las.beg_lt_liability - las.end_lt_liability) * NVL( CALC_RATE.rate, cr.rate))
16:50:08 228  		  ) lt_currency_gain_loss
16:50:08 229  	FROM   ( SELECT la.ilr_id,
16:50:08 230  			las.ls_asset_id,
16:50:08 231  			las.revision,
16:50:08 232  			las.set_of_books_id,
16:50:08 233  			las.month,
16:50:08 234  			la.contract_currency_id,
16:50:08 235  			las.residual_amount,
16:50:08 236  			las.term_penalty,
16:50:08 237  			las.bpo_price,
16:50:08 238  			las.beg_capital_cost,
16:50:08 239  			las.end_capital_cost,
16:50:08 240  			las.beg_obligation,
16:50:08 241  			las.end_obligation,
16:50:08 242  			las.beg_lt_obligation,
16:50:08 243  			las.end_lt_obligation,
16:50:08 244  			las.principal_remeasurement,
16:50:08 245  			las.beg_liability,
16:50:08 246  			las.end_liability,
16:50:08 247  			las.beg_lt_liability,
16:50:08 248  			las.end_lt_liability,
16:50:08 249  			las.liability_remeasurement,
16:50:08 250  			las.interest_accrual,
16:50:08 251  			las.principal_accrual,
16:50:08 252  			las.interest_paid,
16:50:08 253  			las.principal_paid,
16:50:08 254  			las.executory_accrual1,
16:50:08 255  			las.executory_accrual2,
16:50:08 256  			las.executory_accrual3,
16:50:08 257  			las.executory_accrual4,
16:50:08 258  			las.executory_accrual5,
16:50:08 259  			las.executory_accrual6,
16:50:08 260  			las.executory_accrual7,
16:50:08 261  			las.executory_accrual8,
16:50:08 262  			las.executory_accrual9,
16:50:08 263  			las.executory_accrual10,
16:50:08 264  			las.executory_paid1,
16:50:08 265  			las.executory_paid2,
16:50:08 266  			las.executory_paid3,
16:50:08 267  			las.executory_paid4,
16:50:08 268  			las.executory_paid5,
16:50:08 269  			las.executory_paid6,
16:50:08 270  			las.executory_paid7,
16:50:08 271  			las.executory_paid8,
16:50:08 272  			las.executory_paid9,
16:50:08 273  			las.executory_paid10,
16:50:08 274  			las.contingent_accrual1,
16:50:08 275  			las.contingent_accrual2,
16:50:08 276  			las.contingent_accrual3,
16:50:08 277  			las.contingent_accrual4,
16:50:08 278  			las.contingent_accrual5,
16:50:08 279  			las.contingent_accrual6,
16:50:08 280  			las.contingent_accrual7,
16:50:08 281  			las.contingent_accrual8,
16:50:08 282  			las.contingent_accrual9,
16:50:08 283  			las.contingent_accrual10,
16:50:08 284  			las.contingent_paid1,
16:50:08 285  			las.contingent_paid2,
16:50:08 286  			las.contingent_paid3,
16:50:08 287  			las.contingent_paid4,
16:50:08 288  			las.contingent_paid5,
16:50:08 289  			las.contingent_paid6,
16:50:08 290  			las.contingent_paid7,
16:50:08 291  			las.contingent_paid8,
16:50:08 292  			las.contingent_paid9,
16:50:08 293  			las.contingent_paid10,
16:50:08 294  			las.current_lease_cost,
16:50:08 295  			las.beg_deferred_rent,
16:50:08 296  			las.deferred_rent,
16:50:08 297  			las.end_deferred_rent,
16:50:08 298  			las.beg_st_deferred_rent,
16:50:08 299  			las.end_st_deferred_rent,
16:50:08 300  			las.initial_direct_cost,
16:50:08 301  			las.incentive_amount,
16:50:08 302  			ldf.depr_expense,
16:50:08 303  			ldf.begin_reserve,
16:50:08 304  			ldf.end_reserve,
16:50:08 305  			ldf.depr_exp_alloc_adjust,
16:50:08 306  			la.company_id,
16:50:08 307  			opt.in_service_exchange_rate,
16:50:08 308  			la.description AS asset_description,
16:50:08 309  			la.leased_asset_number,
16:50:08 310  			la.fmv,
16:50:08 311  			las.is_om,
16:50:08 312  			la.approved_revision,
16:50:08 313  			opt.lease_cap_type_id,
16:50:08 314  			la.ls_asset_status_id,
16:50:08 315  			la.retirement_date,
16:50:08 316  			las.beg_prepaid_rent,
16:50:08 317  			las.prepay_amortization,
16:50:08 318  			las.prepaid_rent,
16:50:08 319  			las.end_prepaid_rent,
16:50:08 320  			las.beg_net_rou_asset,
16:50:08 321  			las.end_net_rou_asset,
16:50:08 322  			la.actual_residual_amount,
16:50:08 323  			la.guaranteed_residual_amount,
16:50:08 324  			la.estimated_residual,
16:50:08 325  			las.rou_asset_remeasurement,
16:50:08 326  			las.partial_term_gain_loss,
16:50:08 327  			las.beg_arrears_accrual,
16:50:08 328  			las.arrears_accrual,
16:50:08 329  			las.end_arrears_accrual,
16:50:08 330  			las.additional_rou_asset,
16:50:08 331  			las.executory_adjust,
16:50:08 332  			las.contingent_adjust,
16:50:08 333  			ilr_effective_rates.in_service_exchange_rate AS effective_in_svc_rate,
16:50:08 334  			First_Value(ilr_effective_rates.in_service_exchange_rate) OVER(PARTITION BY las.ls_asset_id, las.revision, las.set_of_books_id ORDER BY las.MONTH) AS original_in_svc_rate
16:50:08 335  		 FROM	LS_ASSET_SCHEDULE las
16:50:08 336  			JOIN LS_ASSET la ON las.ls_asset_id = la.ls_asset_id
16:50:08 337  			JOIN LS_ILR_OPTIONS opt ON las.revision = opt.revision AND la.ilr_id = opt.ilr_id
16:50:08 338  			left OUTER JOIN LS_DEPR_FORECAST ldf ON las.ls_asset_id = ldf.ls_asset_id
16:50:08 339  							      AND las.revision = ldf.revision
16:50:08 340  							      AND las.set_of_books_id = ldf.set_of_books_id
16:50:08 341  							      AND las.month = ldf.month
16:50:08 342  			left OUTER JOIN ilr_effective_rates ON la.ilr_id = ilr_effective_rates.ilr_id
16:50:08 343  							    AND las.revision = ilr_effective_rates.revision
16:50:08 344  							    AND las.month BETWEEN ilr_effective_rates.effective_month AND ilr_effective_rates.end_effective_month
16:50:08 345  			 ) las
16:50:08 346  	       inner join CURRENCY_SCHEMA cs
16:50:08 347  		       ON las.company_id = cs.company_id
16:50:08 348  	       inner join cur
16:50:08 349  		       ON CUR.currency_id = CASE CUR.ls_cur_type
16:50:08 350  					      WHEN 1 THEN las.contract_currency_id
16:50:08 351  					      WHEN 2 THEN cs.currency_id
16:50:08 352  					      ELSE NULL
16:50:08 353  					    END
16:50:08 354  	       inner join open_month
16:50:08 355  		       ON las.company_id = OPEN_MONTH.company_id
16:50:08 356  	       inner join CURRENCY_RATE_DEFAULT_DENSE cr
16:50:08 357  		       ON CUR.currency_id = cr.currency_to AND
16:50:08 358  			  las.contract_currency_id = cr.currency_from AND
16:50:08 359  			  Trunc( cr.exchange_date, 'MONTH' ) = Trunc( las.month, 'MONTH' )
16:50:08 360  	       inner join cr_now
16:50:08 361  		       ON CUR.currency_id = CR_NOW.currency_to AND
16:50:08 362  			  las.contract_currency_id = CR_NOW.currency_from
16:50:08 363  	       left outer join calc_rate
16:50:08 364  			    ON las.contract_currency_id = CALC_RATE.contract_currency_id AND
16:50:08 365  			       CUR.currency_id = CALC_RATE.company_currency_id AND
16:50:08 366  			       las.company_id = CALC_RATE.company_id AND
16:50:08 367  			       las.month = CALC_RATE.accounting_month
16:50:08 368  	       left outer join calc_avg_rate
16:50:08 369  		       ON las.contract_currency_id = calc_avg_rate.contract_currency_id AND
16:50:08 370  			  CUR.currency_id = calc_avg_rate.company_currency_id AND
16:50:08 371  			  las.company_id = calc_avg_rate.company_id AND
16:50:08 372  			  las.month = calc_avg_rate.accounting_month
16:50:08 373  	       inner join pp_system_control_companies sc
16:50:08 374  		       ON open_month.company_id = sc.company_id AND
16:50:08 375  			  lower(trim(sc.control_name)) = 'lease mc: use average rates'
16:50:08 376  	       left outer join war prior_war
16:50:08 377  		       ON las.ilr_id = prior_war.ilr_id  AND
16:50:08 378  			  las.revision = prior_war.revision AND
16:50:08 379  			  las.set_of_books_id = prior_war.set_of_books_id AND
16:50:08 380  			  add_months(las.month, -1) >= prior_war.effective_month
16:50:08 381  	       left outer join war
16:50:08 382  		       ON las.ilr_id = war.ilr_id  AND
16:50:08 383  			  las.revision = war.revision AND
16:50:08 384  			  las.set_of_books_id = war.set_of_books_id AND
16:50:08 385  			  las.month >= war.effective_month
16:50:08 386  	       inner join CURRENCY_RATE_DEFAULT_DENSE cr_avg
16:50:08 387  		       ON CUR.currency_id = cr_avg.currency_to AND
16:50:08 388  			  las.contract_currency_id = cr_avg.currency_from AND
16:50:08 389  			  Trunc( cr_avg.exchange_date, 'MONTH' ) = Trunc( las.month, 'MONTH' )
16:50:08 390  			  AND cr_avg.exchange_rate_type_id = Decode(lower(sc.CONTROL_VALUE), 'yes', 4, 1)
16:50:08 391  	WHERE  cs.currency_type_id = 1 AND
16:50:08 392  	       cr.exchange_rate_type_id = 1;

View created.

16:50:08 hopplant> 
16:50:08 hopplant> CREATE OR REPLACE FORCE VIEW V_LS_ILR_SCHEDULE_FX_VW AS
16:50:08   2  WITH cur
16:50:08   3  	    AS ( SELECT ls_currency_type_id AS ls_cur_type,
16:50:08   4  			currency_id,
16:50:08   5  			currency_display_symbol,
16:50:08   6  			iso_code,
16:50:08   7  			CASE ls_currency_type_id
16:50:08   8  			  WHEN 1 THEN 1
16:50:08   9  			  ELSE NULL
16:50:08  10  			END		    AS contract_approval_rate
16:50:08  11  		FROM   CURRENCY
16:50:08  12  			cross join LS_LEASE_CURRENCY_TYPE ),
16:50:08  13  	    open_month
16:50:08  14  	    AS ( SELECT company_id,
16:50:08  15  			Min( gl_posting_mo_yr ) open_month
16:50:08  16  		FROM   LS_PROCESS_CONTROL
16:50:08  17  		WHERE  open_next IS NULL
16:50:08  18  		GROUP  BY company_id ),
16:50:08  19  	    calc_rate
16:50:08  20  	    AS ( SELECT a.company_id,
16:50:08  21  			a.contract_currency_id,
16:50:08  22  			a.company_currency_id,
16:50:08  23  			a.accounting_month,
16:50:08  24  			a.exchange_date,
16:50:08  25  			a.rate,
16:50:08  26  			b.rate prev_rate
16:50:08  27  		FROM   LS_LEASE_CALCULATED_DATE_RATES a
16:50:08  28  			left outer join LS_LEASE_CALCULATED_DATE_RATES b
16:50:08  29  				    ON a.company_id = b.company_id AND
16:50:08  30  					a.contract_currency_id = b.contract_currency_id AND
16:50:08  31  					a.accounting_month = Add_months( b.accounting_month, 1 )
16:50:08  32  		WHERE a.exchange_rate_type_id = 1 and b.exchange_rate_type_id = 1),
16:50:08  33  	    cr_now
16:50:08  34  	    AS ( SELECT currency_from,
16:50:08  35  			currency_to,
16:50:08  36  			rate
16:50:08  37  		FROM   ( SELECT currency_from,
16:50:08  38  				currency_to,
16:50:08  39  				rate,
16:50:08  40  				Row_number( )
16:50:08  41  				  over(
16:50:08  42  				    PARTITION BY currency_from, currency_to
16:50:08  43  				    ORDER BY exchange_date DESC ) AS rn
16:50:08  44  			  FROM	 CURRENCY_RATE_DEFAULT_DENSE
16:50:08  45  			  WHERE  Trunc( exchange_date, 'MONTH' ) <= Trunc( SYSDATE, 'MONTH' ) AND
16:50:08  46  				exchange_rate_type_id = 1 )
16:50:08  47  		WHERE  rn = 1 ),
16:50:08  48  	    calc_avg_rate
16:50:08  49  	    AS ( SELECT a.company_id,
16:50:08  50  			a.contract_currency_id,
16:50:08  51  			a.company_currency_id,
16:50:08  52  			a.accounting_month,
16:50:08  53  			a.exchange_date, a.exchange_rate_type_id,
16:50:08  54  			a.rate,
16:50:08  55  			b.rate prev_rate
16:50:08  56  		FROM   LS_LEASE_CALCULATED_DATE_RATES a
16:50:08  57  			left outer join LS_LEASE_CALCULATED_DATE_RATES b
16:50:08  58  				    ON a.company_id = b.company_id AND
16:50:08  59  					a.contract_currency_id = b.contract_currency_id AND
16:50:08  60  					a.accounting_month = Add_months( b.accounting_month, 1 ) AND
16:50:08  61  									 b.exchange_rate_type_id = 4
16:50:08  62  		WHERE a.exchange_rate_type_id = 4 ),
16:50:08  63  	    war
16:50:08  64  	    AS ( SELECT war.ilr_id,
16:50:08  65  			war.revision,
16:50:08  66  			war.set_of_books_id,
16:50:08  67  			war.gross_weighted_avg_rate,
16:50:08  68  			war.net_weighted_avg_rate,
16:50:08  69  			lio.in_service_exchange_rate,
16:50:08  70  			Trunc(Nvl(lio.remeasurement_date, ilr.est_in_svc_date), 'month') effective_month
16:50:08  71  		FROM ls_ilr_weighted_avg_rates war
16:50:08  72  		      JOIN ls_ilr ilr ON war.ilr_id = ilr.ilr_id
16:50:08  73  		      JOIN ls_ilr_options lio ON lio.ilr_id = war.ilr_id AND lio.revision = war.revision
16:50:08  74  		),
16:50:08  75  	    ilr_dates AS (
16:50:08  76  	    SELECT lio.ilr_id, lio.revision,
16:50:08  77  	    Trunc(Nvl(lio.remeasurement_date, ilr.est_in_svc_date), 'month') effective_month,
16:50:08  78  	    lio.in_service_exchange_rate
16:50:08  79  	    FROM ls_ilr_options lio
16:50:08  80  	      JOIN ls_ilr ilr ON ilr.ilr_id = lio.ilr_id
16:50:08  81  	      JOIN ls_ilr_approval lia ON lia.ilr_id = lio.ilr_id AND lia.revision = lio.revision
16:50:08  82  	    WHERE lia.approval_status_id <> 1
16:50:08  83  	  ),
16:50:08  84  	  ilr_effective_rates AS (
16:50:08  85  	    SELECT id2.ilr_id, id1.revision,
16:50:08  86  	    id2.effective_month,
16:50:08  87  	    Nvl(Add_Months(lead(id2.effective_month,1) OVER(PARTITION BY id2.ilr_id, id1.revision ORDER BY id2.effective_month), -1), To_Date('999912', 'yyyymm')) end_effective_month,
16:50:08  88  	    id2.in_service_exchange_rate
16:50:08  89  	    FROM ilr_dates id1
16:50:08  90  	      JOIN ilr_dates id2 ON id1.ilr_id = id2.ilr_id AND id1.effective_month >= id2.effective_month
16:50:08  91  	  )
16:50:08  92  SELECT lis.ilr_id 												     ilr_id,
16:50:08  93  	      lis.ilr_number												      ilr_number,
16:50:08  94  	      lease.lease_id												      lease_id,
16:50:08  95  	      lease.lease_number											      lease_number,
16:50:08  96  	      lis.current_revision											      current_revision,
16:50:08  97  	      lis.revision												      revision,
16:50:08  98  	      lis.set_of_books_id											      set_of_books_id,
16:50:08  99  	      lis.month 												      month,
16:50:08 100  	      OPEN_MONTH.company_id											      company_id,
16:50:08 101  	      OPEN_MONTH.open_month											      open_month,
16:50:08 102  	      CUR.ls_cur_type												      AS ls_cur_type,
16:50:08 103  	      cr.exchange_date												      exchange_date,
16:50:08 104  	      CALC_RATE.exchange_date											      prev_exchange_date,
16:50:08 105  	      lease.contract_currency_id										      contract_currency_id,
16:50:08 106  	      CUR.currency_id												      display_currency_id,
16:50:08 107  	      cr.rate													      rate,
16:50:08 108  	      CALC_RATE.rate												      calculated_rate,
16:50:08 109  	      CALC_RATE.prev_rate											      previous_calculated_rate,
16:50:08 110  	      CALC_AVG_RATE.rate											      calculated_average_rate,
16:50:08 111  	      CALC_AVG_RATE.prev_rate											      previous_calculated_avg_rate,
16:50:08 112  	  Decode(lower(sc.CONTROL_VALUE), 'yes', CALC_AVG_RATE.rate, CALC_RATE.rate)					  average_rate,
16:50:08 113  	      effective_in_svc_rate,
16:50:08 114  	      original_in_svc_rate,
16:50:08 115  	      CUR.iso_code												      iso_code,
16:50:08 116  	      CUR.currency_display_symbol										      currency_display_symbol,
16:50:08 117  	      lis.is_om 												      is_om,
16:50:08 118  	      lis.purchase_option_amt * Nvl( CALC_RATE.rate, cr.rate )							      purchase_option_amt,
16:50:08 119  	      lis.termination_amt * Nvl( CALC_RATE.rate, cr.rate )							      termination_amt,
16:50:08 120  	      lis.net_present_value * Nvl( CALC_RATE.rate, cr.rate )							      net_present_value,
16:50:08 121  	      lis.capital_cost * Nvl( Nvl( CUR.contract_approval_rate, lis.in_service_exchange_rate ), CR_NOW.rate )	      capital_cost,
16:50:08 122  	      lis.beg_capital_cost * Nvl( Nvl( CUR.contract_approval_rate, prior_war.gross_weighted_avg_rate), CR_NOW.rate )  beg_capital_cost,
16:50:08 123  	      lis.end_capital_cost * Nvl( Nvl( CUR.contract_approval_rate, war.gross_weighted_avg_rate), CR_NOW.rate )	      end_capital_cost,
16:50:08 124  	      lis.beg_obligation * Nvl( CALC_RATE.prev_rate, cr.rate )							      beg_obligation,
16:50:08 125  	      lis.end_obligation * Nvl( CALC_RATE.rate, cr.rate )							      end_obligation,
16:50:08 126  	      lis.beg_lt_obligation * Nvl( CALC_RATE.prev_rate, cr.rate )						      beg_lt_obligation,
16:50:08 127  	      lis.end_lt_obligation * Nvl( CALC_RATE.rate, cr.rate )							      end_lt_obligation,
16:50:08 128  	      lis.principal_remeasurement * Nvl( Nvl( CUR.contract_approval_rate, effective_in_svc_rate), CR_NOW.rate )       principal_remeasurement,
16:50:08 129  	      lis.beg_liability * Nvl( CALC_RATE.prev_rate, cr.rate )								   beg_liability,
16:50:08 130  	      lis.end_liability * Nvl( CALC_RATE.rate, cr.rate )							      end_liability,
16:50:08 131  	      lis.beg_lt_liability * Nvl( CALC_RATE.prev_rate, cr.rate )							   beg_lt_liability,
16:50:08 132  	      lis.end_lt_liability * Nvl( CALC_RATE.rate, cr.rate )							      end_lt_liability,
16:50:08 133  	      lis.liability_remeasurement * Nvl( Nvl( CUR.contract_approval_rate, effective_in_svc_rate), CR_NOW.rate )       liability_remeasurement,
16:50:08 134  	      lis.interest_accrual	* Decode(lower(sc.CONTROL_VALUE), 'yes', Nvl( CALC_AVG_RATE.rate, cr_avg.rate ), Nvl( CALC_RATE.rate, cr.rate ))  interest_accrual,
16:50:08 135  	      lis.principal_accrual	* Decode(lower(sc.CONTROL_VALUE), 'yes', Nvl( CALC_AVG_RATE.rate, cr_avg.rate ), Nvl( CALC_RATE.rate, cr.rate ))  principal_accrual,
16:50:08 136  	      lis.interest_paid 	* Decode(lower(sc.CONTROL_VALUE), 'yes', Nvl( CALC_AVG_RATE.rate, cr_avg.rate ), Nvl( CALC_RATE.rate, cr.rate ))  interest_paid,
16:50:08 137  	      lis.principal_paid	* Decode(lower(sc.CONTROL_VALUE), 'yes', Nvl( CALC_AVG_RATE.rate, cr_avg.rate ), Nvl( CALC_RATE.rate, cr.rate ))  principal_paid,
16:50:08 138  	      lis.executory_accrual1	* Decode(lower(sc.CONTROL_VALUE), 'yes', Nvl( CALC_AVG_RATE.rate, cr_avg.rate ), Nvl( CALC_RATE.rate, cr.rate ))  executory_accrual1,
16:50:08 139  	      lis.executory_accrual2	* Decode(lower(sc.CONTROL_VALUE), 'yes', Nvl( CALC_AVG_RATE.rate, cr_avg.rate ), Nvl( CALC_RATE.rate, cr.rate ))  executory_accrual2,
16:50:08 140  	      lis.executory_accrual3	* Decode(lower(sc.CONTROL_VALUE), 'yes', Nvl( CALC_AVG_RATE.rate, cr_avg.rate ), Nvl( CALC_RATE.rate, cr.rate ))  executory_accrual3,
16:50:08 141  	      lis.executory_accrual4	* Decode(lower(sc.CONTROL_VALUE), 'yes', Nvl( CALC_AVG_RATE.rate, cr_avg.rate ), Nvl( CALC_RATE.rate, cr.rate ))  executory_accrual4,
16:50:08 142  	      lis.executory_accrual5	* Decode(lower(sc.CONTROL_VALUE), 'yes', Nvl( CALC_AVG_RATE.rate, cr_avg.rate ), Nvl( CALC_RATE.rate, cr.rate ))  executory_accrual5,
16:50:08 143  	      lis.executory_accrual6	* Decode(lower(sc.CONTROL_VALUE), 'yes', Nvl( CALC_AVG_RATE.rate, cr_avg.rate ), Nvl( CALC_RATE.rate, cr.rate ))  executory_accrual6,
16:50:08 144  	      lis.executory_accrual7	* Decode(lower(sc.CONTROL_VALUE), 'yes', Nvl( CALC_AVG_RATE.rate, cr_avg.rate ), Nvl( CALC_RATE.rate, cr.rate ))  executory_accrual7,
16:50:08 145  	      lis.executory_accrual8	* Decode(lower(sc.CONTROL_VALUE), 'yes', Nvl( CALC_AVG_RATE.rate, cr_avg.rate ), Nvl( CALC_RATE.rate, cr.rate ))  executory_accrual8,
16:50:08 146  	      lis.executory_accrual9	* Decode(lower(sc.CONTROL_VALUE), 'yes', Nvl( CALC_AVG_RATE.rate, cr_avg.rate ), Nvl( CALC_RATE.rate, cr.rate ))  executory_accrual9,
16:50:08 147  	      lis.executory_accrual10	* Decode(lower(sc.CONTROL_VALUE), 'yes', Nvl( CALC_AVG_RATE.rate, cr_avg.rate ), Nvl( CALC_RATE.rate, cr.rate ))  executory_accrual10,
16:50:08 148  	      lis.executory_paid1	* Decode(lower(sc.CONTROL_VALUE), 'yes', Nvl( CALC_AVG_RATE.rate, cr_avg.rate ), Nvl( CALC_RATE.rate, cr.rate ))  executory_paid1,
16:50:08 149  	      lis.executory_paid2	* Decode(lower(sc.CONTROL_VALUE), 'yes', Nvl( CALC_AVG_RATE.rate, cr_avg.rate ), Nvl( CALC_RATE.rate, cr.rate ))  executory_paid2,
16:50:08 150  	      lis.executory_paid3	* Decode(lower(sc.CONTROL_VALUE), 'yes', Nvl( CALC_AVG_RATE.rate, cr_avg.rate ), Nvl( CALC_RATE.rate, cr.rate ))  executory_paid3,
16:50:08 151  	      lis.executory_paid4	* Decode(lower(sc.CONTROL_VALUE), 'yes', Nvl( CALC_AVG_RATE.rate, cr_avg.rate ), Nvl( CALC_RATE.rate, cr.rate ))  executory_paid4,
16:50:08 152  	      lis.executory_paid5	* Decode(lower(sc.CONTROL_VALUE), 'yes', Nvl( CALC_AVG_RATE.rate, cr_avg.rate ), Nvl( CALC_RATE.rate, cr.rate ))  executory_paid5,
16:50:08 153  	      lis.executory_paid6	* Decode(lower(sc.CONTROL_VALUE), 'yes', Nvl( CALC_AVG_RATE.rate, cr_avg.rate ), Nvl( CALC_RATE.rate, cr.rate ))  executory_paid6,
16:50:08 154  	      lis.executory_paid7	* Decode(lower(sc.CONTROL_VALUE), 'yes', Nvl( CALC_AVG_RATE.rate, cr_avg.rate ), Nvl( CALC_RATE.rate, cr.rate ))  executory_paid7,
16:50:08 155  	      lis.executory_paid8	* Decode(lower(sc.CONTROL_VALUE), 'yes', Nvl( CALC_AVG_RATE.rate, cr_avg.rate ), Nvl( CALC_RATE.rate, cr.rate ))  executory_paid8,
16:50:08 156  	      lis.executory_paid9	* Decode(lower(sc.CONTROL_VALUE), 'yes', Nvl( CALC_AVG_RATE.rate, cr_avg.rate ), Nvl( CALC_RATE.rate, cr.rate ))  executory_paid9,
16:50:08 157  	      lis.executory_paid10	* Decode(lower(sc.CONTROL_VALUE), 'yes', Nvl( CALC_AVG_RATE.rate, cr_avg.rate ), Nvl( CALC_RATE.rate, cr.rate ))  executory_paid10,
16:50:08 158  	      lis.contingent_accrual1	* Decode(lower(sc.CONTROL_VALUE), 'yes', Nvl( CALC_AVG_RATE.rate, cr_avg.rate ), Nvl( CALC_RATE.rate, cr.rate ))  contingent_accrual1,
16:50:08 159  	      lis.contingent_accrual2	* Decode(lower(sc.CONTROL_VALUE), 'yes', Nvl( CALC_AVG_RATE.rate, cr_avg.rate ), Nvl( CALC_RATE.rate, cr.rate ))  contingent_accrual2,
16:50:08 160  	      lis.contingent_accrual3	* Decode(lower(sc.CONTROL_VALUE), 'yes', Nvl( CALC_AVG_RATE.rate, cr_avg.rate ), Nvl( CALC_RATE.rate, cr.rate ))  contingent_accrual3,
16:50:08 161  	      lis.contingent_accrual4	* Decode(lower(sc.CONTROL_VALUE), 'yes', Nvl( CALC_AVG_RATE.rate, cr_avg.rate ), Nvl( CALC_RATE.rate, cr.rate ))  contingent_accrual4,
16:50:08 162  	      lis.contingent_accrual5	* Decode(lower(sc.CONTROL_VALUE), 'yes', Nvl( CALC_AVG_RATE.rate, cr_avg.rate ), Nvl( CALC_RATE.rate, cr.rate ))  contingent_accrual5,
16:50:08 163  	      lis.contingent_accrual6	* Decode(lower(sc.CONTROL_VALUE), 'yes', Nvl( CALC_AVG_RATE.rate, cr_avg.rate ), Nvl( CALC_RATE.rate, cr.rate ))  contingent_accrual6,
16:50:08 164  	      lis.contingent_accrual7	* Decode(lower(sc.CONTROL_VALUE), 'yes', Nvl( CALC_AVG_RATE.rate, cr_avg.rate ), Nvl( CALC_RATE.rate, cr.rate ))  contingent_accrual7,
16:50:08 165  	      lis.contingent_accrual8	* Decode(lower(sc.CONTROL_VALUE), 'yes', Nvl( CALC_AVG_RATE.rate, cr_avg.rate ), Nvl( CALC_RATE.rate, cr.rate ))  contingent_accrual8,
16:50:08 166  	      lis.contingent_accrual9	* Decode(lower(sc.CONTROL_VALUE), 'yes', Nvl( CALC_AVG_RATE.rate, cr_avg.rate ), Nvl( CALC_RATE.rate, cr.rate ))  contingent_accrual9,
16:50:08 167  	      lis.contingent_accrual10	* Decode(lower(sc.CONTROL_VALUE), 'yes', Nvl( CALC_AVG_RATE.rate, cr_avg.rate ), Nvl( CALC_RATE.rate, cr.rate ))  contingent_accrual10,
16:50:08 168  	      lis.contingent_paid1	* Decode(lower(sc.CONTROL_VALUE), 'yes', Nvl( CALC_AVG_RATE.rate, cr_avg.rate ), Nvl( CALC_RATE.rate, cr.rate ))  contingent_paid1,
16:50:08 169  	      lis.contingent_paid2	* Decode(lower(sc.CONTROL_VALUE), 'yes', Nvl( CALC_AVG_RATE.rate, cr_avg.rate ), Nvl( CALC_RATE.rate, cr.rate ))  contingent_paid2,
16:50:08 170  	      lis.contingent_paid3	* Decode(lower(sc.CONTROL_VALUE), 'yes', Nvl( CALC_AVG_RATE.rate, cr_avg.rate ), Nvl( CALC_RATE.rate, cr.rate ))  contingent_paid3,
16:50:08 171  	      lis.contingent_paid4	* Decode(lower(sc.CONTROL_VALUE), 'yes', Nvl( CALC_AVG_RATE.rate, cr_avg.rate ), Nvl( CALC_RATE.rate, cr.rate ))  contingent_paid4,
16:50:08 172  	      lis.contingent_paid5	* Decode(lower(sc.CONTROL_VALUE), 'yes', Nvl( CALC_AVG_RATE.rate, cr_avg.rate ), Nvl( CALC_RATE.rate, cr.rate ))  contingent_paid5,
16:50:08 173  	      lis.contingent_paid6	* Decode(lower(sc.CONTROL_VALUE), 'yes', Nvl( CALC_AVG_RATE.rate, cr_avg.rate ), Nvl( CALC_RATE.rate, cr.rate ))  contingent_paid6,
16:50:08 174  	      lis.contingent_paid7	* Decode(lower(sc.CONTROL_VALUE), 'yes', Nvl( CALC_AVG_RATE.rate, cr_avg.rate ), Nvl( CALC_RATE.rate, cr.rate ))  contingent_paid7,
16:50:08 175  	      lis.contingent_paid8	* Decode(lower(sc.CONTROL_VALUE), 'yes', Nvl( CALC_AVG_RATE.rate, cr_avg.rate ), Nvl( CALC_RATE.rate, cr.rate ))  contingent_paid8,
16:50:08 176  	      lis.contingent_paid9	* Decode(lower(sc.CONTROL_VALUE), 'yes', Nvl( CALC_AVG_RATE.rate, cr_avg.rate ), Nvl( CALC_RATE.rate, cr.rate ))  contingent_paid9,
16:50:08 177  	      lis.contingent_paid10	* Decode(lower(sc.CONTROL_VALUE), 'yes', Nvl( CALC_AVG_RATE.rate, cr_avg.rate ), Nvl( CALC_RATE.rate, cr.rate ))  contingent_paid10,
16:50:08 178  	      lis.current_lease_cost	* Nvl( Nvl( CUR.contract_approval_rate, original_in_svc_rate), CR_NOW.rate )  current_lease_cost,
16:50:08 179  	      lis.beg_deferred_rent	* Nvl( CALC_RATE.prev_rate, cr.rate )									      beg_deferred_rent,
16:50:08 180  	      lis.deferred_rent 	* Decode(lower(sc.CONTROL_VALUE), 'yes', Nvl( CALC_AVG_RATE.rate, cr_avg.rate ), Nvl( CALC_RATE.rate, cr.rate ))  deferred_rent,
16:50:08 181  	      lis.end_deferred_rent	* Nvl( CALC_RATE.rate, cr.rate )									 end_deferred_rent,
16:50:08 182  	      lis.beg_st_deferred_rent	* Nvl( CALC_RATE.prev_rate, cr.rate )										   beg_st_deferred_rent,
16:50:08 183  	      lis.end_st_deferred_rent	* Nvl( CALC_RATE.rate, cr.rate )									      end_st_deferred_rent,
16:50:08 184  	      lis.initial_direct_cost	* Decode(lower(sc.CONTROL_VALUE), 'yes', Nvl( CALC_AVG_RATE.rate, cr_avg.rate ), Nvl( CALC_RATE.rate, cr.rate ))  initial_direct_cost,
16:50:08 185  	      lis.incentive_amount	* Decode(lower(sc.CONTROL_VALUE), 'yes', Nvl( CALC_AVG_RATE.rate, cr_avg.rate ), Nvl( CALC_RATE.rate, cr.rate ))  incentive_amount,
16:50:08 186  	      lis.depr_expense		* Nvl( Nvl( CUR.contract_approval_rate, war.net_weighted_avg_rate ), CR_NOW.rate )			   depr_expense,
16:50:08 187  	      lis.begin_reserve 	* Nvl( Nvl( CUR.contract_approval_rate, prior_war.net_weighted_avg_rate ), CR_NOW.rate )			 begin_reserve,
16:50:08 188  	      lis.end_reserve		* Nvl( Nvl( CUR.contract_approval_rate, war.net_weighted_avg_rate ), CR_NOW.rate )			   end_reserve,
16:50:08 189  	      lis.depr_exp_alloc_adjust * Nvl( Nvl( CUR.contract_approval_rate, war.net_weighted_avg_rate ), CR_NOW.rate )			   depr_exp_alloc_adjust,
16:50:08 190  	      lis.beg_prepaid_rent	* Nvl( CALC_RATE.prev_rate, cr.rate )									      beg_prepaid_rent,
16:50:08 191  	      lis.prepay_amortization	* Decode(lower(sc.CONTROL_VALUE), 'yes', Nvl( CALC_AVG_RATE.rate, cr_avg.rate ), Nvl( CALC_RATE.rate, cr.rate ))  prepay_amortization,
16:50:08 192  	      lis.prepaid_rent		* Decode(lower(sc.CONTROL_VALUE), 'yes', Nvl( CALC_AVG_RATE.rate, cr_avg.rate ), Nvl( CALC_RATE.rate, cr.rate ))  prepaid_rent,
16:50:08 193  	      lis.end_prepaid_rent	* Nvl( CALC_RATE.rate, cr.rate )									      end_prepaid_rent,
16:50:08 194  	      lis.beg_net_rou_asset	* Nvl( Nvl( CUR.contract_approval_rate, prior_war.net_weighted_avg_rate ), CR_NOW.rate )		      beg_net_rou_asset,
16:50:08 195  	      lis.end_net_rou_asset	* Nvl( Nvl( CUR.contract_approval_rate, war.net_weighted_avg_rate ), CR_NOW.rate )			      end_net_rou_asset,
16:50:08 196  	      lis.rou_asset_remeasurement * Nvl( Nvl( CUR.contract_approval_rate, effective_in_svc_rate), CR_NOW.rate ) 			  rou_asset_remeasurement,
16:50:08 197  	      lis.partial_term_gain_loss  * Nvl( Nvl( CUR.contract_approval_rate, effective_in_svc_rate), CR_NOW.rate ) 			  partial_term_gain_loss,
16:50:08 198  	      lis.beg_arrears_accrual	* Nvl( CALC_RATE.prev_rate, cr.rate )									      beg_arrears_accrual,
16:50:08 199  	      lis.arrears_accrual	* Decode(lower(sc.CONTROL_VALUE), 'yes', Nvl( CALC_AVG_RATE.rate, cr_avg.rate ), Nvl( CALC_RATE.rate, cr.rate ))  arrears_accrual,
16:50:08 200  	      lis.end_arrears_accrual	* Nvl( CALC_RATE.rate, cr.rate )									      end_arrears_accrual,
16:50:08 201  	      lis.additional_rou_asset	* Nvl( Nvl( CUR.contract_approval_rate, lis.in_service_exchange_rate ), CR_NOW.rate )			      additional_rou_asset,
16:50:08 202  	      lis.executory_adjust	* Decode(lower(sc.CONTROL_VALUE), 'yes', Nvl( CALC_AVG_RATE.rate, cr_avg.rate ), Nvl( CALC_RATE.rate, cr.rate ))   executory_adjust,
16:50:08 203  	      lis.contingent_adjust	* Decode(lower(sc.CONTROL_VALUE), 'yes', Nvl( CALC_AVG_RATE.rate, cr_avg.rate ), Nvl( CALC_RATE.rate, cr.rate ))   contingent_adjust,
16:50:08 204  	      (
16:50:08 205  		    (lis.end_liability	   * Nvl( CALC_RATE.rate, cr.rate ))
16:50:08 206  		  - (lis.beg_liability	 * Nvl( CALC_RATE.prev_rate, cr.rate ))
16:50:08 207  		  - (lis.interest_accrual * Decode(lower(sc.CONTROL_VALUE), 'yes', Nvl( CALC_AVG_RATE.rate, cr_avg.rate ), Nvl( CALC_RATE.rate, cr.rate )))
16:50:08 208  		  + (lis.interest_paid	  * Decode(lower(sc.CONTROL_VALUE), 'yes', Nvl( CALC_AVG_RATE.rate, cr_avg.rate ), Nvl( CALC_RATE.rate, cr.rate )))
16:50:08 209  		  + (lis.principal_paid   * Decode(lower(sc.CONTROL_VALUE), 'yes', Nvl( CALC_AVG_RATE.rate, cr_avg.rate ), Nvl( CALC_RATE.rate, cr.rate )))
16:50:08 210  		) gain_loss_fx,
16:50:08 211  		(
16:50:08 212  		  ((lis.end_liability	  * Nvl( CALC_RATE.rate, cr.rate )) - (lis.end_lt_liability * Nvl( CALC_RATE.rate, cr.rate )))
16:50:08 213  		  - ((lis.beg_liability   * Nvl( CALC_RATE.prev_rate, cr.rate )) - (lis.beg_lt_liability * Nvl( CALC_RATE.prev_rate, cr.rate )))
16:50:08 214  		  - (lis.interest_accrual * Decode(lower(sc.CONTROL_VALUE), 'yes', Nvl( CALC_AVG_RATE.rate, cr_avg.rate ), Nvl( CALC_RATE.rate, cr.rate )))
16:50:08 215  		  + (lis.interest_paid	  * Decode(lower(sc.CONTROL_VALUE), 'yes', Nvl( CALC_AVG_RATE.rate, cr_avg.rate ), Nvl( CALC_RATE.rate, cr.rate )))
16:50:08 216  		  + (lis.principal_paid   * Decode(lower(sc.CONTROL_VALUE), 'yes', Nvl( CALC_AVG_RATE.rate, cr_avg.rate ), Nvl( CALC_RATE.rate, cr.rate )))
16:50:08 217  		  - ((lis.beg_lt_liability - lis.end_lt_liability) * NVL( CALC_RATE.rate, cr.rate))
16:50:08 218  		) st_currency_gain_loss,
16:50:08 219  		(
16:50:08 220  		    (lis.end_lt_liability * Nvl( CALC_RATE.rate, cr.rate ))
16:50:08 221  		  - (lis.beg_lt_liability * Nvl( CALC_RATE.prev_rate, cr.rate ))
16:50:08 222  		  + ((lis.beg_lt_liability - lis.end_lt_liability) * NVL( CALC_RATE.rate, cr.rate))
16:50:08 223  		) lt_currency_gain_loss
16:50:08 224  FROM   ( SELECT a.ilr_id,
16:50:08 225  		      a.ilr_number,
16:50:08 226  		      a.current_revision,
16:50:08 227  		      a.revision,
16:50:08 228  		      a.set_of_books_id,
16:50:08 229  		      a.month,
16:50:08 230  		      a.beg_capital_cost,
16:50:08 231  		      a.end_capital_cost,
16:50:08 232  		      a.beg_obligation,
16:50:08 233  		      a.end_obligation,
16:50:08 234  		      a.beg_lt_obligation,
16:50:08 235  		      a.end_lt_obligation,
16:50:08 236  		      a.principal_remeasurement,
16:50:08 237  		      a.beg_liability,
16:50:08 238  		      a.end_liability,
16:50:08 239  		      a.beg_lt_liability,
16:50:08 240  		      a.end_lt_liability,
16:50:08 241  		      a.liability_remeasurement,
16:50:08 242  		      a.interest_accrual,
16:50:08 243  		      a.principal_accrual,
16:50:08 244  		      a.interest_paid,
16:50:08 245  		      a.principal_paid,
16:50:08 246  		      a.executory_accrual1,
16:50:08 247  		      a.executory_accrual2,
16:50:08 248  		      a.executory_accrual3,
16:50:08 249  		      a.executory_accrual4,
16:50:08 250  		      a.executory_accrual5,
16:50:08 251  		      a.executory_accrual6,
16:50:08 252  		      a.executory_accrual7,
16:50:08 253  		      a.executory_accrual8,
16:50:08 254  		      a.executory_accrual9,
16:50:08 255  		      a.executory_accrual10,
16:50:08 256  		      a.executory_paid1,
16:50:08 257  		      a.executory_paid2,
16:50:08 258  		      a.executory_paid3,
16:50:08 259  		      a.executory_paid4,
16:50:08 260  		      a.executory_paid5,
16:50:08 261  		      a.executory_paid6,
16:50:08 262  		      a.executory_paid7,
16:50:08 263  		      a.executory_paid8,
16:50:08 264  		      a.executory_paid9,
16:50:08 265  		      a.executory_paid10,
16:50:08 266  		      a.contingent_accrual1,
16:50:08 267  		      a.contingent_accrual2,
16:50:08 268  		      a.contingent_accrual3,
16:50:08 269  		      a.contingent_accrual4,
16:50:08 270  		      a.contingent_accrual5,
16:50:08 271  		      a.contingent_accrual6,
16:50:08 272  		      a.contingent_accrual7,
16:50:08 273  		      a.contingent_accrual8,
16:50:08 274  		      a.contingent_accrual9,
16:50:08 275  		      a.contingent_accrual10,
16:50:08 276  		      a.contingent_paid1,
16:50:08 277  		      a.contingent_paid2,
16:50:08 278  		      a.contingent_paid3,
16:50:08 279  		      a.contingent_paid4,
16:50:08 280  		      a.contingent_paid5,
16:50:08 281  		      a.contingent_paid6,
16:50:08 282  		      a.contingent_paid7,
16:50:08 283  		      a.contingent_paid8,
16:50:08 284  		      a.contingent_paid9,
16:50:08 285  		      a.contingent_paid10,
16:50:08 286  		      a.current_lease_cost,
16:50:08 287  		      a.beg_deferred_rent,
16:50:08 288  		      a.deferred_rent,
16:50:08 289  		      a.end_deferred_rent,
16:50:08 290  		      a.beg_st_deferred_rent,
16:50:08 291  		      a.end_st_deferred_rent,
16:50:08 292  		      a.initial_direct_cost,
16:50:08 293  		      a.incentive_amount,
16:50:08 294  		      depr.depr_expense,
16:50:08 295  		      depr.begin_reserve,
16:50:08 296  		      depr.end_reserve,
16:50:08 297  		      depr.depr_exp_alloc_adjust,
16:50:08 298  		      a.lease_id,
16:50:08 299  		      a.company_id,
16:50:08 300  		      a.in_service_exchange_rate,
16:50:08 301  		      a.purchase_option_amt,
16:50:08 302  		      a.termination_amt,
16:50:08 303  		      a.net_present_value,
16:50:08 304  		      a.capital_cost,
16:50:08 305  		      a.is_om,
16:50:08 306  		      a.beg_prepaid_rent,
16:50:08 307  		      a.prepay_amortization,
16:50:08 308  		      a.prepaid_rent,
16:50:08 309  		      a.end_prepaid_rent,
16:50:08 310  		      a.beg_net_rou_asset,
16:50:08 311  		      a.end_net_rou_asset ,
16:50:08 312  		      a.rou_asset_remeasurement,
16:50:08 313  		      a.partial_term_gain_loss,
16:50:08 314  		      a.beg_arrears_accrual,
16:50:08 315  		      a.arrears_accrual,
16:50:08 316  		      a.end_arrears_accrual,
16:50:08 317  		      a.additional_rou_asset,
16:50:08 318  		      a.executory_adjust,
16:50:08 319  		      a.contingent_adjust,
16:50:08 320  		      a.effective_in_svc_rate,
16:50:08 321  		      a.original_in_svc_rate
16:50:08 322  		FROM   ( SELECT lis.ilr_id,
16:50:08 323  				ilr.ilr_number,
16:50:08 324  				ilr.current_revision,
16:50:08 325  				lis.revision,
16:50:08 326  				lis.set_of_books_id,
16:50:08 327  				lis.month,
16:50:08 328  				lis.beg_capital_cost,
16:50:08 329  				lis.end_capital_cost,
16:50:08 330  				lis.beg_obligation,
16:50:08 331  				lis.end_obligation,
16:50:08 332  				lis.beg_lt_obligation,
16:50:08 333  				lis.end_lt_obligation,
16:50:08 334  				lis.principal_remeasurement,
16:50:08 335  				lis.beg_liability,
16:50:08 336  				lis.end_liability,
16:50:08 337  				lis.beg_lt_liability,
16:50:08 338  				lis.end_lt_liability,
16:50:08 339  				lis.liability_remeasurement,
16:50:08 340  				lis.interest_accrual,
16:50:08 341  				lis.principal_accrual,
16:50:08 342  				lis.interest_paid,
16:50:08 343  				lis.principal_paid,
16:50:08 344  				lis.executory_accrual1,
16:50:08 345  				lis.executory_accrual2,
16:50:08 346  				lis.executory_accrual3,
16:50:08 347  				lis.executory_accrual4,
16:50:08 348  				lis.executory_accrual5,
16:50:08 349  				lis.executory_accrual6,
16:50:08 350  				lis.executory_accrual7,
16:50:08 351  				lis.executory_accrual8,
16:50:08 352  				lis.executory_accrual9,
16:50:08 353  				lis.executory_accrual10,
16:50:08 354  				lis.executory_paid1,
16:50:08 355  				lis.executory_paid2,
16:50:08 356  				lis.executory_paid3,
16:50:08 357  				lis.executory_paid4,
16:50:08 358  				lis.executory_paid5,
16:50:08 359  				lis.executory_paid6,
16:50:08 360  				lis.executory_paid7,
16:50:08 361  				lis.executory_paid8,
16:50:08 362  				lis.executory_paid9,
16:50:08 363  				lis.executory_paid10,
16:50:08 364  				lis.contingent_accrual1,
16:50:08 365  				lis.contingent_accrual2,
16:50:08 366  				lis.contingent_accrual3,
16:50:08 367  				lis.contingent_accrual4,
16:50:08 368  				lis.contingent_accrual5,
16:50:08 369  				lis.contingent_accrual6,
16:50:08 370  				lis.contingent_accrual7,
16:50:08 371  				lis.contingent_accrual8,
16:50:08 372  				lis.contingent_accrual9,
16:50:08 373  				lis.contingent_accrual10,
16:50:08 374  				lis.contingent_paid1,
16:50:08 375  				lis.contingent_paid2,
16:50:08 376  				lis.contingent_paid3,
16:50:08 377  				lis.contingent_paid4,
16:50:08 378  				lis.contingent_paid5,
16:50:08 379  				lis.contingent_paid6,
16:50:08 380  				lis.contingent_paid7,
16:50:08 381  				lis.contingent_paid8,
16:50:08 382  				lis.contingent_paid9,
16:50:08 383  				lis.contingent_paid10,
16:50:08 384  				lis.current_lease_cost,
16:50:08 385  				lis.beg_deferred_rent,
16:50:08 386  				lis.deferred_rent,
16:50:08 387  				lis.end_deferred_rent,
16:50:08 388  				lis.beg_st_deferred_rent,
16:50:08 389  				lis.end_st_deferred_rent,
16:50:08 390  				lis.initial_direct_cost,
16:50:08 391  				lis.incentive_amount,
16:50:08 392  				ilr.lease_id,
16:50:08 393  				ilr.company_id,
16:50:08 394  				opt.in_service_exchange_rate,
16:50:08 395  				opt.purchase_option_amt,
16:50:08 396  				opt.termination_amt,
16:50:08 397  				liasob.net_present_value,
16:50:08 398  				liasob.capital_cost,
16:50:09 399  				lis.is_om,
16:50:09 400  				lis.beg_prepaid_rent,
16:50:09 401  				lis.prepay_amortization,
16:50:09 402  				lis.prepaid_rent,
16:50:09 403  				lis.end_prepaid_rent,
16:50:09 404  				lis.beg_net_rou_asset,
16:50:09 405  				lis.end_net_rou_asset ,
16:50:09 406  		    lis.rou_asset_remeasurement,
16:50:09 407  				lis.partial_term_gain_loss,
16:50:09 408  				lis.beg_arrears_accrual,
16:50:09 409  				lis.arrears_accrual,
16:50:09 410  				lis.end_arrears_accrual,
16:50:09 411  				lis.additional_rou_asset,
16:50:09 412  				lis.executory_adjust,
16:50:09 413  				lis.contingent_adjust,
16:50:09 414  				ilr_effective_rates.in_service_exchange_rate AS effective_in_svc_rate,
16:50:09 415  				First_Value(ilr_effective_rates.in_service_exchange_rate) OVER(PARTITION BY lis.ilr_id, lis.revision ORDER BY lis.MONTH) AS original_in_svc_rate
16:50:09 416  			FROM   LS_ILR_SCHEDULE lis
16:50:09 417  				JOIN LS_ILR_OPTIONS opt ON lis.ilr_id = opt.ilr_id AND lis.revision = opt.revision
16:50:09 418  				JOIN LS_ILR_AMOUNTS_SET_OF_BOOKS liasob ON lis.ilr_id = liasob.ilr_id AND lis.revision = liasob.revision AND lis.set_of_books_id = liasob.set_of_books_id
16:50:09 419  				JOIN LS_ILR ilr ON lis.ilr_id = ilr.ilr_id
16:50:09 420  				JOIN LS_LEASE lease ON ilr.lease_id = lease.lease_id
16:50:09 421  				left OUTER JOIN ilr_effective_rates ON lis.ilr_id = ilr_effective_rates.ilr_id
16:50:09 422  							    AND lis.revision= ilr_effective_rates.revision
16:50:09 423  							    AND lis.MONTH BETWEEN ilr_effective_rates.effective_month AND ilr_effective_rates.end_effective_month
16:50:09 424  				) a
16:50:09 425  		      left outer join ( SELECT la.ilr_id,
16:50:09 426  						ldf.revision,
16:50:09 427  						ldf.set_of_books_id,
16:50:09 428  						ldf.month,
16:50:09 429  						SUM( ldf.depr_expense ) 	 AS depr_expense,
16:50:09 430  						SUM( ldf.begin_reserve )	 AS begin_reserve,
16:50:09 431  						SUM( ldf.end_reserve )		 AS end_reserve,
16:50:09 432  						SUM( ldf.depr_exp_alloc_adjust ) AS depr_exp_alloc_adjust
16:50:09 433  					FROM   LS_ASSET la,
16:50:09 434  						LS_DEPR_FORECAST ldf
16:50:09 435  					WHERE  la.ls_asset_id = ldf.ls_asset_id
16:50:09 436  					GROUP  BY la.ilr_id,ldf.revision,ldf.set_of_books_id,ldf.month ) depr
16:50:09 437  				    ON a.ilr_id = depr.ilr_id AND
16:50:09 438  				      a.revision = depr.revision AND
16:50:09 439  				      a.set_of_books_id = depr.set_of_books_id AND
16:50:09 440  				      a.month = depr.month ) lis
16:50:09 441  	      inner join LS_LEASE lease
16:50:09 442  		      ON lis.lease_id = lease.lease_id
16:50:09 443  	      inner join CURRENCY_SCHEMA cs
16:50:09 444  		      ON lis.company_id = cs.company_id
16:50:09 445  	      inner join cur
16:50:09 446  		      ON CUR.currency_id = CASE CUR.ls_cur_type
16:50:09 447  					    WHEN 1 THEN lease.contract_currency_id
16:50:09 448  					    WHEN 2 THEN cs.currency_id
16:50:09 449  					    ELSE NULL
16:50:09 450  					  END
16:50:09 451  	      inner join open_month
16:50:09 452  		      ON lis.company_id = OPEN_MONTH.company_id
16:50:09 453  	      inner join CURRENCY_RATE_DEFAULT_DENSE cr
16:50:09 454  		      ON CUR.currency_id = cr.currency_to AND
16:50:09 455  			lease.contract_currency_id = cr.currency_from AND
16:50:09 456  			Trunc( cr.exchange_date, 'MONTH' ) = Trunc( lis.month, 'MONTH' )
16:50:09 457  	      inner join cr_now
16:50:09 458  		      ON CUR.currency_id = CR_NOW.currency_to AND
16:50:09 459  			lease.contract_currency_id = CR_NOW.currency_from
16:50:09 460  	      left outer join calc_rate
16:50:09 461  			  ON lease.contract_currency_id = CALC_RATE.contract_currency_id AND
16:50:09 462  			      CUR.currency_id = CALC_RATE.company_currency_id AND
16:50:09 463  			      lis.company_id = CALC_RATE.company_id AND
16:50:09 464  			      lis.month = CALC_RATE.accounting_month
16:50:09 465  	      left outer join calc_avg_rate
16:50:09 466  			  ON lease.contract_currency_id = calc_avg_rate.contract_currency_id AND
16:50:09 467  			      CUR.currency_id = calc_avg_rate.company_currency_id AND
16:50:09 468  			      lis.company_id = calc_avg_rate.company_id AND
16:50:09 469  			      lis.month = calc_avg_rate.accounting_month
16:50:09 470  	      inner join pp_system_control_companies sc
16:50:09 471  			ON open_month.company_id = sc.company_id AND
16:50:09 472  		lower(trim(sc.control_name)) = 'lease mc: use average rates'
16:50:09 473  	      left outer join war prior_war
16:50:09 474  		      ON lis.ilr_id = prior_war.ilr_id	AND
16:50:09 475  			lis.revision = prior_war.revision AND
16:50:09 476  			lis.set_of_books_id = prior_war.set_of_books_id AND
16:50:09 477  			add_months(lis.month, -1) >= prior_war.effective_month
16:50:09 478  	      left outer join war
16:50:09 479  		      ON lis.ilr_id = war.ilr_id  AND
16:50:09 480  			lis.revision = war.revision AND
16:50:09 481  			lis.set_of_books_id = war.set_of_books_id AND
16:50:09 482  			lis.month >= war.effective_month
16:50:09 483  	      inner join CURRENCY_RATE_DEFAULT_DENSE cr_avg
16:50:09 484  		      ON CUR.currency_id = cr_avg.currency_to AND
16:50:09 485  			lease.contract_currency_id = cr_avg.currency_from AND
16:50:09 486  			Trunc( cr_avg.exchange_date, 'MONTH' ) = Trunc( lis.month, 'MONTH' )
16:50:09 487  			AND cr_avg.exchange_rate_type_id = Decode(lower(sc.CONTROL_VALUE), 'yes', 4, 1)
16:50:09 488  WHERE  cs.currency_type_id = 1 AND
16:50:09 489  	      cr.exchange_rate_type_id = 1;

View created.

16:50:09 hopplant> 
16:50:09 hopplant> --****************************************************
16:50:09 hopplant> --Log the run of the script to local PP_SCHEMA_LOG
16:50:09 hopplant> --****************************************************
16:50:09 hopplant> INSERT INTO PP_SCHEMA_CHANGE_LOG
16:50:09   2  	  (ID, SKIPPED, MAJOR_VERSION, MINOR_VERSION, POINT_VERSION, PATCH_VERSION, MAINT_NUM, SCRIPT_PATH,
16:50:09   3  	  SCRIPT_NAME, SCRIPT_REVISION, DATE_APPLIED, OS_USER, TERMINAL, SERVICE_NAME)
16:50:09   4  VALUES
16:50:09   5  	  (8584, 0, 2017, 4, 0, 0, 52036, 'C:\PlasticWks\powerplant\sql\maint_scripts', '2017.4.0.0_maint_052036_lessee_01_asset_ilr_mc_schedule_ddl.sql', 1,
16:50:09   6  	  SYSTIMESTAMP, SYS_CONTEXT('USERENV', 'OS_USER'), SYS_CONTEXT('USERENV', 'TERMINAL'),
16:50:09   7  	  SYS_CONTEXT('USERENV', 'SERVICE_NAME'));

1 row created.

16:50:09 hopplant> COMMIT;

Commit complete.

16:50:09 hopplant> SPOOL OFF
