15:49:56 hopplant> @&&PP_SCRIPT_PATH.maint_scripts\2017.1.0.0_maint_047498_lease_01_update_V_MULTICURRENCY_LS_ASSET_INNER.sql
15:49:56 hopplant> /*
15:49:56 hopplant> ||============================================================================
15:49:56 hopplant> || Application: PowerPlan
15:49:56 hopplant> || File Name:   maint_047498_lease_01_update_V_MULTICURRENCY_LS_ASSET_INNER.sql
15:49:56 hopplant> ||============================================================================
15:49:56 hopplant> || Copyright (C) 2017 by PowerPlan, Inc. All Rights Reserved.
15:49:56 hopplant> ||============================================================================
15:49:56 hopplant> || Version	 Date	    Revised By	     Reason for Change
15:49:56 hopplant> || ---------- ---------- ---------------- ------------------------------------
15:49:56 hopplant> || 2017.1.0.0 06/13/2017 Charlie Shilling add fields to view
15:49:56 hopplant> ||============================================================================
15:49:56 hopplant> */
15:49:56 hopplant> CREATE OR REPLACE VIEW v_multicurrency_ls_asset_inner (
15:49:56   2  	ilr_id,
15:49:56   3  	ls_asset_id,
15:49:56   4  	revision,
15:49:56   5  	set_of_books_id,
15:49:56   6  	month,
15:49:56   7  	contract_currency_id,
15:49:56   8  	residual_amount,
15:49:56   9  	term_penalty,
15:49:56  10  	bpo_price,
15:49:56  11  	beg_capital_cost,
15:49:56  12  	end_capital_cost,
15:49:56  13  	beg_obligation,
15:49:56  14  	end_obligation,
15:49:56  15  	beg_lt_obligation,
15:49:56  16  	end_lt_obligation,
15:49:56  17  	interest_accrual,
15:49:56  18  	principal_accrual,
15:49:56  19  	interest_paid,
15:49:56  20  	principal_paid,
15:49:56  21  	executory_accrual1,
15:49:56  22  	executory_accrual2,
15:49:57  23  	executory_accrual3,
15:49:57  24  	executory_accrual4,
15:49:57  25  	executory_accrual5,
15:49:57  26  	executory_accrual6,
15:49:57  27  	executory_accrual7,
15:49:57  28  	executory_accrual8,
15:49:57  29  	executory_accrual9,
15:49:57  30  	executory_accrual10,
15:49:57  31  	executory_paid1,
15:49:57  32  	executory_paid2,
15:49:57  33  	executory_paid3,
15:49:57  34  	executory_paid4,
15:49:57  35  	executory_paid5,
15:49:57  36  	executory_paid6,
15:49:57  37  	executory_paid7,
15:49:57  38  	executory_paid8,
15:49:57  39  	executory_paid9,
15:49:57  40  	executory_paid10,
15:49:57  41  	contingent_accrual1,
15:49:57  42  	contingent_accrual2,
15:49:57  43  	contingent_accrual3,
15:49:57  44  	contingent_accrual4,
15:49:57  45  	contingent_accrual5,
15:49:57  46  	contingent_accrual6,
15:49:57  47  	contingent_accrual7,
15:49:57  48  	contingent_accrual8,
15:49:57  49  	contingent_accrual9,
15:49:57  50  	contingent_accrual10,
15:49:57  51  	contingent_paid1,
15:49:57  52  	contingent_paid2,
15:49:57  53  	contingent_paid3,
15:49:57  54  	contingent_paid4,
15:49:57  55  	contingent_paid5,
15:49:57  56  	contingent_paid6,
15:49:57  57  	contingent_paid7,
15:49:57  58  	contingent_paid8,
15:49:57  59  	contingent_paid9,
15:49:57  60  	contingent_paid10,
15:49:57  61  	current_lease_cost,
15:49:57  62  	depr_expense,
15:49:57  63  	begin_reserve,
15:49:57  64  	end_reserve,
15:49:57  65  	depr_exp_alloc_adjust,
15:49:57  66  	company_id,
15:49:57  67  	in_service_exchange_rate,
15:49:57  68  	asset_description,
15:49:57  69  	leased_asset_number,
15:49:57  70  	fmv
15:49:57  71  ) AS
15:49:57  72  with depr AS (
15:49:57  73  	SELECT	/*+ materialize */ ls_asset_id,
15:49:57  74  	       revision,
15:49:57  75  		       set_of_books_id,
15:49:57  76  	       month,
15:49:57  77  		       depr_expense,
15:49:57  78  	       begin_reserve,
15:49:57  79  	       end_reserve,
15:49:57  80  	       depr_exp_alloc_adjust
15:49:57  81  	FROM ls_depr_forecast ldf
15:49:57  82  )
15:49:57  83  select /*+ NO_MERGE */
15:49:57  84  	la.ilr_id,
15:49:57  85  	las.ls_asset_id,
15:49:57  86  	las.revision,
15:49:57  87  	las.set_of_books_id,
15:49:57  88  	las.MONTH,
15:49:57  89  	la.contract_currency_id,
15:49:57  90  	las.residual_amount,
15:49:57  91  	las.term_penalty,
15:49:57  92  	las.bpo_price,
15:49:57  93  	las.beg_capital_cost,
15:49:57  94  	las.end_capital_cost,
15:49:57  95  	las.beg_obligation,
15:49:57  96  	las.end_obligation,
15:49:57  97  	las.beg_lt_obligation,
15:49:57  98  	las.end_lt_obligation,
15:49:57  99  	las.interest_accrual,
15:49:57 100  	las.principal_accrual,
15:49:57 101  	las.interest_paid,
15:49:57 102  	las.principal_paid,
15:49:57 103  	las.executory_accrual1,
15:49:57 104  	las.executory_accrual2,
15:49:57 105  	las.executory_accrual3,
15:49:57 106  	las.executory_accrual4,
15:49:57 107  	las.executory_accrual5,
15:49:57 108  	las.executory_accrual6,
15:49:57 109  	las.executory_accrual7,
15:49:57 110  	las.executory_accrual8,
15:49:57 111  	las.executory_accrual9,
15:49:57 112  	las.executory_accrual10,
15:49:57 113  	las.executory_paid1,
15:49:57 114  	las.executory_paid2,
15:49:57 115  	las.executory_paid3,
15:49:57 116  	las.executory_paid4,
15:49:57 117  	las.executory_paid5,
15:49:57 118  	las.executory_paid6,
15:49:57 119  	las.executory_paid7,
15:49:57 120  	las.executory_paid8,
15:49:57 121  	las.executory_paid9,
15:49:57 122  	las.executory_paid10,
15:49:57 123  	las.contingent_accrual1,
15:49:57 124  	las.contingent_accrual2,
15:49:57 125  	las.contingent_accrual3,
15:49:57 126  	las.contingent_accrual4,
15:49:57 127  	las.contingent_accrual5,
15:49:57 128  	las.contingent_accrual6,
15:49:57 129  	las.contingent_accrual7,
15:49:57 130  	las.contingent_accrual8,
15:49:57 131  	las.contingent_accrual9,
15:49:57 132  	las.contingent_accrual10,
15:49:57 133  	las.contingent_paid1,
15:49:57 134  	las.contingent_paid2,
15:49:57 135  	las.contingent_paid3,
15:49:57 136  	las.contingent_paid4,
15:49:57 137  	las.contingent_paid5,
15:49:57 138  	las.contingent_paid6,
15:49:57 139  	las.contingent_paid7,
15:49:57 140  	las.contingent_paid8,
15:49:57 141  	las.contingent_paid9,
15:49:57 142  	las.contingent_paid10,
15:49:57 143  	las.current_lease_cost,
15:49:57 144  	depr.depr_expense,
15:49:57 145  	depr.begin_reserve,
15:49:57 146  	depr.end_reserve,
15:49:57 147  	depr.depr_exp_alloc_adjust,
15:49:57 148  	la.company_id,
15:49:57 149  	opt.in_service_exchange_rate,
15:49:57 150  	la.description,
15:49:57 151  	la.leased_asset_number,
15:49:57 152  	la.fmv
15:49:57 153  FROM ls_asset_schedule las
15:49:57 154  INNER JOIN ls_asset la
15:49:57 155  	ON las.ls_asset_id = la.ls_asset_id
15:49:57 156  INNER JOIN ls_ilr_options opt
15:49:57 157  	ON la.ilr_id = opt.ilr_id
15:49:57 158  	AND las.revision = opt.revision
15:49:57 159  LEFT OUTER JOIN depr
15:49:57 160  	ON las.ls_asset_id = depr.ls_asset_id
15:49:57 161  	AND las.revision = depr.revision
15:49:57 162  	AND las.set_of_books_id = depr.set_of_books_id
15:49:57 163  	AND las.month = depr.month
15:49:57 164  ;

View created.

15:49:57 hopplant> 
15:49:57 hopplant> 
15:49:57 hopplant> --****************************************************
15:49:57 hopplant> --Log the run of the script to local PP_SCHEMA_LOG
15:49:57 hopplant> --****************************************************
15:49:57 hopplant> INSERT INTO PP_SCHEMA_CHANGE_LOG
15:49:57   2  	      (ID, SKIPPED, MAJOR_VERSION, MINOR_VERSION, POINT_VERSION, PATCH_VERSION, MAINT_NUM, SCRIPT_PATH,
15:49:57   3  	      SCRIPT_NAME, SCRIPT_REVISION, DATE_APPLIED, OS_USER, TERMINAL, SERVICE_NAME)
15:49:57   4  VALUES
15:49:57   5  	      (3524, 0, 2017, 1, 0, 0, 47498, 'C:\PlasticWks\powerplant\sql\maint_scripts', '2017.1.0.0_maint_047498_lease_01_update_V_MULTICURRENCY_LS_ASSET_INNER.sql', 1,
15:49:57   6  	      SYSTIMESTAMP, SYS_CONTEXT('USERENV', 'OS_USER'), SYS_CONTEXT('USERENV', 'TERMINAL'),
15:49:57   7  	      SYS_CONTEXT('USERENV', 'SERVICE_NAME'));

1 row created.

15:49:57 hopplant> COMMIT;

Commit complete.

15:49:57 hopplant> SPOOL OFF
