15:51:58 hopplant> @&&PP_SCRIPT_PATH.maint_scripts\2017.1.0.0_maint_048782_lessor_02_receivable_bucket_admin_dml.sql
15:51:58 hopplant> /*
15:51:58 hopplant> ||============================================================================
15:51:58 hopplant> || Application: PowerPlan
15:51:58 hopplant> || File Name:   maint_048782_lessor_02_receivable_bucket_admin_dml.sql
15:51:58 hopplant> ||============================================================================
15:51:58 hopplant> || Copyright (C) 2017 by PowerPlan, Inc. All Rights Reserved.
15:51:58 hopplant> ||============================================================================
15:51:58 hopplant> || Version	 Date	    Revised By	     Reason for Change
15:51:58 hopplant> || ---------- ---------- ---------------- ------------------------------------
15:51:58 hopplant> || 2017.1.0.0 09/11/2017 Shane Ward	     Create Receivable Bucket Maint workspace for Lessor
15:51:58 hopplant> ||============================================================================
15:51:58 hopplant> */
15:51:58 hopplant> 
15:51:58 hopplant> --Remove old Table Maint from Lessor
15:51:58 hopplant> DELETE FROM ppbase_menu_items WHERE Upper(MODULE) = 'LESSOR' AND menu_identifier = 'admin_table_maint';

1 row deleted.

15:51:58 hopplant> 
15:51:58 hopplant> --New Workspace
15:51:58 hopplant> INSERT INTO ppbase_workspace (MODULE, workspace_identifier, label, workspace_uo_name, object_type_id)
15:51:58   2  VALUES ('LESSOR', 'admin_receivables_bucket', 'Receivables Buckets', 'uo_lsr_admincntr_receivables_bucket', 1);

1 row created.

15:51:58 hopplant> 
15:51:58 hopplant> --Hijack the odl spot for Receivables Buckets
15:51:58 hopplant> INSERT INTO ppbase_menu_items (MODULE, menu_identifier, menu_level, item_order, label, parent_menu_identifier, workspace_identifier, enable_yn)
15:51:58   2  VALUES ('LESSOR', 'admin_receive_bucket', 2, 4, 'Receivables Buckets', 'menu_wksp_admin', 'admin_receivables_bucket', 1);

1 row created.

15:51:58 hopplant> 
15:51:58 hopplant> --****************************************************
15:51:58 hopplant> --Log the run of the script to local PP_SCHEMA_LOG
15:51:58 hopplant> --****************************************************
15:51:58 hopplant> INSERT INTO PP_SCHEMA_CHANGE_LOG
15:51:58   2  	      (ID, SKIPPED, MAJOR_VERSION, MINOR_VERSION, POINT_VERSION, PATCH_VERSION, MAINT_NUM, SCRIPT_PATH,
15:51:58   3  	      SCRIPT_NAME, SCRIPT_REVISION, DATE_APPLIED, OS_USER, TERMINAL, SERVICE_NAME)
15:51:58   4  VALUES
15:51:58   5  	      (3695, 0, 2017, 1, 0, 0, 48782, 'C:\PlasticWks\powerplant\sql\maint_scripts', '2017.1.0.0_maint_048782_lessor_02_receivable_bucket_admin_dml.sql', 1,
15:51:58   6  	      SYSTIMESTAMP, SYS_CONTEXT('USERENV', 'OS_USER'), SYS_CONTEXT('USERENV', 'TERMINAL'),
15:51:58   7  	      SYS_CONTEXT('USERENV', 'SERVICE_NAME'));

1 row created.

15:51:58 hopplant> COMMIT;

Commit complete.

15:51:58 hopplant> SPOOL OFF
