16:48:59 hopplant> @&&PP_SCRIPT_PATH.packages_released\2017.4.0.0_PKG_LEASE_DEPR.sql
16:48:59 hopplant> create or replace package pkg_lease_depr as
16:48:59   2  	 /*
16:48:59   3  	 ||============================================================================
16:48:59   4  	 || Application: PowerPlant
16:48:59   5  	 || Object Name: PKG_LEASE_DEPR
16:48:59   6  	 || Description:
16:48:59   7  	 ||============================================================================
16:48:59   8  	 || Copyright (C) 2015 by PowerPlan, Inc. All Rights Reserved.
16:48:59   9  	 ||============================================================================
16:48:59  10  	 || Version  Date	Revised By	Reason for Change
16:48:59  11  	 || -------- ---------- --------------	----------------------------------------
16:48:59  12  	 || 10.4.3.0 06/25/2014 B.Beck		Original Version
16:48:59  13  	 || 10.4.3.0 07/07/2014 Charlie Shilling
16:48:59  14  	 || 2015.2.0 09/29/2015 Andrew Scott	maint-45012.  Change how SL is calced for performance.
16:48:59  15  	 || 2016.1.0 02/26/2016 Anand R 	maint-45470.
16:48:59  16  	 || 2017.4.0 06/08/2018 Levine		maint-51388 - Add F_LEASE_DEPR_UOP_ROLLFWD and F_LEASE_DEPR_UOP_UWA
16:48:59  17  	 ||============================================================================
16:48:59  18  	 */
16:48:59  19  	      procedure P_DEPR_SLE( A_LS_ASSET_ID in number, A_REVISION in number,
16:48:59  20  			A_ASSET_ID in number, A_SOB_ID in number,
16:48:59  21  			A_MONTH date, A_LIFE number, A_MSG out varchar2);
16:48:59  22  
16:48:59  23  	      procedure P_DEPR_SL( A_LS_ASSET_ID in number, A_REVISION in number,
16:48:59  24  			A_ASSET_ID in number, A_SOB_ID in number,
16:48:59  25  			A_MONTH date, A_LIFE number, A_MP_CONV NUMBER, A_MSG out varchar2);
16:48:59  26  
16:48:59  27  	      procedure P_DEPR_FERC( A_LS_ASSET_ID in number, A_REVISION in number,
16:48:59  28  			A_ASSET_ID in number, A_SOB_ID in number,
16:48:59  29  			A_MONTH date, A_MSG out varchar2);
16:48:59  30  
16:48:59  31  	      procedure P_FCST_LEASE(A_ILR_ID in number, A_REVISION in number);
16:48:59  32  
16:48:59  33  	      procedure P_GET_LEASE_DEPR(A_ILR_ID in number, A_REVISION in number);
16:48:59  34  
16:48:59  35  	      PROCEDURE p_fcst_lease_use_temp_table(	a_ilr_id   NUMBER,    a_revision NUMBER);
16:48:59  36  
16:48:59  37  	FUNCTION F_LEASE_DEPR_UOP_ROLLFWD (A_COMPANY_ID number, A_MONTH in date) RETURN VARCHAR2;
16:48:59  38  
16:48:59  39  	FUNCTION F_LEASE_DEPR_UOP_UWA(A_MONTH in date) RETURN VARCHAR2;
16:48:59  40  
16:48:59  41  end PKG_LEASE_DEPR;
16:48:59  42  /

Package created.

16:48:59 hopplant> create or replace package body pkg_lease_depr as
16:48:59   2  	 /*
16:48:59   3  	 ||============================================================================
16:48:59   4  	 || Application: PowerPlant
16:48:59   5  	 || Object Name: PKG_LEASE_DEPR
16:48:59   6  	 || Description:
16:48:59   7  	 ||============================================================================
16:48:59   8  	 || Copyright (C) 2013 by PowerPlan Consultants, Inc. All Rights Reserved.
16:48:59   9  	 ||============================================================================
16:48:59  10  	 || Version  Date	Revised By	Reason for Change
16:48:59  11  	 || -------- ---------- --------------	----------------------------------------
16:48:59  12  	 || 10.4.3.0 06/25/2014 B.Beck		Original Version
16:48:59  13  	 || 10.4.3.0 07/07/2014 Charlie Shilling
16:48:59  14  	 || 2015.2.0 09/29/2015 Andrew Scott	maint-45012.  Change how SL is calced for performance.
16:48:59  15  	 || 2016.1.0 02/26/2016 Anand R 	maint-45470.
16:48:59  16  	 ||============================================================================
16:48:59  17  	 */
16:48:59  18  
16:48:59  19  	      --**************************************************************************
16:48:59  20  	      --			    Start Body
16:48:59  21  	      --**************************************************************************
16:48:59  22  	      --**************************************************************************
16:48:59  23  	      --			    PROCEDURES
16:48:59  24  	      --**************************************************************************
16:48:59  25  	PROCEDURE P_MC_SLE_ROUNDING ( A_LS_ASSET_ID IN NUMBER, A_REVISION IN NUMBER, A_SOB_ID IN NUMBER, A_ASSET_ID IN NUMBER)
16:48:59  26  	IS
16:48:59  27  	  L_BOOK_SUMMARY_ID NUMBER;
16:48:59  28  	  L_CPR_AMOUNT NUMBER;
16:48:59  29  	  L_ASSET_AMOUNT NUMBER;
16:48:59  30  	  L_DEPR_METHOD_SLE_AMOUNT NUMBER;
16:48:59  31  	  L_RESIDUAL_AMOUNT NUMBER;
16:48:59  32  	  L_IN_SERVICE_EXCHANGE_RATE LS_ILR_OPTIONS.IN_SERVICE_EXCHANGE_RATE%type;
16:48:59  33  	  L_SQLS VARCHAR2(4000);
16:48:59  34  	BEGIN
16:48:59  35  	  pkg_pp_error.set_module_name( 'PKG_LEASE_DEPR.P_MC_SLE_ROUNDING' );
16:48:59  36  
16:48:59  37  	  SELECT fasb.book_summary_id
16:48:59  38  	  INTO L_BOOK_SUMMARY_ID
16:48:59  39  	  FROM ls_asset la
16:48:59  40  	    JOIN ls_ilr_options lio ON lio.ilr_id = la.ilr_id
16:48:59  41  	    JOIN ls_lease_cap_type lct ON lct.ls_lease_cap_type_id = lio.lease_cap_type_id
16:48:59  42  	    JOIN ls_fasb_cap_type_sob_map fasb ON fasb.lease_cap_type_id = lio.lease_cap_type_id
16:48:59  43  	  WHERE la.ls_asset_id = A_LS_ASSET_ID
16:48:59  44  	  AND lio.revision = A_REVISION
16:48:59  45  	  AND fasb.set_of_books_id = A_SOB_ID;
16:48:59  46  
16:48:59  47  	  L_SQLS := 'SELECT clb.basis_' || L_BOOK_SUMMARY_ID || ' ' ||
16:48:59  48  	  'FROM cpr_ldg_basis clb ' ||
16:48:59  49  	  ' JOIN ls_cpr_asset_map map ON clb.asset_id = map.asset_id ' ||
16:48:59  50  	  'WHERE map.ls_asset_id = ' || A_LS_ASSET_ID;
16:48:59  51  
16:48:59  52  	  BEGIN
16:48:59  53  	    EXECUTE IMMEDIATE L_SQLS
16:48:59  54  	    INTO L_CPR_AMOUNT;
16:48:59  55  	  EXCEPTION
16:48:59  56  	    WHEN No_Data_Found THEN
16:48:59  57  	      L_CPR_AMOUNT := 0;
16:48:59  58  	  END;
16:48:59  59  
16:48:59  60  	  pkg_pp_log.p_write_message( 'Existing CPR Asset Amount: ' || To_Char(L_CPR_AMOUNT));
16:48:59  61  
16:48:59  62  	  SELECT Nvl(Round(psob.posting_amount * lio.in_service_exchange_rate, 2), 0), lio.in_service_exchange_rate
16:48:59  63  	  INTO L_ASSET_AMOUNT, L_IN_SERVICE_EXCHANGE_RATE
16:48:59  64  	  FROM ls_pend_transaction pt
16:48:59  65  	    JOIN ls_pend_set_of_books psob ON pt.ls_pend_trans_id = psob.ls_pend_trans_id
16:48:59  66  	    JOIN ls_ilr_options lio ON lio.ilr_id = pt.ilr_id AND lio.revision = pt.revision
16:48:59  67  	  WHERE pt.ls_asset_id = A_LS_ASSET_ID
16:48:59  68  	  AND pt.revision = A_REVISION
16:48:59  69  	  AND psob.set_of_books_id = A_SOB_ID;
16:48:59  70  
16:48:59  71  	  pkg_pp_log.p_write_message( 'New Asset Addition: ' || To_Char(L_ASSET_AMOUNT));
16:48:59  72  
16:48:59  73  	  SELECT
16:48:59  74  	  Nvl(Round(CASE WHEN la.estimated_residual = 0 and lower(trim(PKG_PP_SYSTEM_CONTROL.f_pp_system_control_COMPANY('Lease Amort to Guaranteed Residual', la.COMPANY_ID))) = 'yes' THEN
16:48:59  75  	    LA.GUARANTEED_RESIDUAL_AMOUNT
16:48:59  76  	  ELSE
16:48:59  77  	    Decode(lower(trim(PKG_PP_SYSTEM_CONTROL.f_pp_system_control_COMPANY('Lease Capitalize Estimated Residual', la.COMPANY_ID))), 'no', 0, round(la.ESTIMATED_RESIDUAL * la.FMV, 2))
16:48:59  78  	  END * L_IN_SERVICE_EXCHANGE_RATE, 2), 0)
16:48:59  79  	  INTO L_RESIDUAL_AMOUNT
16:48:59  80  	  FROM ls_asset la
16:48:59  81  	  WHERE ls_asset_id = A_LS_ASSET_ID;
16:48:59  82  
16:48:59  83  	  pkg_pp_log.p_write_message( 'Asset Residual Amount: ' || To_Char(L_RESIDUAL_AMOUNT));
16:48:59  84  
16:48:59  85  	  SELECT Nvl(Sum(depr_expense), 0)
16:48:59  86  	  INTO L_DEPR_METHOD_SLE_AMOUNT
16:48:59  87  	  FROM depr_method_sle
16:48:59  88  	  WHERE asset_id = A_ASSET_ID
16:48:59  89  	  AND set_of_books_id = A_SOB_ID;
16:48:59  90  
16:48:59  91  	  pkg_pp_log.p_write_message( 'Total Depr Expense Amount: ' || To_Char(L_DEPR_METHOD_SLE_AMOUNT));
16:48:59  92  
16:48:59  93  	  IF L_CPR_AMOUNT + L_ASSET_AMOUNT - L_RESIDUAL_AMOUNT = L_DEPR_METHOD_SLE_AMOUNT THEN
16:48:59  94  	    pkg_pp_log.p_write_message('Asset and total depr amounts match. No rounding needed.');
16:48:59  95  	  ELSE
16:48:59  96  	    pkg_pp_log.p_write_message('Updating last month with rounding plug: ' || To_Char(L_CPR_AMOUNT + L_ASSET_AMOUNT - L_RESIDUAL_AMOUNT - L_DEPR_METHOD_SLE_AMOUNT));
16:48:59  97  
16:48:59  98  	    UPDATE depr_method_sle
16:48:59  99  	    SET depr_expense = depr_expense + (L_CPR_AMOUNT + L_ASSET_AMOUNT - L_RESIDUAL_AMOUNT - L_DEPR_METHOD_SLE_AMOUNT)
16:48:59 100  	    WHERE asset_id = A_ASSET_ID
16:48:59 101  	    AND set_of_books_id = A_SOB_ID
16:48:59 102  	    AND gl_posting_mo_yr = (SELECT Max(gl_posting_mo_yr)
16:48:59 103  				    FROM depr_method_sle
16:48:59 104  				    WHERE asset_id = A_ASSET_ID
16:48:59 105  				    AND set_of_books_id = A_SOB_ID
16:48:59 106  	    );
16:48:59 107  	  END if;
16:48:59 108  
16:48:59 109  	  pkg_pp_error.remove_module_name;
16:48:59 110  	EXCEPTION
16:48:59 111  	WHEN OTHERS THEN
16:48:59 112  	  pkg_pp_error.Raise_error( 'ERROR', 'Failed Operation' );
16:48:59 113  	END P_MC_SLE_ROUNDING;
16:48:59 114  
16:48:59 115  		 procedure P_DEPR_SLE( A_LS_ASSET_ID in number, A_REVISION in number,
16:48:59 116  			A_ASSET_ID in number, A_SOB_ID in number,
16:48:59 117  			A_MONTH date, A_LIFE number, A_MSG out varchar2, A_IS_FCST number)
16:48:59 118  	 is
16:48:59 119  	    L_MONTHLY_OBL number(22,2);
16:48:59 120  	    L_TOTAL_OBL number(22,2);
16:48:59 121  	    L_TOTAL_CHECK number(22, 2);
16:48:59 122  	    L_NUM_MONTHS number(22,0);
16:48:59 123  	    L_ROUND number(22,2);
16:48:59 124  	  L_MAX_MONTH  LS_ASSET_SCHEDULE."MONTH"%type;
16:48:59 125  	  L_CUR_MONTH  LS_ASSET_SCHEDULE."MONTH"%type;
16:48:59 126  	  L_START_MONTH  LS_ASSET_SCHEDULE."MONTH"%type;
16:48:59 127  	  L_MONTHLOOP number;
16:48:59 128  	      l_is_om number;
16:48:59 129  	  L_IS_REMEASUREMENT number;
16:48:59 130  	  L_REMEASUREMENT_DATE date;
16:48:59 131  	  L_OWNER_TRF number;
16:48:59 132  	 begin
16:48:59 133  		      if a_is_fcst = 0 then
16:48:59 134  			A_MSG := 'DELETING from depr_method_sle for current month through end of lease';
16:48:59 135  			delete from DEPR_METHOD_SLE
16:48:59 136  			where ASSET_ID = A_ASSET_ID
16:48:59 137  			and SET_OF_BOOKS_ID = A_SOB_ID
16:48:59 138  			;
16:48:59 139  
16:48:59 140  	    PKG_PP_LOG.P_WRITE_MESSAGE(sql%rowcount||' rows deleted from DEPR_METHOD_SLE.');
16:48:59 141  		      end if;
16:48:59 142  
16:48:59 143  	    select case when purchase_option_type_id = 1 then 0 else 1 end
16:48:59 144  	    into L_OWNER_TRF
16:48:59 145  	    from ls_ilr_options
16:48:59 146  	      JOIN ls_asset ON ls_asset.ilr_id = ls_ilr_options.ilr_id
16:48:59 147  	    where ls_asset.ls_asset_id = a_ls_asset_id
16:48:59 148  	    and ls_ilr_options.revision = a_revision;
16:48:59 149  
16:48:59 150  	    a_msg := 'GET number of months';
16:48:59 151  	    PKG_PP_LOG.P_WRITE_MESSAGE(A_MSG);
16:48:59 152  		begin
16:48:59 153  		      select abc."MONTH",  add_months( abc."MONTH", num_months - 1), num_months, total_expense, abc.is_om, is_remeasurement, remeasurement_date
16:48:59 154  		      into L_START_MONTH, L_MAX_MONTH, L_NUM_MONTHS, L_TOTAL_OBL, l_is_om, L_IS_REMEASUREMENT, L_REMEASUREMENT_DATE
16:48:59 155  		      from
16:48:59 156  		      (
16:48:59 157  			      select
16:48:59 158  					      las.month, las.is_om, remeasurement.is_remeasurement, Trunc(remeasurement.remeasurement_date, 'month') remeasurement_date,
16:48:59 159  		-- If this is a partial month asset then need to subtract a month
16:48:59 160  					      count(1) over() - case when first_value(las.partial_month_percent)
16:48:59 161  					    over (partition by las.ls_asset_id, las.revision, las.set_of_books_id
16:48:59 162  						      order by las.month) < 1
16:48:59 163  				  then
16:48:59 164  				    1
16:48:59 165  				  else
16:48:59 166  				    0
16:48:59 167  				  end as num_months,
16:48:59 168  		Decode(Nvl(is_remeasurement,0),
16:48:59 169  		      0,
16:48:59 170  		      sum(las.INTEREST_PAID) over() + las.end_capital_cost,
16:48:59 171  		      sum(principal_paid) OVER() + sum(las.INTEREST_PAID) over() + Nvl(remeasurement.prior_month_end_nbv, 0) - Nvl(remeasurement.prior_month_end_liability, 0)
16:48:59 172  		      + Decode(remeasurement.om_to_cap_indicator, 1, remeasurement.prior_month_end_prepaid_rent - remeasurement.prior_month_end_deferred_rent - remeasurement.prior_month_end_arrears_accr, 0)
16:48:59 173  				      - Decode(nvl(o.partial_termination,0), 1, las.partial_term_gain_loss, 0)
16:48:59 174  		)
16:48:59 175  		- case when la.estimated_residual = 0 and lower(trim(pkg_pp_system_control.f_pp_system_control_company('Lease Amort to Guaranteed Residual', la.COMPANY_ID))) = 'yes'
16:48:59 176  			then nvl(la.guaranteed_residual_amount, 0)
16:48:59 177  			else la.fmv * la.estimated_residual
16:48:59 178  		  END AS total_expense,
16:48:59 179  		row_number() over(order by month) as the_row
16:48:59 180  				      from ls_asset_schedule las
16:48:59 181  		JOIN ls_asset la ON la.ls_asset_id = las.ls_asset_id
16:48:59 182  		JOIN ls_ilr_options o ON o.ilr_id = la.ilr_id AND o.revision = las.revision
16:48:59 183  		left OUTER JOIN v_ls_asset_remeasurement_amts remeasurement ON las.ls_asset_id = remeasurement.ls_asset_id
16:48:59 184  		  AND las.revision = remeasurement.revision
16:48:59 185  		  AND las.set_of_books_id = remeasurement.set_of_books_id
16:48:59 186  		  AND las.month = Trunc(remeasurement.remeasurement_date, 'month')
16:48:59 187  				      where las.ls_asset_id = A_LS_ASSET_ID
16:48:59 188  				      and las.set_of_books_id = A_SOB_ID
16:48:59 189  				      and las.revision = A_REVISION
16:48:59 190  				      and la.ls_asset_id = A_LS_ASSET_ID
16:48:59 191  		      and las.is_om = 0
16:48:59 192  	      and las.MONTH >= Trunc(Nvl(o.remeasurement_date, To_Date('180001', 'yyyymm')), 'month')
16:48:59 193  			      ) abc
16:48:59 194  			      where the_row = 1;
16:48:59 195  		EXCEPTION
16:48:59 196  		      WHEN no_data_found THEN
16:48:59 197  			      a_msg:='OK';
16:48:59 198  			      RETURN;
16:48:59 199  		END;
16:48:59 200  
16:48:59 201  	    if A_LIFE > 0 THEN
16:48:59 202  	       L_MONTHLY_OBL := round( L_TOTAL_OBL / L_NUM_MONTHS, 2);
16:48:59 203  	       L_TOTAL_CHECK := L_NUM_MONTHS * L_MONTHLY_OBL;
16:48:59 204  	       L_ROUND := L_TOTAL_OBL - L_TOTAL_CHECK;
16:48:59 205  
16:48:59 206  		       if a_is_fcst = 0 then
16:48:59 207  	      A_MSG := 'INSERTING depreciation expense for SLE Method for SOB ' || To_Char(A_SOB_ID);
16:48:59 208  	      PKG_PP_LOG.P_WRITE_MESSAGE(A_MSG);
16:48:59 209  
16:48:59 210  	      insert into DEPR_METHOD_SLE (ASSET_ID, SET_OF_BOOKS_ID, GL_POSTING_MO_YR, DEPR_EXPENSE)
16:48:59 211  	      WITH war AS (
16:49:10 212  		SELECT war.ilr_id, war.revision, war.set_of_books_id, war.net_weighted_avg_rate, Trunc(Nvl(lio.remeasurement_date, ilr.est_in_svc_date), 'month') effective_month
16:49:10 213  		FROM ls_ilr_weighted_avg_rates war
16:49:10 214  		  JOIN ls_ilr ilr ON war.ilr_id = ilr.ilr_id
16:49:10 215  		  JOIN ls_ilr_options lio ON lio.ilr_id = war.ilr_id AND lio.revision = war.revision
16:49:10 216  		WHERE war.set_of_books_id = A_SOB_ID
16:49:10 217  	      )
16:49:10 218  	      select DISTINCT A_ASSET_ID asset_id, A_SOB_ID set_of_books_id, LAS."MONTH",
16:49:10 219  	      decode(las.is_om, 1, 0, depr_expense * Decode(lio.remeasurement_date, NULL, lio.in_service_exchange_rate, war.net_weighted_avg_rate)) depr_expense
16:49:10 220  	      from LS_ASSET_SCHEDULE LAS
16:49:10 221  		JOIN LS_DEPR_FORECAST LDF ON LAS.ls_asset_id = LDF.ls_asset_id AND LAS.revision = LDF.revision AND LAS.set_of_books_id = LDF.set_of_books_id AND LAS.MONTH = LDF.MONTH
16:49:10 222  		JOIN ls_asset la ON las.ls_asset_id = la.ls_asset_id
16:49:10 223  		JOIN ls_ilr_options lio ON lio.ilr_id = la.ilr_id AND lio.revision = las.revision
16:49:10 224  		JOIN war ON war.ilr_id = la.ilr_id AND war.set_of_books_id = ldf.set_of_books_id
16:49:10 225  	      where LAS.LS_ASSET_ID = A_LS_ASSET_ID
16:49:10 226  	      and LAS.REVISION = A_REVISION
16:49:10 227  	      and LAS.SET_OF_BOOKS_ID = A_SOB_ID
16:49:10 228  	      AND las.set_of_books_id = war.set_of_books_id
16:49:10 229  	      AND las.MONTH >= war.effective_month
16:49:10 230  	      AND war.effective_month = (SELECT Max(effective_month) FROM war eff_war WHERE eff_war.ilr_id = war.ilr_id AND eff_war.effective_month <= las.month);
16:49:10 231  
16:49:10 232  	      PKG_PP_LOG.P_WRITE_MESSAGE(sql%rowcount||' rows inserted into DEPR_METHOD_SLE.');
16:49:10 233  
16:49:10 234  	      pkg_pp_log.p_write_message('Entering P_MC_SLE_ROUNDING');
16:49:10 235  	      P_MC_SLE_ROUNDING(A_LS_ASSET_ID, A_REVISION, A_SOB_ID, A_ASSET_ID);
16:49:10 236  
16:49:10 237  		      else
16:49:10 238  		A_MSG := 'INSERTING depreciation expense for SLE Method';
16:49:10 239  		PKG_PP_LOG.P_WRITE_MESSAGE(A_MSG);
16:49:10 240  	     -- the partial_month_percent is always populated.	It is either the percent for the first and last month or it is 1 so always multiplying will be ok.
16:49:10 241  			       insert into LS_DEPR_FORECAST
16:49:10 242  			      (LS_ASSET_ID, SET_OF_BOOKS_ID, REVISION, MONTH, begin_reserve, depr_expense, depr_exp_alloc_adjust, end_reserve)
16:49:10 243  			      select las.ls_asset_id, las.set_of_books_id, las.revision, las."MONTH",
16:49:10 244  				      sum( case when LAS."MONTH" <> L_MAX_MONTH then (L_MONTHLY_OBL * PARTIAL_MONTH_PERCENT - LAS.INTEREST_ACCRUAL)
16:49:10 245  					 else (L_MONTHLY_OBL * PARTIAL_MONTH_PERCENT - LAS.INTEREST_ACCRUAL + L_ROUND)
16:49:10 246  					 end ) over(partition by  las.ls_asset_id,  las.set_of_books_id,  las.revision order by  las.month) -
16:49:10 247  					       case when LAS."MONTH" <> L_MAX_MONTH then (L_MONTHLY_OBL * PARTIAL_MONTH_PERCENT - LAS.INTEREST_ACCRUAL)
16:49:10 248  					 else (L_MONTHLY_OBL * PARTIAL_MONTH_PERCENT - LAS.INTEREST_ACCRUAL + L_ROUND)
16:49:10 249  					    end + Nvl(remeasurement.prior_month_end_depr_reserve,0) as begin_reserve,
16:49:10 250  				       case when LAS."MONTH" <> L_MAX_MONTH then (L_MONTHLY_OBL * PARTIAL_MONTH_PERCENT - LAS.INTEREST_ACCRUAL)
16:49:10 251  					 else (L_MONTHLY_OBL * PARTIAL_MONTH_PERCENT - LAS.INTEREST_ACCRUAL + L_ROUND)
16:49:10 252  					 end as depr_expense, 0 as depr_exp_alloc_adjust,
16:49:10 253  				      sum( case when LAS."MONTH" <> L_MAX_MONTH then (L_MONTHLY_OBL * PARTIAL_MONTH_PERCENT - LAS.INTEREST_ACCRUAL)
16:49:10 254  					 else (L_MONTHLY_OBL * PARTIAL_MONTH_PERCENT - LAS.INTEREST_ACCRUAL + L_ROUND)
16:49:10 255  					    end) over(partition by  las.ls_asset_id,  las.set_of_books_id,  las.revision order by  las.month) + Nvl(remeasurement.prior_month_end_depr_reserve,0) as end_reserve
16:49:10 256  			      from ls_asset_schedule las
16:49:10 257  		left OUTER JOIN v_ls_asset_remeasurement_amts remeasurement ON las.revision = remeasurement.revision
16:49:10 258  			AND las.ls_asset_id = remeasurement.ls_asset_id
16:49:10 259  			AND las.set_of_books_id = remeasurement.set_of_books_id
16:49:10 260  			AND las.month >= Trunc(remeasurement.remeasurement_date, 'month')
16:49:10 261  			      where LAS.LS_ASSET_ID = A_LS_ASSET_ID
16:49:10 262  			       and LAS.REVISION = A_REVISION
16:49:10 263  			       and LAS.SET_OF_BOOKS_ID = A_SOB_ID
16:49:10 264  			       and las.is_om = 0
16:49:10 265  		and las.month >= Trunc(Nvl(L_REMEASUREMENT_DATE, To_Date('180001', 'yyyymm')), 'month')
16:49:10 266  			       ;
16:49:10 267  		PKG_PP_LOG.P_WRITE_MESSAGE(sql%rowcount||' rows inserted into LS_DEPR_FORECAST.');
16:49:10 268  		      end if;
16:49:10 269  
16:49:10 270  	     -- add extra months if A_LIFE > L_NUM_MONTHS.  This is the portion after the lease term
16:49:10 271  	     -- and when the asset is "an owned asset"
16:49:10 272  	     --Only need to handle ls_depr_forecast. For in-servicing/approval, extra months/rows copy directly from LS_DEPR_FORECAST to DEPR_METHOD_SLE
16:49:10 273  	     if A_LIFE > L_NUM_MONTHS and A_REVISION > 0 AND L_OWNER_TRF = 1 then
16:49:10 274  	      for L_MONTHLOOP in L_NUM_MONTHS .. (A_LIFE - 1 - (CASE WHEN L_IS_REMEASUREMENT = 1 THEN (A_LIFE-L_NUM_MONTHS) ELSE 0 END) ) loop
16:49:10 275  			      L_CUR_MONTH := add_months( L_START_MONTH, L_MONTHLOOP );
16:49:10 276  
16:49:10 277  				  if a_is_fcst <> 0 then
16:49:10 278  				      if l_is_om = 0 then
16:49:10 279  					      insert into LS_DEPR_FORECAST
16:49:10 280  					      (LS_ASSET_ID, SET_OF_BOOKS_ID, REVISION, MONTH, begin_reserve, depr_expense, depr_exp_alloc_adjust, end_reserve)
16:49:10 281  					      select LS_ASSET_ID, SET_OF_BOOKS_ID, REVISION, L_CUR_MONTH, dg.end_reserve,
16:49:10 282  						      CASE WHEN L_MONTHLOOP <> (A_LIFE - 1) then L_MONTHLY_OBL else L_MONTHLY_OBL + L_ROUND end, 0,
16:49:10 283  						      dg.end_reserve + CASE WHEN L_MONTHLOOP <> (A_LIFE - 1) then L_MONTHLY_OBL else L_MONTHLY_OBL + L_ROUND end
16:49:10 284  					      from LS_DEPR_FORECAST dg
16:49:10 285  					      where dg.LS_ASSET_ID = A_LS_ASSET_ID
16:49:10 286  					      and dg.REVISION = A_REVISION
16:49:10 287  					      and dg.SET_OF_BOOKS_ID = A_SOB_ID
16:49:10 288  					      and dg."MONTH" = add_months(L_CUR_MONTH, -1)
16:49:10 289  					      ;
16:49:10 290  				      end if;
16:49:10 291  			      end if;
16:49:10 292  	      end loop;
16:49:10 293  	     end if;
16:49:10 294  	    end if;
16:49:10 295  
16:49:10 296  	    A_MSG := 'OK';
16:49:10 297  	 end P_DEPR_SLE;
16:49:10 298  
16:49:10 299  	      procedure P_DEPR_SL( A_LS_ASSET_ID in number, A_REVISION in number,
16:49:10 300  			A_ASSET_ID in number, A_SOB_ID in number,
16:49:10 301  			A_MONTH date, A_LIFE number, A_MP_CONV NUMBER, A_MSG out varchar2)
16:49:10 302  	 is
16:49:10 303  	    L_MONTHLY_EXP number(22,2);
16:49:10 304  	    L_TOTAL_EXP number(22,2);
16:49:10 305  	    L_TOTAL_CHECK number(22, 2);
16:49:10 306  	    L_NUM_MONTHS number(22,0);
16:49:10 307  	    L_ROUND number(22,2);
16:49:10 308  	  L_MAX_MONTH  LS_ASSET_SCHEDULE."MONTH"%type;
16:49:10 309  	  L_CUR_MONTH  LS_ASSET_SCHEDULE."MONTH"%type;
16:49:10 310  	  L_START_MONTH  LS_ASSET_SCHEDULE."MONTH"%type;
16:49:10 311  	  L_MONTHLOOP number;
16:49:10 312  	  L_REMEASUREMENT_DATE DATE;
16:49:10 313  	 begin
16:49:10 314  
16:49:10 315  	    -- CJS 5/17/17 Use A_LIFE - 1, otherwise end up with an extra month
16:49:10 316  		a_msg := 'GET number of months';
16:49:10 317  	    PKG_PP_LOG.P_WRITE_MESSAGE(A_MSG);
16:49:10 318  		begin
16:49:10 319  			SELECT
16:49:10 320  	    Decode(Trunc(remeasurement_date, 'month'),NULL, abc.MONTH, Add_Months(abc.MONTH, Months_Between(Trunc(remeasurement_date, 'month'), abc.MONTH))) l_start_month,
16:49:10 321  	    Decode(Trunc(remeasurement_date, 'month'),NULL, add_months( abc."MONTH", Decode(Trunc(remeasurement_date, 'month'), null, A_LIFE, num_months) - 1),
16:49:10 322  	      Add_Months(Add_Months(abc.MONTH, Months_Between(Trunc(remeasurement_date, 'month'), abc.MONTH)), Least(A_LIFE, num_months) - Months_Between(Trunc(remeasurement_date, 'month'), abc.MONTH) - 1)
16:49:10 323  	    ) l_max_month,
16:49:10 324  	    Decode(Trunc(remeasurement_date, 'month'),NULL, Least(A_LIFE, num_months), Least(A_LIFE, num_months) - Months_Between(Trunc(remeasurement_date, 'month'), abc.MONTH)) l_num_months,
16:49:10 325  	    total_expense,
16:49:10 326  	    Trunc(remeasurement_date, 'month') remeasurement_date
16:49:10 327  			 into L_START_MONTH, L_MAX_MONTH, L_NUM_MONTHS, L_TOTAL_EXP, L_REMEASUREMENT_DATE
16:49:10 328  			from
16:49:10 329  			(
16:49:10 330  			       select
16:49:10 331  				      las.month,
16:49:10 332  				      count(1) over() as num_months,
16:49:10 333  				      row_number() over(order by month) as the_row,
16:49:10 334  	      --Last_Value(end_capital_cost) OVER() is equal to the new end capital cost after remeasurement
16:49:10 335  	      (Last_Value(end_capital_cost) OVER() - Decode(o.remeasurement_date, NULL, 0, 1) * Nvl(remeasurement.prior_month_end_depr_reserve, 0) - case when (la.ESTIMATED_RESIDUAL = 0
16:49:10 336  			   and lower(trim(pkg_pp_system_control.f_pp_system_control_company('Lease Amort to Guaranteed Residual', la.COMPANY_ID))) = 'yes') /* WMD */
16:49:10 337  			      then la.GUARANTEED_RESIDUAL_AMOUNT
16:49:10 338  			      else round(la.ESTIMATED_RESIDUAL * la.FMV, 2) end ) as total_expense,
16:49:10 339  	      Trunc(o.remeasurement_date, 'month') remeasurement_date
16:49:10 340  				      from ls_asset_schedule las
16:49:10 341  		JOIN ls_asset la ON las.ls_asset_id = la.ls_asset_id
16:49:10 342  		JOIN ls_ilr_payment_term ilrpt ON la.ilr_id = ilrpt.ilr_id
16:49:10 343  		JOIN ls_ilr_options o ON o.ilr_id = la.ilr_id AND o.revision = las.revision
16:49:10 344  		left OUTER JOIN v_ls_asset_remeasurement_amts remeasurement ON (las.ls_asset_id = remeasurement.ls_asset_id
16:49:10 345  		  AND las.revision = remeasurement.revision
16:49:10 346  		  AND las.set_of_books_id = remeasurement.set_of_books_id
16:49:10 347  		  --Does not join on date so the prior month reserve will be included in "the_row = 1"
16:49:10 348  		  )
16:49:10 349  				      where las.ls_asset_id = A_LS_ASSET_ID
16:49:10 350  				      and las.set_of_books_id = A_SOB_ID
16:49:10 351  				      and las.revision = A_REVISION
16:49:10 352  				      and la.ls_asset_id = A_LS_ASSET_ID
16:49:10 353  			       and ilrpt.revision = A_REVISION
16:49:10 354  			       and ilrpt.payment_term_id = 1
16:49:10 355  			       and las.is_om = 0 --wmd
16:49:10 356  			       and las.month >= trunc(ilrpt.payment_term_date, 'month')
16:49:10 357  			) abc
16:49:10 358  			where the_row = 1;
16:49:10 359  		exception
16:49:10 360  			      when no_data_found then
16:49:10 361  				      a_msg := 'OK';
16:49:10 362  				      return;
16:49:10 363  		      end ;
16:49:10 364  
16:49:10 365  	  -- If the ILR is in transition then there will be IS_OM = 1 months that are excluded from determining L_MAX_MONTH above.
16:49:10 366  	  -- Need to decrement the date by the number of IS_OM = 1 to get the actual max month.
16:49:10 367  	  SELECT Add_Months(L_MAX_MONTH, -1 * Nvl(Count(1), 0))
16:49:10 368  	  INTO L_MAX_MONTH
16:49:10 369  	  from ls_asset_schedule las
16:49:10 370  	    JOIN ls_asset la ON la.ls_asset_id = las.ls_asset_id
16:49:10 371  	    JOIN ls_ilr_options o ON o.ilr_id = la.ilr_id AND o.revision = las.revision
16:49:10 372  	    left OUTER JOIN v_ls_asset_remeasurement_amts remeasurement ON las.ls_asset_id = remeasurement.ls_asset_id
16:49:10 373  	      AND las.revision = remeasurement.revision
16:49:10 374  	      AND las.set_of_books_id = remeasurement.set_of_books_id
16:49:10 375  	      AND las.month = Trunc(remeasurement.remeasurement_date, 'month')
16:49:10 376  		      where las.ls_asset_id = A_LS_ASSET_ID
16:49:10 377  		      and las.set_of_books_id = A_SOB_ID
16:49:10 378  		      and las.revision = A_REVISION
16:49:10 379  		      and la.ls_asset_id = A_LS_ASSET_ID
16:49:10 380  	  and las.is_om = 1
16:49:10 381  	  and las.MONTH >= Trunc(Nvl(o.remeasurement_date, To_Date('180001', 'yyyymm')), 'month');
16:49:10 382  
16:49:10 383  	  -- If the calculated remaining number of months is less than 0, then set remaining months to 1 to expense all remaining depreciaton in the remeasurement month
16:49:10 384  	  -- i.e. economic life is less than the number of lease terms and the asset was fully depreciated prior to remeasurement
16:49:10 385  	  IF L_REMEASUREMENT_DATE IS NOT NULL AND L_NUM_MONTHS <= 0 THEN
16:49:10 386  	    L_NUM_MONTHS := 1;
16:49:10 387  	    L_MAX_MONTH := L_REMEASUREMENT_DATE;
16:49:10 388  	  END IF;
16:49:10 389  
16:49:10 390  	  /* CJS 4/14/17 If we have a MPC of 0.5, will be off by a penny on odd numbers if we don't add check here */
16:49:10 391  	  L_MONTHLY_EXP := round( L_TOTAL_EXP / L_NUM_MONTHS, 2);
16:49:10 392  	  if Nvl(A_MP_CONV, 1) = 0.5 THEN
16:49:10 393  	    L_TOTAL_CHECK := (L_NUM_MONTHS - 1) * L_MONTHLY_EXP + (2 * Round(L_MONTHLY_EXP * Nvl(A_MP_CONV, 1), 2));
16:49:10 394  	  else
16:49:10 395  	    L_TOTAL_CHECK := L_NUM_MONTHS * L_MONTHLY_EXP;
16:49:10 396  	  end if;
16:49:10 397  	  L_ROUND := L_TOTAL_EXP - L_TOTAL_CHECK;
16:49:10 398  
16:49:10 399  	  PKG_PP_LOG.P_WRITE_MESSAGE('A_LIFE : '||A_LIFE);
16:49:10 400  	  PKG_PP_LOG.P_WRITE_MESSAGE('A_MP_CONV : '||A_MP_CONV);
16:49:10 401  	  PKG_PP_LOG.P_WRITE_MESSAGE('L_MAX_MONTH : '||L_MAX_MONTH);
16:49:10 402  	  PKG_PP_LOG.P_WRITE_MESSAGE('L_NUM_MONTHS : '||L_NUM_MONTHS);
16:49:10 403  	  PKG_PP_LOG.P_WRITE_MESSAGE('L_TOTAL_EXP : '||L_TOTAL_EXP);
16:49:10 404  	  PKG_PP_LOG.P_WRITE_MESSAGE('L_MONTHLY_EXP : '||L_MONTHLY_EXP);
16:49:10 405  	  PKG_PP_LOG.P_WRITE_MESSAGE('L_TOTAL_CHECK : '||L_TOTAL_CHECK);
16:49:10 406  	  PKG_PP_LOG.P_WRITE_MESSAGE('L_ROUND : '||L_ROUND);
16:49:10 407  
16:49:10 408  		      A_MSG := 'INSERTING depreciation expense for SL Method';
16:49:10 409  	      PKG_PP_LOG.P_WRITE_MESSAGE(A_MSG);
16:49:10 410  	      insert into LS_DEPR_FORECAST
16:49:10 411  		      (LS_ASSET_ID, SET_OF_BOOKS_ID, REVISION, MONTH, begin_reserve, depr_expense, depr_exp_alloc_adjust, end_reserve)
16:49:10 412  		      select las.ls_asset_id, las.set_of_books_id, las.revision, las."MONTH",
16:49:10 413  			      /* CJS 3/7/17 Should only put amounts up to max month, round in max month, then 0 after */
16:49:10 414  			      /* CJS 4/11/17 Factor in mid-period_method for start month and additional month; in BPO month extensions, include MP Convention in first/last month and extend if needed
16:49:10 415  			      --Add in a new month for anything besides a MPC of 1; we're assuming 0, 0.5, and 1; if others happen to ever be needed, this will need to be updated to use (1 - MPC) in last month and other changes */
16:49:10 416  			      sum( case WHEN LAS."MONTH" < L_MAX_MONTH AND LAS."MONTH" = L_START_MONTH THEN L_MONTHLY_EXP * Nvl(A_MP_CONV, 1) * las.partial_month_percent
16:49:10 417  		when LAS."MONTH" < Add_Months(L_MAX_MONTH, Decode(Nvl(A_MP_CONV, 1), 1, 0, 1)) AND LAS."MONTH" <> L_START_MONTH then L_MONTHLY_EXP
16:49:10 418  					when LAS."MONTH" = Add_Months(L_MAX_MONTH, Decode(Nvl(A_MP_CONV, 1), 1, 0, 1)) then (L_MONTHLY_EXP * Decode(Nvl(A_MP_CONV, 1), 0, 1, Nvl(A_MP_CONV, 1)) + L_ROUND)
16:49:10 419  		when LAS."MONTH" = Add_Months(L_MAX_MONTH, Decode(Nvl(A_MP_CONV, 1), 1, 0, 1) + 1) then (L_MONTHLY_EXP * Decode(Nvl(A_MP_CONV, 1), 0, 1, Nvl(A_MP_CONV, 1)) + L_ROUND) * las.partial_month_percent
16:49:10 420  		else 0
16:49:10 421  					end ) over(partition by  las.ls_asset_id,  las.set_of_books_id,  las.revision order by	las.month) -
16:49:10 422  					      case WHEN LAS."MONTH" < L_MAX_MONTH AND LAS."MONTH" = L_START_MONTH THEN L_MONTHLY_EXP * Nvl(A_MP_CONV, 1) * las.partial_month_percent
16:49:10 423  		when LAS."MONTH" < Add_Months(L_MAX_MONTH, Decode(Nvl(A_MP_CONV, 1), 1, 0, 1)) AND LAS."MONTH" <> L_START_MONTH then L_MONTHLY_EXP
16:49:10 424  					when LAS."MONTH" = Add_Months(L_MAX_MONTH, Decode(Nvl(A_MP_CONV, 1), 1, 0, 1)) then (L_MONTHLY_EXP * Decode(Nvl(A_MP_CONV, 1), 0, 1, Nvl(A_MP_CONV, 1)) + L_ROUND)
16:49:10 425  		when LAS."MONTH" = Add_Months(L_MAX_MONTH, Decode(Nvl(A_MP_CONV, 1), 1, 0, 1) + 1) then (L_MONTHLY_EXP * Decode(Nvl(A_MP_CONV, 1), 0, 1, Nvl(A_MP_CONV, 1)) + L_ROUND) * las.partial_month_percent
16:49:10 426  					else 0
16:49:10 427  		end + Nvl(remeasurement.prior_month_end_depr_reserve,0) as begin_reserve,
16:49:10 428  				      case WHEN LAS."MONTH" < L_MAX_MONTH AND LAS."MONTH" = L_START_MONTH THEN L_MONTHLY_EXP * Nvl(A_MP_CONV, 1) * las.partial_month_percent
16:49:10 429  		when LAS."MONTH" < Add_Months(L_MAX_MONTH, Decode(Nvl(A_MP_CONV, 1), 1, 0, 1)) AND LAS."MONTH" <> L_START_MONTH then L_MONTHLY_EXP
16:49:10 430  					when LAS."MONTH" = Add_Months(L_MAX_MONTH, Decode(Nvl(A_MP_CONV, 1), 1, 0, 1)) then (L_MONTHLY_EXP * Decode(Nvl(A_MP_CONV, 1), 0, 1, Nvl(A_MP_CONV, 1)) + L_ROUND)
16:49:10 431  					WHEN LAS."MONTH" = Add_Months(L_MAX_MONTH, Decode(Nvl(A_MP_CONV, 1), 1, 0, 1) + 1) then (L_MONTHLY_EXP * Decode(Nvl(A_MP_CONV, 1), 0, 1, Nvl(A_MP_CONV, 1)) + L_ROUND) * las.partial_month_percent
16:49:10 432  		else 0
16:49:10 433  		end as depr_expense, 0 as depr_exp_alloc_adjust,
16:49:10 434  			      sum( case WHEN LAS."MONTH" < L_MAX_MONTH AND LAS."MONTH" = L_START_MONTH THEN L_MONTHLY_EXP * Nvl(A_MP_CONV, 1) * las.partial_month_percent
16:49:10 435  		when LAS."MONTH" < Add_Months(L_MAX_MONTH, Decode(Nvl(A_MP_CONV, 1), 1, 0, 1)) AND LAS."MONTH" <> L_START_MONTH then L_MONTHLY_EXP
16:49:10 436  					when LAS."MONTH" = Add_Months(L_MAX_MONTH, Decode(Nvl(A_MP_CONV, 1), 1, 0, 1)) then (L_MONTHLY_EXP * Decode(Nvl(A_MP_CONV, 1), 0, 1, Nvl(A_MP_CONV, 1)) + L_ROUND)
16:49:10 437  		when LAS."MONTH" = Add_Months(L_MAX_MONTH, Decode(Nvl(A_MP_CONV, 1), 1, 0, 1) + 1) then (L_MONTHLY_EXP * Decode(Nvl(A_MP_CONV, 1), 0, 1, Nvl(A_MP_CONV, 1)) + L_ROUND) * las.partial_month_percent
16:49:10 438  					else 0
16:49:10 439  		end) over(partition by	las.ls_asset_id,  las.set_of_books_id,	las.revision order by  las.month) + Nvl(remeasurement.prior_month_end_depr_reserve,0) as end_reserve
16:49:10 440  		      from ls_asset_schedule las
16:49:10 441  	    JOIN ls_asset la ON las.ls_asset_id = la.ls_asset_id
16:49:10 442  	    JOIN ls_ilr_payment_term ilrpt ON la.ilr_id = ilrpt.ilr_id
16:49:10 443  	    left OUTER JOIN v_ls_asset_remeasurement_amts remeasurement ON (las.ls_asset_id = remeasurement.ls_asset_id
16:49:10 444  		AND las.revision = remeasurement.revision
16:49:10 445  		AND las.set_of_books_id = remeasurement.set_of_books_id
16:49:10 446  		AND las.month >= Trunc(remeasurement.remeasurement_date, 'month'))
16:49:10 447  		      where LAS.LS_ASSET_ID = A_LS_ASSET_ID
16:49:10 448  			      and LAS.REVISION = A_REVISION
16:49:10 449  			      and LAS.SET_OF_BOOKS_ID = A_SOB_ID
16:49:10 450  			      and ilrpt.revision = A_REVISION
16:49:10 451  			      and ilrpt.payment_term_id = 1
16:49:10 452  		  and las.is_om = 0 -- wmd
16:49:10 453  			      and las.month >= Greatest(trunc(ilrpt.payment_term_date, 'month'), Trunc(Nvl(L_REMEASUREMENT_DATE, To_Date('180001', 'yyyymm')),'month'));
16:49:10 454  	      PKG_PP_LOG.P_WRITE_MESSAGE(sql%rowcount||' rows inserted into LS_DEPR_FORECAST.');
16:49:10 455  
16:49:10 456  	  A_MSG := 'OK';
16:49:10 457  	 end P_DEPR_SL;
16:49:10 458  
16:49:10 459  	 procedure P_DEPR_FERC( A_LS_ASSET_ID in number, A_REVISION in number,
16:49:10 460  			A_ASSET_ID in number, A_SOB_ID in number,
16:49:10 461  			A_MONTH date, A_MSG out varchar2)
16:49:10 462  	 is
16:49:10 463  	 begin
16:49:10 464  	    A_MSG := 'DELETING from depr_method_sle for current month through end of lease';
16:49:10 465  	    delete from DEPR_METHOD_SLE
16:49:10 466  	    where ASSET_ID = A_ASSET_ID
16:49:10 467  	    and SET_OF_BOOKS_ID = A_SOB_ID;
16:49:10 468  
16:49:10 469  	  A_MSG := 'INSERTING depreciation expense for FERC Method';
16:49:10 470  	  insert into DEPR_METHOD_SLE (ASSET_ID, SET_OF_BOOKS_ID, GL_POSTING_MO_YR, DEPR_EXPENSE)
16:49:10 471  	  WITH war AS (
16:49:10 472  	    SELECT war.ilr_id, war.revision, war.set_of_books_id, war.net_weighted_avg_rate, Trunc(Nvl(lio.remeasurement_date, ilr.est_in_svc_date), 'month') effective_month
16:49:10 473  	    FROM ls_ilr_weighted_avg_rates war
16:49:10 474  	      JOIN ls_ilr ilr ON war.ilr_id = ilr.ilr_id
16:49:10 475  	      JOIN ls_ilr_options lio ON lio.ilr_id = war.ilr_id AND lio.revision = war.revision
16:49:10 476  	    WHERE war.set_of_books_id = A_SOB_ID
16:49:10 477  	  )
16:49:10 478  	  select A_ASSET_ID asset_id, A_SOB_ID set_of_books_id, LAS."MONTH",
16:49:10 479  	  decode(las.is_om, 1, 0, LAS.PRINCIPAL_ACCRUAL * Decode(lio.remeasurement_date, NULL, lio.in_service_exchange_rate, war.net_weighted_avg_rate)) depr_expense
16:49:10 480  	  from LS_ASSET_SCHEDULE LAS
16:49:10 481  	    JOIN ls_asset la ON las.ls_asset_id = la.ls_asset_id
16:49:10 482  	    JOIN ls_ilr_options lio ON lio.ilr_id = la.ilr_id AND lio.revision = las.revision
16:49:10 483  	    JOIN war ON war.ilr_id = la.ilr_id AND war.set_of_books_id = las.set_of_books_id
16:49:10 484  	  where LAS.LS_ASSET_ID = A_LS_ASSET_ID
16:49:10 485  	  and LAS.REVISION = A_REVISION
16:49:10 486  	  and LAS.SET_OF_BOOKS_ID = A_SOB_ID
16:49:10 487  	  AND las.set_of_books_id = war.set_of_books_id
16:49:10 488  	  AND las.MONTH >= war.effective_month
16:49:10 489  	  AND war.effective_month = (SELECT Max(effective_month) FROM war eff_war WHERE eff_war.ilr_id = war.ilr_id AND eff_war.effective_month <= las.month);
16:49:10 490  
16:49:10 491  	  pkg_pp_log.p_write_message('Entering P_MC_SLE_ROUNDING');
16:49:10 492  	  P_MC_SLE_ROUNDING(A_LS_ASSET_ID, A_REVISION, A_SOB_ID, A_ASSET_ID);
16:49:10 493  
16:49:10 494  	    A_MSG := 'OK';
16:49:10 495  	 end P_DEPR_FERC;
16:49:10 496  
16:49:10 497  
16:49:10 498  	 procedure P_DEPR_SLE( A_LS_ASSET_ID in number, A_REVISION in number,
16:49:10 499  			A_ASSET_ID in number, A_SOB_ID in number,
16:49:10 500  			A_MONTH date, A_LIFE number, A_MSG out varchar2)
16:49:10 501  	 is
16:49:10 502  	 begin
16:49:10 503  	    P_DEPR_SLE( A_LS_ASSET_ID, A_REVISION, A_ASSET_ID, A_SOB_ID, A_MONTH, A_LIFE, A_MSG, 0);
16:49:10 504  	 end P_DEPR_SLE;
16:49:10 505  
16:49:10 506  
16:49:10 507  
16:49:10 508  
16:49:10 509  	 procedure P_DEPR_FERC_FCST( A_ILR_ID in number, A_REVISION in number )
16:49:10 510  	 is
16:49:10 511  	 begin
16:49:10 512  		      PKG_PP_ERROR.SET_MODULE_NAME('PKG_LEASE_DEPR.P_DEPR_FERC_FCST');
16:49:10 513  
16:49:10 514  		      insert into LS_DEPR_FORECAST
16:49:10 515  		      (LS_ASSET_ID, SET_OF_BOOKS_ID, REVISION, MONTH, begin_reserve, depr_expense, depr_exp_alloc_adjust, end_reserve)
16:49:10 516  		      select las.ls_asset_id, las.set_of_books_id,  las.revision,  las.month,
16:49:10 517  			      sum( las.principal_accrual) over(partition by  las.ls_asset_id,  las.set_of_books_id,  las.revision order by  las.month) -
16:49:10 518  				       las.principal_accrual + Nvl(remeasurement.prior_month_end_depr_reserve, 0) as begin_reserve,
16:49:10 519  			       las.principal_accrual as depr_expense, 0 as depr_exp_alloc_adjust,
16:49:10 520  			      sum( las.principal_accrual) over(partition by  las.ls_asset_id,  las.set_of_books_id,  las.revision order by  las.month) + Nvl(remeasurement.prior_month_end_depr_reserve, 0) as end_reserve
16:49:10 521  		      from ls_asset_schedule las
16:49:10 522  	    JOIN ls_asset la ON las.ls_asset_id = la.ls_asset_id
16:49:10 523  	    JOIN depr_group dg ON la.depr_group_id = dg.depr_group_id
16:49:10 524  	    JOIN ls_ilr_options lio ON lio.ilr_id = la.ilr_id AND lio.revision = las.revision
16:49:10 525  	    JOIN ls_fasb_cap_type_sob_map sob_map ON sob_map.lease_cap_type_id = lio.lease_cap_type_id AND sob_map.set_of_books_id = las.set_of_books_id
16:49:10 526  	    left OUTER JOIN v_ls_asset_remeasurement_amts remeasurement ON (las.ls_asset_id = remeasurement.ls_asset_id
16:49:10 527  	      AND las.revision = remeasurement.revision
16:49:10 528  	      AND las.set_of_books_id = remeasurement.set_of_books_id
16:49:10 529  	      AND las.month >= Trunc(remeasurement.remeasurement_date, 'month')
16:49:10 530  	      )
16:49:10 531  		      where lower(dg.mid_period_method) = 'ferc'
16:49:10 532  		      AND lio.ilr_id = A_ILR_ID
16:49:10 533  		      AND lio.revision = A_REVISION
16:49:10 534  		      and las.revision = A_REVISION
16:49:10 535  		      and la.ilr_id = A_ILR_ID
16:49:10 536  		      and las.is_om = 0
16:49:10 537  		      and sob_map.fasb_cap_type_id <> 2  --fasb_cap_type_id 2 = Type B, which always uses SLE method, regardless of depr group setting.
16:49:10 538  	  AND las.MONTH >= Nvl(Trunc(lio.remeasurement_date, 'month'), To_Date('180001', 'yyyymm'));
16:49:10 539  
16:49:10 540  	    PKG_PP_LOG.P_WRITE_MESSAGE(sql%rowcount||' rows inserted into LS_DEPR_FORECAST.');
16:49:10 541  
16:49:10 542  		      PKG_PP_ERROR.REMOVE_MODULE_NAME;
16:49:10 543  	      end P_DEPR_FERC_FCST;
16:49:10 544  
16:49:10 545  	      procedure P_GET_LEASE_DEPR( A_ILR_ID in number, A_REVISION in number)
16:49:10 546  	      is
16:49:10 547  		      L_DG_ID DEPR_GROUP.DEPR_GROUP_ID%TYPE;
16:49:10 548  		      L_MSG varchar2(2000);
16:49:10 549  		      L_CC_ID	       NUMBER;
16:49:10 550  		      L_DG_CC_IND      varchar2(100);
16:49:10 551  
16:49:10 552  		      type ASSET_REC is record(
16:49:10 553  			      LS_ASSET_ID LS_ASSET.LS_ASSET_ID%type,
16:49:10 554  			      COMPANY_ID COMPANY_SETUP.COMPANY_ID%type,
16:49:10 555  			      GL_ACCOUNT_ID GL_ACCOUNT.GL_ACCOUNT_ID%type,
16:49:10 556  			      MAJOR_LOCATION_ID MAJOR_LOCATION.MAJOR_LOCATION_ID%type,
16:49:10 557  			      UTILITY_ACCOUNT_ID UTILITY_ACCOUNT.UTILITY_ACCOUNT_ID%type,
16:49:10 558  			      BUS_SEGMENT_ID BUSINESS_SEGMENT.BUS_SEGMENT_ID%type,
16:49:10 559  			      SUB_ACCOUNT_ID SUB_ACCOUNT.SUB_ACCOUNT_ID%type,
16:49:10 560  			      VINTAGE number,
16:49:10 561  			      ASSET_LOCATION_ID ASSET_LOCATION.ASSET_LOCATION_ID%type,
16:49:10 562  			      LOCATION_TYPE_ID LOCATION_TYPE.LOCATION_TYPE_ID%type,
16:49:10 563  			      RETIREMENT_UNIT_ID RETIREMENT_UNIT.RETIREMENT_UNIT_ID%type,
16:49:10 564  			      PROPERTY_UNIT_ID PROPERTY_UNIT.PROPERTY_UNIT_ID%type,
16:49:10 565  			      CC_VALUE LS_ASSET_CLASS_CODE.VALUE%type
16:49:10 566  		      );
16:49:10 567  
16:49:10 568  		      type ASSET_TABLE is table of ASSET_REC index by pls_integer;
16:49:10 569  		      L_ASSET_TABLE ASSET_TABLE;
16:49:10 570  	      begin
16:49:10 571  	    --start log back up again
16:49:10 572  	    PKG_PP_LOG.P_START_LOG(P_PROCESS_ID => PKG_LEASE_COMMON.F_GETPROCESS());
16:49:10 573  
16:49:10 574  		      L_MSG   := 'Finding depr group';
16:49:10 575  	    PKG_PP_LOG.P_WRITE_MESSAGE(L_MSG);
16:49:10 576  
16:49:10 577  		      L_DG_CC_IND := pkg_pp_system_control.f_pp_system_control('Lease Depr Group Class Code');
16:49:10 578  
16:49:10 579  		      if nvl(L_DG_CC_IND, 'none') = 'none' then
16:49:10 580  			  L_CC_ID := -1;
16:49:10 581  		      else
16:49:10 582  			  begin
16:49:10 583  			  select CLASS_CODE_ID
16:49:10 584  			  into L_CC_ID
16:49:10 585  			  from CLASS_CODE
16:49:10 586  			  where lower(trim(description)) = pkg_pp_system_control.f_pp_system_control('DEPR GROUP CLASS CODE');
16:49:10 587  
16:49:10 588  			  exception when no_data_found then
16:49:10 589  			    L_CC_ID := -1;
16:49:10 590  			  end;
16:49:10 591  		      end if;
16:49:10 592  
16:49:10 593  		      -- get attributes required to find depreciation group and calc depreciation
16:49:10 594  	  /* WMD */
16:49:10 595  
16:49:10 596  		      select LA.LS_ASSET_ID, LA.COMPANY_ID, IA.CAP_ASSET_ACCOUNT_ID AS GL_ACCOUNT_ID,
16:49:10 597  			      AL.MAJOR_LOCATION_ID, LA.UTILITY_ACCOUNT_ID, LA.BUS_SEGMENT_ID,
16:49:10 598  			      LA.SUB_ACCOUNT_ID, TO_NUMBER(TO_CHAR(LI.EST_IN_SVC_DATE, 'YYYY')),
16:49:10 599  			      LA.ASSET_LOCATION_ID, ML.LOCATION_TYPE_ID, LA.RETIREMENT_UNIT_ID,
16:49:10 600  			      RU.PROPERTY_UNIT_ID, nvl(decode(L_DG_CC_IND, 'mla', LCC.VALUE, 'ilr', ICC.VALUE, 'asset', ACC.VALUE, 'NO CLASS CODE'), 'NO CLASS CODE')
16:49:10 601  		      bulk collect
16:49:10 602  		      into L_ASSET_TABLE
16:49:10 603  		      from LS_ILR_ACCOUNT IA, LS_ASSET LA, ASSET_LOCATION AL, MAJOR_LOCATION ML,
16:49:10 604  			      LS_ILR LI, RETIREMENT_UNIT RU, LS_LEASE LL,
16:49:10 605  			      (select * from LS_MLA_CLASS_CODE where CLASS_CODE_ID = L_CC_ID) LCC,
16:49:10 606  			      (select * from LS_ILR_CLASS_CODE where CLASS_CODE_ID = L_CC_ID) ICC,
16:49:10 607  			      (select * from LS_ASSET_CLASS_CODE where CLASS_CODE_ID = L_CC_ID) ACC
16:49:10 608  		      where IA.ILR_ID = A_ILR_ID
16:49:10 609  		      and LI.ILR_ID = A_ILR_ID
16:49:10 610  	       and LA.ILR_ID = A_ILR_ID
16:49:10 611  		      and LA.ASSET_LOCATION_ID = AL.ASSET_LOCATION_ID
16:49:10 612  		      and AL.MAJOR_LOCATION_ID = ML.MAJOR_LOCATION_ID
16:49:10 613  		      and LA.RETIREMENT_UNIT_ID = RU.RETIREMENT_UNIT_ID
16:49:10 614  		      and LL.LEASE_ID = LI.LEASE_ID
16:49:10 615  		      and LL.LEASE_ID = LCC.LEASE_ID (+)
16:49:10 616  		      and LI.ILR_ID = ICC.ILR_ID (+)
16:49:10 617  		      and LA.LS_ASSET_ID = ACC.LS_ASSET_ID (+)
16:49:10 618  		      ;
16:49:10 619  
16:49:10 620  
16:49:10 621  		      L_MSG   := 'Updating Depr Group on LS Asset';
16:49:10 622  	    PKG_PP_LOG.P_WRITE_MESSAGE(L_MSG);
16:49:10 623  
16:49:10 624  	    forall ndx in indices of L_ASSET_TABLE
16:49:10 625  			      update ls_asset la
16:49:10 626  			      set depr_group_id = PP_DEPR_PKG.F_FIND_DEPR_GROUP
16:49:10 627  									      (
16:49:10 628  										      L_ASSET_TABLE(ndx).COMPANY_ID,
16:49:10 629  										      L_ASSET_TABLE(ndx).GL_ACCOUNT_ID,
16:49:10 630  										      L_ASSET_TABLE(ndx).MAJOR_LOCATION_ID,
16:49:10 631  										      L_ASSET_TABLE(ndx).UTILITY_ACCOUNT_ID,
16:49:10 632  										      L_ASSET_TABLE(ndx).BUS_SEGMENT_ID,
16:49:10 633  										      L_ASSET_TABLE(ndx).SUB_ACCOUNT_ID,
16:49:10 634  										      -100, --SUBLEDGER_TYPE_ID
16:49:10 635  										      L_ASSET_TABLE(ndx).VINTAGE,
16:49:10 636  										      L_ASSET_TABLE(ndx).ASSET_LOCATION_ID,
16:49:10 637  										      L_ASSET_TABLE(ndx).LOCATION_TYPE_ID,
16:49:10 638  										      L_ASSET_TABLE(ndx).RETIREMENT_UNIT_ID,
16:49:10 639  										      L_ASSET_TABLE(ndx).PROPERTY_UNIT_ID,
16:49:10 640  										      L_CC_ID, --A_CLASS_CODE_ID
16:49:10 641  										      L_ASSET_TABLE(ndx).CC_VALUE
16:49:10 642  									      )
16:49:10 643  			      where la.ls_asset_id = L_ASSET_TABLE(ndx).LS_ASSET_ID
16:49:10 644  			      AND PP_DEPR_PKG.F_FIND_DEPR_GROUP
16:49:10 645  									      (
16:49:10 646  										      L_ASSET_TABLE(ndx).COMPANY_ID,
16:49:10 647  										      L_ASSET_TABLE(ndx).GL_ACCOUNT_ID,
16:49:10 648  										      L_ASSET_TABLE(ndx).MAJOR_LOCATION_ID,
16:49:10 649  										      L_ASSET_TABLE(ndx).UTILITY_ACCOUNT_ID,
16:49:10 650  										      L_ASSET_TABLE(ndx).BUS_SEGMENT_ID,
16:49:10 651  										      L_ASSET_TABLE(ndx).SUB_ACCOUNT_ID,
16:49:10 652  										      -100, --SUBLEDGER_TYPE_ID
16:49:10 653  										      L_ASSET_TABLE(ndx).VINTAGE,
16:49:10 654  										      L_ASSET_TABLE(ndx).ASSET_LOCATION_ID,
16:49:10 655  										      L_ASSET_TABLE(ndx).LOCATION_TYPE_ID,
16:49:10 656  										      L_ASSET_TABLE(ndx).RETIREMENT_UNIT_ID,
16:49:10 657  										      L_ASSET_TABLE(ndx).PROPERTY_UNIT_ID,
16:49:10 658  										      L_CC_ID, --A_CLASS_CODE_ID
16:49:10 659  										      L_ASSET_TABLE(ndx).CC_VALUE
16:49:10 660  									      ) > 0
16:49:10 661  			      ;
16:49:10 662  
16:49:10 663  	    PKG_PP_LOG.P_WRITE_MESSAGE(sql%rowcount||' rows on ls_asset updating with a depr group.');
16:49:10 664  
16:49:10 665  	      end P_GET_LEASE_DEPR;
16:49:10 666  
16:49:10 667  	      function f_lease_stg(A_ILR_ID in number, A_REVISION in number)
16:49:10 668  	      return number
16:49:10 669  	      is
16:49:10 670  	    NUM_ROWS	 number;
16:49:10 671  	      begin
16:49:10 672  		      PKG_PP_ERROR.SET_MODULE_NAME('PKG_LEASE_DEPR.f_lease_stg');
16:49:10 673  		      --
16:49:10 674  		      insert into CPR_DEPR_CALC_STG
16:49:10 675  		      (ASSET_ID, SET_OF_BOOKS_ID, GL_POSTING_MO_YR, INIT_LIFE, REMAINING_LIFE,
16:49:10 676  		       ESTIMATED_SALVAGE, BEG_ASSET_DOLLARS, NET_ADDS_AND_ADJUST, RETIREMENTS,
16:49:10 677  		       DEPR_CALC_STATUS, TRANSFERS_IN, TRANSFERS_OUT, ASSET_DOLLARS, BEG_RESERVE_MONTH,
16:49:10 678  		       SALVAGE_DOLLARS, RESERVE_ADJUSTMENT, COST_OF_REMOVAL, RESERVE_TRANS_IN,
16:49:10 679  		       RESERVE_TRANS_OUT, DEPR_EXP_ADJUST, OTHER_CREDITS_AND_ADJUST, GAIN_LOSS,
16:49:10 680  		       DEPRECIATION_BASE, CURR_DEPR_EXPENSE, DEPR_RESERVE, BEG_RESERVE_YEAR, YTD_DEPR_EXPENSE,
16:49:10 681  		       YTD_DEPR_EXP_ADJUST, PRIOR_YTD_DEPR_EXPENSE, PRIOR_YTD_DEPR_EXP_ADJUST, ACCT_DISTRIB,
16:49:10 682  		       MONTH_RATE, COMPANY_ID, MID_PERIOD_METHOD, MID_PERIOD_CONV, DEPR_GROUP_ID,
16:49:10 683  		       DEPR_EXP_ALLOC_ADJUST, DEPR_METHOD_ID, TRUE_UP_CPR_DEPR, SALVAGE_EXPENSE,
16:49:10 684  		       SALVAGE_EXP_ADJUST, SALVAGE_EXP_ALLOC_ADJUST, IMPAIRMENT_ASSET_AMOUNT,
16:49:10 685  		       IMPAIRMENT_EXPENSE_AMOUNT, END_OF_LIFE, NET_GROSS, OVER_DEPR_CHECK, RATE,
16:49:10 686  		       EFFECTIVE_DATE, SUBLEDGER_TYPE_ID, ENG_IN_SERVICE_YEAR, TRF_WEIGHT, MIN_MPC, TRUEUP_ADJ,
16:49:10 687  		       NET_TRF, ACTIVITY, ACTIVITY_3, BEG_RES_AMT, NET_IMP_AMT, EXISTS_TWO_MONTHS, EXISTS_ARO, HAS_CFNU,
16:49:10 688  		       HAS_NURV, HAS_NURV_LAST_MONTH, EXISTS_LAST_MONTH, NURV_ADJ,
16:49:10 689  		       IMPAIRMENT_ASSET_ACTIVITY_SALV, IMPAIRMENT_ASSET_BEGIN_BALANCE)
16:49:11 690  		      with lease_assets as
16:49:11 691  		      (
16:49:11 692  			      select las.ls_asset_id, las.set_of_books_id, las.revision, las.month, las.end_capital_cost, la.depr_group_id, la.economic_life, /* WMD */
16:49:11 693  				      dg.mid_period_conv, dg.mid_period_method, la.company_id, dg.depr_method_id,
16:49:11 694  				       case when la.ESTIMATED_RESIDUAL = 0 and lower(trim(pkg_pp_system_control.f_pp_system_control_company('Lease Amort to Guaranteed Residual', la.COMPANY_ID))) = 'yes'
16:49:11 695  					      then la.GUARANTEED_RESIDUAL_AMOUNT
16:49:11 696  					      else round(la.ESTIMATED_RESIDUAL * la.FMV, 2) end / las.end_capital_cost as estimated_salvage, /* WMD */
16:49:11 697  				      min("MONTH") over(partition by las.ls_asset_id, las.set_of_books_id, las.revision) as in_service,
16:49:11 698  				      count(1) over(partition by las.ls_asset_id, las.set_of_books_id, las.revision) as init_life,
16:49:11 699  				      count(1) over(partition by las.ls_asset_id, las.set_of_books_id, las.revision) -
16:49:11 700  				      row_number() over(partition by las.ls_asset_id, las.set_of_books_id, las.revision order by las.month) + 1 as remaining_life
16:49:11 701  			      from ls_asset_schedule las, ls_asset la, depr_group dg
16:49:11 702  			      where la.depr_group_id = dg.depr_group_id
16:49:11 703  			      and lower(dg.mid_period_method) not in ('sle', 'ferc', 'sl')
16:49:11 704  			      and dg.subledger_type_id = -100
16:49:11 705  			      and las.ls_asset_id = la.ls_asset_id
16:49:11 706  			      and la.ilr_id = a_ilr_id
16:49:11 707  			      and las.revision = a_revision
16:49:11 708  			      and las.is_om = 0
16:49:11 709  			      and las.end_capital_cost <> 0 /* WMD */
16:49:11 710  		      ), DEPR_METHOD_RATES_VIEW as
16:49:11 711  		       (select DD.DEPR_METHOD_ID as DEPR_METHOD_ID,
16:49:11 712  			       DD.SET_OF_BOOKS_ID,
16:49:11 713  			       DD.EFFECTIVE_DATE,
16:49:11 714  			       DD.RATE,
16:49:11 715  			       DD.OVER_DEPR_CHECK,
16:49:11 716  			       DD.NET_GROSS,
16:49:11 717  			       DD.END_OF_LIFE,
16:49:11 718  			       ROW_NUMBER() OVER(partition by DD.DEPR_METHOD_ID, DD.SET_OF_BOOKS_ID order by DD.EFFECTIVE_DATE desc) as THE_ROW
16:49:11 719  			from DEPR_METHOD_RATES DD
16:49:11 720  			 where DD.EFFECTIVE_DATE <= sysdate)
16:49:11 721  		      select la.ls_asset_id,
16:49:11 722  			       la.SET_OF_BOOKS_ID,
16:49:11 723  			       la."MONTH",
16:49:11 724  			       nvl(la.INIT_LIFE,0),
16:49:11 725  			       nvl(la.REMAINING_LIFE,0),
16:49:11 726  			       nvl(la.ESTIMATED_SALVAGE,0),
16:49:11 727  			       nvl(la.end_capital_cost,0), /* WMD */
16:49:11 728  			       0, 0, 2,0,0,
16:49:11 729  			       nvl(la.end_capital_cost,0), /* WMD */
16:49:11 730  			       0,0,0,0,0,0,0,0,0,
16:49:11 731  			       0,--A.DEPRECIATION_BASE,
16:49:11 732  			       0,--CURR_DEPR_EXPENSE
16:49:11 733  			       0,0,0,0,0,0,
16:49:11 734  			       null,
16:49:11 735  			       0,
16:49:11 736  			       la.COMPANY_ID,
16:49:11 737  			       lower(trim(la.MID_PERIOD_METHOD)),
16:49:11 738  			       la.mid_period_conv MID_PERIOD_CONV,
16:49:11 739  			       la.depr_group_id DEPR_GROUP_ID,
16:49:11 740  			       0,--DEPR_EXP_ALLOC_ADJUST,
16:49:11 741  			       la.depr_method_id DEPR_METHOD_ID,
16:49:11 742  			       0 TRUE_UP_CPR_DEPR,
16:49:11 743  			       0,--A.SALVAGE_EXPENSE,
16:49:11 744  			       0, 0,--SALVAGE_EXP_ALLOC_ADJUST,
16:49:11 745  			       0, 0,
16:49:11 746  			       c.END_OF_LIFE, c.NET_GROSS, c.OVER_DEPR_CHECK, nvl(c.RATE,0), c.EFFECTIVE_DATE,
16:49:11 747  			       -100,
16:49:11 748  			       la.in_service,
16:49:11 749  			       DECODE(LOWER(NVL(PKG_PP_SYSTEM_CONTROL.F_PP_SYSTEM_CONTROL_COMPANY('Transfers In Est Adds',
16:49:11 750  												la.COMPANY_ID),
16:49:11 751  					      'no')),
16:49:11 752  				      'no',
16:49:11 753  				      1,
16:49:11 754  				      0),
16:49:11 755  			 DECODE(LOWER(NVL(PKG_PP_SYSTEM_CONTROL.F_PP_SYSTEM_CONTROL_COMPANY('CPR DEPR: Allow Exp in Month Added',
16:49:11 756  												la.COMPANY_ID),
16:49:11 757  					      'yes')),
16:49:11 758  				      'no',
16:49:11 759  				      0,
16:49:11 760  				      -1
16:49:11 761  				      ),
16:49:11 762  			      0,--TRUEUP_ADJ
16:49:11 763  			      0,0,0,0,0,
16:49:11 764  			      0,--EXISTS_TWO_MONTHS
16:49:11 765  			      0,--EXISTS_ARO
16:49:11 766  			      0, --HAS_CFNU
16:49:11 767  			      0, --HAS_NURV
16:49:11 768  			      0, --HAS_NURV_LAST_MONTH
16:49:11 769  			      case when la.remaining_life = la.init_life then 0 else 1 end, --EXISTS_LAST_MONTH
16:49:11 770  			      0, --NuRV_ADJ
16:49:11 771  			      0, 0
16:49:11 772  			from DEPR_METHOD_RATES_VIEW c, lease_assets la
16:49:11 773  		       where la.depr_method_id = c.depr_method_id
16:49:11 774  		       and la.set_of_books_id = c.set_of_books_id
16:49:11 775  		       and c.THE_ROW = 1;
16:49:11 776  
16:49:11 777  	     NUM_ROWS := sql%rowcount;
16:49:11 778  
16:49:11 779  	     PKG_PP_LOG.P_WRITE_MESSAGE(NUM_ROWS||' rows inserted into CPR_DEPR_CALC_STG.');
16:49:11 780  
16:49:11 781  		       return NUM_ROWS;
16:49:11 782  
16:49:11 783  		       PKG_PP_ERROR.REMOVE_MODULE_NAME;
16:49:11 784  	      end f_lease_stg;
16:49:11 785  
16:49:11 786  	      procedure p_lease_calc
16:49:11 787  	      is
16:49:11 788  	      begin
16:49:11 789  		      --
16:49:11 790  		      PKG_DEPR_IND_CALC.P_DEPRCALC_LEASE();
16:49:11 791  	      end p_lease_calc;
16:49:11 792  
16:49:11 793  	      procedure p_lease_results(A_ILR_ID in number, A_REVISION in number)
16:49:11 794  	      is
16:49:11 795  	      begin
16:49:11 796  		      --
16:49:11 797  		      PKG_PP_ERROR.SET_MODULE_NAME('PKG_LEASE_DEPR.p_lease_results');
16:49:11 798  
16:49:11 799  		      insert into LS_DEPR_FORECAST
16:49:11 800  		      (LS_ASSET_ID, SET_OF_BOOKS_ID, REVISION, MONTH, begin_reserve, depr_expense, depr_exp_alloc_adjust, end_reserve)
16:49:11 801  		      select c.asset_id, c.set_of_books_id, a_revision, c.gl_posting_mo_yr,
16:49:11 802  			      c.beg_reserve_month, c.curr_depr_expense, c.depr_exp_alloc_adjust, c.depr_reserve
16:49:11 803  		      from cpr_depr_calc_stg c
16:49:11 804  		      ;
16:49:11 805  	    PKG_PP_LOG.P_WRITE_MESSAGE(sql%rowcount||' rows inserted into LS_DEPR_FORECAST.');
16:49:11 806  
16:49:11 807  		      delete from cpr_depr_calc_stg;
16:49:11 808  	    PKG_PP_LOG.P_WRITE_MESSAGE(sql%rowcount||' rows deleted from cpr_depr_calc_stg.');
16:49:11 809  
16:49:11 810  		      PKG_PP_ERROR.REMOVE_MODULE_NAME;
16:49:11 811  	      end p_lease_results;
16:49:11 812  
16:49:11 813  	--**************************************************************************
16:49:11 814  	--			      P_fcst_lease
16:49:11 815  	--**************************************************************************
16:49:11 816  	PROCEDURE P_fcst_lease( a_ilr_id   IN NUMBER,
16:49:11 817  				a_revision IN NUMBER )
16:49:11 818  	IS
16:49:11 819  	BEGIN
16:49:11 820  	    DELETE FROM LS_DEPR_INFO_TMP;
16:49:11 821  
16:49:11 822  	    INSERT INTO LS_DEPR_INFO_TMP
16:49:11 823  			(ilr_id,
16:49:11 824  			 ls_asset_id,
16:49:11 825  			 set_of_books_id,
16:49:11 826  			 revision,
16:49:11 827  			 month,
16:49:11 828  			 end_capital_cost,
16:49:11 829  			 depr_group_id,
16:49:11 830  			 economic_life,
16:49:11 831  			 set_of_books,
16:49:11 832  			 mid_period_conv,
16:49:11 833  			 mid_period_method,
16:49:11 834  			 fasb_cap_type_id)
16:49:11 835  	    SELECT a_ilr_id,
16:49:11 836  		   ls_asset_id,
16:49:11 837  		   set_of_books_id,
16:49:11 838  		   revision,
16:49:11 839  		   month,
16:49:11 840  		   end_capital_cost,
16:49:11 841  		   depr_group_id,
16:49:11 842  		   economic_life,
16:49:11 843  		   set_of_books,
16:49:11 844  		   mid_period_conv,
16:49:11 845  		   mid_period_method,
16:49:11 846  		   fasb_cap_type_id
16:49:11 847  	    FROM   ( SELECT las.ls_asset_id,
16:49:11 848  			    las.set_of_books_id,
16:49:11 849  			    las.revision,
16:49:11 850  			    las.month,
16:49:11 851  			    las.end_capital_cost,
16:49:11 852  			    la.depr_group_id,
16:49:11 853  			    la.economic_life,/* WMD */
16:49:11 854  			    Row_number( )
16:49:11 855  			      over(
16:49:11 856  				PARTITION BY las.ls_asset_id, las.set_of_books_id, las.revision
16:49:11 857  				ORDER BY las.month)	  AS the_row,
16:49:11 858  			    dg.mid_period_conv /* CJS 4/11/17 */,
16:49:11 859  			    sob.description		  set_of_books,
16:49:11 860  			    Lower( dg.mid_period_method ) mid_period_method,
16:49:11 861  			    sob_map.fasb_cap_type_id
16:49:11 862  		     FROM   LS_ASSET_SCHEDULE las,
16:49:11 863  			    LS_ASSET la,
16:49:11 864  			    DEPR_GROUP dg,
16:49:11 865  			    LS_ILR_OPTIONS lio,
16:49:11 866  			    LS_FASB_CAP_TYPE_SOB_MAP sob_map,
16:49:11 867  			    SET_OF_BOOKS sob
16:49:11 868  		     WHERE  la.depr_group_id = dg.depr_group_id AND
16:49:11 869  			    las.ls_asset_id = la.ls_asset_id AND
16:49:11 870  			    la.ilr_id = a_ilr_id AND
16:49:11 871  			    las.revision = a_revision AND
16:49:11 872  			    lio.ilr_id = a_ilr_id AND
16:49:11 873  			    lio.revision = a_revision AND
16:49:11 874  			    sob_map.lease_cap_type_id = lio.lease_cap_type_id AND
16:49:11 875  			    sob_map.set_of_books_id = las.set_of_books_id AND
16:49:11 876  			    las.set_of_books_id = sob.set_of_books_id AND
16:49:11 877  			    las.revision = a_revision AND
16:49:11 878  			    la.ilr_id = a_ilr_id )
16:49:11 879  	    WHERE  the_row = 1;
16:49:11 880  
16:49:11 881  	    P_fcst_lease_use_temp_table( a_ilr_id, a_revision );
16:49:11 882  
16:49:11 883  	    DELETE FROM LS_DEPR_INFO_TMP;
16:49:11 884  
16:49:11 885  	END p_fcst_lease;
16:49:11 886  
16:49:11 887  	--**************************************************************************
16:49:11 888  	--			      P_fcst_lease_use_temp_table
16:49:11 889  	--**************************************************************************
16:49:11 890  	PROCEDURE P_fcst_lease_use_temp_table( a_ilr_id   NUMBER,
16:49:11 891  					       a_revision NUMBER )
16:49:11 892  	IS
16:49:11 893  	  l_msg 	      VARCHAR2(2000);
16:49:11 894  	  l_check	      NUMBER;
16:49:11 895  	  l_mid_period_method depr_group.mid_period_method%TYPE;
16:49:11 896  	  l_init_life	      NUMBER;
16:49:11 897  	  l_proc_id	      NUMBER;
16:49:11 898  	  l_num 	      NUMBER;
16:49:11 899  	BEGIN
16:49:11 900  	    pkg_pp_error.Set_module_name( 'PKG_LEASE_DEPR.P_FCST_LEASE' );
16:49:11 901  	    --start log back up again
16:49:11 902  	    pkg_pp_log.P_start_log( p_process_id => pkg_lease_common.F_getprocess( ) );
16:49:11 903  
16:49:11 904  	    pkg_pp_log.P_write_message( 'A_ILR_ID : '
16:49:11 905  					||a_ilr_id );
16:49:11 906  
16:49:11 907  	    pkg_pp_log.P_write_message( 'A_REVISION : '
16:49:11 908  					||a_revision );
16:49:11 909  
16:49:11 910  	    DELETE FROM LS_DEPR_FORECAST
16:49:11 911  	    WHERE  revision = a_revision AND
16:49:11 912  		   ls_asset_id IN
16:49:11 913  		   ( SELECT la.ls_asset_id
16:49:11 914  		     FROM   LS_ASSET la
16:49:11 915  		     WHERE  la.ilr_id = a_ilr_id )
16:49:11 916  	    AND MONTH >= Nvl((SELECT Trunc(remeasurement_date, 'month') FROM ls_ilr_options WHERE ilr_id = A_ILR_ID AND revision = A_REVISION), To_Date('180001','yyyymm'));
16:49:11 917  
16:49:11 918  	    pkg_pp_log.P_write_message( SQL%rowcount
16:49:11 919  					||' rows deleted from LS_DEPR_FORECAST.' );
16:49:11 920  
16:49:11 921  	    -- calc ferc
16:49:11 922  	    pkg_pp_log.P_write_message( 'FERC Calc' );
16:49:11 923  
16:49:11 924  	    pkg_pp_log.P_write_message( 'Entering P_DEPR_FERC_FCST' );
16:49:11 925  
16:49:11 926  	    P_depr_ferc_fcst( a_ilr_id, a_revision );
16:49:11 927  
16:49:11 928  	    -- calc sle
16:49:11 929  	    pkg_pp_log.P_write_message( 'SLE Calc' );
16:49:11 930  
16:49:11 931  	    FOR l_calc_depr IN ( SELECT a_ilr_id,
16:49:11 932  					ls_asset_id,
16:49:11 933  					set_of_books_id,
16:49:11 934  					revision,
16:49:11 935  					month,
16:49:11 936  					end_capital_cost,
16:49:11 937  					depr_group_id,
16:49:11 938  					economic_life,
16:49:11 939  					set_of_books,
16:49:11 940  					mid_period_conv,
16:49:11 941  					mid_period_method
16:49:11 942  				 FROM	LS_DEPR_INFO_TMP
16:49:11 943  				 WHERE	ilr_id = a_ilr_id AND
16:49:11 944  					revision = a_revision AND
16:49:11 945  					fasb_cap_type_id = 2 --fasb_cap_type_id 2 = Type B, which always uses SLE method, regardless of depr group setting.
16:49:11 946  				) LOOP
16:49:11 947  		pkg_pp_log.P_write_message( 'Getting init life' );
16:49:11 948  
16:49:11 949  		l_init_life := pkg_lease_common.F_get_init_life( l_calc_depr.ls_asset_id, l_calc_depr.revision, a_ilr_id, l_calc_depr.economic_life ).init_life;
16:49:11 950  
16:49:11 951  		pkg_pp_log.P_write_message( 'init life : '
16:49:11 952  					    ||l_init_life );
16:49:11 953  
16:49:11 954  		pkg_pp_log.P_write_message( 'Entering P_DEPR_SLE for set of books: '
16:49:11 955  					    ||l_calc_depr.set_of_books );
16:49:11 956  
16:49:11 957  		P_depr_sle( l_calc_depr.ls_asset_id, l_calc_depr.revision, 0, l_calc_depr.set_of_books_id, l_calc_depr.month, l_init_life, l_msg, 1 );
16:49:11 958  	    END LOOP;
16:49:11 959  
16:49:11 960  	    -- calc sl
16:49:11 961  	    pkg_pp_log.P_write_message( 'SL Calc' );
16:49:11 962  
16:49:11 963  	    FOR l_calc_depr IN ( SELECT a_ilr_id,
16:49:11 964  					ls_asset_id,
16:49:11 965  					set_of_books_id,
16:49:11 966  					revision,
16:49:11 967  					month,
16:49:11 968  					end_capital_cost,
16:49:11 969  					depr_group_id,
16:49:11 970  					economic_life,
16:49:11 971  					set_of_books,
16:49:11 972  					mid_period_conv,
16:49:11 973  					mid_period_method
16:49:11 974  				 FROM	LS_DEPR_INFO_TMP
16:49:11 975  				 WHERE	ilr_id = a_ilr_id AND
16:49:11 976  					revision = a_revision AND
16:49:11 977  					fasb_cap_type_id <> 2 --fasb_cap_type_id 2 = Type B, which always uses SLE method, regardless of depr group setting.
16:49:11 978  					AND
16:49:11 979  					mid_period_method = 'sl' ) LOOP
16:49:11 980  		pkg_pp_log.P_write_message( 'Getting init life' );
16:49:11 981  
16:49:11 982  		l_init_life := pkg_lease_common.F_get_init_life( l_calc_depr.ls_asset_id, l_calc_depr.revision, a_ilr_id, l_calc_depr.economic_life ).init_life;
16:49:11 983  
16:49:11 984  		pkg_pp_log.P_write_message( 'init life : '
16:49:11 985  					    ||l_init_life );
16:49:11 986  
16:49:11 987  		pkg_pp_log.P_write_message( 'Entering P_DEPR_SL for set of books: '
16:49:11 988  					    ||l_calc_depr.set_of_books );
16:49:11 989  
16:49:11 990  		P_depr_sl( l_calc_depr.ls_asset_id, l_calc_depr.revision, 0, l_calc_depr.set_of_books_id, l_calc_depr.month, l_init_life, l_calc_depr.mid_period_conv, l_msg );
16:49:11 991  	    END LOOP;
16:49:11 992  
16:49:11 993  	    -- calc rest of depr
16:49:11 994  	    pkg_pp_log.P_write_message( 'Remaining Depr Methods Calc' );
16:49:11 995  
16:49:11 996  	    pkg_pp_log.P_write_message( 'Entering f_lease_stg' );
16:49:11 997  
16:49:11 998  	    l_num := F_lease_stg( a_ilr_id, a_revision );
16:49:11 999  
16:49:11 1000  	     IF l_num > 0 THEN
16:49:11 1001  	       pkg_pp_log.P_write_message( 'Entering p_lease_calc' );
16:49:11 1002  
16:49:11 1003  	       P_lease_calc( );
16:49:11 1004  
16:49:11 1005  	       pkg_pp_log.P_write_message( 'Entering p_lease_results' );
16:49:11 1006  
16:49:11 1007  	       P_lease_results( a_ilr_id, a_revision );
16:49:11 1008  	     END IF;
16:49:11 1009  
16:49:11 1010  	     pkg_pp_error.remove_module_name;
16:49:11 1011  	 EXCEPTION
16:49:11 1012  	   WHEN OTHERS THEN
16:49:11 1013  	     pkg_pp_error.Raise_error( 'ERROR', 'Failed Operation' );
16:49:11 1014  	 END p_fcst_lease_use_temp_table;
16:49:11 1015  
16:49:11 1016  
16:49:11 1017  	 FUNCTION F_LEASE_DEPR_UOP_ROLLFWD (A_COMPANY_ID number, A_MONTH in date)
16:49:11 1018  	 RETURN VARCHAR2
16:49:11 1019  	 IS
16:49:11 1020  	   l_msg VARCHAR2(2000);
16:49:11 1021  	 BEGIN
16:49:11 1022  
16:49:11 1023  	     --Lock the UOP data for the current month.
16:49:11 1024  	     l_msg := 'Lock the UOP data for the current month';
16:49:11 1025  	     update LS_ASSET_UOP a
16:49:11 1026  	     set locked = 1
16:49:11 1027  	     where gl_posting_mo_yr = A_MONTH
16:49:11 1028  	     and exists (
16:49:11 1029  		   select 1
16:49:11 1030  		   from ls_asset b
16:49:11 1031  		   where company_id = a_company_id
16:49:11 1032  		   and b.ls_asset_id = a.ls_asset_id);
16:49:11 1033  
16:49:11 1034  	     --Roll-Forward the UOP data for next month
16:49:11 1035  	     -- Update for existing
16:49:11 1036  	     l_msg := 'Roll-Forward Asset UOP records for next month';
16:49:11 1037  	     UPDATE ls_asset_uop uop
16:49:11 1038  		SET (estimated_production) = (
16:49:11 1039  		      SELECT distinct nvl(estimated_production,0) - nvl(production,0)
16:49:11 1040  		       FROM ls_asset_uop uop2
16:49:11 1041  		       WHERE uop2.ls_asset_id = uop.ls_asset_id
16:49:11 1042  			 AND add_months(uop2.gl_posting_mo_yr,1) = uop.gl_posting_mo_yr
16:49:11 1043  			     )
16:49:11 1044  	     WHERE EXISTS (
16:49:11 1045  	       SELECT 1
16:49:11 1046  		FROM ls_asset_uop uop2
16:49:11 1047  	       WHERE uop2.ls_asset_id = uop.ls_asset_id
16:49:11 1048  		 AND add_months(uop2.gl_posting_mo_yr,1) = uop.gl_posting_mo_yr);
16:49:11 1049  
16:49:11 1050  	     -- Insert for missing records that client hasn't already added
16:49:11 1051  	     l_msg := 'Add missing UOP records for next month';
16:49:11 1052  	     INSERT INTO LS_ASSET_UOP (ls_asset_id, gl_posting_mo_yr, production, estimated_production, locked)
16:49:11 1053  	     SELECT DISTINCT uop.ls_asset_id, add_months(uop.gl_posting_mo_yr, 1), uop.production,
16:49:11 1054  		    uop.estimated_production - uop.production, 0
16:49:11 1055  	       FROM ls_asset_uop uop
16:49:11 1056  	      WHERE uop.gl_posting_mo_yr = A_MONTH
16:49:11 1057  		AND NOT EXISTS (
16:49:11 1058  		    SELECT 1
16:49:11 1059  		      FROM ls_asset_uop uop2
16:49:11 1060  		     WHERE uop.ls_asset_id = uop2.ls_asset_id
16:49:11 1061  		       AND add_months(uop.gl_posting_mo_yr, 1) = uop2.gl_posting_mo_yr);
16:49:11 1062  
16:49:11 1063  	     RETURN 'OK';
16:49:11 1064  	 EXCEPTION
16:49:11 1065  	   WHEN OTHERS THEN
16:49:11 1066  		      l_msg := Substr( l_msg
16:49:11 1067  				       || ': '
16:49:11 1068  				       || SQLERRM, 1, 2000 );
16:49:11 1069  
16:49:11 1070  		      RETURN l_msg;
16:49:11 1071  	 END F_LEASE_DEPR_UOP_ROLLFWD;
16:49:11 1072  
16:49:11 1073  	 FUNCTION F_LEASE_DEPR_UOP_UWA(A_MONTH in date)
16:49:11 1074  	   RETURN VARCHAR2
16:49:11 1075  	 IS
16:49:11 1076  	   l_msg VARCHAR2(2000);
16:49:11 1077  	 BEGIN
16:49:11 1078  
16:49:11 1079  	   --update with actuals: uses STG table rather than CPR_DEPR because this function is called just after
16:49:11 1080  	   --	   the individual results are calculated and haven't yet been put into CPR_DEPR
16:49:11 1081  	   --	   This allows company and month to be ignored as arguments since the STG table already has
16:49:11 1082  	   --	   the assets we will focus on.
16:49:11 1083  	   update ls_depr_forecast a
16:49:11 1084  	      set depr_expense = (
16:49:11 1085  		  select curr_depr_expense
16:49:11 1086  		    from cpr_depr_calc_stg b, ls_cpr_asset_map m
16:49:11 1087  		   where b.depr_calc_status = 9
16:49:11 1088  		     and b.mid_period_method = 'uopr'
16:49:11 1089  		     and b.subledger_type_id = -100
16:49:11 1090  		     and a.ls_asset_id = m.ls_asset_id
16:49:11 1091  		     and b.asset_id = m.asset_id
16:49:11 1092  		     and a.month = b.gl_posting_mo_yr
16:49:11 1093  		     and a.set_of_books_id = b.set_of_books_id)
16:49:11 1094  	    where exists (
16:49:11 1095  	     select 1
16:49:11 1096  	       from cpr_depr_calc_stg c, ls_cpr_asset_map m
16:49:11 1097  	      where c.depr_calc_status = 9
16:49:11 1098  		and c.mid_period_method = 'uopr'
16:49:11 1099  		and c.subledger_type_id = -100
16:49:11 1100  		and a.ls_asset_id = m.ls_asset_id
16:49:11 1101  		and m.asset_id = c.asset_id
16:49:11 1102  		and a.month = c.gl_posting_mo_yr
16:49:11 1103  		and a.set_of_books_id = c.set_of_books_id);
16:49:11 1104  
16:49:11 1105  	    -- Re-calculuate LS_DEPR_FORECAST.END_RESERVE for the month with the newly updated DEPR_EXPENSE
16:49:11 1106  	    update ls_depr_forecast a
16:49:11 1107  	       set end_reserve = begin_reserve + depr_expense + depr_exp_alloc_adjust
16:49:11 1108  	     where exists (
16:49:11 1109  	      select 1
16:49:11 1110  		from cpr_depr_calc_stg c, ls_cpr_asset_map m
16:49:11 1111  	       where a.ls_asset_id = m.ls_asset_id
16:49:11 1112  		 and m.asset_id = c.asset_id
16:49:11 1113  		 and a.month = c.gl_posting_mo_yr
16:49:11 1114  		 and a.set_of_books_id = c.set_of_books_id
16:49:11 1115  		 and c.depr_calc_status = 9
16:49:11 1116  		 and c.mid_period_method = 'uopr'
16:49:11 1117  		 and c.subledger_type_id = -100);
16:49:11 1118  
16:49:11 1119  	    -- Re-calc LS_DEPR_FORECAST for future months by reallocating the remaining months on a straight line basis
16:49:11 1120  	    merge into ls_depr_forecast ldf
16:49:11 1121  	    using (
16:49:11 1122  		   with cpr_stg as (
16:49:11 1123  			  select distinct m.ls_asset_id, c.set_of_books_id
16:49:11 1124  			    from cpr_depr_calc_stg c, ls_cpr_asset_map m
16:49:11 1125  			   where m.asset_id = c.asset_id
16:49:11 1126  			     and c.depr_calc_status = 9
16:49:11 1127  			     and c.mid_period_method = 'uopr'
16:49:11 1128  			     and c.subledger_type_id = -100),
16:49:11 1129  			asset_revision as (
16:49:11 1130  			  select d.ls_asset_id, d.set_of_books_id, max(revision) revision
16:49:11 1131  			    from ls_depr_forecast d, cpr_stg c
16:49:11 1132  			   where d.ls_asset_id = c.ls_asset_id
16:49:11 1133  			     and d.set_of_books_id = c.set_of_books_id
16:49:11 1134  			   group by d.ls_asset_id, d.set_of_books_id),
16:49:11 1135  			prior_month as (
16:49:11 1136  			  select a.ls_asset_id, a.revision, a.set_of_books_id, a.end_reserve
16:49:11 1137  			    from ls_depr_forecast a, asset_revision r
16:49:11 1138  			   where a.ls_asset_id = r.ls_asset_id
16:49:11 1139  			     and a.revision = r.revision
16:49:11 1140  			     and a.set_of_books_id = r.set_of_books_id
16:49:11 1141  			     and a.month = A_MONTH),
16:49:11 1142  			total as (
16:49:11 1143  			  select las.ls_asset_id, las.revision, las.set_of_books_id, las.month,
16:49:11 1144  				 LAST_VALUE(las.end_capital_cost) over (order by las.ls_asset_id, las.revision, las.set_of_books_id)
16:49:11 1145  				 - pm.end_reserve
16:49:11 1146  				 - case when (la.ESTIMATED_RESIDUAL = 0
16:49:11 1147  					      and lower(trim(pkg_pp_system_control.f_pp_system_control_company('Lease Amort to Guaranteed Residual', la.COMPANY_ID))) = 'yes')
16:49:11 1148  					then la.GUARANTEED_RESIDUAL_AMOUNT
16:49:11 1149  					else round(la.ESTIMATED_RESIDUAL * la.FMV, 2) end total_expense
16:49:11 1150  			    from ls_asset_schedule las, ls_asset la, prior_month pm
16:49:11 1151  			   where las.ls_asset_id = la.ls_asset_id
16:49:11 1152  			     and las.ls_asset_id = pm.ls_asset_id
16:49:11 1153  			     and las.revision = pm.revision
16:49:11 1154  			     and las.set_of_books_id = pm.set_of_books_id),
16:49:11 1155  		       asset_schedule as (
16:49:11 1156  			  select las.ls_asset_id, las.revision, las.set_of_books_id, las.month,
16:49:11 1157  				 LAST_VALUE(las.month) over (order by las.ls_asset_id, las.revision, las.set_of_books_id) as max_month,
16:49:11 1158  				 nvl(dg.mid_period_conv,1) mid_period_conv
16:49:11 1159  			    from ls_asset_schedule las, ls_asset la, asset_revision ar, depr_group dg
16:49:11 1160  			   where las.ls_asset_id = la.ls_asset_id
16:49:11 1161  			     and las.ls_asset_id = ar.ls_asset_id
16:49:11 1162  			     and las.ls_asset_id = ar.ls_asset_id
16:49:11 1163  			     and las.revision = ar.revision
16:49:11 1164  			     and las.set_of_books_id = ar.set_of_books_id
16:49:11 1165  			     and las.month > A_MONTH
16:49:11 1166  			     and la.depr_group_id = dg.depr_group_id)
16:49:11 1167  		      select s.ls_asset_id, s.revision, s.set_of_books_id, s.month,
16:49:11 1168  			     sum(case when s.month = ADD_MONTHS(A_MONTH,1)
16:49:11 1169  				      then round(t.total_expense / MONTHS_BETWEEN(s.max_month, A_MONTH),2) * s.mid_period_conv
16:49:11 1170  				      when s.month < ADD_MONTHS(s.max_month, decode(s.mid_period_conv, 1, 0, 1)) and s.month > A_MONTH
16:49:11 1171  				      then round(t.total_expense / MONTHS_BETWEEN(s.max_month, A_MONTH),2)
16:49:11 1172  				      when s.month = ADD_MONTHS(s.max_month, decode(s.mid_period_conv, 1, 0, 1))
16:49:11 1173  				      then round(t.total_expense / MONTHS_BETWEEN(s.max_month, A_MONTH),2) * s.mid_period_conv
16:49:11 1174  					   + (t.total_expense - (round(t.total_expense / MONTHS_BETWEEN(s.max_month, A_MONTH),2)
16:49:11 1175  								 * MONTHS_BETWEEN(s.max_month, A_MONTH)))
16:49:11 1176  				      else 0
16:49:11 1177  				      end) over (partition by s.ls_asset_id, s.revision, s.set_of_books_id order by s.month)
16:49:11 1178  			     + pm.end_reserve
16:49:11 1179  			     - case when s.month = ADD_MONTHS(A_MONTH,1)
16:49:11 1180  				    then round(t.total_expense / MONTHS_BETWEEN(s.max_month, A_MONTH),2) * s.mid_period_conv
16:49:11 1181  				    when s.month < ADD_MONTHS(s.max_month, decode(s.mid_period_conv, 1, 0, 1)) and s.month > A_MONTH
16:49:11 1182  				    then round(t.total_expense / MONTHS_BETWEEN(s.max_month, A_MONTH),2)
16:49:11 1183  				    when s.month = ADD_MONTHS(s.max_month, decode(s.mid_period_conv, 1, 0, 1))
16:49:11 1184  				    then round(t.total_expense / MONTHS_BETWEEN(s.max_month, A_MONTH),2) * s.mid_period_conv
16:49:11 1185  					 + (t.total_expense - (round(t.total_expense / MONTHS_BETWEEN(s.max_month, A_MONTH),2)
16:49:11 1186  							       * MONTHS_BETWEEN(s.max_month, A_MONTH)))
16:49:11 1187  				    else 0
16:49:11 1188  				    end as begin_reserve,
16:49:11 1189  			     case when s.month = ADD_MONTHS(A_MONTH,1)
16:49:11 1190  				  then round(t.total_expense / MONTHS_BETWEEN(s.max_month, A_MONTH),2) * s.mid_period_conv
16:49:11 1191  				  when s.month < ADD_MONTHS(s.max_month, decode(s.mid_period_conv, 1, 0, 1)) and s.month > A_MONTH
16:49:11 1192  				  then round(t.total_expense / MONTHS_BETWEEN(s.max_month, A_MONTH),2)
16:49:11 1193  				  when s.month = ADD_MONTHS(s.max_month, decode(s.mid_period_conv, 1, 0, 1))
16:49:11 1194  				  then round(t.total_expense / MONTHS_BETWEEN(s.max_month, A_MONTH),2) * s.mid_period_conv
16:49:11 1195  				       + (t.total_expense - (round(t.total_expense / MONTHS_BETWEEN(s.max_month, A_MONTH),2)
16:49:11 1196  							     * MONTHS_BETWEEN(s.max_month, A_MONTH)))
16:49:11 1197  				  else 0
16:49:11 1198  				  end as depr_expense,
16:49:11 1199  			     0 as depr_exp_alloc_adjust,
16:49:11 1200  			     sum(case when s.month = ADD_MONTHS(A_MONTH,1)
16:49:11 1201  				      then round(t.total_expense / MONTHS_BETWEEN(s.max_month, A_MONTH),2) * s.mid_period_conv
16:49:11 1202  				      when s.month < ADD_MONTHS(s.max_month, decode(s.mid_period_conv, 1, 0, 1)) and s.month > A_MONTH
16:49:11 1203  				      then round(t.total_expense / MONTHS_BETWEEN(s.max_month, A_MONTH),2)
16:49:11 1204  				      when s.month = ADD_MONTHS(s.max_month, decode(s.mid_period_conv, 1, 0, 1))
16:49:11 1205  				      then round(t.total_expense / MONTHS_BETWEEN(s.max_month, A_MONTH),2) * s.mid_period_conv
16:49:11 1206  					   + (t.total_expense - (round(t.total_expense / MONTHS_BETWEEN(s.max_month, A_MONTH),2)
16:49:11 1207  								 * MONTHS_BETWEEN(s.max_month, A_MONTH)))
16:49:11 1208  				      else 0
16:49:11 1209  				      end) over (partition by s.ls_asset_id, s.revision, s.set_of_books_id order by s.month)
16:49:11 1210  			     + pm.end_reserve as end_reserve
16:49:11 1211  			from asset_schedule s
16:49:11 1212  			JOIN total t on s.ls_asset_id = t.ls_asset_id
16:49:11 1213  				    and s.revision = t.revision
16:49:11 1214  				    and s.set_of_books_id = t.set_of_books_id
16:49:11 1215  				    and s.month = t.month
16:49:11 1216  			JOIN prior_month pm on s.ls_asset_id = pm.ls_asset_id
16:49:11 1217  				    and s.revision = pm.revision
16:49:11 1218  				    and s.set_of_books_id = pm.set_of_books_id
16:49:11 1219  		  ) sl
16:49:11 1220  	    on (ldf.ls_asset_id = sl.ls_asset_id
16:49:11 1221  		and ldf.revision = sl.revision
16:49:11 1222  		and ldf.set_of_books_id = sl.set_of_books_id
16:49:11 1223  		and ldf.month = sl.month)
16:49:11 1224  	    when matched then
16:49:11 1225  	      update set ldf.begin_reserve = sl.begin_reserve,
16:49:11 1226  			  ldf.depr_expense = sl.depr_expense,
16:49:11 1227  			  ldf.depr_exp_alloc_adjust = sl.depr_exp_alloc_adjust,
16:49:11 1228  			  ldf.end_reserve = sl.end_reserve
16:49:11 1229  	    when not matched then
16:49:11 1230  	      insert (ls_asset_id, set_of_books_id, revision, month, begin_reserve, depr_expense, depr_exp_alloc_adjust, end_reserve)
16:49:11 1231  	      values (sl.ls_asset_id, sl.set_of_books_id, sl.revision, sl.month, sl.begin_reserve, sl.depr_expense, sl.depr_exp_alloc_adjust, sl.end_reserve);
16:49:11 1232  
16:49:11 1233  	   RETURN 'OK';
16:49:11 1234  	 EXCEPTION
16:49:11 1235  	   WHEN OTHERS THEN
16:49:11 1236  		      l_msg := Substr( l_msg
16:49:11 1237  				       || ': '
16:49:11 1238  				       || SQLERRM, 1, 2000 );
16:49:11 1239  
16:49:11 1240  		      RETURN l_msg;
16:49:11 1241  	 END F_LEASE_DEPR_UOP_UWA;
16:49:11 1242  
16:49:11 1243  end PKG_LEASE_DEPR;
16:49:11 1244  /

Package body created.

16:49:11 hopplant> --**************************
16:49:11 hopplant> -- Log the run of the script
16:49:11 hopplant> --**************************
16:49:11 hopplant> insert into PP_SCHEMA_CHANGE_LOG
16:49:11   2  	 (ID, SKIPPED, MAJOR_VERSION, MINOR_VERSION, POINT_VERSION, PATCH_VERSION, MAINT_NUM, SCRIPT_PATH,
16:49:11   3  	  SCRIPT_NAME, SCRIPT_REVISION, DATE_APPLIED, OS_USER, TERMINAL, SERVICE_NAME)
16:49:11   4  values
16:49:11   5  	 (8483, 0, 2017, 4, 0, 0, 0, 'C:\PlasticWks\PowerPlant\sql\packages', '2017.4.0.0_PKG_LEASE_DEPR.sql', 1, SYSTIMESTAMP, SYS_CONTEXT('USERENV', 'OS_USER'), SYS_CONTEXT('USERENV', 'TERMINAL'), SYS_CONTEXT('USERENV', 'SERVICE_NAME'));

1 row created.

16:49:11 hopplant> commit;

Commit complete.

16:49:11 hopplant> SPOOL OFF
