16:32:26 hopplant> @&&PP_SCRIPT_PATH.maint_scripts\2017.4.0.0_maint_047787_lessee_02_disclosure_residuals_rpt_dml.sql
16:32:26 hopplant> /*
16:32:26 hopplant> ||============================================================================
16:32:26 hopplant> || Application: PowerPlan  Disclosure Reports - Residuals
16:32:26 hopplant> || File Name:   maint_047787_lessee_02_disclosure_residuals_rpt_dml.sql
16:32:26 hopplant> ||============================================================================
16:32:26 hopplant> || Copyright (C) 2018 by PowerPlan, Inc. All Rights Reserved.
16:32:26 hopplant> ||============================================================================
16:32:26 hopplant> || Version	  Date	     Revised By       Reason for Change
16:32:26 hopplant> || ----------  ---------- ---------------- ------------------------------------
16:32:26 hopplant> || 2017.4.0.0  05/08/2018 David Conway     Update time option for MC
16:32:26 hopplant> ||============================================================================
16:32:26 hopplant> */
16:32:26 hopplant> 
16:32:26 hopplant> update pp_reports
16:32:26   2  	 set pp_report_time_option_id = 207
16:32:26   3   where report_number = 'Lessee - 2010';

1 row updated.

16:32:26 hopplant> 
16:32:26 hopplant> --****************************************************
16:32:26 hopplant> --Log the run of the script to local PP_SCHEMA_LOG
16:32:26 hopplant> --****************************************************
16:32:26 hopplant> INSERT INTO PP_SCHEMA_CHANGE_LOG
16:32:26   2  	  (ID, SKIPPED, MAJOR_VERSION, MINOR_VERSION, POINT_VERSION, PATCH_VERSION, MAINT_NUM, SCRIPT_PATH,
16:32:26   3  	  SCRIPT_NAME, SCRIPT_REVISION, DATE_APPLIED, OS_USER, TERMINAL, SERVICE_NAME)
16:32:26   4  VALUES
16:32:26   5  	  (5222, 0, 2017, 4, 0, 0, 47787, 'C:\PlasticWks\powerplant\sql\maint_scripts', '2017.4.0.0_maint_047787_lessee_02_disclosure_residuals_rpt_dml.sql', 1,
16:32:26   6  	  SYSTIMESTAMP, SYS_CONTEXT('USERENV', 'OS_USER'), SYS_CONTEXT('USERENV', 'TERMINAL'),
16:32:26   7  	  SYS_CONTEXT('USERENV', 'SERVICE_NAME'));

1 row created.

16:32:26 hopplant> COMMIT;

Commit complete.

16:32:26 hopplant> SPOOL OFF
