15:57:31 hopplant> @&&PP_SCRIPT_PATH.maint_scripts\2017.1.0.0_maint_049462_lessee_01_ilr_import_update_ddl.sql
15:57:31 hopplant> /*
15:57:31 hopplant> ||============================================================================
15:57:31 hopplant> || Application: PowerPlan
15:57:31 hopplant> || File Name:   maint_049462_lessee_01_ilr_import_update_ddl.sql
15:57:31 hopplant> ||============================================================================
15:57:31 hopplant> || Copyright (C) 2017 by PowerPlan, Inc. All Rights Reserved.
15:57:31 hopplant> ||============================================================================
15:57:31 hopplant> || Version	 Date	    Revised By	     Reason for Change
15:57:31 hopplant> || ---------- ---------- ---------------- ------------------------------------
15:57:31 hopplant> || 2017.1.0.0 11/12/2017 Shane "C" Ward    Updates to Lessee ILR Import
15:57:31 hopplant> ||============================================================================
15:57:31 hopplant> */
15:57:31 hopplant> ALTER TABLE ls_import_ilr add     sublease_flag		NUMBER(1, 0) ;

Table altered.

15:57:31 hopplant> ALTER TABLE ls_import_ilr add  sublease_flag_xlate	     VARCHAR2(35) ;

Table altered.

15:57:31 hopplant> ALTER TABLE ls_import_ilr add  sublease_id		     NUMBER(22, 0) ;

Table altered.

15:57:31 hopplant> ALTER TABLE ls_import_ilr add  sublease_id_xlate	     VARCHAR2(254) ;

Table altered.

15:57:31 hopplant> ALTER TABLE ls_import_ilr add       intent_to_purch		  NUMBER(1, 0) ;

Table altered.

15:57:31 hopplant> ALTER TABLE ls_import_ilr add  intent_to_purch_xlate      VARCHAR2(35);

Table altered.

15:57:31 hopplant> ALTER TABLE ls_import_ilr add  specialized_asset	     NUMBER(1, 0) ;

Table altered.

15:57:31 hopplant> ALTER TABLE ls_import_ilr add  specialized_asset_xlate    VARCHAR2(35) ;

Table altered.

15:57:31 hopplant> ALTER TABLE ls_import_ilr add  intercompany_lease	     NUMBER(1, 0) ;

Table altered.

15:57:31 hopplant> ALTER TABLE ls_import_ilr add  intercompany_lease_xlate   VARCHAR2(35) ;

Table altered.

15:57:31 hopplant> ALTER TABLE ls_import_ilr add  intercompany_company	     NUMBER(22, 0) ;

Table altered.

15:57:31 hopplant> ALTER TABLE ls_import_ilr add  intercompany_company_xlate VARCHAR2(254) ;

Table altered.

15:57:31 hopplant> 
15:57:31 hopplant> COMMENT ON COLUMN ls_import_ilr.sublease_flag IS 'ID for Yes/No on whether ILR has sublease. Is the lessor subleasing the asset?';

Comment created.

15:57:31 hopplant> COMMENT ON COLUMN ls_import_ilr.sublease_flag_xlate IS 'Translate Column for ID for Yes/No on whether ILR has sublease';

Comment created.

15:57:31 hopplant> COMMENT ON COLUMN ls_import_ilr.sublease_id IS 'ID of Sublease for ILR (lsr_lease)';

Comment created.

15:57:31 hopplant> COMMENT ON COLUMN ls_import_ilr.sublease_id_xlate IS 'ID of Sublease for ILR (lsr_lease)';

Comment created.

15:57:31 hopplant> COMMENT ON COLUMN ls_import_ilr.intent_to_purch IS 'ID for Yes/No for Intent to Purchase. Is the business planning on the lessee purchasing the asset.';

Comment created.

15:57:31 hopplant> COMMENT ON COLUMN ls_import_ilr.intent_to_purch_xlate IS 'Translate Column ID for Yes/No for Intent to Purchase';

Comment created.

15:57:31 hopplant> COMMENT ON COLUMN ls_import_ilr.specialized_asset IS 'ID for Yes/No for Specialized Asset. Is the asset so specialized in nature, there would be no other use for it after the term of the lease?';

Comment created.

15:57:31 hopplant> COMMENT ON COLUMN ls_import_ilr.specialized_asset_xlate IS 'Translate Column ID for Yes/No for Specialized Asset';

Comment created.

15:57:31 hopplant> COMMENT ON COLUMN ls_import_ilr.intercompany_lease IS 'ID for Yes/No for whether ILR is an Intercompany Lease. Is the lease with another company in the business?';

Comment created.

15:57:31 hopplant> COMMENT ON COLUMN ls_import_ilr.intercompany_lease_xlate IS 'Translate Column ID for Yes/No for whether ILR is an Intercompany Lease';

Comment created.

15:57:31 hopplant> COMMENT ON COLUMN ls_import_ilr.intercompany_company IS 'ID of Company ILR is associated with for Intercompany Lease. If the lease is with another company within the business, enter the company description here.';

Comment created.

15:57:31 hopplant> COMMENT ON COLUMN ls_import_ilr.intercompany_company_xlate IS 'Translate Column for ID of Company ILR is associated with for Intercompany Lease';

Comment created.

15:57:31 hopplant> 
15:57:31 hopplant> ALTER TABLE ls_import_ilr_archive add     sublease_flag		NUMBER(1, 0) ;

Table altered.

15:57:32 hopplant> ALTER TABLE ls_import_ilr_archive add  sublease_flag_xlate	     VARCHAR2(35) ;

Table altered.

15:57:32 hopplant> ALTER TABLE ls_import_ilr_archive add  sublease_id		     NUMBER(22, 0) ;

Table altered.

15:57:32 hopplant> ALTER TABLE ls_import_ilr_archive add  sublease_id_xlate	     VARCHAR2(254) ;

Table altered.

15:57:32 hopplant> ALTER TABLE ls_import_ilr_archive add       intent_to_purch		  NUMBER(1, 0) ;

Table altered.

15:57:32 hopplant> ALTER TABLE ls_import_ilr_archive add  intent_to_purch_xlate      VARCHAR2(35);

Table altered.

15:57:32 hopplant> ALTER TABLE ls_import_ilr_archive add  specialized_asset	     NUMBER(1, 0) ;

Table altered.

15:57:32 hopplant> ALTER TABLE ls_import_ilr_archive add  specialized_asset_xlate    VARCHAR2(35) ;

Table altered.

15:57:32 hopplant> ALTER TABLE ls_import_ilr_archive add  intercompany_lease	     NUMBER(1, 0) ;

Table altered.

15:57:32 hopplant> ALTER TABLE ls_import_ilr_archive add  intercompany_lease_xlate   VARCHAR2(35) ;

Table altered.

15:57:32 hopplant> ALTER TABLE ls_import_ilr_archive add  intercompany_company	     NUMBER(22, 0) ;

Table altered.

15:57:32 hopplant> ALTER TABLE ls_import_ilr_archive add  intercompany_company_xlate VARCHAR2(254) ;

Table altered.

15:57:32 hopplant> 
15:57:32 hopplant> COMMENT ON COLUMN ls_import_ilr_archive.sublease_flag IS 'ID for Yes/No on whether ILR has sublease. Is the lessor subleasing the asset?';

Comment created.

15:57:32 hopplant> COMMENT ON COLUMN ls_import_ilr_archive.sublease_flag_xlate IS 'Translate Column for ID for Yes/No on whether ILR has sublease';

Comment created.

15:57:32 hopplant> COMMENT ON COLUMN ls_import_ilr_archive.sublease_id IS 'ID of Sublease for ILR (lsr_lease)';

Comment created.

15:57:32 hopplant> COMMENT ON COLUMN ls_import_ilr_archive.sublease_id_xlate IS 'ID of Sublease for ILR (lsr_lease)';

Comment created.

15:57:32 hopplant> COMMENT ON COLUMN ls_import_ilr_archive.intent_to_purch IS 'ID for Yes/No for Intent to Purchase. Is the business planning on the lessee purchasing the asset.';

Comment created.

15:57:32 hopplant> COMMENT ON COLUMN ls_import_ilr_archive.intent_to_purch_xlate IS 'Translate Column ID for Yes/No for Intent to Purchase';

Comment created.

15:57:32 hopplant> COMMENT ON COLUMN ls_import_ilr_archive.specialized_asset IS 'ID for Yes/No for Specialized Asset. Is the asset so specialized in nature, there would be no other use for it after the term of the lease?';

Comment created.

15:57:32 hopplant> COMMENT ON COLUMN ls_import_ilr_archive.specialized_asset_xlate IS 'Translate Column ID for Yes/No for Specialized Asset';

Comment created.

15:57:32 hopplant> COMMENT ON COLUMN ls_import_ilr_archive.intercompany_lease IS 'ID for Yes/No for whether ILR is an Intercompany Lease. Is the lease with another company in the business?';

Comment created.

15:57:32 hopplant> COMMENT ON COLUMN ls_import_ilr_archive.intercompany_lease_xlate IS 'Translate Column ID for Yes/No for whether ILR is an Intercompany Lease';

Comment created.

15:57:32 hopplant> COMMENT ON COLUMN ls_import_ilr_archive.intercompany_company IS 'ID of Company ILR is associated with for Intercompany Lease. If the lease is with another company within the business, enter the company description here.';

Comment created.

15:57:32 hopplant> COMMENT ON COLUMN ls_import_ilr_archive.intercompany_company_xlate IS 'Translate Column for ID of Company ILR is associated with for Intercompany Lease';

Comment created.

15:57:32 hopplant> 
15:57:32 hopplant> ALTER TABLE ls_ilr_options DROP CONSTRAINT fk_ls_ilr_sublease;

Table altered.

15:57:32 hopplant> 
15:57:32 hopplant> ALTER TABLE ls_ilr_options
15:57:32   2  	ADD CONSTRAINT fk_ls_ilr_sublease FOREIGN KEY (
15:57:32   3  	  sublease_id
15:57:32   4  	) REFERENCES lsr_lease (
15:57:32   5  	  lease_id
15:57:32   6  	);

Table altered.

15:57:32 hopplant> 
15:57:32 hopplant> --****************************************************
15:57:32 hopplant> --Log the run of the script to local PP_SCHEMA_LOG
15:57:32 hopplant> --****************************************************
15:57:32 hopplant> INSERT INTO PP_SCHEMA_CHANGE_LOG
15:57:32   2  	      (ID, SKIPPED, MAJOR_VERSION, MINOR_VERSION, POINT_VERSION, PATCH_VERSION, MAINT_NUM, SCRIPT_PATH,
15:57:32   3  	      SCRIPT_NAME, SCRIPT_REVISION, DATE_APPLIED, OS_USER, TERMINAL, SERVICE_NAME)
15:57:32   4  VALUES
15:57:32   5  	      (3938, 0, 2017, 1, 0, 0, 49462, 'C:\PlasticWks\powerplant\sql\maint_scripts', '2017.1.0.0_maint_049462_lessee_01_ilr_import_update_ddl.sql', 1,
15:57:32   6  	      SYSTIMESTAMP, SYS_CONTEXT('USERENV', 'OS_USER'), SYS_CONTEXT('USERENV', 'TERMINAL'),
15:57:32   7  	      SYS_CONTEXT('USERENV', 'SERVICE_NAME'));

1 row created.

15:57:32 hopplant> COMMIT;

Commit complete.

15:57:32 hopplant> SPOOL OFF
