16:31:58 hopplant> @&&PP_SCRIPT_PATH.maint_scripts\2017.4.0.0_maint_050896_lease_01_rename_menu_items_dml.sql
16:31:58 hopplant> /*
16:31:58 hopplant> ||============================================================================
16:31:58 hopplant> || Application: PowerPlan
16:31:58 hopplant> || File Name:   maint_050896_lease_01_rename_menu_items_dml.sql
16:31:58 hopplant> ||============================================================================
16:31:58 hopplant> || Copyright (C) 2018 by PowerPlan, Inc. All Rights Reserved.
16:31:58 hopplant> ||============================================================================
16:31:58 hopplant> || Version	 Date	    Revised By	     Reason for Change
16:31:58 hopplant> || ---------- ---------- ---------------- ------------------------------------
16:31:58 hopplant> || 2017.4.0.0 04/30/2018 Shane "C" Ward	   Rename Initiate Menu Items so PPBase Security will work on them
16:31:58 hopplant> ||============================================================================
16:31:58 hopplant> */
16:31:58 hopplant> 
16:31:58 hopplant> UPDATE ppbase_menu_items
16:31:58   2  SET label = 'New '||label
16:31:58   3  WHERE Upper(MODULE) IN ('LESSEE', 'LESSOR')
16:31:58   4  and Upper(parent_menu_identifier) = 'MENU_WKSP_INITIATE'
16:31:58   5  AND LOWER(LABEL) IN ('mla', 'asset', 'ilr', 'component');

7 rows updated.

16:31:58 hopplant> 
16:31:58 hopplant> --****************************************************
16:31:58 hopplant> --Log the run of the script to local PP_SCHEMA_LOG
16:31:58 hopplant> --****************************************************
16:31:58 hopplant> INSERT INTO PP_SCHEMA_CHANGE_LOG
16:31:58   2  	      (ID, SKIPPED, MAJOR_VERSION, MINOR_VERSION, POINT_VERSION, PATCH_VERSION, MAINT_NUM, SCRIPT_PATH,
16:31:58   3  	      SCRIPT_NAME, SCRIPT_REVISION, DATE_APPLIED, OS_USER, TERMINAL, SERVICE_NAME)
16:31:58   4  VALUES
16:31:58   5  	      (4903, 0, 2017, 4, 0, 0, 50896, 'C:\PlasticWks\powerplant\sql\maint_scripts', '2017.4.0.0_maint_050896_lease_01_rename_menu_items_dml.sql', 1,
16:31:58   6  	      SYSTIMESTAMP, SYS_CONTEXT('USERENV', 'OS_USER'), SYS_CONTEXT('USERENV', 'TERMINAL'),
16:31:58   7  	      SYS_CONTEXT('USERENV', 'SERVICE_NAME'));

1 row created.

16:31:58 hopplant> COMMIT;

Commit complete.

16:31:58 hopplant> SPOOL OFF
