15:59:11 hopplant> @&&PP_SCRIPT_PATH.maint_scripts\2017.1.0.0_maint_049217_lease_standalone_sys_ctrl_dml.sql
15:59:11 hopplant> /*
15:59:11 hopplant> ||============================================================================
15:59:11 hopplant> || Application: PowerPlan
15:59:11 hopplant> || Object Name: maint_049217_lease_standalone_sys_ctrl_dml.sql
15:59:11 hopplant> || Description:
15:59:11 hopplant> ||============================================================================
15:59:11 hopplant> || Copyright (C) 2017 by PowerPlan, Inc. All Rights Reserved.
15:59:11 hopplant> ||============================================================================
15:59:11 hopplant> || Version	 Date	     Revised By     Reason for Change
15:59:11 hopplant> || ---------- ----------  -------------- ----------------------------------------
15:59:11 hopplant> || 2016.1.2.0  06/26/2017 build script   2016.1.2.0 Patch Release
15:59:11 hopplant> ||============================================================================
15:59:11 hopplant> */
15:59:11 hopplant> 
15:59:11 hopplant> INSERT INTO PP_SYSTEM_CONTROL
15:59:11   2  		  (control_id,
15:59:11   3  		   control_name,
15:59:11   4  		   control_value,
15:59:11   5  		   description,
15:59:11   6  		   long_description,
15:59:11   7  		   company_id)
15:59:11   8  SELECT pwrplant1.NEXTVAL,
15:59:11   9  	     'Lease Standalone',
15:59:11  10  	     'No',
15:59:11  11  	     'dw_yes_no;1',
15:59:11  12  	     'Determine if the system is a Lease Standalone Product. Default is "No", and closing activities will run through normal CPR close.',
15:59:11  13  	     -1
15:59:11  14  FROM   DUAL
15:59:11  15  WHERE  NOT EXISTS
15:59:11  16  		 ( SELECT 1
15:59:11  17  		   FROM   PP_SYSTEM_CONTROL
15:59:11  18  		   WHERE  control_name = 'Lease Standalone' );

1 row created.

15:59:11 hopplant> 
15:59:11 hopplant> --****************************************************
15:59:11 hopplant> --Log the run of the script to local PP_SCHEMA_LOG
15:59:11 hopplant> --****************************************************
15:59:11 hopplant> INSERT INTO PP_SCHEMA_CHANGE_LOG
15:59:11   2  	  (ID, SKIPPED, MAJOR_VERSION, MINOR_VERSION, POINT_VERSION, PATCH_VERSION, MAINT_NUM, SCRIPT_PATH,
15:59:11   3  	  SCRIPT_NAME, SCRIPT_REVISION, DATE_APPLIED, OS_USER, TERMINAL, SERVICE_NAME)
15:59:11   4  VALUES
15:59:11   5  	  (4013, 0, 2017, 1, 0, 0, 49217, 'C:\PlasticWks\powerplant\sql\maint_scripts', '2017.1.0.0_maint_049217_lease_standalone_sys_ctrl_dml.sql', 1,
15:59:11   6  	  SYSTIMESTAMP, SYS_CONTEXT('USERENV', 'OS_USER'), SYS_CONTEXT('USERENV', 'TERMINAL'),
15:59:11   7  	  SYS_CONTEXT('USERENV', 'SERVICE_NAME'));

1 row created.

15:59:11 hopplant> COMMIT;

Commit complete.

15:59:11 hopplant> SPOOL OFF
