16:31:09 hopplant> @&&PP_SCRIPT_PATH.maint_scripts\2017.3.0.1_maint_051224_lessee_01_add_ls_invoice_columns_ddl.sql
16:31:09 hopplant> /*
16:31:09 hopplant> ||============================================================================
16:31:09 hopplant> || Application: PowerPlan
16:31:09 hopplant> || File Name:   maint_051224_lessee_01_add_ls_invoice_columns_ddl.sql
16:31:09 hopplant> ||============================================================================
16:31:09 hopplant> || Copyright (C) 2018 by PowerPlan, Inc. All Rights Reserved.
16:31:09 hopplant> ||============================================================================
16:31:09 hopplant> || Version	 Date	    Revised By	      Reason for Change
16:31:09 hopplant> || ---------- ---------- ----------------  ------------------------------------
16:31:09 hopplant> || 2017.3.0.1 5/10/2018 Crystal Yura       Add columns to use for payment recon interfaces
16:31:09 hopplant> ||============================================================================
16:31:09 hopplant> */
16:31:09 hopplant> 
16:31:09 hopplant> BEGIN
16:31:09   2  	 EXECUTE IMMEDIATE 'alter table ls_invoice add paid_date date default NULL';
16:31:09   3  EXCEPTION
16:31:09   4  	 WHEN OTHERS THEN
16:31:09   5  	    IF SQLCODE != -1430 THEN
16:31:09   6  	       RAISE;
16:31:09   7  	    END IF;
16:31:09   8  END;
16:31:09   9  /

PL/SQL procedure successfully completed.

16:31:09 hopplant> 
16:31:09 hopplant> BEGIN
16:31:09   2  	 EXECUTE IMMEDIATE 'alter table ls_invoice add external_value1 varchar2(254) default NULL';
16:31:09   3  EXCEPTION
16:31:09   4  	 WHEN OTHERS THEN
16:31:09   5  	    IF SQLCODE != -1430 THEN
16:31:09   6  	       RAISE;
16:31:09   7  	    END IF;
16:31:09   8  END;
16:31:09   9  /

PL/SQL procedure successfully completed.

16:31:09 hopplant> 
16:31:09 hopplant> BEGIN
16:31:09   2  	 EXECUTE IMMEDIATE 'alter table ls_invoice add external_value2 varchar2(254) default NULL';
16:31:09   3  EXCEPTION
16:31:09   4  	 WHEN OTHERS THEN
16:31:09   5  	    IF SQLCODE != -1430 THEN
16:31:09   6  	       RAISE;
16:31:09   7  	    END IF;
16:31:09   8  END;
16:31:09   9  /

PL/SQL procedure successfully completed.

16:31:09 hopplant> 
16:31:09 hopplant> 
16:31:09 hopplant> 
16:31:09 hopplant> BEGIN
16:31:09   2  	 EXECUTE IMMEDIATE 'alter table ls_import_invoice add paid_date date default NULL';
16:31:09   3  EXCEPTION
16:31:09   4  	 WHEN OTHERS THEN
16:31:09   5  	    IF SQLCODE != -1430 THEN
16:31:09   6  	       RAISE;
16:31:09   7  	    END IF;
16:31:09   8  END;
16:31:09   9  /

PL/SQL procedure successfully completed.

16:31:09 hopplant> 
16:31:09 hopplant> BEGIN
16:31:09   2  	 EXECUTE IMMEDIATE 'alter table ls_import_invoice add external_value1 varchar2(254) default NULL';
16:31:09   3  EXCEPTION
16:31:09   4  	 WHEN OTHERS THEN
16:31:09   5  	    IF SQLCODE != -1430 THEN
16:31:09   6  	       RAISE;
16:31:09   7  	    END IF;
16:31:09   8  END;
16:31:09   9  /

PL/SQL procedure successfully completed.

16:31:09 hopplant> 
16:31:09 hopplant> BEGIN
16:31:09   2  	 EXECUTE IMMEDIATE 'alter table ls_import_invoice add external_value2 varchar2(254) default NULL';
16:31:09   3  EXCEPTION
16:31:09   4  	 WHEN OTHERS THEN
16:31:09   5  	    IF SQLCODE != -1430 THEN
16:31:09   6  	       RAISE;
16:31:09   7  	    END IF;
16:31:09   8  END;
16:31:09   9  /

PL/SQL procedure successfully completed.

16:31:09 hopplant> 
16:31:09 hopplant> 
16:31:09 hopplant> 
16:31:09 hopplant> BEGIN
16:31:09   2  	 EXECUTE IMMEDIATE 'alter table ls_import_invoice_archive add paid_date date default NULL';
16:31:09   3  EXCEPTION
16:31:09   4  	 WHEN OTHERS THEN
16:31:09   5  	    IF SQLCODE != -1430 THEN
16:31:09   6  	       RAISE;
16:31:09   7  	    END IF;
16:31:09   8  END;
16:31:09   9  /

PL/SQL procedure successfully completed.

16:31:09 hopplant> 
16:31:09 hopplant> BEGIN
16:31:09   2  	 EXECUTE IMMEDIATE 'alter table ls_import_invoice_archive  add external_value1 varchar2(254) default NULL';
16:31:09   3  EXCEPTION
16:31:09   4  	 WHEN OTHERS THEN
16:31:09   5  	    IF SQLCODE != -1430 THEN
16:31:09   6  	       RAISE;
16:31:09   7  	    END IF;
16:31:09   8  END;
16:31:09   9  /

PL/SQL procedure successfully completed.

16:31:09 hopplant> 
16:31:09 hopplant> BEGIN
16:31:09   2  	 EXECUTE IMMEDIATE 'alter table ls_import_invoice_archive  add external_value2 varchar2(254) default NULL';
16:31:09   3  EXCEPTION
16:31:09   4  	 WHEN OTHERS THEN
16:31:09   5  	    IF SQLCODE != -1430 THEN
16:31:09   6  	       RAISE;
16:31:09   7  	    END IF;
16:31:09   8  END;
16:31:09   9  /

PL/SQL procedure successfully completed.

16:31:09 hopplant> 
16:31:09 hopplant> 
16:31:09 hopplant> 
16:31:09 hopplant> COMMENT ON COLUMN ls_invoice.paid_date is 'Paid date of invoice, able to be used for integration purposes.';

Comment created.

16:31:09 hopplant> COMMENT ON COLUMN ls_invoice.external_value1 is 'An external value to be used for integration purposes.';

Comment created.

16:31:09 hopplant> COMMENT ON COLUMN ls_invoice.external_value2 is 'An external value to be used for integration purposes.';

Comment created.

16:31:09 hopplant> COMMENT ON COLUMN ls_import_invoice.paid_date is 'Paid date of invoice, able to be used for integration purposes.';

Comment created.

16:31:09 hopplant> COMMENT ON COLUMN ls_import_invoice.external_value1 is 'An external value to be used for integration purposes.';

Comment created.

16:31:09 hopplant> COMMENT ON COLUMN ls_import_invoice.external_value2 is 'An external value to be used for integration purposes.';

Comment created.

16:31:09 hopplant> COMMENT ON COLUMN ls_import_invoice_archive.paid_date is 'Paid date of invoice, able to be used for integration purposes.';

Comment created.

16:31:09 hopplant> COMMENT ON COLUMN ls_import_invoice_archive.external_value1 is 'An external value to be used for integration purposes.';

Comment created.

16:31:09 hopplant> COMMENT ON COLUMN ls_import_invoice_archive.external_value2 is 'An external value to be used for integration purposes.';

Comment created.

16:31:09 hopplant> 
16:31:09 hopplant> 
16:31:09 hopplant> --****************************************************
16:31:09 hopplant> --Log the run of the script to local PP_SCHEMA_LOG
16:31:09 hopplant> --****************************************************
16:31:09 hopplant> INSERT INTO PP_SCHEMA_CHANGE_LOG
16:31:09   2  	  (ID, SKIPPED, MAJOR_VERSION, MINOR_VERSION, POINT_VERSION, PATCH_VERSION, MAINT_NUM, SCRIPT_PATH,
16:31:09   3  	  SCRIPT_NAME, SCRIPT_REVISION, DATE_APPLIED, OS_USER, TERMINAL, SERVICE_NAME)
16:31:09   4  VALUES
16:31:09   5  	  (5302, 0, 2017, 3, 0, 1, 51224, 'C:\PlasticWks\powerplant\sql\maint_scripts', '2017.3.0.1_maint_051224_lessee_01_add_ls_invoice_columns_ddl.sql', 1,
16:31:09   6  	  SYSTIMESTAMP, SYS_CONTEXT('USERENV', 'OS_USER'), SYS_CONTEXT('USERENV', 'TERMINAL'),
16:31:10   7  	  SYS_CONTEXT('USERENV', 'SERVICE_NAME'));

1 row created.

16:31:10 hopplant> COMMIT;

Commit complete.

16:31:10 hopplant> SPOOL OFF
