16:14:32 hopplant> @&&PP_SCRIPT_PATH.maint_scripts\2017.3.0.0_maint_050112_lessor_01_create_accrual_types_dml.sql
16:14:32 hopplant> /*
16:14:32 hopplant> ||============================================================================
16:14:32 hopplant> || Application: PowerPlan
16:14:32 hopplant> || File Name:   maint_050112_lessor_01_create_accrual_types_dml.sql
16:14:32 hopplant> ||============================================================================
16:14:32 hopplant> || Copyright (C) 2018 by PowerPlan, Inc. All Rights Reserved.
16:14:32 hopplant> ||============================================================================
16:14:32 hopplant> || Version	 Date	    Revised By	      Reason for Change
16:14:32 hopplant> || ---------- ---------- ----------------  ------------------------------------
16:14:32 hopplant> || 2017.3.0.0 03/05/2018 Johnny Sisouphanh Create Earned Profit Accrual and Interest Accrual Type
16:14:32 hopplant> ||============================================================================
16:14:32 hopplant> */
16:14:32 hopplant> 
16:14:32 hopplant> INSERT INTO ls_payment_type
16:14:32   2  	      (payment_type_id, description)
16:14:32   3  VALUES
16:14:32   4  	      (26, 'Unguaranteed Residual Accretion')
16:14:32   5  ;

1 row created.

16:14:32 hopplant> 
16:14:32 hopplant> INSERT INTO ls_payment_type
16:14:32   2  	      (payment_type_id, description)
16:14:32   3  VALUES
16:14:32   4  	      (27, 'Earned Profit')
16:14:32   5  ;

1 row created.

16:14:32 hopplant> 
16:14:32 hopplant> --****************************************************
16:14:32 hopplant> --Log the run of the script to local PP_SCHEMA_LOG
16:14:32 hopplant> --****************************************************
16:14:32 hopplant> INSERT INTO PP_SCHEMA_CHANGE_LOG
16:14:32   2  	  (ID, SKIPPED, MAJOR_VERSION, MINOR_VERSION, POINT_VERSION, PATCH_VERSION, MAINT_NUM, SCRIPT_PATH,
16:14:32   3  	  SCRIPT_NAME, SCRIPT_REVISION, DATE_APPLIED, OS_USER, TERMINAL, SERVICE_NAME)
16:14:32   4  VALUES
16:14:32   5  	  (4169, 0, 2017, 3, 0, 0, 50112, 'C:\PlasticWks\powerplant\sql\maint_scripts', '2017.3.0.0_maint_050112_lessor_01_create_accrual_types_dml.sql', 1,
16:14:32   6  	  SYSTIMESTAMP, SYS_CONTEXT('USERENV', 'OS_USER'), SYS_CONTEXT('USERENV', 'TERMINAL'),
16:14:32   7  	  SYS_CONTEXT('USERENV', 'SERVICE_NAME'));

1 row created.

16:14:32 hopplant> COMMIT;

Commit complete.

16:14:32 hopplant> SPOOL OFF
