12:44:36 hopplant> @&&PP_SCRIPT_PATH.maint_scripts\10.4.2.6_maint_038136_reg_case_adjustment_report.sql
12:44:36 hopplant> /*
12:44:36 hopplant> ||========================================================================================
12:44:36 hopplant> || Application: PowerPlant
12:44:36 hopplant> || File Name:   maint_038136_reg_case_adjustment_report.sql
12:44:36 hopplant> ||========================================================================================
12:44:36 hopplant> || Copyright (C) 2014 by PowerPlan Consultants, Inc. All Rights Reserved.
12:44:36 hopplant> ||========================================================================================
12:44:36 hopplant> || Version  Date	  Revised By	 Reason for Change
12:44:36 hopplant> || -------- ---------- -------------- ----------------------------------------------------
12:44:36 hopplant> || 10.4.2.6 05/30/2014 Shane Ward	 Add report Case Adjustment
12:44:36 hopplant> ||========================================================================================
12:44:36 hopplant> */
12:44:36 hopplant> 
12:44:36 hopplant> insert into PP_REPORTS_TIME_OPTION
12:44:36   2  	      (PP_REPORT_TIME_OPTION_ID, DESCRIPTION, PARAMETER_UO_NAME, DWNAME1, LABEL1, KEYCOLUMN1,
12:44:36   3  	       DWNAME2, LABEL2, KEYCOLUMN2, DWNAME3, LABEL3, KEYCOLUMN3)
12:44:36   4  values
12:44:36   5  	      (109, 'Case + Year End + Adjustment', 'uo_reg_report_parms_case_adj', 'dw_reg_case_select_dddw', 'Reg Case', 'reg_case_id',
12:44:36   6  	       'dw_reg_case_year_select_dddw', 'Case Year End', 'coverage_yr_ended', 'dw_reg_case_adj_select_dddw', 'Adjustment', 'adjustment_id');

1 row created.

12:44:36 hopplant> 
12:44:36 hopplant> insert into PP_REPORTS
12:44:36   2  	 (REPORT_ID, DESCRIPTION, LONG_DESCRIPTION, SUBSYSTEM, DATAWINDOW, REPORT_NUMBER, PP_REPORT_SUBSYSTEM_ID,
12:44:36   3  	  REPORT_TYPE_ID, PP_REPORT_TIME_OPTION_ID, PP_REPORT_STATUS_ID, PP_REPORT_ENVIR_ID, PP_REPORT_FILTER_ID)
12:44:36   4  	 select max(REPORT_ID) + 1,
12:44:36   5  		'Case Adjustment Report',
12:44:36   6  		'This report displays the summary and details of a specific Case, Year, and Adjustment.',
12:44:36   7  		'Regulatory',
12:44:36   8  		'dw_reg_report_case_adjust',
12:44:36   9  		'CA - 102',
12:44:36  10  		101,
12:44:36  11  		408,
12:44:36  12  		109,
12:44:36  13  		1,
12:44:36  14  		3,
12:44:36  15  		1
12:44:36  16  	   from PP_REPORTS;

1 row created.

12:44:36 hopplant> 
12:44:36 hopplant> update PP_REPORTS set DESCRIPTION = 'Revenue Requirement - Equity Method', long_description = 'Revenue Requirement - Equity Method' where REPORT_NUMBER = 'RR - 101';

1 row updated.

12:44:36 hopplant> 
12:44:36 hopplant> update PP_REPORTS set DESCRIPTION = 'Revenue Requirement - Def. Method', long_description = 'Revenue Requirement - Def. Method' where REPORT_NUMBER = 'RR - 102';

1 row updated.

12:44:36 hopplant> 
12:44:36 hopplant> --**************************
12:44:36 hopplant> -- Log the run of the script
12:44:36 hopplant> --**************************
12:44:36 hopplant> 
12:44:36 hopplant> insert into PP_SCHEMA_CHANGE_LOG
12:44:36   2  	 (ID, SKIPPED, MAJOR_VERSION, MINOR_VERSION, POINT_VERSION, PATCH_VERSION, MAINT_NUM, SCRIPT_PATH,
12:44:36   3  	  SCRIPT_NAME, SCRIPT_REVISION, DATE_APPLIED, OS_USER, TERMINAL, SERVICE_NAME)
12:44:36   4  values
12:44:36   5  	 (1205, 0, 10, 4, 2, 6, 38136, 'C:\PlasticWks\powerplant\sql\maint_scripts', '10.4.2.6_maint_038136_reg_case_adjustment_report.sql', 1,
12:44:36   6  	  SYSTIMESTAMP, SYS_CONTEXT('USERENV', 'OS_USER'), SYS_CONTEXT('USERENV', 'TERMINAL'),
12:44:36   7  	  SYS_CONTEXT('USERENV', 'SERVICE_NAME'));

1 row created.

12:44:36 hopplant> commit;

Commit complete.

12:44:36 hopplant> SPOOL OFF
