12:45:05 hopplant> @&&PP_SCRIPT_PATH.maint_scripts\10.4.2.7_maint_039268_reg_fcst_depr_inc_create.sql
12:45:05 hopplant> /*
12:45:05 hopplant> ||============================================================================
12:45:05 hopplant> || Application: PowerPlan
12:45:05 hopplant> || File Name:   maint_039268_reg_fcst_depr_inc_create.sql
12:45:05 hopplant> ||============================================================================
12:45:05 hopplant> || Copyright (C) 2014 by PowerPlan, Inc. All Rights Reserved.
12:45:05 hopplant> ||============================================================================
12:45:05 hopplant> || Version  Date	  Revised By	   Reason for Change
12:45:05 hopplant> || -------- ---------- ---------------- --------------------------------------
12:45:05 hopplant> || 10.4.2.7 08/11/2014 Shane Ward
12:45:05 hopplant> ||============================================================================
12:45:05 hopplant> */
12:45:05 hopplant> 
12:45:05 hopplant> alter table REG_INCREMENTAL_ADJUSTMENT modify ORIG_BUDGET_VERSION_ID       number(22,0) null;

Table altered.

12:45:05 hopplant> alter table REG_INCREMENTAL_ADJUSTMENT modify ORIG_VERSION_ID	      number(22,0) null;

Table altered.

12:45:05 hopplant> alter table REG_INCREMENTAL_ADJUSTMENT modify ORIG_SET_OF_BOOKS_ID	      number(22,0) null;

Table altered.

12:45:05 hopplant> alter table REG_INCREMENTAL_ADJUSTMENT modify ORIG_FCST_DEPR_VERSION_ID    number(22,0) null;

Table altered.

12:45:05 hopplant> alter table REG_INCREMENTAL_ADJUSTMENT modify UPDATED_BUDGET_VERSION_ID    number(22,0) null;

Table altered.

12:45:05 hopplant> alter table REG_INCREMENTAL_ADJUSTMENT modify UPDATED_VERSION_ID	      number(22,0) null;

Table altered.

12:45:05 hopplant> alter table REG_INCREMENTAL_ADJUSTMENT modify UPDATED_SET_OF_BOOKS_ID      number(22,0) null;

Table altered.

12:45:05 hopplant> alter table REG_INCREMENTAL_ADJUSTMENT modify UPDATED_FCST_DEPR_VERSION_ID number(22,0) null;

Table altered.

12:45:05 hopplant> 
12:45:05 hopplant> 
12:45:05 hopplant> create table REG_INCREMENTAL_DEPR_ADJ_TRANS
12:45:05   2  (
12:45:05   3   FORECAST_VERSION_ID  number(22,0) not null,
12:45:05   4   INCREMENTAL_ADJ_ID   number(22,0) not null,
12:45:05   5   LABEL_ID 	    number(22,0) not null,
12:45:05   6   ITEM_ID		    number(22,0) not null,
12:45:05   7   FCST_DEPR_VERSION_ID number(22,0) not null,
12:45:05   8   SET_OF_BOOKS_ID	    number(22,0) not null,
12:45:05   9   VERSION_ID	    number(22,0) null,
12:45:05  10   REG_COMPANY_ID	    number(22,0) null,
12:45:05  11   REG_ACCT_ID	    number(22,2) null,
12:45:05  12   OVERRIDE_TRANSLATE   number(22,0) null,
12:45:05  13   OVERRIDE_REG_ACCT_ID number(22,0) null,
12:45:05  14   FCST_DEPR_GROUP_ID   number(22,0) not null,
12:45:05  15   TAX_CLASS_ID	    number(22,0) null,
12:45:05  16   NORMALIZATION_ID     number(22,0) null,
12:45:05  17   JURISDICTION_ID	    number(22,0) null,
12:45:05  18   USER_ID		    varchar2(18) null,
12:45:05  19   TIMESTAMP	    date	 null
12:45:05  20  );

Table created.

12:45:05 hopplant> 
12:45:05 hopplant> alter table REG_INCREMENTAL_DEPR_ADJ_TRANS
12:45:05   2  	 add constraint PK_REG_INCREMENTAL_DEPR_ADJ_TR
12:45:05   3  	     primary key (FORECAST_VERSION_ID,
12:45:05   4  			  INCREMENTAL_ADJ_ID,
12:45:05   5  			  LABEL_ID,
12:45:05   6  			  ITEM_ID,
12:45:05   7  			  FCST_DEPR_VERSION_ID,
12:45:05   8  			  SET_OF_BOOKS_ID,
12:45:05   9  			  FCST_DEPR_GROUP_ID)
12:45:05  10  	     using index tablespace PWRPLANT_IDX;

Table altered.

12:45:05 hopplant> 
12:45:05 hopplant> alter table REG_INCREMENTAL_DEPR_ADJ_TRANS
12:45:05   2  	 add constraint FK_REG_INCREMENTAL_DEPR_ADJ_T1
12:45:05   3  	     foreign key (forecast_version_id)
12:45:05   4  	     references REG_FORECAST_VERSION (FORECAST_VERSION_ID);

Table altered.

12:45:05 hopplant> 
12:45:05 hopplant> alter table REG_INCREMENTAL_DEPR_ADJ_TRANS
12:45:05   2  	 add constraint FK_REG_INCREMENTAL_DEPR_ADJ_T2
12:45:05   3  	     foreign key (INCREMENTAL_ADJ_ID)
12:45:05   4  	     references REG_INCREMENTAL_ADJUSTMENT (INCREMENTAL_ADJ_ID);

Table altered.

12:45:05 hopplant> 
12:45:05 hopplant> alter table REG_INCREMENTAL_DEPR_ADJ_TRANS
12:45:05   2  	 add constraint FK_REG_INCREMENTAL_DEPR_ADJ_T3
12:45:05   3  	     foreign key (LABEL_ID, ITEM_ID)
12:45:05   4  	     references INCREMENTAL_FP_ADJ_ITEM (LABEL_ID, ITEM_ID);

Table altered.

12:45:05 hopplant> 
12:45:05 hopplant> alter table REG_INCREMENTAL_DEPR_ADJ_TRANS
12:45:05   2  	 add constraint FK_REG_INCREMENTAL_DEPR_ADJ_T4
12:45:05   3  	     foreign key (FCST_DEPR_VERSION_ID)
12:45:05   4  	     references FCST_DEPR_VERSION (FCST_DEPR_VERSION_ID);

Table altered.

12:45:05 hopplant> 
12:45:05 hopplant> alter table REG_INCREMENTAL_DEPR_ADJ_TRANS
12:45:05   2  	 add constraint FK_REG_INCREMENTAL_DEPR_ADJ_T5
12:45:05   3  	     foreign key (SET_OF_BOOKS_ID)
12:45:05   4  	     references SET_OF_BOOKS (SET_OF_BOOKS_ID);

Table altered.

12:45:05 hopplant> 
12:45:05 hopplant> alter table REG_INCREMENTAL_DEPR_ADJ_TRANS
12:45:05   2  	 add constraint FK_REG_INCREMENTAL_DEPR_ADJ_T6
12:45:05   3  	     foreign key (VERSION_ID)
12:45:05   4  	     references VERSION (VERSION_ID);

Table altered.

12:45:05 hopplant> 
12:45:05 hopplant> alter table REG_INCREMENTAL_DEPR_ADJ_TRANS
12:45:05   2  	 add constraint FK_REG_INCREMENTAL_DEPR_ADJ_T7
12:45:05   3  	     foreign key (REG_COMPANY_ID)
12:45:05   4  	     references REG_COMPANY (REG_COMPANY_ID);

Table altered.

12:45:05 hopplant> 
12:45:05 hopplant> alter table REG_INCREMENTAL_DEPR_ADJ_TRANS
12:45:05   2  	 add constraint FK_REG_INCREMENTAL_DEPR_ADJ_T8
12:45:05   3  	     foreign key (REG_ACCT_ID)
12:45:05   4  	     references REG_ACCT_MASTER (REG_ACCT_ID);

Table altered.

12:45:05 hopplant> 
12:45:05 hopplant> alter table REG_INCREMENTAL_DEPR_ADJ_TRANS
12:45:05   2  	 add constraint FK_REG_INCREMENTAL_DEPR_ADJ_T9
12:45:05   3  	     foreign key (OVERRIDE_REG_ACCT_ID)
12:45:05   4  	     references REG_ACCT_MASTER (REG_ACCT_ID);

Table altered.

12:45:06 hopplant> 
12:45:06 hopplant> alter table REG_INCREMENTAL_DEPR_ADJ_TRANS
12:45:06   2  	 add constraint FK_REG_INCREMENTAL_DEPR_T_10
12:45:06   3  	     foreign key (FCST_DEPR_GROUP_ID)
12:45:06   4  	     references FCST_DEPR_GROUP (FCST_DEPR_GROUP_ID);

Table altered.

12:45:06 hopplant> 
12:45:06 hopplant> alter table REG_INCREMENTAL_DEPR_ADJ_TRANS
12:45:06   2  	 add constraint FK_REG_INCREMENTAL_DEPR_T_T11
12:45:06   3  	     foreign key (TAX_CLASS_ID)
12:45:06   4  	     references TAX_CLASS (TAX_CLASS_ID);

Table altered.

12:45:06 hopplant> 
12:45:06 hopplant> alter table REG_INCREMENTAL_DEPR_ADJ_TRANS
12:45:06   2  	 add constraint FK_REG_INCREMENTAL_DEPR_T12
12:45:06   3  	     foreign key (NORMALIZATION_ID)
12:45:06   4  	     references NORMALIZATION_SCHEMA (NORMALIZATION_ID);

Table altered.

12:45:06 hopplant> 
12:45:06 hopplant> alter table REG_INCREMENTAL_DEPR_ADJ_TRANS
12:45:06   2  	 add constraint FK_REG_INCREMENTAL_DEPR_T13
12:45:06   3  	     foreign key (JURISDICTION_ID)
12:45:06   4  	     references JURISDICTION (JURISDICTION_ID);

Table altered.

12:45:06 hopplant> 
12:45:06 hopplant> comment on column REG_INCREMENTAL_DEPR_ADJ_TRANS.FORECAST_VERSION_ID IS 'System assigned identifier for regulatory forecast ledger';

Comment created.

12:45:06 hopplant> comment on column REG_INCREMENTAL_DEPR_ADJ_TRANS.INCREMENTAL_ADJ_ID IS 'System assigned identifier for the incremental adjustment';

Comment created.

12:45:06 hopplant> comment on column REG_INCREMENTAL_DEPR_ADJ_TRANS.LABEL_ID IS 'System assigned identifier for the incremental data label';

Comment created.

12:45:06 hopplant> comment on column REG_INCREMENTAL_DEPR_ADJ_TRANS.ITEM_ID IS 'System assigned identifier for the incremental data item';

Comment created.

12:45:06 hopplant> comment on column REG_INCREMENTAL_DEPR_ADJ_TRANS.FCST_DEPR_VERSION_ID IS 'System assigned identifier for the depreciation forecast version';

Comment created.

12:45:06 hopplant> comment on column REG_INCREMENTAL_DEPR_ADJ_TRANS.VERSION_ID IS 'System assigned identifier for the PowerTax case';

Comment created.

12:45:06 hopplant> comment on column REG_INCREMENTAL_DEPR_ADJ_TRANS.REG_COMPANY_ID IS 'System assigned identifier for the Regulatory Company';

Comment created.

12:45:06 hopplant> comment on column REG_INCREMENTAL_DEPR_ADJ_TRANS.REG_ACCT_ID IS 'System assigned identifier for the Regulatory Account assigned by the system';

Comment created.

12:45:06 hopplant> comment on column REG_INCREMENTAL_DEPR_ADJ_TRANS.OVERRIDE_TRANSLATE IS '1 = User selects account to override system translated account, 0 = use system translated account';

Comment created.

12:45:06 hopplant> comment on column REG_INCREMENTAL_DEPR_ADJ_TRANS.OVERRIDE_REG_ACCT_ID IS 'System assigned identifier for the Regulatory Account selected by the user';

Comment created.

12:45:06 hopplant> comment on column REG_INCREMENTAL_DEPR_ADJ_TRANS.FCST_DEPR_GROUP_ID IS 'System assigned identifier for the forecast depreciation group for labels/items that involve depreciation';

Comment created.

12:45:06 hopplant> comment on column REG_INCREMENTAL_DEPR_ADJ_TRANS.SET_OF_BOOKS_ID IS 'System assigned identifier for the Set of Books for labels/items that involve depreciation';

Comment created.

12:45:06 hopplant> comment on column REG_INCREMENTAL_DEPR_ADJ_TRANS.TAX_CLASS_ID IS 'System assigned identifier for the tax class for labels/items that involve deferred taxes';

Comment created.

12:45:06 hopplant> comment on column REG_INCREMENTAL_DEPR_ADJ_TRANS.NORMALIZATION_ID IS 'System assigned identifier for the normalization schema for labels/items that involve deferred taxes';

Comment created.

12:45:06 hopplant> comment on column REG_INCREMENTAL_DEPR_ADJ_TRANS.JURISDICTION_ID IS 'System assigned identifier for the jurisdiction for labels/items that involve deferred taxes';

Comment created.

12:45:06 hopplant> 
12:45:06 hopplant> alter table INCREMENTAL_DEPR_ADJ_DATA add COMPANY_ID number(22,0);

Table altered.

12:45:06 hopplant> 
12:45:06 hopplant> --**************************
12:45:06 hopplant> -- Log the run of the script
12:45:06 hopplant> --**************************
12:45:06 hopplant> 
12:45:06 hopplant> insert into PP_SCHEMA_CHANGE_LOG
12:45:06   2  	 (ID, SKIPPED, MAJOR_VERSION, MINOR_VERSION, POINT_VERSION, PATCH_VERSION, MAINT_NUM, SCRIPT_PATH,
12:45:06   3  	  SCRIPT_NAME, SCRIPT_REVISION, DATE_APPLIED, OS_USER, TERMINAL, SERVICE_NAME)
12:45:06   4  values
12:45:06   5  	 (1322, 0, 10, 4, 2, 7, 39268, 'C:\PlasticWks\powerplant\sql\maint_scripts', '10.4.2.7_maint_039268_reg_fcst_depr_inc_create.sql', 1,
12:45:06   6  	  SYSTIMESTAMP, SYS_CONTEXT('USERENV', 'OS_USER'), SYS_CONTEXT('USERENV', 'TERMINAL'),
12:45:06   7  	  SYS_CONTEXT('USERENV', 'SERVICE_NAME'));

1 row created.

12:45:06 hopplant> commit;

Commit complete.

12:45:06 hopplant> SPOOL OFF
