12:46:36 hopplant> @&&PP_SCRIPT_PATH.maint_scripts\10.4.3.0_maint_037086_cwip_wcomp106.sql
12:46:36 hopplant> /*
12:46:36 hopplant> ||=================================================================================
12:46:36 hopplant> || Application: PowerPlant
12:46:37 hopplant> || File Name:   maint_037086_cwip_wcomp106.sql
12:46:37 hopplant> ||=================================================================================
12:46:37 hopplant> || Copyright (C) 2014 by PowerPlan Consultants, Inc. All Rights Reserved.
12:46:37 hopplant> ||=================================================================================
12:46:37 hopplant> || Version  Date	  Revised By	 Reason for Change
12:46:37 hopplant> || -------- ---------- -------------- ---------------------------------------------
12:46:37 hopplant> || 10.4.3.0 04/29/2014 Sunjin Cone	 Wip Comp Related Assets 106
12:46:37 hopplant> ||=================================================================================
12:46:37 hopplant> */
12:46:37 hopplant> 
12:46:37 hopplant> delete from RELATED_ASSET A
12:46:37   2   where exists (select 1
12:46:37   3  		from CPR_LEDGER B
12:46:37   4  	       where A.ASSET_ID = B.ASSET_ID
12:46:37   5  		 and B.RETIREMENT_UNIT_ID = 1);

0 rows deleted.

12:46:37 hopplant> 
12:46:37 hopplant> delete from RELATED_ASSET A
12:46:37   2   where exists (select 1
12:46:37   3  		from CPR_LEDGER B
12:46:37   4  	       where A.RELATED_ASSET_ID = B.ASSET_ID
12:46:37   5  		 and B.RETIREMENT_UNIT_ID = 1);

0 rows deleted.

12:46:37 hopplant> 
12:46:37 hopplant> --**************************
12:46:37 hopplant> -- Log the run of the script
12:46:37 hopplant> --**************************
12:46:37 hopplant> 
12:46:37 hopplant> insert into PP_SCHEMA_CHANGE_LOG
12:46:37   2  	 (ID, SKIPPED, MAJOR_VERSION, MINOR_VERSION, POINT_VERSION, PATCH_VERSION, MAINT_NUM, SCRIPT_PATH,
12:46:37   3  	  SCRIPT_NAME, SCRIPT_REVISION, DATE_APPLIED, OS_USER, TERMINAL, SERVICE_NAME)
12:46:37   4  values
12:46:37   5  	 (1122, 0, 10, 4, 3, 0, 37086, 'C:\PlasticWks\powerplant\sql\maint_scripts', '10.4.3.0_maint_037086_cwip_wcomp106.sql', 1,
12:46:37   6  	  SYSTIMESTAMP, SYS_CONTEXT('USERENV', 'OS_USER'), SYS_CONTEXT('USERENV', 'TERMINAL'),
12:46:37   7  	  SYS_CONTEXT('USERENV', 'SERVICE_NAME'));

1 row created.

12:46:37 hopplant> commit;

Commit complete.

12:46:37 hopplant> SPOOL OFF
