12:40:29 hopplant> @&&PP_SCRIPT_PATH.maint_scripts\10.4.2.0_maint_036356_pwrtax.sql
12:40:29 hopplant> /*
12:40:29 hopplant> ||============================================================================
12:40:29 hopplant> || Application: PowerPlant
12:40:29 hopplant> || File Name:   maint_036356_pwrtax.sql
12:40:29 hopplant> ||============================================================================
12:40:29 hopplant> || Copyright (C) 2014 by PowerPlan Inc. All Rights Reserved.
12:40:29 hopplant> ||============================================================================
12:40:29 hopplant> || Version  Date	  Revised By	      Reason for Change
12:40:29 hopplant> || -------- ---------- ------------------- -----------------------------------
12:40:29 hopplant> || 10.4.2.0 03/10/2014 Andrew Scott	      MLP Transfers, Drop Down QA issues
12:40:29 hopplant> ||============================================================================
12:40:29 hopplant> */
12:40:29 hopplant> 
12:40:29 hopplant> ----add an index to this table
12:40:29 hopplant> create index TAX_DEPRECIATION_TRC_IDX
12:40:29   2  	 on TAX_DEPRECIATION (TAX_RECORD_ID)
12:40:29   3  	    tablespace PWRPLANT_IDX;

Index created.

12:40:29 hopplant> 
12:40:29 hopplant> ----regather stats
12:40:29 hopplant> declare
12:40:29   2  	 CODE number(22, 0);
12:40:29   3  begin
12:40:29   4  	 CODE := ANALYZE_TABLE('TAX_TEMP_TRANSFER_CONTROL');
12:40:29   5  end;
12:40:29   6  /

PL/SQL procedure successfully completed.

12:40:29 hopplant> 
12:40:29 hopplant> ----regather stats
12:40:29 hopplant> declare CODE number(22, 0);
12:40:29   2  begin
12:40:29   3  	 CODE := ANALYZE_TABLE('TAX_DEPRECIATION');
12:40:29   4  end;
12:40:29   5  /

PL/SQL procedure successfully completed.

12:40:30 hopplant> 
12:40:30 hopplant> 
12:40:30 hopplant> ----change this field from varchar2(35) to (254)
12:40:30 hopplant> alter table TAX_PACKAGE_CONTROL modify DESCRIPTION varchar2(254);

Table altered.

12:40:30 hopplant> 
12:40:30 hopplant> --**************************
12:40:30 hopplant> -- Log the run of the script
12:40:30 hopplant> --**************************
12:40:30 hopplant> 
12:40:30 hopplant> insert into PP_SCHEMA_CHANGE_LOG
12:40:30   2  	 (ID, SKIPPED, MAJOR_VERSION, MINOR_VERSION, POINT_VERSION, PATCH_VERSION, MAINT_NUM, SCRIPT_PATH,
12:40:30   3  	  SCRIPT_NAME, SCRIPT_REVISION, DATE_APPLIED, OS_USER, TERMINAL, SERVICE_NAME)
12:40:30   4  values
12:40:30   5  	 (1017, 0, 10, 4, 2, 0, 36356, 'C:\PlasticWks\powerplant\sql\maint_scripts', '10.4.2.0_maint_036356_pwrtax.sql', 1,
12:40:30   6  	  SYSTIMESTAMP, SYS_CONTEXT('USERENV', 'OS_USER'), SYS_CONTEXT('USERENV', 'TERMINAL'),
12:40:30   7  	  SYS_CONTEXT('USERENV', 'SERVICE_NAME'));

1 row created.

12:40:30 hopplant> commit;

Commit complete.

12:40:30 hopplant> SPOOL OFF
