12:39:44 hopplant> @&&PP_SCRIPT_PATH.maint_scripts\10.4.2.0_maint_031779_taxrpr_wmis_rpt.sql
12:39:44 hopplant> /*
12:39:44 hopplant> ||============================================================================
12:39:44 hopplant> || Application: PowerPlant
12:39:44 hopplant> || File Name:   maint_031779_taxrpr_wmis_rpt.sql
12:39:44 hopplant> ||============================================================================
12:39:45 hopplant> || Copyright (C) 2014 by PowerPlan Consultants, Inc. All Rights Reserved.
12:39:45 hopplant> ||============================================================================
12:39:45 hopplant> || Version  Date	  Revised By	      Reason for Change
12:39:45 hopplant> || -------- ---------- ------------------- -----------------------------------
12:39:45 hopplant> || 10.4.2.0 01/27/2014 Alex Pivoshenko
12:39:45 hopplant> ||============================================================================
12:39:45 hopplant> */
12:39:45 hopplant> 
12:39:45 hopplant> update REPAIR_WO_SEG_REPORTING
12:39:45   2  	 set MY_EVALUATE = 0
12:39:45   3   where PRETEST_EXPLAIN_ID = 6
12:39:45   4  	 and MY_EVALUATE = 1;

0 rows updated.

12:39:45 hopplant> 
12:39:45 hopplant> insert into PP_REPORTS
12:39:45   2  	 (REPORT_ID, DESCRIPTION, LONG_DESCRIPTION, SUBSYSTEM, DATAWINDOW, SPECIAL_NOTE, REPORT_TYPE,
12:39:45   3  	  TIME_OPTION, REPORT_NUMBER, INPUT_WINDOW, FILTER_OPTION, STATUS, PP_REPORT_SUBSYSTEM_ID,
12:39:45   4  	  REPORT_TYPE_ID, PP_REPORT_TIME_OPTION_ID, PP_REPORT_FILTER_ID, PP_REPORT_STATUS_ID,
12:39:45   5  	  PP_REPORT_ENVIR_ID, DOCUMENTATION, USER_COMMENT, LAST_APPROVED_DATE, PP_REPORT_NUMBER,
12:39:45   6  	  OLD_REPORT_NUMBER, DYNAMIC_DW)
12:39:45   7  	 select max(REPORT_ID) + 1,
12:39:45   8  		'Repairs: UOP Work Task Run Results',
12:39:45   9  		'UOP Work Task Repairs:  Process Run Results for Non-Related Work Orders for a specified batch.  Displays quantity values tested for each work order number, work request, and repair unit,as well the amount of additions expensed and retirements reversed.',
12:39:45  10  		null,
12:39:45  11  		'dw_rpr_rpt_netwk_process_wt',
12:39:45  12  		null,
12:39:45  13  		null,
12:39:45  14  		null,
12:39:45  15  		'UOPWT - 3000',
12:39:45  16  		null,
12:39:45  17  		null,
12:39:45  18  		null,
12:39:45  19  		13,
12:39:45  20  		103,
12:39:45  21  		43,
12:39:45  22  		33,
12:39:45  23  		1,
12:39:45  24  		3,
12:39:45  25  		null,
12:39:45  26  		null,
12:39:45  27  		TO_DATE('26-01-2014 21:14:30', 'dd-mm-yyyy hh24:mi:ss'),
12:39:45  28  		null,
12:39:45  29  		null,
12:39:45  30  		0
12:39:45  31  	   from PP_REPORTS;

1 row created.

12:39:45 hopplant> 
12:39:45 hopplant> --**************************
12:39:45 hopplant> -- Log the run of the script
12:39:45 hopplant> --**************************
12:39:45 hopplant> 
12:39:45 hopplant> insert into PP_SCHEMA_CHANGE_LOG
12:39:45   2  	 (ID, SKIPPED, MAJOR_VERSION, MINOR_VERSION, POINT_VERSION, PATCH_VERSION, MAINT_NUM, SCRIPT_PATH,
12:39:45   3  	  SCRIPT_NAME, SCRIPT_REVISION, DATE_APPLIED, OS_USER, TERMINAL, SERVICE_NAME)
12:39:45   4  values
12:39:45   5  	 (909, 0, 10, 4, 2, 0, 31779, 'C:\PlasticWks\powerplant\sql\maint_scripts', '10.4.2.0_maint_031779_taxrpr_wmis_rpt.sql', 1,
12:39:45   6  	  SYSTIMESTAMP, SYS_CONTEXT('USERENV', 'OS_USER'), SYS_CONTEXT('USERENV', 'TERMINAL'),
12:39:45   7  	  SYS_CONTEXT('USERENV', 'SERVICE_NAME'));

1 row created.

12:39:45 hopplant> commit;

Commit complete.

12:39:45 hopplant> SPOOL OFF
