12:46:09 hopplant> @&&PP_SCRIPT_PATH.maint_scripts\10.4.3.0_maint_037823_projects_wo_delete_add_tables.sql
12:46:09 hopplant> /*
12:46:09 hopplant> ||========================================================================================
12:46:09 hopplant> || Application: PowerPlant
12:46:09 hopplant> || File Name:   maint_037823_projects_wo_delete_add_tables.sql
12:46:09 hopplant> ||========================================================================================
12:46:09 hopplant> || Copyright (C) 2014 by PowerPlan Consultants, Inc. All Rights Reserved.
12:46:09 hopplant> ||========================================================================================
12:46:09 hopplant> || Version  Date	  Revised By	 Reason for Change
12:46:09 hopplant> || -------- ---------- -------------- ----------------------------------------------------
12:46:09 hopplant> || 10.4.3.0 04/28/2014 Shane "C" Ward WO Tables to Delete From updated
12:46:09 hopplant> ||========================================================================================
12:46:09 hopplant> */
12:46:09 hopplant> 
12:46:09 hopplant> insert into WO_DELETE
12:46:09   2  	 (ID, SORT_ORDER, EXCEPTION_FLAG, DESCRIPTION, FUNDING_WO_INDICATOR, TABLE_NAME, WHERE_CLAUSE, EXCEPTION_MESSAGE)
12:46:09   3  values
12:46:09   4  	 ((select max(ID) + 1 from WO_DELETE), 4550, 0, 'WO ENGINE ESTIMATE STATUS', -1, 'WO_ENG_ESTIMATE_STATUS',
12:46:09   5  	  'where work_order_id = <<wo_id>>', null);

1 row created.

12:46:09 hopplant> 
12:46:09 hopplant> insert into WO_DELETE
12:46:09   2  	 (ID, SORT_ORDER, EXCEPTION_FLAG, DESCRIPTION, FUNDING_WO_INDICATOR, TABLE_NAME, WHERE_CLAUSE, EXCEPTION_MESSAGE)
12:46:09   3  values
12:46:09   4  	 ((select max(ID) + 1 from WO_DELETE), 4560, 0, 'WO ENGINE ESTIMATEs', -1, 'WO_ENG_ESTIMATE',
12:46:09   5  	  'where work_order_id = <<wo_id>>', null);

1 row created.

12:46:09 hopplant> 
12:46:09 hopplant> --**************************
12:46:09 hopplant> -- Log the run of the script
12:46:09 hopplant> --**************************
12:46:09 hopplant> 
12:46:09 hopplant> insert into PP_SCHEMA_CHANGE_LOG
12:46:09   2  	 (ID, SKIPPED, MAJOR_VERSION, MINOR_VERSION, POINT_VERSION, PATCH_VERSION, MAINT_NUM, SCRIPT_PATH,
12:46:09   3  	  SCRIPT_NAME, SCRIPT_REVISION, DATE_APPLIED, OS_USER, TERMINAL, SERVICE_NAME)
12:46:09   4  values
12:46:09   5  	 (1121, 0, 10, 4, 3, 0, 37823, 'C:\PlasticWks\powerplant\sql\maint_scripts', '10.4.3.0_maint_037823_projects_wo_delete_add_tables.sql', 1,
12:46:09   6  	  SYSTIMESTAMP, SYS_CONTEXT('USERENV', 'OS_USER'), SYS_CONTEXT('USERENV', 'TERMINAL'),
12:46:09   7  	  SYS_CONTEXT('USERENV', 'SERVICE_NAME'));

1 row created.

12:46:09 hopplant> commit;

Commit complete.

12:46:09 hopplant> SPOOL OFF
