12:44:30 hopplant> @&&PP_SCRIPT_PATH.maint_scripts\10.4.2.6_maint_038107_reg_case_drillback.sql
12:44:30 hopplant> /*
12:44:30 hopplant> ||========================================================================================
12:44:30 hopplant> || Application: PowerPlant
12:44:30 hopplant> || File Name:   maint_038107_reg_case_drillback.sql
12:44:30 hopplant> ||========================================================================================
12:44:30 hopplant> || Copyright (C) 2014 by PowerPlan Consultants, Inc. All Rights Reserved.
12:44:30 hopplant> ||========================================================================================
12:44:30 hopplant> || Version  Date	  Revised By	 Reason for Change
12:44:30 hopplant> || -------- ---------- -------------- ----------------------------------------------------
12:44:30 hopplant> || 10.4.2.6 05/20/2014 Sarah Byers
12:44:30 hopplant> ||========================================================================================
12:44:30 hopplant> */
12:44:30 hopplant> 
12:44:30 hopplant> -- Add recon_adj_amount and recon_adj_comment to the view
12:44:30 hopplant> create or replace view REG_HISTORY_LEDGER_ID_SV
12:44:30   2  	 (REG_COMPANY,HISTORIC_LEDGER,REG_ACCOUNT,REG_ACCOUNT_TYPE,SUB_ACCOUNT_TYPE,REG_SOURCE,GL_MONTH,ACT_AMOUNT,ANNUALIZED_AMT,
12:44:30   3  	  ADJ_AMOUNT,ADJ_MONTH,RECON_ADJ_AMOUNT,RECON_ADJ_COMMENT,REG_COMPANY_ID,REG_ACCT_ID,HISTORIC_LEDGER_ID,REG_SOURCE_ID)
12:44:30   4  as
12:44:30   5  select REG_COMPANY,
12:44:30   6  	     HISTORIC_LEDGER,
12:44:30   7  	     REG_ACCOUNT,
12:44:30   8  	     REG_ACCOUNT_TYPE,
12:44:30   9  	     SUB_ACCOUNT_TYPE,
12:44:30  10  	     REG_SOURCE,
12:44:30  11  	     GL_MONTH,
12:44:30  12  	     ACT_AMOUNT,
12:44:30  13  	     ANNUALIZED_AMT,
12:44:30  14  	     ADJ_AMOUNT,
12:44:30  15  	     ADJ_MONTH,
12:44:30  16  	     RECON_ADJ_AMOUNT,
12:44:30  17  	     RECON_ADJ_COMMENT,
12:44:30  18  	     REG_COMPANY_ID,
12:44:30  19  	     REG_ACCT_ID,
12:44:30  20  	     HISTORIC_LEDGER_ID,
12:44:30  21  	     REG_SOURCE_ID
12:44:30  22  	from (select C.DESCRIPTION	   REG_COMPANY,
12:44:30  23  		     M.DESCRIPTION	   REG_ACCOUNT,
12:44:30  24  		     T.DESCRIPTION	   REG_ACCOUNT_TYPE,
12:44:30  25  		     S.DESCRIPTION	   SUB_ACCOUNT_TYPE,
12:44:30  26  		     R.DESCRIPTION	   REG_SOURCE,
12:44:30  27  		     V.LONG_DESCRIPTION    HISTORIC_LEDGER,
12:44:30  28  		     L.GL_MONTH 	   GL_MONTH,
12:44:30  29  		     L.ACT_AMOUNT	   ACT_AMOUNT,
12:44:30  30  		     L.ANNUALIZED_AMT	   ANNUALIZED_AMT,
12:44:30  31  		     L.ADJ_AMOUNT	   ADJ_AMOUNT,
12:44:30  32  		     L.ADJ_MONTH	   ADJ_MONTH,
12:44:30  33  		     L.RECON_ADJ_AMOUNT    RECON_ADJ_AMOUNT,
12:44:30  34  		     L.RECON_ADJ_COMMENT   RECON_ADJ_COMMENT,
12:44:30  35  		     L.REG_COMPANY_ID	   REG_COMPANY_ID,
12:44:30  36  		     L.REG_ACCT_ID	   REG_ACCT_ID,
12:44:30  37  		     L.HISTORIC_VERSION_ID HISTORIC_LEDGER_ID,
12:44:30  38  		     L.REG_SOURCE_ID	   REG_SOURCE_ID
12:44:30  39  		from (select distinct REG_COMPANY_ID, DESCRIPTION from REG_COMPANY_SV) C,
12:44:30  40  		     REG_ACCT_MASTER M,
12:44:30  41  		     REG_HISTORIC_VERSION V,
12:44:30  42  		     REG_HISTORY_LEDGER L,
12:44:30  43  		     REG_ACCT_TYPE T,
12:44:30  44  		     REG_SUB_ACCT_TYPE S,
12:44:30  45  		     REG_SOURCE R
12:44:30  46  	       where L.HISTORIC_VERSION_ID = V.HISTORIC_VERSION_ID
12:44:30  47  		 and L.REG_COMPANY_ID = C.REG_COMPANY_ID
12:44:30  48  		 and L.REG_ACCT_ID = M.REG_ACCT_ID
12:44:30  49  		 and L.REG_SOURCE_ID = R.REG_SOURCE_ID
12:44:30  50  		 and M.REG_ACCT_TYPE_DEFAULT = T.REG_ACCT_TYPE_ID
12:44:30  51  		 and M.REG_ACCT_TYPE_DEFAULT = S.REG_ACCT_TYPE_ID
12:44:30  52  		 and M.SUB_ACCT_TYPE_ID = S.SUB_ACCT_TYPE_ID);

View created.

12:44:30 hopplant> 
12:44:30 hopplant> -- Replace the columns
12:44:30 hopplant> delete from cr_dd_sources_criteria_fields
12:44:30   2   where id = (
12:44:30   3  	 select id from cr_dd_sources_criteria
12:44:30   4  	  where source_id > 1001
12:44:30   5  	    and lower(table_name) = 'reg_history_ledger_id_sv');

15 rows deleted.

12:44:30 hopplant> 
12:44:30 hopplant> INSERT INTO "CR_DD_SOURCES_CRITERIA_FIELDS" ("ID", "DETAIL_FIELD", "COLUMN_ORDER", "AMOUNT_FIELD", "INCLUDE_IN_SELECT_CRITERIA", "DEFAULT_VALUE",
12:44:30   2  "COLUMN_HEADER", "COLUMN_WIDTH", "QUANTITY_FIELD", "COLUMN_CASE", "ELEMENT_ID", "FORMAT_OVERRIDE", "REQUIRED_FILTER", "REQUIRED_ONE_MULTI", "DDDW_SQL", "TABLE_LOOKUP")
12:44:30   3  VALUES ((select id from cr_dd_sources_criteria where lower(table_name) = 'reg_history_ledger_id_sv'),
12:44:30   4  'ACT_AMOUNT', 8, 1, 1, null, 'Act Amount', 409, 0, 'Any', null, null, 0, null, null, 0) ;

1 row created.

12:44:30 hopplant> INSERT INTO "CR_DD_SOURCES_CRITERIA_FIELDS" ("ID", "DETAIL_FIELD", "COLUMN_ORDER", "AMOUNT_FIELD", "INCLUDE_IN_SELECT_CRITERIA", "DEFAULT_VALUE",
12:44:30   2  "COLUMN_HEADER", "COLUMN_WIDTH", "QUANTITY_FIELD", "COLUMN_CASE", "ELEMENT_ID", "FORMAT_OVERRIDE", "REQUIRED_FILTER", "REQUIRED_ONE_MULTI", "DDDW_SQL", "TABLE_LOOKUP")
12:44:30   3  VALUES ((select id from cr_dd_sources_criteria where lower(table_name) = 'reg_history_ledger_id_sv'),
12:44:30   4  'ADJ_AMOUNT', 10,  1, 1, null, 'Adj Amount', 313, 0, 'Any', null, null, 0, null, null, 0) ;

1 row created.

12:44:30 hopplant> INSERT INTO "CR_DD_SOURCES_CRITERIA_FIELDS" ("ID", "DETAIL_FIELD", "COLUMN_ORDER", "AMOUNT_FIELD", "INCLUDE_IN_SELECT_CRITERIA", "DEFAULT_VALUE",
12:44:30   2  "COLUMN_HEADER", "COLUMN_WIDTH", "QUANTITY_FIELD", "COLUMN_CASE", "ELEMENT_ID", "FORMAT_OVERRIDE", "REQUIRED_FILTER", "REQUIRED_ONE_MULTI", "DDDW_SQL", "TABLE_LOOKUP")
12:44:30   3  VALUES ((select id from cr_dd_sources_criteria where lower(table_name) = 'reg_history_ledger_id_sv'),
12:44:30   4  'ADJ_MONTH', 11, 0, 1, null, 'Adj Month', 281, 0, 'Any', null, null, 0, null, null, 0) ;

1 row created.

12:44:30 hopplant> INSERT INTO "CR_DD_SOURCES_CRITERIA_FIELDS" ("ID", "DETAIL_FIELD", "COLUMN_ORDER", "AMOUNT_FIELD", "INCLUDE_IN_SELECT_CRITERIA", "DEFAULT_VALUE",
12:44:30   2  "COLUMN_HEADER", "COLUMN_WIDTH", "QUANTITY_FIELD", "COLUMN_CASE", "ELEMENT_ID", "FORMAT_OVERRIDE", "REQUIRED_FILTER", "REQUIRED_ONE_MULTI", "DDDW_SQL", "TABLE_LOOKUP")
12:44:30   3  VALUES ((select id from cr_dd_sources_criteria where lower(table_name) = 'reg_history_ledger_id_sv'),
12:44:30   4  'ANNUALIZED_AMT', 9, 1, 1, null, 'Annualized Amt', 418, 0, 'Any', null, null, 0, null, null, 0) ;

1 row created.

12:44:30 hopplant> INSERT INTO "CR_DD_SOURCES_CRITERIA_FIELDS" ("ID", "DETAIL_FIELD", "COLUMN_ORDER", "AMOUNT_FIELD", "INCLUDE_IN_SELECT_CRITERIA", "DEFAULT_VALUE",
12:44:30   2  "COLUMN_HEADER", "COLUMN_WIDTH", "QUANTITY_FIELD", "COLUMN_CASE", "ELEMENT_ID", "FORMAT_OVERRIDE", "REQUIRED_FILTER", "REQUIRED_ONE_MULTI", "DDDW_SQL", "TABLE_LOOKUP")
12:44:30   3  VALUES ((select id from cr_dd_sources_criteria where lower(table_name) = 'reg_history_ledger_id_sv'),
12:44:30   4  'GL_MONTH', 7, 0, 1, null, 'GL Month', 253, 0, 'Any', null, null, 0, null, null, 0) ;

1 row created.

12:44:30 hopplant> INSERT INTO "CR_DD_SOURCES_CRITERIA_FIELDS" ("ID", "DETAIL_FIELD", "COLUMN_ORDER", "AMOUNT_FIELD", "INCLUDE_IN_SELECT_CRITERIA", "DEFAULT_VALUE",
12:44:30   2  "COLUMN_HEADER", "COLUMN_WIDTH", "QUANTITY_FIELD", "COLUMN_CASE", "ELEMENT_ID", "FORMAT_OVERRIDE", "REQUIRED_FILTER", "REQUIRED_ONE_MULTI", "DDDW_SQL", "TABLE_LOOKUP")
12:44:30   3  VALUES ((select id from cr_dd_sources_criteria where lower(table_name) = 'reg_history_ledger_id_sv'),
12:44:30   4  'HISTORIC_LEDGER', 2, 0, 1, null, 'Historic Ledger', 422, 0, 'Any', null, null, 0, null, null, 0) ;

1 row created.

12:44:30 hopplant> INSERT INTO "CR_DD_SOURCES_CRITERIA_FIELDS" ("ID", "DETAIL_FIELD", "COLUMN_ORDER", "AMOUNT_FIELD", "INCLUDE_IN_SELECT_CRITERIA", "DEFAULT_VALUE",
12:44:30   2  "COLUMN_HEADER", "COLUMN_WIDTH", "QUANTITY_FIELD", "COLUMN_CASE", "ELEMENT_ID", "FORMAT_OVERRIDE", "REQUIRED_FILTER", "REQUIRED_ONE_MULTI", "DDDW_SQL", "TABLE_LOOKUP")
12:44:30   3  VALUES ((select id from cr_dd_sources_criteria where lower(table_name) = 'reg_history_ledger_id_sv'),
12:44:30   4  'HISTORIC_LEDGER_ID', 16, 0, 1, null, 'Historic Ledger ID', 482, 0, 'Any', null, null, 0, null, null, 0) ;

1 row created.

12:44:30 hopplant> INSERT INTO "CR_DD_SOURCES_CRITERIA_FIELDS" ("ID", "DETAIL_FIELD", "COLUMN_ORDER", "AMOUNT_FIELD", "INCLUDE_IN_SELECT_CRITERIA", "DEFAULT_VALUE",
12:44:30   2  "COLUMN_HEADER", "COLUMN_WIDTH", "QUANTITY_FIELD", "COLUMN_CASE", "ELEMENT_ID", "FORMAT_OVERRIDE", "REQUIRED_FILTER", "REQUIRED_ONE_MULTI", "DDDW_SQL", "TABLE_LOOKUP")
12:44:30   3  VALUES ((select id from cr_dd_sources_criteria where lower(table_name) = 'reg_history_ledger_id_sv'),
12:44:30   4  'RECON_ADJ_AMOUNT', 12, 1, 1, null, 'Recon Adj Amount', 500, 0, 'Any', null, null, 0, null, null, 0) ;

1 row created.

12:44:30 hopplant> INSERT INTO "CR_DD_SOURCES_CRITERIA_FIELDS" ("ID", "DETAIL_FIELD", "COLUMN_ORDER", "AMOUNT_FIELD", "INCLUDE_IN_SELECT_CRITERIA", "DEFAULT_VALUE",
12:44:30   2  "COLUMN_HEADER", "COLUMN_WIDTH", "QUANTITY_FIELD", "COLUMN_CASE", "ELEMENT_ID", "FORMAT_OVERRIDE", "REQUIRED_FILTER", "REQUIRED_ONE_MULTI", "DDDW_SQL", "TABLE_LOOKUP")
12:44:30   3  VALUES ((select id from cr_dd_sources_criteria where lower(table_name) = 'reg_history_ledger_id_sv'),
12:44:30   4  'RECON_ADJ_COMMENT', 13, 0, 1, null, 'Recon Adj Comment', 605, 0, 'Any', null, null, 0, null, null, 0) ;

1 row created.

12:44:30 hopplant> INSERT INTO "CR_DD_SOURCES_CRITERIA_FIELDS" ("ID", "DETAIL_FIELD", "COLUMN_ORDER", "AMOUNT_FIELD", "INCLUDE_IN_SELECT_CRITERIA", "DEFAULT_VALUE",
12:44:30   2  "COLUMN_HEADER", "COLUMN_WIDTH", "QUANTITY_FIELD", "COLUMN_CASE", "ELEMENT_ID", "FORMAT_OVERRIDE", "REQUIRED_FILTER", "REQUIRED_ONE_MULTI", "DDDW_SQL", "TABLE_LOOKUP")
12:44:30   3  VALUES ((select id from cr_dd_sources_criteria where lower(table_name) = 'reg_history_ledger_id_sv'),
12:44:30   4  'REG_ACCOUNT', 3, 0, 1, null, 'Reg Account', 1830, 0, 'Any', null, null, 0, null, null, 0) ;

1 row created.

12:44:30 hopplant> INSERT INTO "CR_DD_SOURCES_CRITERIA_FIELDS" ("ID", "DETAIL_FIELD", "COLUMN_ORDER", "AMOUNT_FIELD", "INCLUDE_IN_SELECT_CRITERIA", "DEFAULT_VALUE",
12:44:30   2  "COLUMN_HEADER", "COLUMN_WIDTH", "QUANTITY_FIELD", "COLUMN_CASE", "ELEMENT_ID", "FORMAT_OVERRIDE", "REQUIRED_FILTER", "REQUIRED_ONE_MULTI", "DDDW_SQL", "TABLE_LOOKUP")
12:44:30   3  VALUES ((select id from cr_dd_sources_criteria where lower(table_name) = 'reg_history_ledger_id_sv'),
12:44:30   4  'REG_ACCOUNT_TYPE', 4, 0, 1, null, 'Reg Account Type', 505, 0, 'Any', null, null, 0, null, null, 0) ;

1 row created.

12:44:30 hopplant> INSERT INTO "CR_DD_SOURCES_CRITERIA_FIELDS" ("ID", "DETAIL_FIELD", "COLUMN_ORDER", "AMOUNT_FIELD", "INCLUDE_IN_SELECT_CRITERIA", "DEFAULT_VALUE",
12:44:30   2  "COLUMN_HEADER", "COLUMN_WIDTH", "QUANTITY_FIELD", "COLUMN_CASE", "ELEMENT_ID", "FORMAT_OVERRIDE", "REQUIRED_FILTER", "REQUIRED_ONE_MULTI", "DDDW_SQL", "TABLE_LOOKUP")
12:44:30   3  VALUES ((select id from cr_dd_sources_criteria where lower(table_name) = 'reg_history_ledger_id_sv'),
12:44:30   4  'REG_ACCT_ID', 15, 0, 1, null, 'Reg Acct ID', 331, 0, 'Any', null, null, 0, null, null, 0) ;

1 row created.

12:44:30 hopplant> INSERT INTO "CR_DD_SOURCES_CRITERIA_FIELDS" ("ID", "DETAIL_FIELD", "COLUMN_ORDER", "AMOUNT_FIELD", "INCLUDE_IN_SELECT_CRITERIA", "DEFAULT_VALUE",
12:44:30   2  "COLUMN_HEADER", "COLUMN_WIDTH", "QUANTITY_FIELD", "COLUMN_CASE", "ELEMENT_ID", "FORMAT_OVERRIDE", "REQUIRED_FILTER", "REQUIRED_ONE_MULTI", "DDDW_SQL", "TABLE_LOOKUP")
12:44:30   3  VALUES ((select id from cr_dd_sources_criteria where lower(table_name) = 'reg_history_ledger_id_sv'),
12:44:30   4  'REG_COMPANY', 1, 0, 1, null, 'Reg Company', 687, 0, 'Any', null, null, 0, null, null, 0) ;

1 row created.

12:44:30 hopplant> INSERT INTO "CR_DD_SOURCES_CRITERIA_FIELDS" ("ID", "DETAIL_FIELD", "COLUMN_ORDER", "AMOUNT_FIELD", "INCLUDE_IN_SELECT_CRITERIA", "DEFAULT_VALUE",
12:44:30   2  "COLUMN_HEADER", "COLUMN_WIDTH", "QUANTITY_FIELD", "COLUMN_CASE", "ELEMENT_ID", "FORMAT_OVERRIDE", "REQUIRED_FILTER", "REQUIRED_ONE_MULTI", "DDDW_SQL", "TABLE_LOOKUP")
12:44:30   3  VALUES ((select id from cr_dd_sources_criteria where lower(table_name) = 'reg_history_ledger_id_sv'),
12:44:30   4  'REG_COMPANY_ID', 14, 0, 1, null, 'Reg Company ID', 445, 0, 'Any', null, null, 0, null, null, 0) ;

1 row created.

12:44:30 hopplant> INSERT INTO "CR_DD_SOURCES_CRITERIA_FIELDS" ("ID", "DETAIL_FIELD", "COLUMN_ORDER", "AMOUNT_FIELD", "INCLUDE_IN_SELECT_CRITERIA", "DEFAULT_VALUE",
12:44:30   2  "COLUMN_HEADER", "COLUMN_WIDTH", "QUANTITY_FIELD", "COLUMN_CASE", "ELEMENT_ID", "FORMAT_OVERRIDE", "REQUIRED_FILTER", "REQUIRED_ONE_MULTI", "DDDW_SQL", "TABLE_LOOKUP")
12:44:30   3  VALUES ((select id from cr_dd_sources_criteria where lower(table_name) = 'reg_history_ledger_id_sv'),
12:44:30   4  'REG_SOURCE', 6, 0, 1, null, 'Reg Source', 340, 0, 'Any', null, null, 0, null, null, 0) ;

1 row created.

12:44:30 hopplant> INSERT INTO "CR_DD_SOURCES_CRITERIA_FIELDS" ("ID", "DETAIL_FIELD", "COLUMN_ORDER", "AMOUNT_FIELD", "INCLUDE_IN_SELECT_CRITERIA", "DEFAULT_VALUE",
12:44:30   2  "COLUMN_HEADER", "COLUMN_WIDTH", "QUANTITY_FIELD", "COLUMN_CASE", "ELEMENT_ID", "FORMAT_OVERRIDE", "REQUIRED_FILTER", "REQUIRED_ONE_MULTI", "DDDW_SQL", "TABLE_LOOKUP")
12:44:30   3  VALUES ((select id from cr_dd_sources_criteria where lower(table_name) = 'reg_history_ledger_id_sv'),
12:44:30   4  'REG_SOURCE_ID', 17, 0, 1, null, 'Reg Source ID', 395, 0, 'Any', null, null, 0, null, null, 0) ;

1 row created.

12:44:30 hopplant> INSERT INTO "CR_DD_SOURCES_CRITERIA_FIELDS" ("ID", "DETAIL_FIELD", "COLUMN_ORDER", "AMOUNT_FIELD", "INCLUDE_IN_SELECT_CRITERIA", "DEFAULT_VALUE",
12:44:30   2  "COLUMN_HEADER", "COLUMN_WIDTH", "QUANTITY_FIELD", "COLUMN_CASE", "ELEMENT_ID", "FORMAT_OVERRIDE", "REQUIRED_FILTER", "REQUIRED_ONE_MULTI", "DDDW_SQL", "TABLE_LOOKUP")
12:44:30   3  VALUES ((select id from cr_dd_sources_criteria where lower(table_name) = 'reg_history_ledger_id_sv'),
12:44:30   4  'SUB_ACCOUNT_TYPE', 5, 0, 1, null, 'Sub Account Type', 587, 0, 'Any', null, null, 0, null, null, 0) ;

1 row created.

12:44:31 hopplant> 
12:44:31 hopplant> -- Create forecast ledger view
12:44:31 hopplant> create or replace view REG_FORECAST_LEDGER_ID_SV
12:44:31   2  	 (REG_COMPANY,FORECAST_LEDGER,REG_ACCOUNT,REG_ACCOUNT_TYPE,SUB_ACCOUNT_TYPE,REG_SOURCE,GL_MONTH,FCST_AMOUNT,ANNUALIZED_AMT,
12:44:31   3  	  ADJ_AMOUNT,ADJ_MONTH,REG_COMPANY_ID,REG_ACCT_ID,FORECAST_LEDGER_ID,REG_SOURCE_ID)
12:44:31   4  as
12:44:31   5  select REG_COMPANY,
12:44:31   6  	     FORECAST_LEDGER,
12:44:31   7  	     REG_ACCOUNT,
12:44:31   8  	     REG_ACCOUNT_TYPE,
12:44:31   9  	     SUB_ACCOUNT_TYPE,
12:44:31  10  	     REG_SOURCE,
12:44:31  11  	     GL_MONTH,
12:44:31  12  	     FCST_AMOUNT,
12:44:31  13  	     ANNUALIZED_AMT,
12:44:31  14  	     ADJ_AMOUNT,
12:44:31  15  	     ADJ_MONTH,
12:44:31  16  	     REG_COMPANY_ID,
12:44:31  17  	     REG_ACCT_ID,
12:44:31  18  	     FORECAST_LEDGER_ID,
12:44:31  19  	     REG_SOURCE_ID
12:44:31  20  	from (select C.DESCRIPTION	   REG_COMPANY,
12:44:31  21  		     M.DESCRIPTION	   REG_ACCOUNT,
12:44:31  22  		     T.DESCRIPTION	   REG_ACCOUNT_TYPE,
12:44:31  23  		     S.DESCRIPTION	   SUB_ACCOUNT_TYPE,
12:44:31  24  		     R.DESCRIPTION	   REG_SOURCE,
12:44:31  25  		     V.DESCRIPTION	   FORECAST_LEDGER,
12:44:31  26  		     L.GL_MONTH 	   GL_MONTH,
12:44:31  27  		     L.FCST_AMOUNT	   FCST_AMOUNT,
12:44:31  28  		     L.ANNUALIZED_AMT	   ANNUALIZED_AMT,
12:44:31  29  		     L.ADJ_AMOUNT	   ADJ_AMOUNT,
12:44:31  30  		     L.ADJ_MONTH	   ADJ_MONTH,
12:44:31  31  		     L.REG_COMPANY_ID	   REG_COMPANY_ID,
12:44:31  32  		     L.REG_ACCT_ID	   REG_ACCT_ID,
12:44:31  33  		     L.FORECAST_VERSION_ID FORECAST_LEDGER_ID,
12:44:31  34  		     L.REG_SOURCE_ID	   REG_SOURCE_ID
12:44:31  35  		from (select distinct REG_COMPANY_ID, DESCRIPTION from REG_COMPANY_SV) C,
12:44:31  36  		     REG_ACCT_MASTER M,
12:44:31  37  		     REG_FORECAST_VERSION V,
12:44:31  38  		     REG_FORECAST_LEDGER L,
12:44:31  39  		     REG_ACCT_TYPE T,
12:44:31  40  		     REG_SUB_ACCT_TYPE S,
12:44:31  41  		     REG_SOURCE R
12:44:31  42  	       where L.FORECAST_VERSION_ID = V.FORECAST_VERSION_ID
12:44:31  43  		 and L.REG_COMPANY_ID = C.REG_COMPANY_ID
12:44:31  44  		 and L.REG_ACCT_ID = M.REG_ACCT_ID
12:44:31  45  		 and L.REG_SOURCE_ID = R.REG_SOURCE_ID
12:44:31  46  		 and M.REG_ACCT_TYPE_DEFAULT = T.REG_ACCT_TYPE_ID
12:44:31  47  		 and M.REG_ACCT_TYPE_DEFAULT = S.REG_ACCT_TYPE_ID
12:44:31  48  		 and M.SUB_ACCT_TYPE_ID = S.SUB_ACCT_TYPE_ID);

View created.

12:44:31 hopplant> 
12:44:31 hopplant> -- Add the new any query
12:44:31 hopplant> INSERT INTO "CR_DD_SOURCES_CRITERIA" ("ID", "SOURCE_ID", "CRITERIA_FIELD", "TABLE_NAME", "DESCRIPTION", "FEEDER_FIELD")
12:44:31   2  VALUES ((select nvl(max(id),0) from cr_dd_sources_criteria) + 1, 1002, 'none', 'reg_forecast_ledger_id_sv', 'Forecast Ledger with ID Values', 'none') ;

1 row created.

12:44:31 hopplant> 
12:44:31 hopplant> -- Add the fields
12:44:31 hopplant> INSERT INTO "CR_DD_SOURCES_CRITERIA_FIELDS" ("ID", "DETAIL_FIELD", "COLUMN_ORDER", "AMOUNT_FIELD", "INCLUDE_IN_SELECT_CRITERIA", "DEFAULT_VALUE",
12:44:31   2  "COLUMN_HEADER", "COLUMN_WIDTH", "QUANTITY_FIELD", "COLUMN_CASE", "ELEMENT_ID", "FORMAT_OVERRIDE", "REQUIRED_FILTER", "REQUIRED_ONE_MULTI", "DDDW_SQL", "TABLE_LOOKUP")
12:44:31   3  VALUES ((select id from cr_dd_sources_criteria where lower(table_name) = 'reg_forecast_ledger_id_sv'),
12:44:31   4  'ADJ_AMOUNT', 10, 1, 1, null, 'Adj Amount', 313, 0, 'Any', null, null, 0, null, null, 0) ;

1 row created.

12:44:31 hopplant> INSERT INTO "CR_DD_SOURCES_CRITERIA_FIELDS" ("ID", "DETAIL_FIELD", "COLUMN_ORDER", "AMOUNT_FIELD", "INCLUDE_IN_SELECT_CRITERIA", "DEFAULT_VALUE",
12:44:31   2  "COLUMN_HEADER", "COLUMN_WIDTH", "QUANTITY_FIELD", "COLUMN_CASE", "ELEMENT_ID", "FORMAT_OVERRIDE", "REQUIRED_FILTER", "REQUIRED_ONE_MULTI", "DDDW_SQL", "TABLE_LOOKUP")
12:44:31   3  VALUES ((select id from cr_dd_sources_criteria where lower(table_name) = 'reg_forecast_ledger_id_sv'),
12:44:31   4  'ADJ_MONTH', 11, 0, 1, null, 'Adj Month', 281, 0, 'Any', null, null, 0, null, null, 0) ;

1 row created.

12:44:31 hopplant> INSERT INTO "CR_DD_SOURCES_CRITERIA_FIELDS" ("ID", "DETAIL_FIELD", "COLUMN_ORDER", "AMOUNT_FIELD", "INCLUDE_IN_SELECT_CRITERIA", "DEFAULT_VALUE",
12:44:31   2  "COLUMN_HEADER", "COLUMN_WIDTH", "QUANTITY_FIELD", "COLUMN_CASE", "ELEMENT_ID", "FORMAT_OVERRIDE", "REQUIRED_FILTER", "REQUIRED_ONE_MULTI", "DDDW_SQL", "TABLE_LOOKUP")
12:44:31   3  VALUES ((select id from cr_dd_sources_criteria where lower(table_name) = 'reg_forecast_ledger_id_sv'),
12:44:31   4  'ANNUALIZED_AMT', 9, 1, 1, null, 'Annualized Amt', 418, 0, 'Any', null, null, 0, null, null, 0) ;

1 row created.

12:44:31 hopplant> INSERT INTO "CR_DD_SOURCES_CRITERIA_FIELDS" ("ID", "DETAIL_FIELD", "COLUMN_ORDER", "AMOUNT_FIELD", "INCLUDE_IN_SELECT_CRITERIA", "DEFAULT_VALUE",
12:44:31   2  "COLUMN_HEADER", "COLUMN_WIDTH", "QUANTITY_FIELD", "COLUMN_CASE", "ELEMENT_ID", "FORMAT_OVERRIDE", "REQUIRED_FILTER", "REQUIRED_ONE_MULTI", "DDDW_SQL", "TABLE_LOOKUP")
12:44:31   3  VALUES ((select id from cr_dd_sources_criteria where lower(table_name) = 'reg_forecast_ledger_id_sv'),
12:44:31   4  'FCST_AMOUNT', 8, 1, 1, null, 'Fcst Amount', 345, 0, 'Any', null, null, 0, null, null, 0) ;

1 row created.

12:44:31 hopplant> INSERT INTO "CR_DD_SOURCES_CRITERIA_FIELDS" ("ID", "DETAIL_FIELD", "COLUMN_ORDER", "AMOUNT_FIELD", "INCLUDE_IN_SELECT_CRITERIA", "DEFAULT_VALUE",
12:44:31   2  "COLUMN_HEADER", "COLUMN_WIDTH", "QUANTITY_FIELD", "COLUMN_CASE", "ELEMENT_ID", "FORMAT_OVERRIDE", "REQUIRED_FILTER", "REQUIRED_ONE_MULTI", "DDDW_SQL", "TABLE_LOOKUP")
12:44:31   3  VALUES ((select id from cr_dd_sources_criteria where lower(table_name) = 'reg_forecast_ledger_id_sv'),
12:44:31   4  'FORECAST_LEDGER', 2, 0, 1, null, 'Forecast Ledger', 441, 0, 'Any', null, null, 0, null, null, 0) ;

1 row created.

12:44:31 hopplant> INSERT INTO "CR_DD_SOURCES_CRITERIA_FIELDS" ("ID", "DETAIL_FIELD", "COLUMN_ORDER", "AMOUNT_FIELD", "INCLUDE_IN_SELECT_CRITERIA", "DEFAULT_VALUE",
12:44:31   2  "COLUMN_HEADER", "COLUMN_WIDTH", "QUANTITY_FIELD", "COLUMN_CASE", "ELEMENT_ID", "FORMAT_OVERRIDE", "REQUIRED_FILTER", "REQUIRED_ONE_MULTI", "DDDW_SQL", "TABLE_LOOKUP")
12:44:31   3  VALUES ((select id from cr_dd_sources_criteria where lower(table_name) = 'reg_forecast_ledger_id_sv'),
12:44:31   4  'FORECAST_LEDGER_ID', 14, 0, 1, null, 'Forecast Ledger ID', 509, 0, 'Any', null, null, 0, null, null, 0) ;

1 row created.

12:44:31 hopplant> INSERT INTO "CR_DD_SOURCES_CRITERIA_FIELDS" ("ID", "DETAIL_FIELD", "COLUMN_ORDER", "AMOUNT_FIELD", "INCLUDE_IN_SELECT_CRITERIA", "DEFAULT_VALUE",
12:44:31   2  "COLUMN_HEADER", "COLUMN_WIDTH", "QUANTITY_FIELD", "COLUMN_CASE", "ELEMENT_ID", "FORMAT_OVERRIDE", "REQUIRED_FILTER", "REQUIRED_ONE_MULTI", "DDDW_SQL", "TABLE_LOOKUP")
12:44:31   3  VALUES ((select id from cr_dd_sources_criteria where lower(table_name) = 'reg_forecast_ledger_id_sv'),
12:44:31   4  'GL_MONTH', 7, 0, 1, null, 'GL Month', 253, 0, 'Any', null, null, 0, null, null, 0) ;

1 row created.

12:44:31 hopplant> INSERT INTO "CR_DD_SOURCES_CRITERIA_FIELDS" ("ID", "DETAIL_FIELD", "COLUMN_ORDER", "AMOUNT_FIELD", "INCLUDE_IN_SELECT_CRITERIA", "DEFAULT_VALUE",
12:44:31   2  "COLUMN_HEADER", "COLUMN_WIDTH", "QUANTITY_FIELD", "COLUMN_CASE", "ELEMENT_ID", "FORMAT_OVERRIDE", "REQUIRED_FILTER", "REQUIRED_ONE_MULTI", "DDDW_SQL", "TABLE_LOOKUP")
12:44:31   3  VALUES ((select id from cr_dd_sources_criteria where lower(table_name) = 'reg_forecast_ledger_id_sv'),
12:44:31   4  'REG_ACCOUNT', 3, 0, 1, null, 'Reg Account', 1154, 0, 'Any', null, null, 0, null, null, 0) ;

1 row created.

12:44:31 hopplant> INSERT INTO "CR_DD_SOURCES_CRITERIA_FIELDS" ("ID", "DETAIL_FIELD", "COLUMN_ORDER", "AMOUNT_FIELD", "INCLUDE_IN_SELECT_CRITERIA", "DEFAULT_VALUE",
12:44:31   2  "COLUMN_HEADER", "COLUMN_WIDTH", "QUANTITY_FIELD", "COLUMN_CASE", "ELEMENT_ID", "FORMAT_OVERRIDE", "REQUIRED_FILTER", "REQUIRED_ONE_MULTI", "DDDW_SQL", "TABLE_LOOKUP")
12:44:31   3  VALUES ((select id from cr_dd_sources_criteria where lower(table_name) = 'reg_forecast_ledger_id_sv'),
12:44:31   4  'REG_ACCOUNT_TYPE', 4, 0, 1, null, 'Reg Account Type', 509, 0, 'Any', null, null, 0, null, null, 0) ;

1 row created.

12:44:31 hopplant> INSERT INTO "CR_DD_SOURCES_CRITERIA_FIELDS" ("ID", "DETAIL_FIELD", "COLUMN_ORDER", "AMOUNT_FIELD", "INCLUDE_IN_SELECT_CRITERIA", "DEFAULT_VALUE",
12:44:31   2  "COLUMN_HEADER", "COLUMN_WIDTH", "QUANTITY_FIELD", "COLUMN_CASE", "ELEMENT_ID", "FORMAT_OVERRIDE", "REQUIRED_FILTER", "REQUIRED_ONE_MULTI", "DDDW_SQL", "TABLE_LOOKUP")
12:44:31   3  VALUES ((select id from cr_dd_sources_criteria where lower(table_name) = 'reg_forecast_ledger_id_sv'),
12:44:31   4  'REG_ACCT_ID', 13, 0, 1, null, 'Reg Acct ID', 331, 0, 'Any', null, null, 0, null, null, 0) ;

1 row created.

12:44:31 hopplant> INSERT INTO "CR_DD_SOURCES_CRITERIA_FIELDS" ("ID", "DETAIL_FIELD", "COLUMN_ORDER", "AMOUNT_FIELD", "INCLUDE_IN_SELECT_CRITERIA", "DEFAULT_VALUE",
12:44:31   2  "COLUMN_HEADER", "COLUMN_WIDTH", "QUANTITY_FIELD", "COLUMN_CASE", "ELEMENT_ID", "FORMAT_OVERRIDE", "REQUIRED_FILTER", "REQUIRED_ONE_MULTI", "DDDW_SQL", "TABLE_LOOKUP")
12:44:31   3  VALUES ((select id from cr_dd_sources_criteria where lower(table_name) = 'reg_forecast_ledger_id_sv'),
12:44:31   4  'REG_COMPANY', 1, 0, 1, null, 'Reg Company', 687, 0, 'Any', null, null, 0, null, null, 0) ;

1 row created.

12:44:31 hopplant> INSERT INTO "CR_DD_SOURCES_CRITERIA_FIELDS" ("ID", "DETAIL_FIELD", "COLUMN_ORDER", "AMOUNT_FIELD", "INCLUDE_IN_SELECT_CRITERIA", "DEFAULT_VALUE",
12:44:31   2  "COLUMN_HEADER", "COLUMN_WIDTH", "QUANTITY_FIELD", "COLUMN_CASE", "ELEMENT_ID", "FORMAT_OVERRIDE", "REQUIRED_FILTER", "REQUIRED_ONE_MULTI", "DDDW_SQL", "TABLE_LOOKUP")
12:44:31   3  VALUES ((select id from cr_dd_sources_criteria where lower(table_name) = 'reg_forecast_ledger_id_sv'),
12:44:31   4  'REG_COMPANY_ID', 12, 0, 1, null, 'Reg Company ID', 445, 0, 'Any', null, null, 0, null, null, 0) ;

1 row created.

12:44:31 hopplant> INSERT INTO "CR_DD_SOURCES_CRITERIA_FIELDS" ("ID", "DETAIL_FIELD", "COLUMN_ORDER", "AMOUNT_FIELD", "INCLUDE_IN_SELECT_CRITERIA", "DEFAULT_VALUE",
12:44:31   2  "COLUMN_HEADER", "COLUMN_WIDTH", "QUANTITY_FIELD", "COLUMN_CASE", "ELEMENT_ID", "FORMAT_OVERRIDE", "REQUIRED_FILTER", "REQUIRED_ONE_MULTI", "DDDW_SQL", "TABLE_LOOKUP")
12:44:31   3  VALUES ((select id from cr_dd_sources_criteria where lower(table_name) = 'reg_forecast_ledger_id_sv'),
12:44:31   4  'REG_SOURCE', 6, 0, 1, null, 'Reg Source', 340, 0, 'Any', null, null, 0, null, null, 0) ;

1 row created.

12:44:31 hopplant> INSERT INTO "CR_DD_SOURCES_CRITERIA_FIELDS" ("ID", "DETAIL_FIELD", "COLUMN_ORDER", "AMOUNT_FIELD", "INCLUDE_IN_SELECT_CRITERIA", "DEFAULT_VALUE",
12:44:31   2  "COLUMN_HEADER", "COLUMN_WIDTH", "QUANTITY_FIELD", "COLUMN_CASE", "ELEMENT_ID", "FORMAT_OVERRIDE", "REQUIRED_FILTER", "REQUIRED_ONE_MULTI", "DDDW_SQL", "TABLE_LOOKUP")
12:44:31   3  VALUES ((select id from cr_dd_sources_criteria where lower(table_name) = 'reg_forecast_ledger_id_sv'),
12:44:31   4  'REG_SOURCE_ID', 15, 0, 1, null, 'Reg Source ID', 395, 0, 'Any', null, null, 0, null, null, 0) ;

1 row created.

12:44:31 hopplant> INSERT INTO "CR_DD_SOURCES_CRITERIA_FIELDS" ("ID", "DETAIL_FIELD", "COLUMN_ORDER", "AMOUNT_FIELD", "INCLUDE_IN_SELECT_CRITERIA", "DEFAULT_VALUE",
12:44:31   2  "COLUMN_HEADER", "COLUMN_WIDTH", "QUANTITY_FIELD", "COLUMN_CASE", "ELEMENT_ID", "FORMAT_OVERRIDE", "REQUIRED_FILTER", "REQUIRED_ONE_MULTI", "DDDW_SQL", "TABLE_LOOKUP")
12:44:31   3  VALUES ((select id from cr_dd_sources_criteria where lower(table_name) = 'reg_forecast_ledger_id_sv'),
12:44:31   4  'SUB_ACCOUNT_TYPE', 5, 0, 1, null, 'Sub Account Type', 733, 0, 'Any', null, null, 0, null, null, 0) ;

1 row created.

12:44:31 hopplant> 
12:44:31 hopplant> insert into reg_query_drillback (
12:44:31   2  	 reg_source_id, hist_fcst_flag, reg_query_id, description, default_flag)
12:44:31   3  values (
12:44:31   4  	 15, 2,(select id from cr_dd_sources_criteria where lower(table_name) = 'reg_forecast_ledger_id_sv'),
12:44:31   5  	 'Forecast Ledger Query from Recon', 1);

1 row created.

12:44:31 hopplant> 
12:44:31 hopplant> --**************************
12:44:31 hopplant> -- Log the run of the script
12:44:31 hopplant> --**************************
12:44:31 hopplant> 
12:44:31 hopplant> insert into PP_SCHEMA_CHANGE_LOG
12:44:31   2  	 (ID, SKIPPED, MAJOR_VERSION, MINOR_VERSION, POINT_VERSION, PATCH_VERSION, MAINT_NUM, SCRIPT_PATH,
12:44:31   3  	  SCRIPT_NAME, SCRIPT_REVISION, DATE_APPLIED, OS_USER, TERMINAL, SERVICE_NAME)
12:44:31   4  values
12:44:31   5  	 (1146, 0, 10, 4, 2, 6, 38107, 'C:\PlasticWks\powerplant\sql\maint_scripts', '10.4.2.6_maint_038107_reg_case_drillback.sql', 1,
12:44:31   6  	  SYSTIMESTAMP, SYS_CONTEXT('USERENV', 'OS_USER'), SYS_CONTEXT('USERENV', 'TERMINAL'),
12:44:31   7  	  SYS_CONTEXT('USERENV', 'SERVICE_NAME'));

1 row created.

12:44:31 hopplant> commit;

Commit complete.

12:44:31 hopplant> SPOOL OFF
