12:42:26 hopplant> @&&PP_SCRIPT_PATH.maint_scripts\10.4.2.1_maint_037769_cwip_fast101.sql
12:42:26 hopplant> /*
12:42:26 hopplant> ||=================================================================================
12:42:26 hopplant> || Application: PowerPlant
12:42:26 hopplant> || File Name:   maint_037769_cwip_fast101.sql
12:42:26 hopplant> ||=================================================================================
12:42:26 hopplant> || Copyright (C) 2014 by PowerPlan Consultants, Inc. All Rights Reserved.
12:42:26 hopplant> ||=================================================================================
12:42:26 hopplant> || Version  Date	  Revised By	 Reason for Change
12:42:26 hopplant> || -------- ---------- -------------- ---------------------------------------------
12:42:26 hopplant> || 10.4.2.1 05/13/2014 Sunjin Cone
12:42:26 hopplant> ||=================================================================================
12:42:26 hopplant> */
12:42:26 hopplant> 
12:42:26 hopplant> drop table UNITIZE_WO_UNITS_STG;

Table dropped.

12:42:26 hopplant> 
12:42:26 hopplant> create table UNITIZE_WO_UNITS_STG
12:42:26   2  (
12:42:26   3   ID		     number(22,0),
12:42:26   4   COMPANY_ID	     number(22,0),
12:42:26   5   WORK_ORDER_ID	     number(22,0),
12:42:26   6   NEW_UNIT_ITEM_ID      number(22,0),
12:42:26   7   UNIT_ITEM_SOURCE      varchar2(35),
12:42:26   8   RETIREMENT_UNIT_ID    number(22,0),
12:42:26   9   UTILITY_ACCOUNT_ID    number(22,0),
12:42:26  10   BUS_SEGMENT_ID	     number(22,0),
12:42:26  11   SUB_ACCOUNT_ID	     number(22,0),
12:42:26  12   PROPERTY_GROUP_ID     number(22,0),
12:42:26  13   ASSET_LOCATION_ID     number(22,0),
12:42:26  14   MAJOR_LOCATION_ID     number(22,0),
12:42:26  15   WO_MAJOR_LOCATION_ID  number(22,0),
12:42:26  16   UA_FUNC_CLASS_ID      number(22,0),
12:42:26  17   PROPERTY_UNIT_ID      number(22,0),
12:42:26  18   LOCATION_TYPE_ID      number(22,0),
12:42:26  19   SERIAL_NUMBER	     varchar2(35),
12:42:26  20   GL_ACCOUNT_ID	     number(22,0),
12:42:26  21   ASSET_ACCT_METH_ID    number(22,0),
12:42:26  22   ACTIVITY_CODE	     varchar2(8),
12:42:26  23   DESCRIPTION	     varchar2(254),
12:42:26  24   SHORT_DESCRIPTION     varchar2(35),
12:42:26  25   AMOUNT		     number(22,2),
12:42:26  26   QUANTITY 	     number(22,2),
12:42:26  27   LDG_ASSET_ID	     number(22,0),
12:42:26  28   STATUS		     number(22,0),
12:42:26  29   EST_REVISION	     number(22,0),
12:42:26  30   UNIT_ESTIMATE_ID      number(22,0),
12:42:26  31   MINOR_UNIT_ITEM_ID    number(22,0),
12:42:26  32   IN_SERVICE_DATE	     date,
12:42:26  33   REPLACEMENT_AMOUNT    number(22,2),
12:42:26  34   ERROR_MSG	     varchar2(2000),
12:42:26  35   TIME_STAMP	     date,
12:42:26  36   USER_ID		     varchar2(18)
12:42:26  37  );

Table created.

12:42:26 hopplant> 
12:42:26 hopplant> comment on table  UNITIZE_WO_UNITS_STG is '(C) [04] The list of unit items to use during unitization. No primary key.';

Comment created.

12:42:26 hopplant> comment on column UNITIZE_WO_UNITS_STG.COMPANY_ID is 'System-assigned identifier of a particular company.';

Comment created.

12:42:26 hopplant> comment on column UNITIZE_WO_UNITS_STG.WORK_ORDER_ID is 'System-assigned identifier of the work order number.';

Comment created.

12:42:26 hopplant> comment on column UNITIZE_WO_UNITS_STG.NEW_UNIT_ITEM_ID is 'System-assigned identifier of the new unit item.';

Comment created.

12:42:26 hopplant> comment on column UNITIZE_WO_UNITS_STG.UNIT_ITEM_SOURCE is 'This field indicates if the source of the unit item creation is Actuals, Estimates, or CPR.';

Comment created.

12:42:26 hopplant> comment on column UNITIZE_WO_UNITS_STG.RETIREMENT_UNIT_ID is 'System-assigned identifier of a particular retirement unit.';

Comment created.

12:42:26 hopplant> comment on column UNITIZE_WO_UNITS_STG.UTILITY_ACCOUNT_ID is 'User-designated identifier of a unique utility plant account.	It can be a FERC utility plant account such as 314 or the Companys own account number structure.';

Comment created.

12:42:26 hopplant> comment on column UNITIZE_WO_UNITS_STG.BUS_SEGMENT_ID is 'System-assigned identifier of a unique business segment.';

Comment created.

12:42:26 hopplant> comment on column UNITIZE_WO_UNITS_STG.SUB_ACCOUNT_ID is 'User-designated value to further detail a particular utility account.';

Comment created.

12:42:26 hopplant> comment on column UNITIZE_WO_UNITS_STG.PROPERTY_GROUP_ID is 'System-assigned identifier of a particular property group.';

Comment created.

12:42:26 hopplant> comment on column UNITIZE_WO_UNITS_STG.ASSET_LOCATION_ID is 'System-assigned identifier of an asset location.';

Comment created.

12:42:26 hopplant> comment on column UNITIZE_WO_UNITS_STG.MAJOR_LOCATION_ID is 'System-assigned identifier of a major location.';

Comment created.

12:42:26 hopplant> comment on column UNITIZE_WO_UNITS_STG.WO_MAJOR_LOCATION_ID is 'System-assigned identifier of a major location on work order control.';

Comment created.

12:42:26 hopplant> comment on column UNITIZE_WO_UNITS_STG.UA_FUNC_CLASS_ID is 'System-assigned identifier of a particular functional class on the utility account.';

Comment created.

12:42:26 hopplant> comment on column UNITIZE_WO_UNITS_STG.PROPERTY_UNIT_ID is 'System-assigned identifier of a particular property unit.';

Comment created.

12:42:26 hopplant> comment on column UNITIZE_WO_UNITS_STG.LOCATION_TYPE_ID is 'System-assigned identifier of a particular location type.';

Comment created.

12:42:26 hopplant> comment on column UNITIZE_WO_UNITS_STG.SERIAL_NUMBER is 'Records the serial number associated with the asset component by the manufacturer.';

Comment created.

12:42:26 hopplant> comment on column UNITIZE_WO_UNITS_STG.GL_ACCOUNT_ID is 'System-assigned identifier of a particular gl account.';

Comment created.

12:42:26 hopplant> comment on column UNITIZE_WO_UNITS_STG.ASSET_ACCT_METH_ID is 'System-assigned identifier of a particular asset accounting method.';

Comment created.

12:42:26 hopplant> comment on column UNITIZE_WO_UNITS_STG.ACTIVITY_CODE is 'An activity code from the Activity Code table.';

Comment created.

12:42:26 hopplant> comment on column UNITIZE_WO_UNITS_STG.DESCRIPTION is 'Description of the particular asset (retirement unit).';

Comment created.

12:42:26 hopplant> comment on column UNITIZE_WO_UNITS_STG.SHORT_DESCRIPTION is 'Short description filled in by user during unitization.';

Comment created.

12:42:26 hopplant> comment on column UNITIZE_WO_UNITS_STG.AMOUNT is 'Amount in dollars for the CPR entry.';

Comment created.

12:42:27 hopplant> comment on column UNITIZE_WO_UNITS_STG.QUANTITY is 'Quantity for the CPR entry.';

Comment created.

12:42:27 hopplant> comment on column UNITIZE_WO_UNITS_STG.LDG_ASSET_ID is 'System-assigned identifier of the CPR asset identifier for a retirement or transfer.';

Comment created.

12:42:27 hopplant> comment on column UNITIZE_WO_UNITS_STG.STATUS is 'Internally set processing indicated used in unitization allocation: Null =  From charges; 10 = Minor addition;  11 = From wo estimates';

Comment created.

12:42:27 hopplant> comment on column UNITIZE_WO_UNITS_STG.EST_REVISION is 'WO Estimate revision used for unit item creation';

Comment created.

12:42:27 hopplant> comment on column UNITIZE_WO_UNITS_STG.UNIT_ESTIMATE_ID is 'System-assigned identifier of a particular wo estimate.';

Comment created.

12:42:27 hopplant> comment on column UNITIZE_WO_UNITS_STG.MINOR_UNIT_ITEM_ID is 'Item id from this table for a previously unitized item.  Used for minor items to allow copying of additional details.';

Comment created.

12:42:27 hopplant> comment on column UNITIZE_WO_UNITS_STG.IN_SERVICE_DATE is 'Engineering in-service date, when using multiple in-service dates for a single work order.  (See PP System Control.)';

Comment created.

12:42:27 hopplant> comment on column UNITIZE_WO_UNITS_STG.REPLACEMENT_AMOUNT is 'Dollar amount in current dollars to be (Handy Whitman) indexed to get original dollars when the retirement unit is using a retirement method of HW_Fifo or HW_Curve.';

Comment created.

12:42:27 hopplant> comment on column UNITIZE_WO_UNITS_STG.ERROR_MSG is 'Error message';

Comment created.

12:42:27 hopplant> comment on column UNITIZE_WO_UNITS_STG.TIME_STAMP is 'Standard system-assigned timestamp used for audit purposes.';

Comment created.

12:42:27 hopplant> comment on column UNITIZE_WO_UNITS_STG.USER_ID is 'Standard system-assigned user id used for audit purposes.';

Comment created.

12:42:27 hopplant> 
12:42:27 hopplant> 
12:42:27 hopplant> create global temporary table UNITIZE_ALLOC_EST_STG_TEMP
12:42:27   2  (
12:42:27   3   WORK_ORDER_ID	    number(22,0) not null,
12:42:27   4   EXPENDITURE_TYPE_ID  number(22,0) not null,
12:42:27   5   REVISION 	    number(22,0) not null,
12:42:27   6   EST_CHG_TYPE_ID	    number(22,0) not null,
12:42:27   7   UTILITY_ACCOUNT_ID   number(22,0),
12:42:27   8   BUS_SEGMENT_ID	    number(22,0),
12:42:27   9   SUB_ACCOUNT_ID	    number(22,0),
12:42:27  10   RETIREMENT_UNIT_ID   number(22,0),
12:42:27  11   ASSET_LOCATION_ID    number(22,0),
12:42:27  12   PROPERTY_GROUP_ID    number(22,0),
12:42:27  13   SERIAL_NUMBER	    varchar2(35),
12:42:27  14   ASSET_ID 	    number(22,0),
12:42:27  15   WO_EST_TRANS_TYPE_ID number(22,0),
12:42:27  16   AMOUNT		    number(22,2) not null,
12:42:27  17   QUANTITY 	    number(22,2)
12:42:27  18  ) on commit preserve rows;

Table created.

12:42:27 hopplant> 
12:42:27 hopplant> comment on table  UNITIZE_ALLOC_EST_STG_TEMP is '(C) [04] A global temporary table used in Unitization for summaried estimates. No primary key.';

Comment created.

12:42:27 hopplant> comment on column UNITIZE_ALLOC_EST_STG_TEMP.WORK_ORDER_ID is 'System-assigned identifier of the work order number.';

Comment created.

12:42:27 hopplant> comment on column UNITIZE_ALLOC_EST_STG_TEMP.EXPENDITURE_TYPE_ID is 'System-assigned identifier of the expenditure type.';

Comment created.

12:42:27 hopplant> comment on column UNITIZE_ALLOC_EST_STG_TEMP.REVISION is 'WO Estimate revision used for unit item creation';

Comment created.

12:42:27 hopplant> comment on column UNITIZE_ALLOC_EST_STG_TEMP.EST_CHG_TYPE_ID is 'System-assigned identifier of a particular estimated charge type.';

Comment created.

12:42:27 hopplant> comment on column UNITIZE_ALLOC_EST_STG_TEMP.RETIREMENT_UNIT_ID is  'System-assigned identifier of a particular retirement unit.';

Comment created.

12:42:27 hopplant> comment on column UNITIZE_ALLOC_EST_STG_TEMP.UTILITY_ACCOUNT_ID is 'User-designated identifier of a unique utility plant account.  It can be a FERC utility plant account such as 314 or the Companys own account number structure.';

Comment created.

12:42:27 hopplant> comment on column UNITIZE_ALLOC_EST_STG_TEMP.BUS_SEGMENT_ID is 'System-assigned identifier of a unique business segment.';

Comment created.

12:42:27 hopplant> comment on column UNITIZE_ALLOC_EST_STG_TEMP.SUB_ACCOUNT_ID is 'User-designated value to further detail a particular utility account.';

Comment created.

12:42:27 hopplant> comment on column UNITIZE_ALLOC_EST_STG_TEMP.PROPERTY_GROUP_ID is 'System-assigned identifier of a particular property group.';

Comment created.

12:42:27 hopplant> comment on column UNITIZE_ALLOC_EST_STG_TEMP.ASSET_LOCATION_ID is 'System-assigned identifier of an asset location.';

Comment created.

12:42:27 hopplant> comment on column UNITIZE_ALLOC_EST_STG_TEMP.SERIAL_NUMBER is 'User input serial number.';

Comment created.

12:42:27 hopplant> comment on column UNITIZE_ALLOC_EST_STG_TEMP.ASSET_ID is 'System-assigned identifier of an asset.';

Comment created.

12:42:27 hopplant> comment on column UNITIZE_ALLOC_EST_STG_TEMP.AMOUNT is 'The summarized estimate record amount.';

Comment created.

12:42:27 hopplant> comment on column UNITIZE_ALLOC_EST_STG_TEMP.QUANTITY is 'The summarized estimate record quantity.';

Comment created.

12:42:27 hopplant> comment on column UNITIZE_ALLOC_EST_STG_TEMP.WO_EST_TRANS_TYPE_ID is 'System-assigned identifier of an estimate transaction type.';

Comment created.

12:42:27 hopplant> 
12:42:27 hopplant> 
12:42:27 hopplant> create global temporary table UNITIZE_ALLOC_UNITS_STG_TEMP
12:42:27   2  (
12:42:27   3   WORK_ORDER_ID	   number(22,0) not null,
12:42:27   4   UNIT_ITEM_ID	   number(22,0) not null,
12:42:27   5   EXPENDITURE_TYPE_ID number(22,0) not null,
12:42:27   6   UTILITY_ACCOUNT_ID  number(22,0),
12:42:27   7   BUS_SEGMENT_ID	   number(22,0),
12:42:27   8   SUB_ACCOUNT_ID	   number(22,0),
12:42:27   9   RETIREMENT_UNIT_ID  number(22,0),
12:42:27  10   ASSET_LOCATION_ID   number(22,0),
12:42:27  11   PROPERTY_GROUP_ID   number(22,0),
12:42:27  12   SERIAL_NUMBER	   varchar2(35),
12:42:27  13   LDG_ASSET_ID	   number(22,0),
12:42:27  14   UNIT_ESTIMATE_ID    number(22,0),
12:42:27  15   QUANTITY 	   number(22,2)
12:42:27  16  ) on commit preserve rows;

Table created.

12:42:27 hopplant> 
12:42:27 hopplant> comment on table  UNITIZE_ALLOC_UNITS_STG_TEMP is '(C) [04] A global temporary table used in calculation of the Unitization allocation statistics associated to each eligible Unit Item. No primary key.';

Comment created.

12:42:27 hopplant> comment on column UNITIZE_ALLOC_UNITS_STG_TEMP.WORK_ORDER_ID is 'System-assigned identifier of the work order number.';

Comment created.

12:42:27 hopplant> comment on column UNITIZE_ALLOC_UNITS_STG_TEMP.UNIT_ITEM_ID is 'System-assigned identifier of the Unit Item.';

Comment created.

12:42:27 hopplant> comment on column UNITIZE_ALLOC_UNITS_STG_TEMP.EXPENDITURE_TYPE_ID is 'System-assigned identifier of the expenditure type.  UADD and MADD are set to 1; all others are set to 2.';

Comment created.

12:42:27 hopplant> comment on column UNITIZE_ALLOC_UNITS_STG_TEMP.RETIREMENT_UNIT_ID is  'System-assigned identifier of a particular retirement unit.';

Comment created.

12:42:27 hopplant> comment on column UNITIZE_ALLOC_UNITS_STG_TEMP.UTILITY_ACCOUNT_ID is 'User-designated identifier of a unique utility plant account.	It can be a FERC utility plant account such as 314 or the Companys own account number structure.';

Comment created.

12:42:27 hopplant> comment on column UNITIZE_ALLOC_UNITS_STG_TEMP.BUS_SEGMENT_ID is 'System-assigned identifier of a unique business segment.';

Comment created.

12:42:27 hopplant> comment on column UNITIZE_ALLOC_UNITS_STG_TEMP.SUB_ACCOUNT_ID is 'User-designated value to further detail a particular utility account.';

Comment created.

12:42:27 hopplant> comment on column UNITIZE_ALLOC_UNITS_STG_TEMP.PROPERTY_GROUP_ID is 'System-assigned identifier of a particular property group.';

Comment created.

12:42:27 hopplant> comment on column UNITIZE_ALLOC_UNITS_STG_TEMP.ASSET_LOCATION_ID is 'System-assigned identifier of an asset location.';

Comment created.

12:42:28 hopplant> comment on column UNITIZE_ALLOC_UNITS_STG_TEMP.SERIAL_NUMBER is 'User input serial number.';

Comment created.

12:42:28 hopplant> comment on column UNITIZE_ALLOC_UNITS_STG_TEMP.LDG_ASSET_ID is 'System-assigned identifier of an asset.';

Comment created.

12:42:28 hopplant> comment on column UNITIZE_ALLOC_UNITS_STG_TEMP.UNIT_ESTIMATE_ID is 'The associated ESTIMATE_ID for Unit Items created from One for One estimates.';

Comment created.

12:42:28 hopplant> comment on column UNITIZE_ALLOC_UNITS_STG_TEMP.QUANTITY is 'The summarized estimate record quantity.';

Comment created.

12:42:28 hopplant> 
12:42:28 hopplant> create table UNITIZE_ALLOC_EST_STATS
12:42:28   2  (
12:42:28   3   COMPANY_ID	   number(22,0) not null,
12:42:28   4   WORK_ORDER_ID	   number(22,0) not null,
12:42:28   5   UNIT_ITEM_ID	   number(22,0) not null,
12:42:28   6   EXPENDITURE_TYPE_ID number(22,0) not null,
12:42:28   7   ALLOC_ID 	   number(22,0) not null,
12:42:28   8   ALLOC_TYPE	   varchar2(35),
12:42:28   9   ALLOC_BASIS	   varchar2(35),
12:42:28  10   UNITIZE_BY_ACCOUNT  number(22,0),
12:42:28  11   UTILITY_ACCOUNT_ID  number(22,0),
12:42:28  12   BUS_SEGMENT_ID	   number(22,0),
12:42:28  13   SUB_ACCOUNT_ID	   number(22,0),
12:42:28  14   ALLOC_STATISTIC	   number(22,2),
12:42:28  15   TIME_STAMP	   date,
12:42:28  16   USER_ID		   varchar2(18)
12:42:28  17  );

Table created.

12:42:28 hopplant> 
12:42:28 hopplant> 
12:42:28 hopplant> alter table UNITIZE_ALLOC_EST_STATS
12:42:28   2  	 add constraint PK_UNITIZE_ALLOC_EST_STATS
12:42:28   3  	     primary key (COMPANY_ID, WORK_ORDER_ID, UNIT_ITEM_ID, EXPENDITURE_TYPE_ID, ALLOC_ID)
12:42:28   4  	     using index tablespace PWRPLANT_IDX;

Table altered.

12:42:28 hopplant> 
12:42:28 hopplant> comment on table  UNITIZE_ALLOC_EST_STATS is '(C) [04] Summarized and One for One Estimate information used to unitize charge types configured for Estimates based allocation.';

Comment created.

12:42:28 hopplant> comment on column UNITIZE_ALLOC_EST_STATS.COMPANY_ID is 'System-assigned identifier of a particular company.';

Comment created.

12:42:28 hopplant> comment on column UNITIZE_ALLOC_EST_STATS.WORK_ORDER_ID is 'System-assigned identifier of the work order number.';

Comment created.

12:42:28 hopplant> comment on column UNITIZE_ALLOC_EST_STATS.UNIT_ITEM_ID  is 'System-assigned identifier of the unit item.';

Comment created.

12:42:28 hopplant> comment on column UNITIZE_ALLOC_EST_STATS.EXPENDITURE_TYPE_ID is 'System-assigned identifier of the expenditure type.';

Comment created.

12:42:28 hopplant> comment on column UNITIZE_ALLOC_EST_STATS.ALLOC_ID is 'System-assigned identifier of the unit allocation type and basis.';

Comment created.

12:42:28 hopplant> comment on column UNITIZE_ALLOC_EST_STATS.ALLOC_TYPE is 'Allocation type: estimates.';

Comment created.

12:42:28 hopplant> comment on column UNITIZE_ALLOC_EST_STATS.ALLOC_BASIS is 'Allocation basis: dollars, quantity.';

Comment created.

12:42:28 hopplant> comment on column UNITIZE_ALLOC_EST_STATS.UNITIZE_BY_ACCOUNT is '1=Yes, which means adhere to utility account during unitization.';

Comment created.

12:42:28 hopplant> comment on column UNITIZE_ALLOC_EST_STATS.UTILITY_ACCOUNT_ID is 'System-assigned identifier of the utility account.	Used for the Unitize by Account option.';

Comment created.

12:42:28 hopplant> comment on column UNITIZE_ALLOC_EST_STATS.BUS_SEGMENT_ID is 'System-assigned identifier of a unique business segment.';

Comment created.

12:42:28 hopplant> comment on column UNITIZE_ALLOC_EST_STATS.SUB_ACCOUNT_ID is 'User-designated value to further detail a particular utility account.';

Comment created.

12:42:28 hopplant> comment on column UNITIZE_ALLOC_EST_STATS.ALLOC_STATISTIC is 'Numeric value used to determine the allocation percent ratio.';

Comment created.

12:42:28 hopplant> comment on column UNITIZE_ALLOC_EST_STATS.TIME_STAMP is 'Standard system-assigned timestamp used for audit purposes.';

Comment created.

12:42:28 hopplant> comment on column UNITIZE_ALLOC_EST_STATS.USER_ID is 'Standard system-assigned user id used for audit purposes.';

Comment created.

12:42:28 hopplant> 
12:42:28 hopplant> --**************************
12:42:28 hopplant> -- Log the run of the script
12:42:28 hopplant> --**************************
12:42:28 hopplant> 
12:42:28 hopplant> insert into PP_SCHEMA_CHANGE_LOG
12:42:28   2  	 (ID, SKIPPED, MAJOR_VERSION, MINOR_VERSION, POINT_VERSION, PATCH_VERSION, MAINT_NUM, SCRIPT_PATH,
12:42:28   3  	  SCRIPT_NAME, SCRIPT_REVISION, DATE_APPLIED, OS_USER, TERMINAL, SERVICE_NAME)
12:42:28   4  values
12:42:28   5  	 (1160, 0, 10, 4, 2, 1, 37769, 'C:\PlasticWks\powerplant\sql\maint_scripts', '10.4.2.1_maint_037769_cwip_fast101.sql', 1,
12:42:28   6  	  SYSTIMESTAMP, SYS_CONTEXT('USERENV', 'OS_USER'), SYS_CONTEXT('USERENV', 'TERMINAL'),
12:42:28   7  	  SYS_CONTEXT('USERENV', 'SERVICE_NAME'));

1 row created.

12:42:28 hopplant> commit;

Commit complete.

12:42:28 hopplant> SPOOL OFF
