12:47:13 hopplant> @&&PP_SCRIPT_PATH.maint_scripts\10.4.3.0_maint_037402_cwip_ocr_units.sql
12:47:13 hopplant> /*
12:47:13 hopplant> ||=================================================================================
12:47:13 hopplant> || Application: PowerPlant
12:47:13 hopplant> || File Name:   maint_037402_cwip_ocr_units.sql
12:47:13 hopplant> ||=================================================================================
12:47:13 hopplant> || Copyright (C) 2014 by PowerPlan Consultants, Inc. All Rights Reserved.
12:47:13 hopplant> ||=================================================================================
12:47:13 hopplant> || Version  Date	  Revised By	 Reason for Change
12:47:13 hopplant> || -------- ---------- -------------- ---------------------------------------------
12:47:13 hopplant> || 10.4.3.0 06/20/2014 Sunjin Cone	 OCR for Unitization
12:47:13 hopplant> ||=================================================================================
12:47:13 hopplant> */
12:47:13 hopplant> 
12:47:13 hopplant> create table UNITIZE_CONVERT_OCR_STG
12:47:13   2  (
12:47:13   3   COMPANY_ID	  number(22,0),
12:47:13   4   WORK_ORDER_ID	  number(22,0) not null,
12:47:13   5   UNIT_ITEM_ID	  number(22,0) not null,
12:47:13   6   CHARGE_GROUP_ID	  number(22,0) not null,
12:47:13   7   CHARGE_TYPE_ID	  number(22,0),
12:47:13   8   RETIREMENT_UNIT_ID number(22,0),
12:47:13   9   UTILITY_ACCOUNT_ID number(22,0),
12:47:13  10   BUS_SEGMENT_ID	  number(22,0),
12:47:13  11   SUB_ACCOUNT_ID	  number(22,0),
12:47:13  12   PROPERTY_GROUP_ID  number(22,0),
12:47:13  13   ASSET_LOCATION_ID  number(22,0),
12:47:13  14   CGC_QUANTITY	  number(22,2),
12:47:13  15   CGC_AMOUNT	  number(22,2),
12:47:13  16   TIME_STAMP	  date,
12:47:13  17   USER_ID		  varchar2(18)
12:47:13  18  );

Table created.

12:47:13 hopplant> 
12:47:13 hopplant> alter table UNITIZE_CONVERT_OCR_STG
12:47:13   2  	 add constraint PK_UNITIZE_CONVERT_OCR_STG
12:47:13   3  	     primary key (WORK_ORDER_ID, UNIT_ITEM_ID, CHARGE_GROUP_ID)
12:47:13   4  	     using index tablespace PWRPLANT_IDX;

Table altered.

12:47:13 hopplant> 
12:47:13 hopplant> comment on table  UNITIZE_CONVERT_OCR_STG is '(C) [04] The list of Original Cost Retirement Unit Items eligible to convert into summarized WO Estimates.';

Comment created.

12:47:13 hopplant> comment on column UNITIZE_CONVERT_OCR_STG.COMPANY_ID is 'System-assigned identifier of a particular company.';

Comment created.

12:47:13 hopplant> comment on column UNITIZE_CONVERT_OCR_STG.WORK_ORDER_ID is 'System-assigned identifier of the work order number.';

Comment created.

12:47:13 hopplant> comment on column UNITIZE_CONVERT_OCR_STG.UNIT_ITEM_ID is 'System-assigned identifier of the unit item.';

Comment created.

12:47:13 hopplant> comment on column UNITIZE_CONVERT_OCR_STG.CHARGE_GROUP_ID is 'System-assigned identifier of the the charge group.';

Comment created.

12:47:13 hopplant> comment on column UNITIZE_CONVERT_OCR_STG.CHARGE_TYPE_ID is 'System-assigned identifier the OCR charge type.';

Comment created.

12:47:13 hopplant> comment on column UNITIZE_CONVERT_OCR_STG.RETIREMENT_UNIT_ID is 'System-assigned identifier of a particular retirement unit.';

Comment created.

12:47:13 hopplant> comment on column UNITIZE_CONVERT_OCR_STG.UTILITY_ACCOUNT_ID is 'User-designated identifier of a unique utility plant account.';

Comment created.

12:47:13 hopplant> comment on column UNITIZE_CONVERT_OCR_STG.BUS_SEGMENT_ID is 'System-assigned identifier of a unique business segment.';

Comment created.

12:47:13 hopplant> comment on column UNITIZE_CONVERT_OCR_STG.SUB_ACCOUNT_ID is 'User-designated value to further detail a particular utility account.';

Comment created.

12:47:13 hopplant> comment on column UNITIZE_CONVERT_OCR_STG.PROPERTY_GROUP_ID is 'System-assigned identifier of a particular property group.';

Comment created.

12:47:14 hopplant> comment on column UNITIZE_CONVERT_OCR_STG.ASSET_LOCATION_ID is 'System-assigned identifier of an asset location.';

Comment created.

12:47:14 hopplant> comment on column UNITIZE_CONVERT_OCR_STG.CGC_QUANTITY is 'Quantity for the OCR entry.';

Comment created.

12:47:14 hopplant> comment on column UNITIZE_CONVERT_OCR_STG.CGC_AMOUNT is 'Amount in dollars for the OCR entry.';

Comment created.

12:47:14 hopplant> comment on column UNITIZE_CONVERT_OCR_STG.TIME_STAMP is 'Standard system-assigned timestamp used for audit purposes.';

Comment created.

12:47:14 hopplant> comment on column UNITIZE_CONVERT_OCR_STG.USER_ID is 'Standard system-assigned user id used for audit purposes.';

Comment created.

12:47:14 hopplant> 
12:47:14 hopplant> 
12:47:14 hopplant> create table UNITIZE_CONVERT_OCR
12:47:14   2  (
12:47:14   3   COMPANY_ID	  number(22,0),
12:47:14   4   WORK_ORDER_ID	  number(22,0) not null,
12:47:14   5   UNIT_ITEM_ID	  number(22,0) not null,
12:47:14   6   CHARGE_GROUP_ID	  number(22,0) not null,
12:47:14   7   CHARGE_TYPE_ID	  number(22,0),
12:47:14   8   RETIREMENT_UNIT_ID number(22,0),
12:47:14   9   UTILITY_ACCOUNT_ID number(22,0),
12:47:14  10   BUS_SEGMENT_ID	  number(22,0),
12:47:14  11   SUB_ACCOUNT_ID	  number(22,0),
12:47:14  12   PROPERTY_GROUP_ID  number(22,0),
12:47:14  13   ASSET_LOCATION_ID  number(22,0),
12:47:14  14   CGC_QUANTITY	  number(22,2),
12:47:14  15   CGC_AMOUNT	  number(22,2),
12:47:14  16   TIME_STAMP	  date,
12:47:14  17   USER_ID		  varchar2(18)
12:47:14  18  );

Table created.

12:47:14 hopplant> 
12:47:14 hopplant> alter table UNITIZE_CONVERT_OCR
12:47:14   2  	 add constraint PK_UNITIZE_CONVERT_OCR
12:47:14   3  	     primary key (WORK_ORDER_ID, UNIT_ITEM_ID, CHARGE_GROUP_ID)
12:47:14   4  	     using index tablespace PWRPLANT_IDX;

Table altered.

12:47:14 hopplant> 
12:47:14 hopplant> comment on table  UNITIZE_CONVERT_OCR is '(C) [04] The list of Original Cost Retirement Unit Items converted into summarized WO Estimates.';

Comment created.

12:47:14 hopplant> comment on column UNITIZE_CONVERT_OCR.COMPANY_ID is 'System-assigned identifier of a particular company.';

Comment created.

12:47:14 hopplant> comment on column UNITIZE_CONVERT_OCR.WORK_ORDER_ID is 'System-assigned identifier of the work order number.';

Comment created.

12:47:14 hopplant> comment on column UNITIZE_CONVERT_OCR.UNIT_ITEM_ID is 'System-assigned identifier of the unit item.';

Comment created.

12:47:14 hopplant> comment on column UNITIZE_CONVERT_OCR.CHARGE_GROUP_ID is 'System-assigned identifier of the the charge group.';

Comment created.

12:47:14 hopplant> comment on column UNITIZE_CONVERT_OCR.CHARGE_TYPE_ID is 'System-assigned identifier the OCR charge type.';

Comment created.

12:47:14 hopplant> comment on column UNITIZE_CONVERT_OCR.RETIREMENT_UNIT_ID is 'System-assigned identifier of a particular retirement unit.';

Comment created.

12:47:14 hopplant> comment on column UNITIZE_CONVERT_OCR.UTILITY_ACCOUNT_ID is 'User-designated identifier of a unique utility plant account.';

Comment created.

12:47:14 hopplant> comment on column UNITIZE_CONVERT_OCR.BUS_SEGMENT_ID is 'System-assigned identifier of a unique business segment.';

Comment created.

12:47:14 hopplant> comment on column UNITIZE_CONVERT_OCR.SUB_ACCOUNT_ID is 'User-designated value to further detail a particular utility account.';

Comment created.

12:47:14 hopplant> comment on column UNITIZE_CONVERT_OCR.PROPERTY_GROUP_ID is 'System-assigned identifier of a particular property group.';

Comment created.

12:47:14 hopplant> comment on column UNITIZE_CONVERT_OCR.ASSET_LOCATION_ID is 'System-assigned identifier of an asset location.';

Comment created.

12:47:14 hopplant> comment on column UNITIZE_CONVERT_OCR.CGC_QUANTITY is 'Quantity for the OCR entry.';

Comment created.

12:47:14 hopplant> comment on column UNITIZE_CONVERT_OCR.CGC_AMOUNT is 'Amount in dollars for the OCR entry.';

Comment created.

12:47:14 hopplant> comment on column UNITIZE_CONVERT_OCR.TIME_STAMP is 'Standard system-assigned timestamp used for audit purposes.';

Comment created.

12:47:14 hopplant> comment on column UNITIZE_CONVERT_OCR.USER_ID is 'Standard system-assigned user id used for audit purposes.';

Comment created.

12:47:14 hopplant> 
12:47:14 hopplant> --**************************
12:47:14 hopplant> -- Log the run of the script
12:47:14 hopplant> --**************************
12:47:14 hopplant> 
12:47:14 hopplant> insert into PP_SCHEMA_CHANGE_LOG
12:47:14   2  	 (ID, SKIPPED, MAJOR_VERSION, MINOR_VERSION, POINT_VERSION, PATCH_VERSION, MAINT_NUM, SCRIPT_PATH,
12:47:14   3  	  SCRIPT_NAME, SCRIPT_REVISION, DATE_APPLIED, OS_USER, TERMINAL, SERVICE_NAME)
12:47:14   4  values
12:47:14   5  	 (1223, 0, 10, 4, 3, 0, 37402, 'C:\PlasticWks\powerplant\sql\maint_scripts', '10.4.3.0_maint_037402_cwip_ocr_units.sql', 1,
12:47:14   6  	  SYSTIMESTAMP, SYS_CONTEXT('USERENV', 'OS_USER'), SYS_CONTEXT('USERENV', 'TERMINAL'),
12:47:14   7  	  SYS_CONTEXT('USERENV', 'SERVICE_NAME'));

1 row created.

12:47:14 hopplant> commit;

Commit complete.

12:47:14 hopplant> SPOOL OFF
