12:36:22 hopplant> @&&PP_SCRIPT_PATH.maint_scripts\10.4.2.0_maint_035704_sys_pp_client_extensions.sql
12:36:22 hopplant> /*
12:36:22 hopplant> ||============================================================================
12:36:22 hopplant> || Application: PowerPlant
12:36:22 hopplant> || File Name:   maint_035704_sys_pp_client_extensions.sql
12:36:22 hopplant> ||============================================================================
12:36:22 hopplant> || Copyright (C) 2014 by PowerPlan Consultants, Inc. All Rights Reserved.
12:36:22 hopplant> ||============================================================================
12:36:22 hopplant> || Version  Date	  Revised By	 Reason for Change
12:36:22 hopplant> || -------- ---------- -------------- ----------------------------------------
12:36:22 hopplant> || 10.4.2.0 01/15/2014 Brandon Beck	 Point Release
12:36:22 hopplant> ||============================================================================
12:36:22 hopplant> */
12:36:22 hopplant> 
12:36:22 hopplant> create table PP_CLIENT_EXTENSIONS
12:36:22   2  (
12:36:22   3   ID	     number(22,0) not null,
12:36:22   4   FUNCTION_NAME varchar2(35),
12:36:22   5   IS_ACTIVE     number(1,0),
12:36:22   6   USER_ID	     varchar2(18),
12:36:22   7   TIME_STAMP    date
12:36:22   8  );

Table created.

12:36:22 hopplant> 
12:36:22 hopplant> alter table PP_CLIENT_EXTENSIONS
12:36:22   2  	 add constraint PP_CLIENT_EXTENSIONS_PK
12:36:22   3  	     primary key (ID)
12:36:22   4  	     using index tablespace PWRPLANT_IDX;

Table altered.

12:36:22 hopplant> 
12:36:22 hopplant> alter table PP_CLIENT_EXTENSIONS
12:36:22   2  	 add constraint PP_CLIENT_EXTENSIONS_FK
12:36:22   3  	     foreign key (IS_ACTIVE)
12:36:22   4  	     references YES_NO (YES_NO_ID);

Table altered.

12:36:22 hopplant> 
12:36:22 hopplant> comment on table PP_CLIENT_EXTENSIONS is 'A table to track what client extensions are implemented and which ones are active.';

Comment created.

12:36:22 hopplant> 
12:36:22 hopplant> comment on column PP_CLIENT_EXTENSIONS.ID is 'A unique id';

Comment created.

12:36:22 hopplant> comment on column PP_CLIENT_EXTENSIONS.FUNCTION_NAME is 'The name of the extension function that is implemented';

Comment created.

12:36:22 hopplant> comment on column PP_CLIENT_EXTENSIONS.IS_ACTIVE is 'A field to track whether or not the extension function is active';

Comment created.

12:36:22 hopplant> 
12:36:22 hopplant> --**************************
12:36:22 hopplant> -- Log the run of the script
12:36:22 hopplant> --**************************
12:36:22 hopplant> 
12:36:22 hopplant> insert into PP_SCHEMA_CHANGE_LOG
12:36:22   2  	 (ID, SKIPPED, MAJOR_VERSION, MINOR_VERSION, POINT_VERSION, PATCH_VERSION, MAINT_NUM, SCRIPT_PATH,
12:36:22   3  	  SCRIPT_NAME, SCRIPT_REVISION, DATE_APPLIED, OS_USER, TERMINAL, SERVICE_NAME)
12:36:22   4  values
12:36:22   5  	 (861, 0, 10, 4, 2, 0, 35704, 'C:\PlasticWks\powerplant\sql\maint_scripts', '10.4.2.0_maint_035704_sys_pp_client_extensions.sql', 1,
12:36:22   6  	  SYSTIMESTAMP, SYS_CONTEXT('USERENV', 'OS_USER'), SYS_CONTEXT('USERENV', 'TERMINAL'),
12:36:22   7  	  SYS_CONTEXT('USERENV', 'SERVICE_NAME'));

1 row created.

12:36:22 hopplant> commit;

Commit complete.

12:36:22 hopplant> 
12:36:22 hopplant> SPOOL OFF
