12:39:45 hopplant> @&&PP_SCRIPT_PATH.maint_scripts\10.4.2.0_maint_035317_taxrpr_always_capital.sql
12:39:45 hopplant> /*
12:39:45 hopplant> ||============================================================================
12:39:45 hopplant> || Application: PowerPlant
12:39:45 hopplant> || File Name:   maint_035317_taxrpr_always_capital.sql
12:39:45 hopplant> ||============================================================================
12:39:45 hopplant> || Copyright (C) 2014 by PowerPlan Consultants, Inc. All Rights Reserved.
12:39:45 hopplant> ||============================================================================
12:39:45 hopplant> || Version  Date	  Revised By	      Reason for Change
12:39:45 hopplant> || -------- ---------- ------------------- -----------------------------------
12:39:45 hopplant> || 10.4.2.0 01/27/2014 Alex Pivoshenko
12:39:45 hopplant> ||============================================================================
12:39:45 hopplant> */
12:39:45 hopplant> 
12:39:45 hopplant> update WO_TAX_EXPENSE_TEST set ALWAYS_CAPITAL = 0 where ALWAYS_CAPITAL is null;

0 rows updated.

12:39:45 hopplant> 
12:39:45 hopplant> alter table WO_TAX_EXPENSE_TEST modify ALWAYS_CAPITAL NUMBER(22,0) DEFAULT 0 not null;

Table altered.

12:39:45 hopplant> 
12:39:45 hopplant> --**************************
12:39:45 hopplant> -- Log the run of the script
12:39:45 hopplant> --**************************
12:39:45 hopplant> 
12:39:45 hopplant> insert into PP_SCHEMA_CHANGE_LOG
12:39:45   2  	 (ID, SKIPPED, MAJOR_VERSION, MINOR_VERSION, POINT_VERSION, PATCH_VERSION, MAINT_NUM, SCRIPT_PATH,
12:39:45   3  	  SCRIPT_NAME, SCRIPT_REVISION, DATE_APPLIED, OS_USER, TERMINAL, SERVICE_NAME)
12:39:45   4  values
12:39:45   5  	 (910, 0, 10, 4, 2, 0, 35317, 'C:\PlasticWks\powerplant\sql\maint_scripts', '10.4.2.0_maint_035317_taxrpr_always_capital.sql', 1,
12:39:45   6  	  SYSTIMESTAMP, SYS_CONTEXT('USERENV', 'OS_USER'), SYS_CONTEXT('USERENV', 'TERMINAL'),
12:39:45   7  	  SYS_CONTEXT('USERENV', 'SERVICE_NAME'));

1 row created.

12:39:45 hopplant> commit;

Commit complete.

12:39:45 hopplant> SPOOL OFF
