12:39:57 hopplant> @&&PP_SCRIPT_PATH.maint_scripts\10.4.2.0_maint_036050_taxrpr_no_thrshd.sql
12:39:57 hopplant> /*
12:39:57 hopplant> ||============================================================================
12:39:57 hopplant> || Application: PowerPlant
12:39:57 hopplant> || File Name:   maint_036050_taxrpr_no_thrshd.sql
12:39:57 hopplant> ||============================================================================
12:39:57 hopplant> || Copyright (C) 2014 by PowerPlan Consultants, Inc. All Rights Reserved.
12:39:57 hopplant> ||============================================================================
12:39:57 hopplant> || Version  Date	  Revised By	      Reason for Change
12:39:57 hopplant> || -------- ---------- ------------------- -----------------------------------
12:39:57 hopplant> || 10.4.2.0 02/03/2014 Alex Pivoshenko
12:39:57 hopplant> ||============================================================================
12:39:57 hopplant> */
12:39:57 hopplant> 
12:39:57 hopplant> insert into REPAIR_PRETEST_EXPLAIN
12:39:57   2  	 (ID, DESCRIPTION, LONG_DESCRIPTION)
12:39:57   3  values
12:39:57   4  	 (11, 'No Threshold',
12:39:57   5  	  'No tax threshold exists or tax threshold data is incomplete, for example no replacement cost for tax uop that is tested on cost');

1 row created.

12:39:57 hopplant> 
12:39:57 hopplant> --**************************
12:39:57 hopplant> -- Log the run of the script
12:39:57 hopplant> --**************************
12:39:57 hopplant> 
12:39:57 hopplant> insert into PP_SCHEMA_CHANGE_LOG
12:39:57   2  	 (ID, SKIPPED, MAJOR_VERSION, MINOR_VERSION, POINT_VERSION, PATCH_VERSION, MAINT_NUM, SCRIPT_PATH,
12:39:57   3  	  SCRIPT_NAME, SCRIPT_REVISION, DATE_APPLIED, OS_USER, TERMINAL, SERVICE_NAME)
12:39:57   4  values
12:39:57   5  	 (939, 0, 10, 4, 2, 0, 36050, 'C:\PlasticWks\powerplant\sql\maint_scripts', '10.4.2.0_maint_036050_taxrpr_no_thrshd.sql', 1,
12:39:57   6  	  SYSTIMESTAMP, SYS_CONTEXT('USERENV', 'OS_USER'), SYS_CONTEXT('USERENV', 'TERMINAL'),
12:39:57   7  	  SYS_CONTEXT('USERENV', 'SERVICE_NAME'));

1 row created.

12:39:57 hopplant> commit;

Commit complete.

12:39:57 hopplant> SPOOL OFF
