12:40:23 hopplant> @&&PP_SCRIPT_PATH.maint_scripts\10.4.2.0_maint_036603_budget_queries.sql
12:40:23 hopplant> /*
12:40:23 hopplant> ||============================================================================
12:40:23 hopplant> || Application: PowerPlant
12:40:23 hopplant> || Object Name: maint_036603_budget_queries.sql
12:40:23 hopplant> || Description:
12:40:23 hopplant> ||============================================================================
12:40:23 hopplant> || Copyright (C) 2014 by PowerPlan Consultants, Inc. All Rights Reserved.
12:40:23 hopplant> ||============================================================================
12:40:23 hopplant> || Version  Date	  Revised By	 Reason for Change
12:40:23 hopplant> || -------- ---------- -------------- ----------------------------------------
12:40:23 hopplant> || 10.4.2.0 02/28/2014 Brandon Beck
12:40:23 hopplant> ||============================================================================
12:40:23 hopplant> */
12:40:23 hopplant> 
12:40:23 hopplant> update PP_QUERY_DW_COLS set COLUMNS = 'budget_item_number' where COLUMNS in ('budget_item', 'budget_number');

0 rows updated.

12:40:23 hopplant> update PP_QUERY_DW_COLS set COLUMNS = 'budget_item_description' where COLUMNS in ('budget_id');

0 rows updated.

12:40:23 hopplant> update PP_QUERY_DW_FILTER set COLUMNS = 'budget_item_number' where COLUMNS in ('budget_item', 'budget_number');

0 rows updated.

12:40:23 hopplant> update PP_QUERY_DW_FILTER set COLUMNS = 'budget_item_description' where COLUMNS in ('budget_id');

0 rows updated.

12:40:23 hopplant> 
12:40:23 hopplant> --**************************
12:40:23 hopplant> -- Log the run of the script
12:40:23 hopplant> --**************************
12:40:23 hopplant> 
12:40:23 hopplant> insert into PP_SCHEMA_CHANGE_LOG
12:40:23   2  	 (ID, SKIPPED, MAJOR_VERSION, MINOR_VERSION, POINT_VERSION, PATCH_VERSION, MAINT_NUM, SCRIPT_PATH,
12:40:23   3  	  SCRIPT_NAME, SCRIPT_REVISION, DATE_APPLIED, OS_USER, TERMINAL, SERVICE_NAME)
12:40:23   4  values
12:40:23   5  	 (1002, 0, 10, 4, 2, 0, 36603, 'C:\PlasticWks\powerplant\sql\maint_scripts', '10.4.2.0_maint_036603_budget_queries.sql', 1,
12:40:23   6  	  SYSTIMESTAMP, SYS_CONTEXT('USERENV', 'OS_USER'), SYS_CONTEXT('USERENV', 'TERMINAL'),
12:40:23   7  	  SYS_CONTEXT('USERENV', 'SERVICE_NAME'));

1 row created.

12:40:23 hopplant> commit;

Commit complete.

12:40:23 hopplant> SPOOL OFF
