12:49:30 hopplant> @&&PP_SCRIPT_PATH.maint_scripts\10.4.3.0_maint_036854_cpr_new_month_process.sql
12:49:30 hopplant> /*
12:49:30 hopplant> ||============================================================================
12:49:30 hopplant> || Application: PowerPlan
12:49:30 hopplant> || File Name:   maint_036854_cpr_new_month_process.sql
12:49:30 hopplant> ||============================================================================
12:49:30 hopplant> || Copyright (C) 2014 by PowerPlan Consultants, Inc. All Rights Reserved.
12:49:30 hopplant> ||============================================================================
12:49:30 hopplant> || Version  Date	  Revised By	   Reason for Change
12:49:30 hopplant> || -------- ---------- ---------------- --------------------------------------
12:49:30 hopplant> || 10.4.3.0 09/11/2014 Kyle Peterson
12:49:30 hopplant> ||============================================================================
12:49:30 hopplant> */
12:49:30 hopplant> 
12:49:30 hopplant> insert into PP_PROCESSES
12:49:30   2  	 (PROCESS_ID, DESCRIPTION, LONG_DESCRIPTION, EXECUTABLE_FILE, VERSION, ALLOW_CONCURRENT, SYSTEM_LOCK_ENABLED,
12:49:30   3  	  SYSTEM_LOCK)
12:49:30   4  	 (select max(PROCESS_ID) + 1,
12:49:30   5  		 'CPR NEW MONTH',
12:49:30   6  		 'Process on CPR Monthly Close screen to add a new month',
12:49:30   7  		 'ssp_cpr_new_month.exe',
12:49:30   8  		 '10.4.3',
12:49:30   9  		 0,
12:49:30  10  		 0,
12:49:30  11  		 0
12:49:30  12  	    from PP_PROCESSES);

1 row created.

12:49:30 hopplant> 
12:49:30 hopplant> --**************************
12:49:30 hopplant> -- Log the run of the script
12:49:30 hopplant> --**************************
12:49:30 hopplant> 
12:49:30 hopplant> insert into PP_SCHEMA_CHANGE_LOG
12:49:30   2  	 (ID, SKIPPED, MAJOR_VERSION, MINOR_VERSION, POINT_VERSION, PATCH_VERSION, MAINT_NUM, SCRIPT_PATH,
12:49:30   3  	  SCRIPT_NAME, SCRIPT_REVISION, DATE_APPLIED, OS_USER, TERMINAL, SERVICE_NAME)
12:49:30   4  values
12:49:30   5  	 (1412, 0, 10, 4, 3, 0, 36854, 'C:\PlasticWks\powerplant\sql\maint_scripts', '10.4.3.0_maint_036854_cpr_new_month_process.sql', 1,
12:49:30   6  	  SYSTIMESTAMP, SYS_CONTEXT('USERENV', 'OS_USER'), SYS_CONTEXT('USERENV', 'TERMINAL'),
12:49:30   7  	  SYS_CONTEXT('USERENV', 'SERVICE_NAME'));

1 row created.

12:49:30 hopplant> commit;

Commit complete.

12:49:30 hopplant> SPOOL OFF
