12:41:36 hopplant> @&&PP_SCRIPT_PATH.maint_scripts\10.4.2.0_maint_037397_depr_PKG_DEPR_IND_CALC.sql
12:41:36 hopplant> /*
12:41:36 hopplant> ||============================================================================
12:41:36 hopplant> || Application: PowerPlant
12:41:36 hopplant> || File Name:   maint_037397_depr_PKG_DEPR_IND_CALC.sql
12:41:36 hopplant> ||============================================================================
12:41:36 hopplant> || Copyright (C) 2014 by PowerPlan, Inc. All Rights Reserved.
12:41:36 hopplant> ||============================================================================
12:41:36 hopplant> || Version  Date	  Revised By	   Reason for Change
12:41:36 hopplant> || -------- ---------- ---------------- --------------------------------------
12:41:36 hopplant> || 10.4.2.0 03/31/2014 Charlie Shilling
12:41:36 hopplant> ||============================================================================
12:41:36 hopplant> */
12:41:36 hopplant> 
12:41:36 hopplant> create or replace package PKG_DEPR_IND_CALC as
12:41:36   2  	      --**********************************************
12:41:36   3  	      --
12:41:36   4  	      --      THIS PACKAGE HOUSES THE CPR DEPR CALCULATIONS
12:41:36   5  	      --      RECORDS SHOULD BE STAGED PRIOR TO THIS PACKAGE
12:41:36   6  	      --      RESULTS SHOULD BE HANDLED AFTER THIS PACKAGE
12:41:36   7  	      --
12:41:36   8  	      --      The package handles:
12:41:36   9  	      --	      106 to 101 adjustments:		      F_NURV
12:41:36  10  	      --	      Trueup for late in service:	      F_TRUEUP
12:41:36  11  	      --	      Calculating Init and rem life:  F_CALCREMLIFE
12:41:36  12  	      --	      NET / GROSS determination:	      F_CALCBASEANDRATE
12:41:36  13  	      --	      Mid Period Convention:		      F_CALCBASEANDRATE
12:41:36  14  	      --
12:41:36  15  	      --      Deprecation Calculations for the following methods:
12:41:36  16  	      --	      SL (Straight Line)
12:41:36  17  	      --	      SLEOL (Straight Line to End Of Life)
12:41:36  18  	      --	      SLE (Straight Line Expense for Leased Assets)
12:41:36  19  	      --	      SOMD (Sum of Months Digits)
12:41:36  20  	      --	      UOPR (Unit of Production Rates)
12:41:36  21  	      --	      RATE (Rates)
12:41:36  22  	      --	      DB150 (Declining Balance 1.5)
12:41:36  23  	      --	      DB200 (Declining Balance 2)
12:41:36  24  	      --	      FERC (FERC depreciation for Leased Assets: Depr Expense = Principal Accrued)
12:41:36  25  	      --	      SCH (Schedule: Different rates for different years with spread factors to the given months)
12:41:36  26  	      --
12:41:36  27  	      --**********************************************
12:41:36  28  
12:41:36  29  	      --
12:41:36  30  	      --      MAIN Depr Calc Call
12:41:36  31  	      --
12:41:36  32  	      procedure P_DEPRCALC
12:41:36  33  	      (
12:41:36  34  		      A_MONTHS		      PKG_PP_COMMON.DATE_TABTYPE,
12:41:36  35  		      A_VERSION_ID    FCST_DEPR_VERSION.FCST_DEPR_VERSION_ID%TYPE
12:41:36  36  	      );
12:41:36  37  
12:41:36  38  	      --
12:41:36  39  	      --      WRAPPERS to CALL depreciation with different arguments
12:41:36  40  	      --
12:41:36  41  	      procedure P_DEPRCALC
12:41:36  42  	      (
12:41:36  43  		      A_MONTHS	      PKG_PP_COMMON.DATE_TABTYPE
12:41:36  44  	      );
12:41:36  45  
12:41:36  46  	      procedure P_DEPRCALC
12:41:36  47  	      (
12:41:36  48  		      A_MONTH	      date
12:41:36  49  	      );
12:41:36  50  
12:41:36  51  	      procedure P_DEPRCALC
12:41:36  52  	      (
12:41:36  53  		      A_MONTH		      date,
12:41:36  54  		      A_VERSION_ID    FCST_DEPR_VERSION.FCST_DEPR_VERSION_ID%TYPE
12:41:36  55  	      );
12:41:36  56  	      --
12:41:36  57  	      --      END WRAPPERS
12:41:36  58  	      --
12:41:36  59  end PKG_DEPR_IND_CALC;
12:41:36  60  /

Package created.

12:41:36 hopplant> 
12:41:36 hopplant> 
12:41:36 hopplant> create or replace package body PKG_DEPR_IND_CALC as
12:41:36   2  	      --**************************************************************
12:41:36   3  	      --       VARIABLES
12:41:36   4  	      --**************************************************************
12:41:36   5  	      G_CURRMONTH	      date;
12:41:36   6  
12:41:36   7  	      G_VERSION_ID    FCST_DEPR_VERSION.FCST_DEPR_VERSION_ID%TYPE;
12:41:36   8  	      G_MONTHS		      PKG_PP_COMMON.DATE_TABTYPE;
12:41:36   9  
12:41:36  10  
12:41:36  11  	      --**************************************************************************
12:41:36  12  	      --			    F_CALCBASEANDRATE
12:41:36  13  	      --**************************************************************************
12:41:36  14  	      procedure P_CALCBASEANDRATE(A_MONTH date)
12:41:36  15  	      is
12:41:36  16  		      L_STATUS varchar2(255);
12:41:36  17  	      begin
12:41:36  18  
12:41:36  19  		      PKG_PP_ERROR.SET_MODULE_NAME('PKG_DEPR_IND_CALC.F_CALCBASEANDRATE');
12:41:36  20  
12:41:36  21  		      merge into CPR_DEPR_CALC_STG A
12:41:36  22  		      using
12:41:36  23  		      (
12:41:36  24  			      select *
12:41:36  25  			      from CPR_DEPR_CALC_STG B
12:41:36  26  			      where B.DEPR_CALC_STATUS = 2
12:41:36  27  			      and B.GL_POSTING_MO_YR = A_MONTH
12:41:36  28  			      MODEL
12:41:36  29  			      partition by(ASSET_ID, SET_OF_BOOKS_ID, GL_POSTING_MO_YR)
12:41:36  30  			      DIMENSION by(MID_PERIOD_METHOD)
12:41:36  31  			      MEASURES(
12:41:36  32  				      MONTH_RATE, DEPRECIATION_BASE,
12:41:36  33  				      CURR_DEPR_EXPENSE, REMAINING_LIFE,
12:41:36  34  				      NET_GROSS, TRUE_UP_CPR_DEPR,
12:41:36  35  				      MID_PERIOD_CONV, trunc( ENG_IN_SERVICE_YEAR, 'MM' ) as ENG_IN_SERVICE_YEAR,
12:41:36  36  				      PRODUCTION, ESTIMATED_PRODUCTION,
12:41:36  37  				      RATE, INIT_LIFE,
12:41:36  38  				      BEG_ASSET_DOLLARS, NET_ADDS_AND_ADJUST,
12:41:36  39  				      RETIREMENTS, TRANSFERS_IN,
12:41:36  40  				      TRANSFERS_OUT, IMPAIRMENT_ASSET_AMOUNT,
12:41:36  41  				      ESTIMATED_SALVAGE, BEG_RESERVE_MONTH,
12:41:36  42  				      DEPR_EXP_ALLOC_ADJUST, DEPR_EXP_ADJUST,
12:41:36  43  				      SALVAGE_DOLLARS, COST_OF_REMOVAL,
12:41:36  44  				      OTHER_CREDITS_AND_ADJUST, GAIN_LOSS,
12:41:36  45  				      RESERVE_TRANS_IN, RESERVE_TRANS_OUT,
12:41:36  46  				      RESERVE_ADJUSTMENT, IMPAIRMENT_EXPENSE_AMOUNT,
12:41:36  47  				      TRF_WEIGHT, EXISTS_LAST_MONTH,
12:41:36  48  				      HAS_CFNU, DEPR_METHOD_SLE_EXP,
12:41:36  49  				      NET_TRF, NET_RES_TRF,
12:41:36  50  				      NET_IMP_AMT, ACTIVITY,
12:41:36  51  				      BEG_RES_AMT, ACTIVITY_3,
12:41:36  52  				      BEG_BAL_AMT, SCH_RATE,
12:41:36  53  				      NURV_ADJ, IMPAIRMENT_ASSET_ACTIVITY_SALV,
12:41:36  54  				      IMPAIRMENT_ASSET_BEGIN_BALANCE, MIN_MPC
12:41:36  55  			      )
12:41:36  56  			      RULES update
12:41:36  57  			      (
12:41:36  58  				      NET_TRF[any] = TRANSFERS_IN[CV()] + TRANSFERS_OUT[CV()],
12:41:36  59  				      NET_RES_TRF[any] = RESERVE_TRANS_IN[CV()] + RESERVE_TRANS_OUT[CV()],
12:41:36  60  				      NET_IMP_AMT[any] = IMPAIRMENT_EXPENSE_AMOUNT[CV()] + IMPAIRMENT_ASSET_AMOUNT[CV()],
12:41:36  61  				      ACTIVITY[any] = NET_ADDS_AND_ADJUST[CV()] + RETIREMENTS[CV()]
12:41:36  62  						      + IMPAIRMENT_ASSET_AMOUNT[CV()],
12:41:36  63  				      -- check to see if activity includes net trfs
12:41:36  64  				      ACTIVITY [any] =
12:41:36  65  						      case when TRF_WEIGHT[CV()] = 0
12:41:36  66  						      then ACTIVITY[CV()] + NET_TRF[CV()]
12:41:36  67  						      else ACTIVITY[CV()]
12:41:36  68  						      end,
12:41:36  69  				      BEG_BAL_AMT[any] =
12:41:36  70  						      case when TRF_WEIGHT[CV()] = 0
12:41:36  71  						      then BEG_ASSET_DOLLARS[CV()]
12:41:36  72  						      else BEG_ASSET_DOLLARS[CV()] + NET_TRF[CV()]
12:41:36  73  						      end,
12:41:36  74  				      BEG_RES_AMT[any] =
12:41:36  75  						      case when TRF_WEIGHT[CV()] = 0
12:41:36  76  						      then BEG_RESERVE_MONTH[CV()] + DEPR_EXP_ALLOC_ADJUST[CV()]
12:41:36  77  						      else BEG_RESERVE_MONTH[CV()] + DEPR_EXP_ALLOC_ADJUST[CV()]
12:41:36  78  							      + NET_RES_TRF[CV()]
12:41:36  79  						      end,
12:41:36  80  				      ACTIVITY_3[any] = RETIREMENTS[CV()] + DEPR_EXP_ADJUST[CV()]
12:41:36  81  						      + SALVAGE_DOLLARS[CV()] + COST_OF_REMOVAL[CV()]
12:41:36  82  						      + OTHER_CREDITS_AND_ADJUST[CV()] + GAIN_LOSS[CV()]
12:41:36  83  						      + RESERVE_ADJUSTMENT[CV()] + NURV_ADJ[CV()],
12:41:36  84  				      -- check to see if activity includes net trfs
12:41:36  85  				      ACTIVITY_3[any] =
12:41:36  86  						      case when TRF_WEIGHT[CV()] = 0
12:41:36  87  						      then ACTIVITY_3[CV()] + NET_RES_TRF[CV()]
12:41:36  88  						      else ACTIVITY_3[CV()]
12:41:36  89  						      end,
12:41:36  90  				      --Rate calcs
12:41:36  91  				      MONTH_RATE[MID_PERIOD_METHOD in ('sleol', 'sl')] =
12:41:36  92  						      case when REMAINING_LIFE[CV()] >= 1
12:41:36  93  						      then 1 / REMAINING_LIFE[CV()]
12:41:36  94  						      else 1
12:41:36  95  						      end,
12:41:36  96  				      MONTH_RATE[MID_PERIOD_METHOD in ('somd')] =
12:41:36  97  						      case when REMAINING_LIFE[CV()] >= 1
12:41:36  98  						      then REMAINING_LIFE[CV()] / ((INIT_LIFE[CV()] * (INIT_LIFE[CV()] + 1)) / 2)
12:41:36  99  						      else 1
12:41:36 100  						      end,
12:41:36 101  				      --RO: Added nvl because estimated_production can be null
12:41:36 102  				      MONTH_RATE[MID_PERIOD_METHOD in ('uopr')] =
12:41:36 103  						      case when ESTIMATED_PRODUCTION[CV()] = 0
12:41:36 104  						      then 0
12:41:36 105  						      when PRODUCTION[CV()] > ESTIMATED_PRODUCTION[CV()]
12:41:36 106  						      then 1
12:41:36 107  						      else PRODUCTION[CV()] / ESTIMATED_PRODUCTION[CV()]
12:41:36 108  						      end,
12:41:36 109  				      MONTH_RATE[MID_PERIOD_METHOD in ('rate')]       = RATE[CV()] / 12,
12:41:36 110  				      MONTH_RATE[MID_PERIOD_METHOD in ('db200')]      =
12:41:36 111  						      case when REMAINING_LIFE[CV()] > 0
12:41:36 112  						      then least(1, greatest(2 / INIT_LIFE[CV()], 1 / REMAINING_LIFE[CV()]))
12:41:36 113  						      else 1
12:41:36 114  						      end,
12:41:36 115  				      MONTH_RATE[MID_PERIOD_METHOD in ('db150')] =
12:41:36 116  						      case when REMAINING_LIFE[CV()] > 0
12:41:36 117  						      then least(1, greatest(1.5 / INIT_LIFE[CV()], 1 / REMAINING_LIFE[CV()]))
12:41:36 118  						      else 1
12:41:37 119  						      end,
12:41:37 120  				      MONTH_RATE[MID_PERIOD_METHOD in ('sle', 'ferc')] = 1,
12:41:37 121  				      MONTH_RATE[MID_PERIOD_METHOD in ('sch')] = SCH_RATE[CV()],
12:41:37 122  
12:41:37 123  				      --Base calcs
12:41:37 124  
12:41:37 125  				      -- SET MID_PERIOD_CONV TO BE A 1 UNLESS one of the following:
12:41:37 126  				      --	      The initial life is the same as the remaining life (ie first month)
12:41:37 127  				      --	      Asset exists last month and the trueup option is not set to trueup every month
12:41:37 128  				      -- RATE AND UOPR GROSS uses real MPC if GROSS
12:41:37 129  				      MID_PERIOD_CONV[MID_PERIOD_METHOD not in ('rate', 'uopr')] =
12:41:37 130  						      -- AND the mid period convention is a 0 but the eng in service is earlier than
12:41:37 131  						      -- current month, then the activity should really be treated as a prior period.  So take into account.
12:41:37 132  						      case when MID_PERIOD_CONV[CV()] = 0
12:41:37 133  						      and MIN_MPC[CV()] = -1
12:41:37 134  						      and EXISTS_LAST_MONTH[CV()] = 0
12:41:37 135  						      and ENG_IN_SERVICE_YEAR[CV()] <= ADD_MONTHS(CV(GL_POSTING_MO_YR), -1)
12:41:37 136  						      then 1
12:41:37 137  						      when (REMAINING_LIFE[CV()] = INIT_LIFE[CV()])
12:41:37 138  							      or (TRUE_UP_CPR_DEPR[CV()] != 1 and EXISTS_LAST_MONTH[CV()] = 1)
12:41:37 139  						      then MID_PERIOD_CONV[CV()]
12:41:37 140  						      else 1
12:41:37 141  						      end,
12:41:37 142  				      MID_PERIOD_CONV[MID_PERIOD_METHOD in ('rate', 'uopr')] =
12:41:37 143  						      -- IF I am not doing trueup:
12:41:37 144  						      -- AND the mid period convention is a 0 but the eng in service is earlier than
12:41:37 145  						      -- current month, then the activity should really be treated as a prior period.  So take into account.
12:41:37 146  						      case when MID_PERIOD_CONV[CV()] = 0
12:41:37 147  						      and MIN_MPC[CV()] = -1
12:41:37 148  						      and EXISTS_LAST_MONTH[CV()] = 0
12:41:37 149  						      and ENG_IN_SERVICE_YEAR[CV()] <= ADD_MONTHS(CV(GL_POSTING_MO_YR), -1)
12:41:37 150  						      and NET_GROSS[CV()] = 1
12:41:37 151  						      then 1
12:41:37 152  						      when ( NET_GROSS[CV()] = 2 and TRUE_UP_CPR_DEPR[CV()] != 1 )
12:41:37 153  							      or (REMAINING_LIFE[CV()] = INIT_LIFE[CV()])
12:41:37 154  							      or (TRUE_UP_CPR_DEPR[CV()] != 1 and EXISTS_LAST_MONTH[CV()] = 1)
12:41:37 155  						      then MID_PERIOD_CONV[CV()]
12:41:37 156  						      else 1
12:41:37 157  						      end,
12:41:37 158  
12:41:37 159  				      -- certain methods are ALWAYS based on net
12:41:37 160  				      NET_GROSS[MID_PERIOD_METHOD in ('sleol', 'sl', 'somd', 'db200', 'db150')] = 1,
12:41:37 161  
12:41:37 162  				      -- certain methods are ALWAYS based on gross
12:41:37 163  				      -- SCH takes into account salvage on GROSS method.
12:41:37 164  				      -- FERC and SLE do not take into account salvage
12:41:37 165  				      NET_GROSS[MID_PERIOD_METHOD in ('sle', 'ferc', 'sch')] = 2,
12:41:37 166  
12:41:37 167  				      -- if GROSS and METHOD is not SCH, then estimate salvage should be 0 since not taken into account
12:41:37 168  				      -- IE RATE, UOPR, SLE, FERC
12:41:37 169  				      ESTIMATED_SALVAGE[MID_PERIOD_METHOD not in ('sch')] =
12:41:37 170  						      case when NET_GROSS[CV()] = 2
12:41:37 171  						      then 0
12:41:37 172  						      else ESTIMATED_SALVAGE[CV()]
12:41:37 173  						      end,
12:41:37 174  
12:41:37 175  
12:41:37 176  				      DEPRECIATION_BASE[ANY] =
12:41:37 177  					      --if net then use this formula
12:41:37 178  					      case when NET_GROSS[CV()] = 1 then
12:41:37 179  						      case when
12:41:37 180  							      (BEG_ASSET_DOLLARS[CV()] + ACTIVITY[CV()])
12:41:37 181  							      * (1 - ESTIMATED_SALVAGE[CV()])
12:41:37 182  							      + ((IMPAIRMENT_ASSET_ACTIVITY_SALV[CV()]
12:41:37 183  								      + IMPAIRMENT_ASSET_BEGIN_BALANCE[CV()]) * ESTIMATED_SALVAGE[CV()])
12:41:37 184  							      - (BEG_RES_AMT[CV()] + ACTIVITY_3[CV()] +
12:41:37 185  								      NET_RES_TRF[CV()] + NET_IMP_AMT[CV()]) = 0
12:41:37 186  						      then 0
12:41:37 187  						      else
12:41:37 188  							      (BEG_ASSET_DOLLARS[CV()] + (ACTIVITY[CV()] * MID_PERIOD_CONV[CV()]))
12:41:37 189  							      * (1 - ESTIMATED_SALVAGE[CV()])
12:41:37 190  							      + ((IMPAIRMENT_ASSET_ACTIVITY_SALV[CV()]
12:41:37 191  								      + IMPAIRMENT_ASSET_BEGIN_BALANCE[CV()]) * ESTIMATED_SALVAGE[CV()])
12:41:37 192  							      - (BEG_RES_AMT[CV()] + NET_IMP_AMT[CV()]
12:41:37 193  								      + ((ACTIVITY_3[CV()] + NET_RES_TRF[CV()]) * MID_PERIOD_CONV[CV()]))
12:41:37 194  						      end
12:41:37 195  					      else -- GROSS (SCH, UOPR, RATE, SLE, FERC)
12:41:37 196  						      -- EXCEPT FOR SCH, estimated_salvage is set to be 0, so has no impact on result
12:41:37 197  						      case when (MID_PERIOD_CONV[CV()] = 0)
12:41:37 198  							      and (EXISTS_LAST_MONTH[CV()] != 1)
12:41:37 199  							      and (HAS_CFNU[CV()] = 1)
12:41:37 200  							      and (ENG_IN_SERVICE_YEAR[CV()] <= ADD_MONTHS(CV(GL_POSTING_MO_YR), -1))
12:41:37 201  						      then BEG_ASSET_DOLLARS[CV()] + ACTIVITY[CV()]
12:41:37 202  						      when (BEG_ASSET_DOLLARS[CV()] + ACTIVITY[CV()]) = 0
12:41:37 203  						      then 0
12:41:37 204  						      else (BEG_ASSET_DOLLARS[CV()] + (ACTIVITY[CV()] * MID_PERIOD_CONV[CV()]))
12:41:37 205  							      * (1 - ESTIMATED_SALVAGE[CV()])
12:41:37 206  							      + ((IMPAIRMENT_ASSET_ACTIVITY_SALV[CV()]
12:41:37 207  								      + IMPAIRMENT_ASSET_BEGIN_BALANCE[CV()]) * ESTIMATED_SALVAGE[CV()])
12:41:37 208  						      end
12:41:37 209  					      end,
12:41:37 210  
12:41:37 211  				      -- rate for SLE and FERC is EXPENSE / BASE
12:41:37 212  				      MONTH_RATE[MID_PERIOD_METHOD in ('sle', 'ferc')] =
12:41:37 213  						      case when DEPRECIATION_BASE[CV()] = 0 then 1
12:41:37 214  						      else DEPR_METHOD_SLE_EXP[CV()] / DEPRECIATION_BASE[CV()] end,
12:41:37 215  
12:41:37 216  				      --Expense calc for all methods
12:41:37 217  				      CURR_DEPR_EXPENSE[MID_PERIOD_METHOD not in ('sle', 'ferc')] =
12:41:37 218  						      DEPRECIATION_BASE[CV()] * MONTH_RATE[CV()],
12:41:37 219  
12:41:37 220  				      -- SET THE lease depr expense
12:41:37 221  				      CURR_DEPR_EXPENSE[MID_PERIOD_METHOD in ('sle', 'ferc')] = DEPR_METHOD_SLE_EXP[CV()]
12:41:37 222  			      )
12:41:37 223  		      ) B
12:41:37 224  		      on (A.ASSET_ID = B.ASSET_ID and A.SET_OF_BOOKS_ID = B.SET_OF_BOOKS_ID and A.GL_POSTING_MO_YR = B.GL_POSTING_MO_YR)
12:41:37 225  		      when matched then
12:41:37 226  		      update
12:41:37 227  		      set DEPRECIATION_BASE = B.DEPRECIATION_BASE, MONTH_RATE = B.MONTH_RATE,
12:41:37 228  			      CURR_DEPR_EXPENSE = B.CURR_DEPR_EXPENSE, NET_GROSS = B.NET_GROSS,
12:41:37 229  			      ACTIVITY = B.ACTIVITY,
12:41:37 230  			      ACTIVITY_3 = B.ACTIVITY_3, BEG_BAL_AMT = B.BEG_BAL_AMT,
12:41:37 231  			      BEG_RES_AMT = B.BEG_RES_AMT, NET_TRF = B.NET_TRF,
12:41:37 232  			      NET_RES_TRF = B.NET_RES_TRF,
12:41:37 233  			      NET_IMP_AMT = B.NET_IMP_AMT,
12:41:37 234  			      MID_PERIOD_CONV = B.MID_PERIOD_CONV,
12:41:37 235  			      DEPR_CALC_MESSAGE = 'Staged';
12:41:37 236  
12:41:37 237  		      PKG_PP_ERROR.REMOVE_MODULE_NAME;
12:41:37 238  	      exception
12:41:37 239  		      when others then
12:41:37 240  			      PKG_PP_ERROR.RAISE_ERROR('ERROR','Failed Operation');
12:41:37 241  	      end P_CALCBASEANDRATE;
12:41:37 242  
12:41:37 243  
12:41:37 244  	      --**************************************************************************
12:41:37 245  	      --			    F_CALCREMLIFE
12:41:37 246  	      --**************************************************************************
12:41:37 247  	      procedure P_CALCREMLIFE
12:41:37 248  	      is
12:41:37 249  		      L_STATUS varchar2(255);
12:41:37 250  	      begin
12:41:37 251  		      --set init life and remaining life for SLEOL for first month
12:41:37 252  		      PKG_PP_ERROR.SET_MODULE_NAME('PKG_DEPR_IND_CALC.P_CALCREMLIFE');
12:41:37 253  
12:41:37 254  		      update cpr_depr_calc_stg a
12:41:37 255  		      set init_life =
12:41:37 256  				      nvl2( a.end_of_life,
12:41:37 257  					      greatest(1, least(a.init_life,
12:41:37 258  									      months_between(to_date(a.end_of_life,'yyyymm'),
12:41:37 259  										      to_date(to_char(a.eng_in_service_year,'yyyymm'),'yyyymm')) + 1
12:41:37 260  								      )
12:41:37 261  							      ),
12:41:37 262  					      a.init_life
12:41:37 263  				      ),
12:41:37 264  			      remaining_life =
12:41:37 265  				      nvl2( a.end_of_life,
12:41:37 266  					      greatest(1, least(a.init_life,
12:41:37 267  									      months_between(to_date(a.end_of_life,'yyyymm'),
12:41:37 268  										      to_date(to_char(a.eng_in_service_year,'yyyymm'),'yyyymm')) + 1
12:41:37 269  								      )
12:41:37 270  							      ),
12:41:37 271  					      a.init_life
12:41:37 272  				      )
12:41:37 273  		      where EXISTS_LAST_MONTH = 0
12:41:37 274  		      and EXISTS_ARO = 0
12:41:37 275  		      and a.mid_period_method = 'sleol'
12:41:37 276  		      ;
12:41:37 277  
12:41:37 278  		      --Set the remaining life on DEPR stg for first months
12:41:37 279  		      update cpr_depr_calc_stg a
12:41:37 280  		      set remaining_life =
12:41:37 281  				      greatest(0,
12:41:37 282  						      least(a.init_life,
12:41:37 283  							      a.init_life + months_between(to_date(to_char(a.eng_in_service_year,'yyyymm'),'yyyymm'),
12:41:37 284  														      a.gl_posting_mo_yr)
12:41:37 285  										      + (1 - a.mid_period_conv)
12:41:37 286  						      )
12:41:37 287  				      )
12:41:37 288  		      where EXISTS_LAST_MONTH = 0
12:41:37 289  		      and EXISTS_ARO = 0
12:41:37 290  		      and a.mid_period_method <> 'custom'
12:41:37 291  		      and true_up_cpr_depr in (1, 2)
12:41:37 292  		      and mid_period_conv > min_mpc
12:41:37 293  		      and remaining_life = init_life
12:41:37 294  		      ;
12:41:37 295  
12:41:37 296  		      --Set the remaining life on DEPR stg for existing assets with 0 mid period conv
12:41:37 297  		      update cpr_depr_calc_stg a
12:41:37 298  		      set remaining_life =
12:41:37 299  				      greatest(0,
12:41:37 300  						      least(a.init_life,
12:41:37 301  							      a.init_life + months_between(to_date(to_char(a.eng_in_service_year,'yyyymm'),'yyyymm'),
12:41:37 302  														      a.gl_posting_mo_yr)
12:41:37 303  										      + (1 - a.mid_period_conv)
12:41:37 304  						      )
12:41:37 305  				      )
12:41:37 306  		      where EXISTS_LAST_MONTH = 1
12:41:37 307  		      and EXISTS_TWO_MONTHS = 0
12:41:37 308  		      and EXISTS_ARO = 0
12:41:37 309  		      and a.mid_period_method <> 'custom'
12:41:37 310  		      and true_up_cpr_depr in (1, 2)
12:41:37 311  		      and mid_period_conv = 0
12:41:37 312  		      and remaining_life = init_life
12:41:37 313  		      ;
12:41:37 314  
12:41:37 315  		      PKG_PP_ERROR.REMOVE_MODULE_NAME;
12:41:37 316  	      exception
12:41:37 317  		      when others then
12:41:37 318  			      PKG_PP_ERROR.RAISE_ERROR('ERROR','Failed Operation');
12:41:37 319  	      end P_CALCREMLIFE;
12:41:37 320  
12:41:37 321  	      --**************************************************************************
12:41:37 322  	      --			    F_TRUEUP
12:41:37 323  	      --      TRUEUP_CPR_DEPR: 1 means cumulative (attempt to trueup every month)
12:41:37 324  	      --				      2 means convention (only trueup first month)
12:41:37 325  	      --**************************************************************************
12:41:37 326  	      procedure P_TRUEUP
12:41:37 327  	      is
12:41:37 328  		      L_STATUS varchar2(255);
12:41:37 329  	      begin
12:41:37 330  
12:41:37 331  		      PKG_PP_ERROR.SET_MODULE_NAME('PKG_DEPR_IND_CALC.F_TRUEUP');
12:41:37 332  
12:41:37 333  		      -- DO NOT TRUEUP records that have NURV ADJS
12:41:37 334  		      merge into CPR_DEPR_CALC_STG A
12:41:37 335  		      using
12:41:37 336  		      (
12:41:37 337  			      select *
12:41:37 338  			      from
12:41:37 339  			      (
12:41:37 340  				      -- TRUEUP records each month if trueup cpr depr option is cumulative (1)
12:41:37 341  				      --      OR trueup cpr depr is convention (2) and it does not exist last month
12:41:37 342  				      select *
12:41:37 343  				      from CPR_DEPR_CALC_STG B
12:41:37 344  				      where B.DEPR_CALC_STATUS = 2
12:41:37 345  				      and ( (exists_last_month = 0 and true_up_cpr_depr = 2)
12:41:37 346  					      or (true_up_cpr_depr = 1) )
12:41:37 347  				      and mid_period_method not in ('sch', 'sle', 'ferc', 'custom')
12:41:37 348  				      and exists_aro = 0
12:41:37 349  				      and has_nurv = 0
12:41:37 350  				      and INIT_LIFE > 0
12:41:37 351  				      and mid_period_conv > min_mpc
12:41:37 352  				      union all
12:41:37 353  				      -- TRUEUP Records in second month if the mid period convention = 0
12:41:37 354  				      --	      AND in the second month if the trueup cpr depr option is convention
12:41:37 355  				      select *
12:41:37 356  				      from CPR_DEPR_CALC_STG
12:41:37 357  				      where DEPR_CALC_STATUS = 2
12:41:37 358  				      and true_up_cpr_depr = 2
12:41:37 359  				      and exists_last_month = 1
12:41:37 360  				      and exists_two_months = 0
12:41:37 361  				      and INIT_LIFE > 0
12:41:37 362  				      and mid_period_method not in ('sch', 'sle', 'ferc', 'custom')
12:41:37 363  				      and exists_aro = 0
12:41:37 364  				      and has_nurv_last_month = 0
12:41:37 365  				      and mid_period_conv = 0
12:41:37 366  				      union all
12:41:37 367  				      -- SCH Always gets included in trueup logic if it already exists
12:41:37 368  				      select *
12:41:37 369  				      from CPR_DEPR_CALC_STG
12:41:37 370  				      where DEPR_CALC_STATUS = 2
12:41:37 371  				      and exists_last_month = 1
12:41:37 372  				      and INIT_LIFE > 0
12:41:37 373  				      and mid_period_method = 'sch'
12:41:37 374  				      union all
12:41:37 375  				      -- SLE and FERC
12:41:37 376  				      select *
12:41:37 377  				      from CPR_DEPR_CALC_STG
12:41:37 378  				      where DEPR_CALC_STATUS = 2
12:41:37 379  				      and ( (exists_last_month = 0 and true_up_cpr_depr = 2)
12:41:37 380  					      or (true_up_cpr_depr = 1) )
12:41:37 381  				      and INIT_LIFE > 0
12:41:37 382  				      and mid_period_method in ('sle', 'ferc')
12:41:37 383  			      )
12:41:37 384  			      MODEL
12:41:37 385  			      reference DEPR_METHOD_SLE on (select ASSET_ID, SET_OF_BOOKS_ID, GL_POSTING_MO_YR,
12:41:37 386  										      sum(DEPR_EXPENSE)
12:41:37 387  											      over (partition by ASSET_ID, SET_OF_BOOKS_ID order by GL_POSTING_MO_YR)
12:41:37 388  										      - DEPR_EXPENSE as TOTAL_DEPR
12:41:37 389  										      from DEPR_METHOD_SLE)
12:41:37 390  				      DIMENSION BY (ASSET_ID, SET_OF_BOOKS_ID, GL_POSTING_MO_YR)
12:41:37 391  				      MEASURES (TOTAL_DEPR)
12:41:37 392  			      MAIN main_model
12:41:37 393  			      PARTITION BY (ASSET_ID, SET_OF_BOOKS_ID, GL_POSTING_MO_YR)
12:41:37 394  			      DIMENSION by (MID_PERIOD_METHOD)
12:41:37 395  			      MEASURES
12:41:37 396  			      (
12:41:37 397  				      MONTH_RATE, DEPRECIATION_BASE,
12:41:37 398  				      CURR_DEPR_EXPENSE, IMPAIRMENT_ASSET_ACTIVITY_SALV,
12:41:37 399  				      IMPAIRMENT_ASSET_BEGIN_BALANCE, REMAINING_LIFE,
12:41:37 400  				      NET_GROSS, TRUE_UP_CPR_DEPR,
12:41:37 401  				      MID_PERIOD_CONV, ENG_IN_SERVICE_YEAR,
12:41:37 402  				      PRODUCTION, ESTIMATED_PRODUCTION,
12:41:37 403  				      RATE, INIT_LIFE,
12:41:37 404  				      BEG_ASSET_DOLLARS, NET_ADDS_AND_ADJUST,
12:41:37 405  				      RETIREMENTS, TRANSFERS_IN,
12:41:37 406  				      TRANSFERS_OUT, IMPAIRMENT_ASSET_AMOUNT,
12:41:37 407  				      ESTIMATED_SALVAGE, BEG_RESERVE_MONTH,
12:41:37 408  				      DEPR_EXP_ALLOC_ADJUST, DEPR_EXP_ADJUST,
12:41:37 409  				      SALVAGE_DOLLARS, COST_OF_REMOVAL,
12:41:37 410  				      OTHER_CREDITS_AND_ADJUST, GAIN_LOSS,
12:41:37 411  				      RESERVE_TRANS_IN, RESERVE_TRANS_OUT,
12:41:37 412  				      RESERVE_ADJUSTMENT, IMPAIRMENT_EXPENSE_AMOUNT,
12:41:37 413  				      TRF_WEIGHT, EXISTS_LAST_MONTH, EXISTS_TWO_MONTHS,
12:41:37 414  				      HAS_CFNU, DEPR_METHOD_SLE_EXP,
12:41:37 415  				      NET_TRF, NET_RES_TRF,
12:41:37 416  				      NET_IMP_AMT, ACTIVITY,
12:41:37 417  				      BEG_RES_AMT, ACTIVITY_3,
12:41:37 418  				      BEG_BAL_AMT, SCH_RATE_USED,
12:41:37 419  				      TRUEUP_ADJ, 0 as TRUEUP_BASE, 0 as RATE_USED, 0 as RESERVE_TOBE,
12:41:37 420  				      0 as STRAIGHT_LINE_RATE, 0 as FIRST_HALF_RATE, 0 as DEPR_USED_FIRST_HALF, 0 as DB_FACTOR
12:41:37 421  			      )
12:41:37 422  			      RULES update
12:41:37 423  			      (
12:41:37 424  				      ESTIMATED_SALVAGE[MID_PERIOD_METHOD in ('rate', 'uopr')] =
12:41:37 425  						      case when NET_GROSS[CV()] = 2
12:41:37 426  						      then 0
12:41:37 427  						      else ESTIMATED_SALVAGE[CV()]
12:41:37 428  						      end,
12:41:37 429  
12:41:37 430  				      -- generally the formula is
12:41:37 431  				      -- GROSS amount times the rate times the "used life" - reserve
12:41:37 432  				      -- GET THE GROSS PLANT BALANCE
12:41:37 433  				      TRUEUP_BASE[any] =
12:41:37 434  						      (BEG_ASSET_DOLLARS[CV()] + ACTIVITY[CV()]) * (1 - ESTIMATED_SALVAGE[CV()])
12:41:37 435  						      + ((IMPAIRMENT_ASSET_ACTIVITY_SALV[CV()] + IMPAIRMENT_ASSET_BEGIN_BALANCE[CV()])
12:41:37 436  							      * ESTIMATED_SALVAGE[CV()]),
12:41:37 437  
12:41:37 438  				      -- START SETTING THE RATE_USED for each method
12:41:37 439  				      RATE_USED[MID_PERIOD_METHOD in ('sl', 'sleol')] =
12:41:37 440  						      (INIT_LIFE[CV()]-REMAINING_LIFE[CV()]) / INIT_LIFE[CV()],
12:41:37 441  				      RATE_USED['sch'] = SCH_RATE_USED[CV()],
12:41:37 442  				      RATE_USED['somd'] = 1 - (REMAINING_LIFE[CV()] * (REMAINING_LIFE[CV()]+1)
12:41:37 443  										      / (INIT_LIFE[CV()] * (INIT_LIFE[CV()]+1))),
12:41:37 444  
12:41:37 445  				      -- RATE_USED FOR rate and uopr is dependent on whether or not net vs gross
12:41:37 446  				      RATE_USED[MID_PERIOD_METHOD in ('rate', 'uopr')] =
12:41:37 447  					      case when NET_GROSS[CV()] = 2
12:41:37 448  					      then MONTH_RATE[CV()] * (INIT_LIFE[CV()]-REMAINING_LIFE[CV()])
12:41:37 449  					      else 1 - power((1 - MONTH_RATE[CV()]), (INIT_LIFE[CV()]-REMAINING_LIFE[CV()]))
12:41:37 450  					      end,
12:41:37 451  
12:41:37 452  				      --
12:41:37 453  				      --      DB200 and DB150
12:41:37 454  				      --      THE example below is based on DB200.  The factor of 1.5 or 2 will be used in the actual calculation
12:41:37 455  				      -- IF remaining life is greater than half the initial life then the rate used is
12:41:37 456  				      --	      (1 - (2/INIT_LIFE)) ^ (INIT_LIFE - REMAINING_LIFE)
12:41:37 457  				      --      OTHERWISE the rate to use must take into account the "first half" rate and add to it
12:41:37 458  				      --	      the second half rate used (which is straight lined)
12:41:37 459  				      --	      IE: RATE_FIRST_HALF =  (1 - (2/INIT_LIFE)) ^ (INIT_LIFE - (INIT_LIFE/2))
12:41:37 460  				      --		      STRAIGHT_LINE_RATE = (1 - (REMAINING_LIFE / (INIT_LIFE/2) ) )
12:41:37 461  				      --		      DEPR_USED_SECOND_HALF = STRAIGHT_LINE_RATE * (GROSS_PLANT - DEPR_USED_FIRST_HALF)
12:41:37 462  				      --		      RATE_SECOND_HALF = DEPR_USED_SECOND_HALF / GROSS_PLANT
12:41:37 463  				      --	      TOTAL_RATE = RATE_FIRST_HALF + RATE_SECOND_HALF
12:41:37 464  				      DB_FACTOR['db200'] = 2,
12:41:37 465  				      DB_FACTOR['db150'] = 1.5,
12:41:37 466  				      FIRST_HALF_RATE[MID_PERIOD_METHOD in ('db200', 'db150')] =
12:41:37 467  						      1 - power((1 - (DB_FACTOR[CV()]/INIT_LIFE[CV()])),(INIT_LIFE[CV()]-trunc(INIT_LIFE[CV()]/DB_FACTOR[CV()],0))),
12:41:37 468  				      STRAIGHT_LINE_RATE[MID_PERIOD_METHOD in ('db200', 'db150')] =
12:41:37 469  						      1 - (REMAINING_LIFE[CV()] / trunc(INIT_LIFE[CV()]/DB_FACTOR[CV()],0)),
12:41:37 470  				      DEPR_USED_FIRST_HALF[MID_PERIOD_METHOD in ('db200', 'db150')] = TRUEUP_BASE[CV()] * FIRST_HALF_RATE[CV()],
12:41:37 471  				      RATE_USED[MID_PERIOD_METHOD in ('db200', 'db150')] =
12:41:37 472  						      case when sign(REMAINING_LIFE[CV()] - (INIT_LIFE[CV()]/2)) = 1
12:41:37 473  						      then (1 - power((1-(DB_FACTOR[CV()]/INIT_LIFE[CV()])), INIT_LIFE[CV()] - REMAINING_LIFE[CV()]))
12:41:37 474  						      else FIRST_HALF_RATE[CV()]
12:41:37 475  							      + (STRAIGHT_LINE_RATE[CV()] * (TRUEUP_BASE[CV()] - DEPR_USED_FIRST_HALF[CV()]) / TRUEUP_BASE[CV()])
12:41:37 476  						      end,
12:41:37 477  
12:41:37 478  
12:41:37 479  
12:41:37 480  				      RESERVE_TOBE[MID_PERIOD_METHOD in ('sle', 'ferc')] =
12:41:37 481  					      nvl(DEPR_METHOD_SLE.TOTAL_DEPR[CV(ASSET_ID), CV(SET_OF_BOOKS_ID), CV(GL_POSTING_MO_YR) ], 0),
12:41:37 482  
12:41:37 483  				      -- the total reserve that should be is base times rate
12:41:37 484  				      RESERVE_TOBE[MID_PERIOD_METHOD not in ('sle', 'ferc')] = TRUEUP_BASE[CV()] * RATE_USED[CV()],
12:41:37 485  
12:41:37 486  				      -- adjustment is reserve to be minus the (total reserve from prior months plus current month activity)
12:41:37 487  				      TRUEUP_ADJ[any] = RESERVE_TOBE[CV()] - BEG_RESERVE_MONTH[CV()] - ACTIVITY_3[CV()]
12:41:37 488  			      )
12:41:37 489  		      ) B
12:41:37 490  		      on (A.ASSET_ID = B.ASSET_ID and A.SET_OF_BOOKS_ID = B.SET_OF_BOOKS_ID and A.GL_POSTING_MO_YR = B.GL_POSTING_MO_YR)
12:41:37 491  		      when matched then
12:41:37 492  		      update set
12:41:37 493  			      TRUEUP_ADJ = B.TRUEUP_ADJ,
12:41:37 494  			      DEPR_CALC_MESSAGE = 'True Up adjustment calculated.';
12:41:37 495  
12:41:37 496  		      -- if the remaining life is zero then always trueup the expense so fully depreciated
12:41:37 497  		      -- also set the retirements to be the ending asset balance
12:41:37 498  		      update CPR_DEPR_CALC_STG
12:41:37 499  		      set TRUEUP_ADJ = DEPRECIATION_BASE,
12:41:37 500  			      RETIREMENTS = case when G_VERSION_ID is null
12:41:37 501  						      then RETIREMENTS
12:41:37 502  						      else -1 * (BEG_ASSET_DOLLARS + NET_ADDS_AND_ADJUST + TRANSFERS_IN + TRANSFERS_OUT + IMPAIRMENT_ASSET_AMOUNT)
12:41:37 503  						      end
12:41:37 504  		      where DEPR_CALC_STATUS = 2
12:41:37 505  		      and remaining_life = 0;
12:41:37 506  
12:41:37 507  		      -- decrease the depreciable base by the amount of the trueup adj since the expense should have
12:41:37 508  		      -- occurred in prior months.  Only update for NET methods since GROSS should not be based on reserve
12:41:37 509  		      update CPR_DEPR_CALC_STG
12:41:37 510  		      set DEPRECIATION_BASE = DEPRECIATION_BASE - TRUEUP_ADJ
12:41:37 511  		      where nvl(TRUEUP_ADJ,0) <> 0
12:41:37 512  		      and DEPR_CALC_STATUS = 2
12:41:37 513  		      and NET_GROSS = 1;
12:41:37 514  
12:41:37 515  		      PKG_PP_ERROR.REMOVE_MODULE_NAME;
12:41:37 516  	      exception
12:41:37 517  		      when others then
12:41:37 518  			      PKG_PP_ERROR.RAISE_ERROR('ERROR','Failed Operation');
12:41:37 519  	      end P_TRUEUP;
12:41:37 520  
12:41:37 521  
12:41:37 522  
12:41:37 523  		      --**************************************************************************
12:41:37 524  	      --			    P_OVER_DEPR
12:41:37 525  	      --      over depr for rate and uopr
12:41:37 526  	      --**************************************************************************
12:41:37 527  	      procedure P_OVER_DEPR(A_MONTH date)
12:41:37 528  	      is
12:41:37 529  		      L_STATUS varchar2(255);
12:41:37 530  	      begin
12:41:37 531  
12:41:37 532  		      PKG_PP_ERROR.SET_MODULE_NAME('PKG_DEPR_IND_CALC.P_OVER_DEPR');
12:41:37 533  
12:41:37 534  		      -- decrease the depreciable base by the amount of the trueup adj since the expense should have
12:41:37 535  		      -- occurred in prior months.  Only update for NET methods since GROSS should not be based on reserve
12:41:37 536  		      update CPR_DEPR_CALC_STG
12:41:37 537  		      set OVER_DEPR_ADJ =
12:41:37 538  				      (ASSET_DOLLARS * (1 - ESTIMATED_SALVAGE)
12:41:37 539  				      + ( IMPAIRMENT_ASSET_ACTIVITY_SALV + IMPAIRMENT_ASSET_BEGIN_BALANCE ) * ESTIMATED_SALVAGE
12:41:37 540  				      ) - DEPR_RESERVE
12:41:37 541  		      where mid_period_method in ('rate', 'uopr')
12:41:37 542  		      and NET_GROSS = 2
12:41:37 543  		      and OVER_DEPR_CHECK = 1
12:41:37 544  		      and abs(ASSET_DOLLARS) < abs(DEPR_RESERVE)
12:41:37 545  		      and sign(ASSET_DOLLARS) = sign(DEPR_RESERVE)
12:41:37 546  		      and GL_POSTING_MO_YR = A_MONTH
12:41:37 547  		      ;
12:41:37 548  
12:41:37 549  		      update CPR_DEPR_CALC_STG
12:41:37 550  		      set DEPR_EXP_ALLOC_ADJUST = DEPR_EXP_ALLOC_ADJUST + OVER_DEPR_ADJ,
12:41:37 551  			      DEPR_RESERVE = DEPR_RESERVE + OVER_DEPR_ADJ
12:41:37 552  		      where mid_period_method in ('rate', 'uopr')
12:41:37 553  		      and OVER_DEPR_ADJ <> 0
12:41:37 554  		      and GL_POSTING_MO_YR = A_MONTH
12:41:37 555  		      ;
12:41:37 556  
12:41:37 557  		      PKG_PP_ERROR.REMOVE_MODULE_NAME;
12:41:37 558  	      exception
12:41:37 559  		      when others then
12:41:37 560  			      PKG_PP_ERROR.RAISE_ERROR('ERROR','Failed Operation');
12:41:37 561  	      end P_OVER_DEPR;
12:41:37 562  
12:41:37 563  	      --**************************************************************************
12:41:37 564  	      --			    P_SETDEPREXPENSE
12:41:37 565  	      --**************************************************************************
12:41:37 566  	      procedure P_SETDEPREXPENSE(A_MONTH date)
12:41:37 567  	      is
12:41:37 568  		      L_STATUS varchar2(255);
12:41:37 569  	      begin
12:41:37 570  
12:41:37 571  		      PKG_PP_ERROR.SET_MODULE_NAME('PKG_DEPR_IND_CALC.P_SETDEPREXPENSE');
12:41:37 572  
12:41:37 573  		      -- do not reset the current depr expense for SLE or FERC.
12:41:37 574  		      update CPR_DEPR_CALC_STG
12:41:37 575  		      set CURR_DEPR_EXPENSE = case when mid_period_method in ('sle', 'ferc') then CURR_DEPR_EXPENSE else DEPRECIATION_BASE * MONTH_RATE end,
12:41:37 576  			      DEPR_RESERVE = BEG_RESERVE_MONTH + RETIREMENTS + TRUEUP_ADJ + NURV_ADJ + DEPR_EXP_ADJUST
12:41:37 577  						      + SALVAGE_DOLLARS + COST_OF_REMOVAL + OTHER_CREDITS_AND_ADJUST + GAIN_LOSS
12:41:37 578  						      + RESERVE_TRANS_IN + RESERVE_TRANS_OUT +
12:41:37 579  						      (case when mid_period_method in ('sle', 'ferc') then CURR_DEPR_EXPENSE else DEPRECIATION_BASE * MONTH_RATE end)
12:41:37 580  						      + RESERVE_ADJUSTMENT + IMPAIRMENT_ASSET_AMOUNT + IMPAIRMENT_EXPENSE_AMOUNT,
12:41:37 581  			      ASSET_DOLLARS = BEG_ASSET_DOLLARS + NET_ADDS_AND_ADJUST + RETIREMENTS
12:41:37 582  						      + TRANSFERS_IN + TRANSFERS_OUT + IMPAIRMENT_ASSET_AMOUNT,
12:41:37 583  			      DEPR_CALC_STATUS = 9,
12:41:37 584  			      DEPR_CALC_MESSAGE = 'Expense set.'
12:41:37 585  		      where DEPR_CALC_STATUS = 2
12:41:37 586  		      and GL_POSTING_MO_YR = A_MONTH
12:41:37 587  		      ;
12:41:37 588  
12:41:37 589  		      PKG_PP_ERROR.REMOVE_MODULE_NAME;
12:41:37 590  	      exception
12:41:37 591  		      when others then
12:41:37 592  			      PKG_PP_ERROR.RAISE_ERROR('ERROR','Failed Operation');
12:41:37 593  	      end P_SETDEPREXPENSE;
12:41:37 594  
12:41:37 595  	      --**************************************************************************
12:41:37 596  	      --			    P_ROLLFWD
12:41:37 597  	      --**************************************************************************
12:41:37 598  	      procedure P_ROLLFWD(A_MONTH date)
12:41:37 599  	      is
12:41:37 600  		      L_STATUS varchar2(255);
12:41:37 601  
12:41:37 602  		      type retiredRec is record(
12:41:37 603  			asset_id cpr_depr_calc_stg.asset_id%type,
12:41:37 604  			set_of_books_id cpr_depr_calc_stg.set_of_books_id%type,
12:41:37 605  			gl_posting_mo_yr cpr_depr_calc_stg.gl_posting_mo_yr%type);
12:41:37 606  		      type retiredTable is table of retiredRec index by pls_integer;
12:41:37 607  
12:41:37 608  		      L_retired retiredTable;
12:41:37 609  	      begin
12:41:37 610  
12:41:37 611  		      PKG_PP_ERROR.SET_MODULE_NAME('PKG_DEPR_IND_CALC.P_ROLLFWD: REMOVE FULLY RET');
12:41:37 612  		      PKG_PP_LOG.P_WRITE_MESSAGE('Rolling balances forward');
12:41:37 613  
12:41:37 614  		      select stg.asset_id, stg.set_of_books_id, stg.gl_posting_mo_yr
12:41:37 615  		      bulk collect
12:41:37 616  		      into L_retired
12:41:37 617  		      from cpr_depr_calc_stg stg
12:41:37 618  		      where gl_posting_mo_yr > A_MONTH
12:41:37 619  		      and (stg.asset_id, stg.set_of_books_id) in
12:41:37 620  		      (
12:41:37 621  			      select stg2.asset_id, stg2.set_of_books_id
12:41:37 622  			      from cpr_depr_calc_stg stg2
12:41:37 623  			      where stg2.remaining_life = 0
12:41:37 624  			      and stg2.asset_dollars = 0
12:41:37 625  			      and stg2.depr_reserve = 0
12:41:37 626  			      and stg2.gl_posting_mo_yr = A_MONTH
12:41:37 627  		      );
12:41:37 628  
12:41:37 629  		      if L_retired.COUNT > 0 then
12:41:37 630  			      FORALL ndx IN INDICES OF L_retired
12:41:37 631  				      delete from CPR_DEPR_CALC_STG
12:41:37 632  				      where gl_posting_mo_yr = L_retired( ndx ).gl_posting_mo_yr
12:41:37 633  				      and asset_id = L_retired( ndx ).asset_id
12:41:37 634  				      and set_of_books_id = L_retired( ndx ).set_of_books_id
12:41:37 635  				      ;
12:41:37 636  		      end if;
12:41:37 637  
12:41:37 638  		      PKG_PP_ERROR.REMOVE_MODULE_NAME;
12:41:37 639  		      PKG_PP_ERROR.SET_MODULE_NAME('PKG_DEPR_IND_CALC.P_ROLLFWD: ROLLFWD');
12:41:37 640  		      update CPR_DEPR_CALC_STG A
12:41:37 641  			 set (BEG_RESERVE_MONTH,
12:41:37 642  				       BEG_ASSET_DOLLARS,
12:41:37 643  				       YTD_DEPR_EXPENSE,
12:41:37 644  				       YTD_DEPR_EXP_ADJUST,
12:41:37 645  				       BEG_RESERVE_YEAR,
12:41:37 646  				       REMAINING_LIFE,
12:41:37 647  				       IMPAIRMENT_ASSET_BEGIN_BALANCE) =
12:41:37 648  				      (select NVL(B.DEPR_RESERVE, 0),
12:41:37 649  						      NVL(B.ASSET_DOLLARS, 0),
12:41:37 650  						      DECODE(TO_NUMBER(TO_CHAR(B.GL_POSTING_MO_YR, 'MM')),
12:41:37 651  								 12,
12:41:37 652  								 0,
12:41:37 653  								 NVL(B.YTD_DEPR_EXPENSE, 0) + B.CURR_DEPR_EXPENSE),
12:41:37 654  						      DECODE(TO_NUMBER(TO_CHAR(B.GL_POSTING_MO_YR, 'MM')),
12:41:37 655  								 12,
12:41:37 656  								 0,
12:41:37 657  								 NVL(B.YTD_DEPR_EXP_ADJUST, 0)+ + B.DEPR_EXP_ADJUST),
12:41:37 658  						      DECODE(TO_NUMBER(TO_CHAR(B.GL_POSTING_MO_YR, 'MM')),
12:41:37 659  								 12,
12:41:37 660  								 NVL(B.DEPR_RESERVE, 0),
12:41:37 661  								 NVL(B.BEG_RESERVE_YEAR, 0)),
12:41:37 662  						      GREATEST(B.REMAINING_LIFE -
12:41:37 663  								       DECODE(NVL(D.INIT_LIFE, -1),
12:41:37 664  										      -1,
12:41:37 665  										      DECODE(B.INIT_LIFE, B.REMAINING_LIFE, B.MID_PERIOD_CONV, 1),
12:41:37 666  										      1),
12:41:37 667  								       0),
12:41:37 668  						      B.IMPAIRMENT_ASSET_BEGIN_BALANCE + B.IMPAIRMENT_ASSET_ACTIVITY_SALV
12:41:37 669  					 from CPR_DEPR_CALC_STG B, CPR_DEPR_CALC_STG D
12:41:37 670  					where A.ASSET_ID = B.ASSET_ID
12:41:37 671  					      and A.SET_OF_BOOKS_ID = B.SET_OF_BOOKS_ID
12:41:37 672  					      and B.GL_POSTING_MO_YR = ADD_MONTHS(A.GL_POSTING_MO_YR, -1)
12:41:37 673  					      and B.ASSET_ID = D.ASSET_ID(+)
12:41:37 674  					      and B.SET_OF_BOOKS_ID = D.SET_OF_BOOKS_ID(+)
12:41:37 675  					      and ADD_MONTHS(B.GL_POSTING_MO_YR, -1) = D.GL_POSTING_MO_YR(+)
12:41:37 676  					      and B.GL_POSTING_MO_YR = A_MONTH)
12:41:37 677  			      where A.GL_POSTING_MO_YR = add_months(A_MONTH,1);
12:41:37 678  
12:41:37 679  
12:41:37 680  		      PKG_PP_ERROR.REMOVE_MODULE_NAME;
12:41:37 681  	      exception
12:41:37 682  		      when others then
12:41:37 683  			      PKG_PP_ERROR.RAISE_ERROR('ERROR','Failed Operation');
12:41:37 684  	      end P_ROLLFWD;
12:41:37 685  
12:41:37 686  	      --**************************************************************************
12:41:37 687  	      --			    P_NURV
12:41:37 688  	      --**************************************************************************
12:41:37 689  	      --
12:41:37 690  	      -- This function does non-unitized reversals
12:41:37 691  	      -- PREREQS: The staging table cpr_depr_calc_stg is already populated by some other means
12:41:37 692  	      -- ALLOWING: this function makes the adjustments on DEPR_EXP_ALLOC_ADJUST for non-unitzed reversals
12:41:37 693  	      --
12:41:37 694  	      procedure P_NURV
12:41:37 695  	      is
12:41:37 696  		      L_STATUS varchar2(255);
12:41:37 697  	      begin
12:41:37 698  
12:41:37 699  		      PKG_PP_ERROR.SET_MODULE_NAME('PKG_DEPR_IND_CALC.P_NURV');
12:41:37 700  
12:41:37 701  		      --Adjust reserve down to 0 for 106 assets
12:41:37 702  		      update CPR_DEPR_CALC_STG
12:41:37 703  		      set NURV_ADJ =
12:41:37 704  			      case when BEG_ASSET_DOLLARS = 0 then
12:41:37 705  				      -(BEG_RESERVE_MONTH + RETIREMENTS + DEPR_EXP_ADJUST + SALVAGE_DOLLARS +
12:41:37 706  					      COST_OF_REMOVAL + OTHER_CREDITS_AND_ADJUST + GAIN_LOSS + RESERVE_TRANS_IN +
12:41:37 707  					      RESERVE_TRANS_OUT + RESERVE_ADJUSTMENT + IMPAIRMENT_EXPENSE_AMOUNT +
12:41:37 708  					      IMPAIRMENT_ASSET_AMOUNT)
12:41:37 709  			      else
12:41:37 710  				      (NET_ADDS_AND_ADJUST / BEG_ASSET_DOLLARS) *
12:41:37 711  				      (BEG_RESERVE_MONTH + RETIREMENTS + DEPR_EXP_ADJUST + SALVAGE_DOLLARS +
12:41:37 712  					      COST_OF_REMOVAL + OTHER_CREDITS_AND_ADJUST + GAIN_LOSS + RESERVE_TRANS_IN +
12:41:37 713  					      RESERVE_TRANS_OUT + RESERVE_ADJUSTMENT + IMPAIRMENT_EXPENSE_AMOUNT +
12:41:37 714  					      IMPAIRMENT_ASSET_AMOUNT)
12:41:37 715  			      end
12:41:37 716  		      where EXISTS_ARO = 0
12:41:37 717  		      and ((HAS_NURV = 1 and MID_PERIOD_CONV > MIN_MPC)
12:41:37 718  			      or (HAS_NURV_LAST_MONTH = 1 and MID_PERIOD_CONV = 0))
12:41:37 719  		      and MID_PERIOD_METHOD not in ('custom', 'sch');
12:41:37 720  
12:41:37 721  		      --Get our 106 Assets
12:41:37 722  		      insert into CPR_DEPR_CALC_NURV_STG
12:41:37 723  		      (ASSET_ID, SET_OF_BOOKS_ID, GL_POSTING_MO_YR, WORK_ORDER_NUMBER, COST)
12:41:37 724  		      (
12:41:37 725  			      select CDS.ASSET_ID,
12:41:37 726  				      CDS.SET_OF_BOOKS_ID,
12:41:37 727  				      CDS.GL_POSTING_MO_YR,
12:41:37 728  				      CA.WORK_ORDER_NUMBER,
12:41:37 729  				      CDS.NURV_ADJ
12:41:37 730  			      from CPR_DEPR_CALC_STG CDS, CPR_ACTIVITY CA
12:41:37 731  			      where CDS.ASSET_ID = CA.ASSET_ID
12:41:37 732  			      and CDS.GL_POSTING_MO_YR = CA.GL_POSTING_MO_YR
12:41:37 733  			      and (CDS.HAS_NURV = 1 or CDS.HAS_NURV_LAST_MONTH = 1)
12:41:37 734  		      );
12:41:37 735  
12:41:37 736  		      --Get our 101 Assets
12:41:37 737  		      insert into CPR_DEPR_CALC_CFNU_STG
12:41:37 738  		      (ASSET_ID, SET_OF_BOOKS_ID, GL_POSTING_MO_YR, WORK_ORDER_NUMBER, COST)
12:41:37 739  		      (
12:41:37 740  			      select CDS.ASSET_ID,
12:41:37 741  			      CDS.SET_OF_BOOKS_ID,
12:41:37 742  			      CDS.GL_POSTING_MO_YR,
12:41:37 743  			      CA.WORK_ORDER_NUMBER,
12:41:37 744  			      CDS.NET_ADDS_AND_ADJUST
12:41:37 745  			      from CPR_DEPR_CALC_STG CDS, CPR_ACTIVITY CA
12:41:37 746  			      where CDS.ASSET_ID = CA.ASSET_ID
12:41:37 747  			      and CDS.GL_POSTING_MO_YR = CA.GL_POSTING_MO_YR
12:41:37 748  			      and CDS.HAS_CFNU = 1
12:41:37 749  			      and CA.WORK_ORDER_NUMBER in
12:41:37 750  			      (
12:41:37 751  				      select CDN.WORK_ORDER_NUMBER
12:41:37 752  				      from CPR_DEPR_CALC_NURV_STG CDN
12:41:37 753  			      )
12:41:37 754  		      );
12:41:37 755  
12:41:37 756  		      --Calculate the NURV Adjustment. This includes a correction for rounding.
12:41:37 757  		      update CPR_DEPR_CALC_CFNU_STG C2
12:41:37 758  		      set ADJ =
12:41:37 759  		      (
12:41:37 760  			      select NN.AMOUNT
12:41:37 761  			      from
12:41:37 762  			      (
12:41:37 763  				      with THE_SPREAD as
12:41:37 764  				      (
12:41:37 765  					      select N.SET_OF_BOOKS_ID,
12:41:37 766  						      N.WORK_ORDER_NUMBER,
12:41:37 767  						      C.ASSET_ID,
12:41:37 768  						      -1 * sum(N.COST) * nvl(RATIO_TO_REPORT(C.COST) OVER(partition by N.WORK_ORDER_NUMBER, N.SET_OF_BOOKS_ID), 0) AMOUNT,
12:41:37 769  						      sum(N.COST) WO_COST,
12:41:37 770  						      C.COST,
12:41:37 771  						      RATIO_TO_REPORT(C.COST) OVER(partition by N.WORK_ORDER_NUMBER, N.SET_OF_BOOKS_ID)
12:41:37 772  					      from CPR_DEPR_CALC_CFNU_STG C, CPR_DEPR_CALC_NURV_STG N
12:41:37 773  					      where C.SET_OF_BOOKS_ID = N.SET_OF_BOOKS_ID
12:41:37 774  					      and C.WORK_ORDER_NUMBER = N.WORK_ORDER_NUMBER
12:41:37 775  					      group by N.SET_OF_BOOKS_ID, N.WORK_ORDER_NUMBER, C.ASSET_ID, C.COST
12:41:37 776  				      )
12:41:37 777  				      select THE_SPREAD.AMOUNT
12:41:37 778  						      - DECODE(ROW_NUMBER() OVER(partition by THE_SPREAD.WORK_ORDER_NUMBER, THE_SPREAD.SET_OF_BOOKS_ID
12:41:37 779  													      order by abs(THE_SPREAD.AMOUNT) desc, THE_SPREAD.ASSET_ID desc),
12:41:37 780  								      1, THE_SPREAD.WO_COST + sum(ROUND(THE_SPREAD.AMOUNT, 2))
12:41:37 781  														      OVER(partition by THE_SPREAD.WORK_ORDER_NUMBER, THE_SPREAD.SET_OF_BOOKS_ID),
12:41:37 782  								      0) as AMOUNT,
12:41:37 783  						      THE_SPREAD.SET_OF_BOOKS_ID,
12:41:37 784  						      THE_SPREAD.WORK_ORDER_NUMBER,
12:41:37 785  						      THE_SPREAD.ASSET_ID,
12:41:37 786  						      THE_SPREAD.WO_COST
12:41:37 787  				      from THE_SPREAD
12:41:37 788  			      ) NN, CPR_DEPR_CALC_CFNU_STG C
12:41:37 789  			      where C.SET_OF_BOOKS_ID = C2.SET_OF_BOOKS_ID
12:41:37 790  			      and C.ASSET_ID = C2.ASSET_ID
12:41:37 791  			      and NN.ASSET_ID = C.ASSET_ID
12:41:37 792  			      and NN.SET_OF_BOOKS_ID = C.SET_OF_BOOKS_ID
12:41:37 793  		      );
12:41:37 794  
12:41:37 795  		      --Move the NURV Adjustment from the CFNU table to the main calc table.
12:41:37 796  		      --Also update the remaining life on the 101 Assets to have as much expired life as the 106 Assets.
12:41:37 797  		      update CPR_DEPR_CALC_STG C1
12:41:37 798  		      set (C1.NURV_ADJ, C1.REMAINING_LIFE) =
12:41:37 799  		      (
12:41:37 800  			      select nvl(ADJ, 0), greatest( C1.INIT_LIFE - WO_EXP_LIFE, 0 )
12:41:37 801  			      from
12:41:37 802  			      (
12:41:37 803  				      with LIFE106 as
12:41:37 804  				      (
12:41:37 805  					      select CN.WORK_ORDER_NUMBER, C3.SET_OF_BOOKS_ID,
12:41:37 806  						      min(GREATEST(0, C3.INIT_LIFE - C3.REMAINING_LIFE)) WO_EXP_LIFE
12:41:37 807  					      from CPR_DEPR_CALC_STG C3, CPR_DEPR_CALC_NURV_STG CN
12:41:37 808  					      where CN.ASSET_ID = C3.ASSET_ID
12:41:37 809  					      group by CN.WORK_ORDER_NUMBER, C3.SET_OF_BOOKS_ID
12:41:37 810  				      )
12:41:37 811  				      select CFNU.ADJ, LIFE106.WO_EXP_LIFE,
12:41:37 812  					      CFNU.ASSET_ID, CFNU.SET_OF_BOOKS_ID,
12:41:37 813  					      CFNU.GL_POSTING_MO_YR
12:41:37 814  				      from LIFE106, CPR_DEPR_CALC_CFNU_STG CFNU, CPR_DEPR_CALC_STG C2
12:41:37 815  				      where LIFE106.WORK_ORDER_NUMBER = CFNU.WORK_ORDER_NUMBER
12:41:37 816  				      and CFNU.ASSET_ID = C2.ASSET_ID
12:41:37 817  				      and CFNU.SET_OF_BOOKS_ID = C2.SET_OF_BOOKS_ID
12:41:37 818  				      and LIFE106.SET_OF_BOOKS_ID = C2.SET_OF_BOOKS_ID
12:41:37 819  				      and CFNU.GL_POSTING_MO_YR = C2.GL_POSTING_MO_YR
12:41:37 820  			      ) WO_ARG
12:41:37 821  			      where WO_ARG.GL_POSTING_MO_YR = C1.GL_POSTING_MO_YR
12:41:37 822  			      and WO_ARG.ASSET_ID = C1.ASSET_ID
12:41:37 823  			      and WO_ARG.SET_OF_BOOKS_ID = C1.SET_OF_BOOKS_ID
12:41:37 824  		      )
12:41:37 825  		      where exists
12:41:37 826  		      (
12:41:37 827  			      select 1
12:41:37 828  			      from CPR_DEPR_CALC_CFNU_STG CDN
12:41:37 829  			      where CDN.ASSET_ID = C1.ASSET_ID
12:41:37 830  			      and CDN.SET_OF_BOOKS_ID = C1.SET_OF_BOOKS_ID
12:41:37 831  			      and C1.GL_POSTING_MO_YR = CDN.GL_POSTING_MO_YR
12:41:37 832  		      );
12:41:37 833  
12:41:37 834  		      PKG_PP_ERROR.REMOVE_MODULE_NAME;
12:41:37 835  	      exception
12:41:37 836  		      when others then
12:41:37 837  			      PKG_PP_ERROR.RAISE_ERROR('ERROR','Failed Operation');
12:41:37 838  	      end P_NURV;
12:41:37 839  
12:41:37 840  	      --**************************************************************************
12:41:37 841  	      --			    P_PREPDEPRCALC
12:41:37 842  	      --**************************************************************************
12:41:37 843  	      procedure P_PREPDEPRCALC is
12:41:37 844  		      L_STATUS varchar2(255);
12:41:37 845  	      begin
12:41:37 846  
12:41:37 847  		      PKG_PP_ERROR.SET_MODULE_NAME('PKG_DEPR_IND_CALC.P_PREPDEPRCALC');
12:41:37 848  
12:41:37 849  
12:41:37 850  		      --we know all we need to know to set remaining life before calc'ing, so keep it outside the loop
12:41:37 851  		      P_CALCREMLIFE;
12:41:37 852  
12:41:37 853  		      for i in G_MONTHS.first .. G_MONTHS.last loop
12:41:37 854  			      PKG_PP_LOG.P_WRITE_MESSAGE('Starting individual depr calculation for: '||to_char(G_MONTHS(i)));
12:41:37 855  			      -- only calc NURV for actuals
12:41:37 856  			      if G_VERSION_ID is null then
12:41:37 857  				      P_NURV;
12:41:37 858  			      end if;
12:41:37 859  
12:41:37 860  			      P_CALCBASEANDRATE(G_MONTHS(i));
12:41:37 861  
12:41:37 862  			      -- only calc trueup for actuals
12:41:37 863  			      if G_VERSION_ID is null then
12:41:37 864  				      P_TRUEUP;
12:41:37 865  			      end if;
12:41:37 866  
12:41:37 867  			      P_SETDEPREXPENSE(G_MONTHS(i));
12:41:37 868  			      P_OVER_DEPR(G_MONTHS(i));
12:41:37 869  
12:41:37 870  			      if i <> G_MONTHS.last then
12:41:37 871  				      P_ROLLFWD(G_MONTHS(i));
12:41:37 872  			      end if;
12:41:37 873  		      end loop;
12:41:37 874  
12:41:37 875  		      PKG_PP_ERROR.REMOVE_MODULE_NAME;
12:41:37 876  	      exception
12:41:37 877  		      when others then
12:41:37 878  			      PKG_PP_ERROR.RAISE_ERROR('ERROR','Failed Operation');
12:41:37 879  	      end P_PREPDEPRCALC;
12:41:37 880  
12:41:37 881  
12:41:37 882  	      --**************************************************************************
12:41:37 883  	      --			    P_BACKFILL
12:41:37 884  	      --**************************************************************************
12:41:37 885  	      procedure P_BACKFILL
12:41:37 886  	      is
12:41:37 887  		      L_STATUS varchar2(254);
12:41:37 888  	      begin
12:41:37 889  
12:41:37 890  		      PKG_PP_ERROR.SET_MODULE_NAME('PKG_DEPR_IND_CALC.P_BACKFILL');
12:41:37 891  
12:41:37 892  		      --has_cfnu
12:41:37 893  		      update CPR_DEPR_CALC_STG Z
12:41:37 894  		      set HAS_CFNU = 1
12:41:37 895  		      where exists
12:41:37 896  		      (
12:41:37 897  			      select 1
12:41:37 898  			      from CPR_ACTIVITY Y
12:41:37 899  			      where Y.ASSET_ID = Z.ASSET_ID
12:41:37 900  			      and Y.GL_POSTING_MO_YR between add_months(Z.GL_POSTING_MO_YR, -1) and Z.GL_POSTING_MO_YR
12:41:37 901  			      and trim(ACTIVITY_CODE) = 'CFNU'
12:41:37 902  		      );
12:41:37 903  
12:41:37 904  		      --has_nurv
12:41:37 905  		      update CPR_DEPR_CALC_STG Z
12:41:37 906  		      set HAS_NURV = 1
12:41:37 907  		      where exists
12:41:37 908  		      (
12:41:37 909  			      select 1
12:41:37 910  			      from CPR_ACTIVITY Y
12:41:37 911  			      where Y.ASSET_ID = Z.ASSET_ID
12:41:37 912  			      and Y.GL_POSTING_MO_YR = Z.GL_POSTING_MO_YR
12:41:37 913  			      and trim(ACTIVITY_CODE) = 'NURV'
12:41:37 914  		      );
12:41:37 915  
12:41:37 916  		      --has_nurv_last_month
12:41:37 917  		      update CPR_DEPR_CALC_STG Z
12:41:37 918  		      set HAS_NURV_LAST_MONTH = 1
12:41:37 919  		      where exists
12:41:37 920  		      (
12:41:37 921  			      select 1
12:41:37 922  			      from CPR_ACTIVITY Y
12:41:37 923  			      where Y.ASSET_ID = Z.ASSET_ID
12:41:37 924  			      and Y.GL_POSTING_MO_YR = ADD_MONTHS(Z.GL_POSTING_MO_YR, -1)
12:41:37 925  			      and trim(ACTIVITY_CODE) = 'NURV'
12:41:37 926  		      );
12:41:37 927  
12:41:37 928  		      --estimated_production
12:41:37 929  		      --production
12:41:37 930  		      update CPR_DEPR_CALC_STG A
12:41:37 931  		      set (ESTIMATED_PRODUCTION, PRODUCTION) =
12:41:37 932  		      (
12:41:37 933  			      select ESTIMATED_PRODUCTION, PRODUCTION
12:41:37 934  			      from DEPR_METHOD_UOP UOP
12:41:37 935  			      where UOP.DEPR_METHOD_ID = A.DEPR_METHOD_ID
12:41:37 936  			      and UOP.SET_OF_BOOKS_ID = A.SET_OF_BOOKS_ID
12:41:37 937  			      and UOP.GL_POST_MO_YR = A.GL_POSTING_MO_YR
12:41:37 938  		      )
12:41:37 939  		      where exists
12:41:37 940  		      (
12:41:37 941  			      select 1
12:41:37 942  			      from DEPR_METHOD_UOP UOP
12:41:37 943  			      where UOP.DEPR_METHOD_ID = A.DEPR_METHOD_ID
12:41:37 944  			      and UOP.SET_OF_BOOKS_ID = A.SET_OF_BOOKS_ID
12:41:37 945  			      and UOP.GL_POST_MO_YR = A.GL_POSTING_MO_YR
12:41:37 946  		      )
12:41:37 947  		      and A.MID_PERIOD_METHOD = 'uopr';
12:41:37 948  
12:41:37 949  		      --exists_last_month
12:41:37 950  		      update CPR_DEPR_CALC_STG Z
12:41:37 951  		      set EXISTS_LAST_MONTH = 1
12:41:37 952  		      where exists
12:41:37 953  		      (
12:41:37 954  			      select 1
12:41:37 955  			      from CPR_DEPR Y
12:41:37 956  			      where Y.ASSET_ID = Z.ASSET_ID
12:41:37 957  			      and Y.SET_OF_BOOKS_ID = Z.SET_OF_BOOKS_ID
12:41:37 958  			      and Y.GL_POSTING_MO_YR = ADD_MONTHS(Z.GL_POSTING_MO_YR, -1)
12:41:37 959  		      );
12:41:37 960  
12:41:37 961  		      --exists_two_months
12:41:37 962  		      update CPR_DEPR_CALC_STG Z
12:41:37 963  		      set EXISTS_TWO_MONTHS = 1
12:41:37 964  		      where exists
12:41:37 965  		      (
12:41:37 966  			      select 1
12:41:37 967  			      from CPR_DEPR Y
12:41:37 968  			      where Y.ASSET_ID = Z.ASSET_ID
12:41:37 969  			      and Y.SET_OF_BOOKS_ID = Z.SET_OF_BOOKS_ID
12:41:37 970  			      and Y.GL_POSTING_MO_YR = ADD_MONTHS(Z.GL_POSTING_MO_YR, -2)
12:41:37 971  		      );
12:41:37 972  
12:41:37 973  		      --exists_aro
12:41:37 974  		      update CPR_DEPR_CALC_STG Y
12:41:37 975  		      set EXISTS_ARO = 1
12:41:37 976  		      where exists (select 1 from ARO where ARO.ASSET_ID = Y.ASSET_ID);
12:41:37 977  
12:41:37 978  		      --depr_method_sle_exp
12:41:37 979  		      update CPR_DEPR_CALC_STG STG
12:41:37 980  		      set DEPR_METHOD_SLE_EXP =
12:41:37 981  		      (
12:41:37 982  			      select DMS.DEPR_EXPENSE
12:41:37 983  			      from DEPR_METHOD_SLE DMS
12:41:37 984  			      where STG.ASSET_ID = DMS.ASSET_ID
12:41:37 985  			      and STG.SET_OF_BOOKS_ID = DMS.SET_OF_BOOKS_ID
12:41:37 986  			      and STG.GL_POSTING_MO_YR = DMS.GL_POSTING_MO_YR
12:41:37 987  		      )
12:41:37 988  		      where exists
12:41:37 989  		      (
12:41:37 990  			      select 1
12:41:37 991  			      from DEPR_METHOD_SLE DMS
12:41:37 992  			      where STG.ASSET_ID = DMS.ASSET_ID
12:41:37 993  			      and STG.SET_OF_BOOKS_ID = DMS.SET_OF_BOOKS_ID
12:41:37 994  			      and STG.GL_POSTING_MO_YR = DMS.GL_POSTING_MO_YR
12:41:37 995  		      )
12:41:37 996  		      and STG.MID_PERIOD_METHOD in ('sle', 'ferc');
12:41:37 997  
12:41:37 998  
12:41:37 999  
12:41:37 1000  		       --stuff for sch
12:41:37 1001  		       --get the yearly rate, divide by 12 to make it monthly, and multiply by the factor
12:41:37 1002  		       -- THIS NEEDS TO TAKE INTO ACCOUNT FISCAL CALENDARS....
12:41:37 1003  		       update CPR_DEPR_CALC_STG STG
12:41:37 1004  		       set (STG.SCH_RATE, STG.SCH_RATE_USED) =
12:41:37 1005  		       (
12:41:37 1006  			       select NVL(S.RATE , 0) *
12:41:37 1007  					       case TO_CHAR(STG.GL_POSTING_MO_YR, 'mm')
12:41:37 1008  					       when '01' then SF.FACTOR_1
12:41:37 1009  					       when '02' then SF.FACTOR_2
12:41:37 1010  					       when '03' then SF.FACTOR_3
12:41:37 1011  					       when '04' then SF.FACTOR_4
12:41:37 1012  					       when '05' then SF.FACTOR_5
12:41:37 1013  					       when '06' then SF.FACTOR_6
12:41:37 1014  					       when '07' then SF.FACTOR_7
12:41:37 1015  					       when '08' then SF.FACTOR_8
12:41:37 1016  					       when '09' then SF.FACTOR_9
12:41:37 1017  					       when '10' then SF.FACTOR_10
12:41:37 1018  					       when '11' then SF.FACTOR_11
12:41:37 1019  					       when '12' then SF.FACTOR_12
12:41:37 1020  					       end,
12:41:37 1021  				       S.TOTAL_RATE -
12:41:37 1022  					       case TO_CHAR(STG.GL_POSTING_MO_YR, 'mm')
12:41:37 1023  					       when '01' then SF.FACTOR_2 + SF.FACTOR_3 +
12:41:37 1024  					       SF.FACTOR_4 + SF.FACTOR_5 +
12:41:37 1025  					       SF.FACTOR_6 + SF.FACTOR_7 +
12:41:37 1026  					       SF.FACTOR_8 + SF.FACTOR_9 +
12:41:37 1027  					       SF.FACTOR_10 + SF.FACTOR_11 +
12:41:37 1028  					       SF.FACTOR_12
12:41:37 1029  					       when '02' then SF.FACTOR_3 +
12:41:37 1030  					       SF.FACTOR_4 + SF.FACTOR_5 +
12:41:37 1031  					       SF.FACTOR_6 + SF.FACTOR_7 +
12:41:37 1032  					       SF.FACTOR_8 + SF.FACTOR_9 +
12:41:37 1033  					       SF.FACTOR_10 + SF.FACTOR_11 +
12:41:37 1034  					       SF.FACTOR_12
12:41:37 1035  					       when '03' then SF.FACTOR_4 + SF.FACTOR_5 +
12:41:37 1036  					       SF.FACTOR_6 + SF.FACTOR_7 +
12:41:37 1037  					       SF.FACTOR_8 + SF.FACTOR_9 +
12:41:37 1038  					       SF.FACTOR_10 + SF.FACTOR_11 +
12:41:37 1039  					       SF.FACTOR_12
12:41:37 1040  					       when '04' then SF.FACTOR_5 +
12:41:37 1041  					       SF.FACTOR_6 + SF.FACTOR_7 +
12:41:37 1042  					       SF.FACTOR_8 + SF.FACTOR_9 +
12:41:37 1043  					       SF.FACTOR_10 + SF.FACTOR_11 +
12:41:37 1044  					       SF.FACTOR_12
12:41:37 1045  					       when '05' then SF.FACTOR_6 + SF.FACTOR_7 +
12:41:37 1046  					       SF.FACTOR_8 + SF.FACTOR_9 +
12:41:37 1047  					       SF.FACTOR_10 + SF.FACTOR_11 +
12:41:37 1048  					       SF.FACTOR_12
12:41:37 1049  					       when '06' then SF.FACTOR_7 +
12:41:37 1050  					       SF.FACTOR_8 + SF.FACTOR_9 +
12:41:37 1051  					       SF.FACTOR_10 + SF.FACTOR_11 +
12:41:37 1052  					       SF.FACTOR_12
12:41:37 1053  					       when '07' then SF.FACTOR_8 + SF.FACTOR_9 +
12:41:37 1054  					       SF.FACTOR_10 + SF.FACTOR_11 +
12:41:37 1055  					       SF.FACTOR_12
12:41:37 1056  					       when '08' then SF.FACTOR_9 +
12:41:37 1057  					       SF.FACTOR_10 + SF.FACTOR_11 +
12:41:37 1058  					       SF.FACTOR_12
12:41:37 1059  					       when '09' then SF.FACTOR_10 + SF.FACTOR_11 +
12:41:37 1060  					       SF.FACTOR_12
12:41:37 1061  					       when '10' then SF.FACTOR_11 +
12:41:37 1062  					       SF.FACTOR_12
12:41:37 1063  					       when '11' then SF.FACTOR_12
12:41:37 1064  					       when '12' then 0
12:41:37 1065  					       end
12:41:37 1066  			       from DEPR_METHOD_SCHEDULE S, SPREAD_FACTOR SF, DEPR_GROUP DG
12:41:37 1067  			       where SF.FACTOR_ID = DG.FACTOR_ID
12:41:37 1068  			       and DG.DEPR_GROUP_ID = STG.DEPR_GROUP_ID
12:41:37 1069  			       and S.DEPR_METHOD_ID = STG.DEPR_METHOD_ID
12:41:37 1070  			       and S.YEAR = TO_NUMBER(TO_CHAR(STG.GL_POSTING_MO_YR, 'yyyy')) - TO_NUMBER(TO_CHAR(stg.ENG_IN_SERVICE_YEAR, 'yyyy')) + 1
12:41:37 1071  		       )
12:41:37 1072  		       where exists
12:41:37 1073  		       (
12:41:37 1074  			       select 1
12:41:37 1075  			       from DEPR_METHOD_SCHEDULE S, SPREAD_FACTOR SF, DEPR_GROUP DG
12:41:37 1076  			       where SF.FACTOR_ID = DG.FACTOR_ID
12:41:37 1077  			       and DG.DEPR_GROUP_ID = STG.DEPR_GROUP_ID
12:41:37 1078  			       and S.DEPR_METHOD_ID = STG.DEPR_METHOD_ID
12:41:37 1079  			       and S.YEAR = TO_NUMBER(TO_CHAR(STG.GL_POSTING_MO_YR, 'yyyy')) - TO_NUMBER(TO_CHAR(stg.ENG_IN_SERVICE_YEAR, 'yyyy')) + 1
12:41:37 1080  		       )
12:41:37 1081  		       and STG.MID_PERIOD_METHOD = 'sch';
12:41:37 1082  
12:41:37 1083  		       PKG_PP_ERROR.REMOVE_MODULE_NAME;
12:41:37 1084  	       exception
12:41:37 1085  		       when others then
12:41:37 1086  			       PKG_PP_ERROR.RAISE_ERROR('ERROR','Failed Operation');
12:41:37 1087  	       end P_BACKFILL;
12:41:37 1088  
12:41:37 1089  	       --**************************************************************************
12:41:37 1090  	       --			     P_BACKFILL_FCST
12:41:37 1091  	       --**************************************************************************
12:41:37 1092  	       procedure P_BACKFILL_FCST
12:41:37 1093  	       is
12:41:37 1094  		       L_STATUS varchar2(254);
12:41:37 1095  	       begin
12:41:37 1096  
12:41:37 1097  		       PKG_PP_ERROR.SET_MODULE_NAME('PKG_DEPR_IND_CALC.P_BACKFILL_FCST');
12:41:37 1098  
12:41:37 1099  		       --estimated_production
12:41:37 1100  		       --production
12:41:37 1101  		       update CPR_DEPR_CALC_STG A
12:41:37 1102  		       set (ESTIMATED_PRODUCTION, PRODUCTION) =
12:41:37 1103  		       (
12:41:37 1104  			       select ESTIMATED_PRODUCTION, PRODUCTION
12:41:37 1105  			       from FCST_DEPR_METHOD_UOP UOP
12:41:37 1106  			       where UOP.FCST_DEPR_METHOD_ID = A.DEPR_METHOD_ID
12:41:37 1107  			       and UOP.SET_OF_BOOKS_ID = A.SET_OF_BOOKS_ID
12:41:37 1108  			       and UOP.GL_POST_MO_YR = A.GL_POSTING_MO_YR
12:41:37 1109  			       and UOP.FCST_DEPR_VERSION_ID = G_VERSION_ID
12:41:37 1110  		       )
12:41:37 1111  		       where exists
12:41:37 1112  		       (
12:41:37 1113  			       select 1
12:41:37 1114  			       from FCST_DEPR_METHOD_UOP UOP
12:41:37 1115  			       where UOP.FCST_DEPR_METHOD_ID = A.DEPR_METHOD_ID
12:41:37 1116  			       and UOP.SET_OF_BOOKS_ID = A.SET_OF_BOOKS_ID
12:41:37 1117  			       and UOP.GL_POST_MO_YR = A.GL_POSTING_MO_YR
12:41:37 1118  			       and UOP.FCST_DEPR_VERSION_ID = G_VERSION_ID
12:41:37 1119  		       )
12:41:37 1120  		       and A.MID_PERIOD_METHOD = 'uopr';
12:41:37 1121  
12:41:37 1122  		       --exists_aro
12:41:37 1123  		       update CPR_DEPR_CALC_STG Y
12:41:37 1124  		       set EXISTS_ARO = 1
12:41:37 1125  		       where exists (select 1 from ARO where ARO.ASSET_ID = Y.ASSET_ID);
12:41:37 1126  
12:41:37 1127  		       --depr_method_sle_exp, how does one FCST lease expense? I think this is ok, but I'm unsure
12:41:37 1128  		       update CPR_DEPR_CALC_STG STG
12:41:37 1129  		       set DEPR_METHOD_SLE_EXP =
12:41:37 1130  		       (
12:41:37 1131  			       select DMS.DEPR_EXPENSE
12:41:37 1132  			       from DEPR_METHOD_SLE DMS
12:41:37 1133  			       where STG.ASSET_ID = DMS.ASSET_ID
12:41:37 1134  			       and STG.SET_OF_BOOKS_ID = DMS.SET_OF_BOOKS_ID
12:41:37 1135  			       and STG.GL_POSTING_MO_YR = DMS.GL_POSTING_MO_YR
12:41:37 1136  		       )
12:41:37 1137  		       where exists
12:41:37 1138  		       (
12:41:37 1139  			       select 1
12:41:37 1140  			       from DEPR_METHOD_SLE DMS
12:41:37 1141  			       where STG.ASSET_ID = DMS.ASSET_ID
12:41:37 1142  			       and STG.SET_OF_BOOKS_ID = DMS.SET_OF_BOOKS_ID
12:41:37 1143  			       and STG.GL_POSTING_MO_YR = DMS.GL_POSTING_MO_YR
12:41:37 1144  		       )
12:41:37 1145  		       and STG.MID_PERIOD_METHOD in ('sle', 'ferc');
12:41:37 1146  
12:41:37 1147  		       PKG_PP_ERROR.REMOVE_MODULE_NAME;
12:41:37 1148  	       exception
12:41:37 1149  		       when others then
12:41:37 1150  			       PKG_PP_ERROR.RAISE_ERROR('ERROR','Failed Operation');
12:41:37 1151  	       end P_BACKFILL_FCST;
12:41:37 1152  
12:41:37 1153  
12:41:37 1154  	       --
12:41:37 1155  	       --      ARCHIVE
12:41:37 1156  	       --
12:41:37 1157  	       procedure P_ARCHIVE
12:41:37 1158  	       is
12:41:37 1159  	       begin
12:41:37 1160  
12:41:37 1161  		       PKG_PP_ERROR.SET_MODULE_NAME('PKG_DEPR_IND_CALC.P_ARCHIVE');
12:41:37 1162  
12:41:37 1163  		       --This only archives subledger -100 rows so it's fine to have it run for all actuals calcs
12:41:37 1164  		       if G_VERSION_ID is null then
12:41:37 1165  			       PKG_PP_CPR_DEPR.P_ARCHIVELEASEDEPR;
12:41:37 1166  		       end if;
12:41:37 1167  
12:41:37 1168  		       -- archive
12:41:37 1169  		       delete from cpr_depr_calc_stg_arc a
12:41:37 1170  		       where exists (
12:41:37 1171  			       select 1
12:41:37 1172  			       from cpr_depr_calc_stg b
12:41:37 1173  			       where b.asset_id = a.asset_id
12:41:37 1174  			       and b.set_of_books_id = a.set_of_books_id
12:41:37 1175  			       and b.gl_posting_mo_yr = a.gl_posting_mo_yr
12:41:37 1176  		       );
12:41:37 1177  
12:41:37 1178  		       -- archive
12:41:37 1179  		       insert into cpr_depr_calc_stg_arc
12:41:37 1180  		       (ASSET_ID, SET_OF_BOOKS_ID, GL_POSTING_MO_YR, TIME_STAMP, USER_ID, INIT_LIFE, REMAINING_LIFE, ESTIMATED_SALVAGE, BEG_ASSET_DOLLARS, NET_ADDS_AND_ADJUST, RETIREMENTS, TRANSFERS_IN, TRANSFERS_OUT, ASSET_DOLLARS, BEG_RESERVE_MONTH, SALVAGE_DOLLARS, RESERVE_ADJUSTMENT, COST_OF_REMOVAL, RESERVE_TRANS_IN, RESERVE_TRANS_OUT, DEPR_EXP_ADJUST, OTHER_CREDITS_AND_ADJUST, GAIN_LOSS, DEPRECIATION_BASE, CURR_DEPR_EXPENSE, DEPR_RESERVE, BEG_RESERVE_YEAR, YTD_DEPR_EXPENSE, YTD_DEPR_EXP_ADJUST, PRIOR_YTD_DEPR_EXPENSE, PRIOR_YTD_DEPR_EXP_ADJUST, ACCT_DISTRIB, MONTH_RATE, COMPANY_ID, MID_PERIOD_METHOD, MID_PERIOD_CONV, DEPR_GROUP_ID, DEPR_EXP_ALLOC_ADJUST, DEPR_METHOD_ID, TRUE_UP_CPR_DEPR, SALVAGE_EXPENSE, SALVAGE_EXP_ADJUST, SALVAGE_EXP_ALLOC_ADJUST, IMPAIRMENT_ASSET_AMOUNT, IMPAIRMENT_EXPENSE_AMOUNT, DEPRECIATION_INDICATOR, END_OF_LIFE, ENG_IN_SERVICE_YEAR, ESTIMATED_PRODUCTION, HAS_CFNU, HAS_NURV, HAS_NURV_LAST_MONTH, NET_GROSS, OVER_DEPR_CHECK, PRODUCTION, RATE, EXISTS_LAST_MONTH, EXISTS_TWO_MONTHS, EXISTS_ARO, EFFECTIVE_DATE, TRF_WEIGHT, DEPR_CALC_MESSAGE, SUBLEDGER_TYPE_ID, DEPR_CALC_STATUS, NET_TRF, NET_RES_TRF, NET_IMP_AMT, ACTIVITY, BEG_RES_AMT, ACTIVITY_3, DEPR_METHOD_SLE_EXP, BEG_BAL_AMT, SCH_RATE, SCH_FACTOR, MIN_MPC, TRUEUP_ADJ, NURV_ADJ, OVER_DEPR_ADJ)
12:41:37 1181  		       select ASSET_ID, SET_OF_BOOKS_ID, GL_POSTING_MO_YR, TIME_STAMP, USER_ID, INIT_LIFE, REMAINING_LIFE, ESTIMATED_SALVAGE, BEG_ASSET_DOLLARS, NET_ADDS_AND_ADJUST, RETIREMENTS, TRANSFERS_IN, TRANSFERS_OUT, ASSET_DOLLARS, BEG_RESERVE_MONTH, SALVAGE_DOLLARS, RESERVE_ADJUSTMENT, COST_OF_REMOVAL, RESERVE_TRANS_IN, RESERVE_TRANS_OUT, DEPR_EXP_ADJUST, OTHER_CREDITS_AND_ADJUST, GAIN_LOSS, DEPRECIATION_BASE, CURR_DEPR_EXPENSE, DEPR_RESERVE, BEG_RESERVE_YEAR, YTD_DEPR_EXPENSE, YTD_DEPR_EXP_ADJUST, PRIOR_YTD_DEPR_EXPENSE, PRIOR_YTD_DEPR_EXP_ADJUST, ACCT_DISTRIB, MONTH_RATE, COMPANY_ID, MID_PERIOD_METHOD, MID_PERIOD_CONV, DEPR_GROUP_ID, DEPR_EXP_ALLOC_ADJUST, DEPR_METHOD_ID, TRUE_UP_CPR_DEPR, SALVAGE_EXPENSE, SALVAGE_EXP_ADJUST, SALVAGE_EXP_ALLOC_ADJUST, IMPAIRMENT_ASSET_AMOUNT, IMPAIRMENT_EXPENSE_AMOUNT, DEPRECIATION_INDICATOR, END_OF_LIFE, ENG_IN_SERVICE_YEAR, ESTIMATED_PRODUCTION, HAS_CFNU, HAS_NURV, HAS_NURV_LAST_MONTH, NET_GROSS, OVER_DEPR_CHECK, PRODUCTION, RATE, EXISTS_LAST_MONTH, EXISTS_TWO_MONTHS, EXISTS_ARO, EFFECTIVE_DATE, TRF_WEIGHT, DEPR_CALC_MESSAGE, SUBLEDGER_TYPE_ID, DEPR_CALC_STATUS, NET_TRF, NET_RES_TRF, NET_IMP_AMT, ACTIVITY, BEG_RES_AMT, ACTIVITY_3, DEPR_METHOD_SLE_EXP, BEG_BAL_AMT, SCH_RATE, SCH_FACTOR, MIN_MPC, TRUEUP_ADJ, NURV_ADJ, OVER_DEPR_ADJ
12:41:37 1182  		       from cpr_depr_calc_stg;
12:41:37 1183  
12:41:37 1184  		       PKG_PP_ERROR.REMOVE_MODULE_NAME;
12:41:37 1185  	       exception
12:41:37 1186  		       when others then
12:41:37 1187  			       PKG_PP_ERROR.RAISE_ERROR('ERROR','Failed Operation');
12:41:37 1188  	       end P_ARCHIVE;
12:41:37 1189  
12:41:37 1190  	       --**************************************************************************
12:41:37 1191  	       --		      P_DEPRCALC
12:41:37 1192  	       --**************************************************************************
12:41:37 1193  	       --
12:41:37 1194  	       --  Start a depr calc for an array of companies and an array of months
12:41:37 1195  	       -- Start Logging
12:41:37 1196  	       -- Load Global Temp Staging table
12:41:37 1197  	       -- Calculate Deprecation
12:41:37 1198  	       -- Backfill results to depr ledger
12:41:37 1199  	       -- End logging
12:41:37 1200  	       --
12:41:37 1201  	       procedure P_DEPRCALC
12:41:37 1202  	       (
12:41:37 1203  		       A_MONTHS 	       PKG_PP_COMMON.DATE_TABTYPE,
12:41:37 1204  		       A_VERSION_ID    FCST_DEPR_VERSION.FCST_DEPR_VERSION_ID%TYPE
12:41:37 1205  	       )
12:41:37 1206  	       is
12:41:37 1207  	       begin
12:41:37 1208  		       PKG_PP_ERROR.SET_MODULE_NAME('PKG_DEPR_IND_CALC.P_DEPRCALC');
12:41:37 1209  		       -- set global variables
12:41:37 1210  		       G_VERSION_ID := A_VERSION_ID;
12:41:37 1211  		       G_MONTHS := A_MONTHS;
12:41:37 1212  
12:41:37 1213  		       if G_VERSION_ID is not null then
12:41:37 1214  			       P_BACKFILL_FCST;
12:41:37 1215  		       else
12:41:37 1216  			       P_BACKFILL;
12:41:37 1217  		       end if;
12:41:37 1218  
12:41:37 1219  		       P_PREPDEPRCALC();
12:41:37 1220  		       P_ARCHIVE();
12:41:37 1221  
12:41:37 1222  		       --
12:41:37 1223  		       --  END LOGGING
12:41:37 1224  		       --
12:41:37 1225  		       PKG_PP_LOG.P_WRITE_MESSAGE('DONE');
12:41:37 1226  		       PKG_PP_ERROR.REMOVE_MODULE_NAME;
12:41:37 1227  	       exception
12:41:37 1228  		       when others then
12:41:37 1229  			       PKG_PP_ERROR.RAISE_ERROR('ERROR','Failed Operation');
12:41:37 1230  	       end P_DEPRCALC;
12:41:37 1231  
12:41:37 1232  	       --**************************************************************************
12:41:37 1233  	       --		      P_DEPRCALC
12:41:37 1234  	       --**************************************************************************
12:41:37 1235  	       --      WRAPPER
12:41:37 1236  	       --
12:41:37 1237  	       procedure P_DEPRCALC
12:41:37 1238  	       (
12:41:37 1239  		       A_MONTHS        PKG_PP_COMMON.DATE_TABTYPE
12:41:38 1240  	       )
12:41:38 1241  	       is
12:41:38 1242  		       L_VERSION       FCST_DEPR_VERSION.FCST_DEPR_VERSION_ID%TYPE;
12:41:38 1243  	       begin
12:41:38 1244  		       --don't register wrappers with the call stack
12:41:38 1245  		       L_VERSION       := null;
12:41:38 1246  
12:41:38 1247  		       P_DEPRCALC(A_MONTHS, L_VERSION);
12:41:38 1248  	       end P_DEPRCALC;
12:41:38 1249  
12:41:38 1250  	       --**************************************************************************
12:41:38 1251  	       --		      P_DEPRCALC
12:41:38 1252  	       --**************************************************************************
12:41:38 1253  	       --
12:41:38 1254  	       -- WRAPPER for the start depr calc to allow single month depr calculations
12:41:38 1255  	       --
12:41:38 1256  	       procedure P_DEPRCALC
12:41:38 1257  	       (
12:41:38 1258  		       A_MONTH	       date
12:41:38 1259  	       )
12:41:38 1260  	       is
12:41:38 1261  		       L_MONTHS        PKG_PP_COMMON.DATE_TABTYPE;
12:41:38 1262  		       L_VERSION       FCST_DEPR_VERSION.FCST_DEPR_VERSION_ID%TYPE;
12:41:38 1263  	       begin
12:41:38 1264  		       --don't register wrappers with the call stack
12:41:38 1265  		       L_MONTHS(1) := A_MONTH;
12:41:38 1266  		       L_VERSION       := null;
12:41:38 1267  
12:41:38 1268  		       P_DEPRCALC(L_MONTHS, L_VERSION);
12:41:38 1269  
12:41:38 1270  	       end P_DEPRCALC;
12:41:38 1271  
12:41:38 1272  	       --**************************************************************************
12:41:38 1273  	       --			     P_FCSTDEPR
12:41:38 1274  	       --**************************************************************************
12:41:38 1275  	       --
12:41:38 1276  	       -- WRAPPER for the fcst depr calc to allow single month depr calculations
12:41:38 1277  	       --
12:41:38 1278  	       procedure P_DEPRCALC
12:41:38 1279  	       (
12:41:38 1280  		       A_MONTH		       date,
12:41:38 1281  		       A_VERSION_ID    FCST_DEPR_VERSION.FCST_DEPR_VERSION_ID%TYPE
12:41:38 1282  	       )
12:41:38 1283  	       is
12:41:38 1284  		       L_MONTHS PKG_PP_COMMON.DATE_TABTYPE;
12:41:38 1285  	       begin
12:41:38 1286  		       --don't register wrappers with the callstack
12:41:38 1287  		       L_MONTHS(1) := A_MONTH;
12:41:38 1288  		       P_DEPRCALC(L_MONTHS, A_VERSION_ID);
12:41:38 1289  	       end P_DEPRCALC;
12:41:38 1290  
12:41:38 1291  end PKG_DEPR_IND_CALC;
12:41:38 1292  /

Package body created.

12:41:38 hopplant> 
12:41:38 hopplant> --**************************
12:41:38 hopplant> -- Log the run of the script
12:41:38 hopplant> --**************************
12:41:38 hopplant> 
12:41:38 hopplant> insert into PP_SCHEMA_CHANGE_LOG
12:41:38   2  	 (ID, SKIPPED, MAJOR_VERSION, MINOR_VERSION, POINT_VERSION, PATCH_VERSION, MAINT_NUM, SCRIPT_PATH,
12:41:38   3  	  SCRIPT_NAME, SCRIPT_REVISION, DATE_APPLIED, OS_USER, TERMINAL, SERVICE_NAME)
12:41:38   4  values
12:41:38   5  	 (1084, 0, 10, 4, 2, 0, 37397, 'C:\PlasticWks\powerplant\sql\maint_scripts', '10.4.2.0_maint_037397_depr_PKG_DEPR_IND_CALC.sql', 1,
12:41:38   6  	  SYSTIMESTAMP, SYS_CONTEXT('USERENV', 'OS_USER'), SYS_CONTEXT('USERENV', 'TERMINAL'),
12:41:38   7  	  SYS_CONTEXT('USERENV', 'SERVICE_NAME'));

1 row created.

12:41:38 hopplant> commit;

Commit complete.

12:41:38 hopplant> SPOOL OFF
